(footprint "691312410008"
	(version 20240108)
	(generator "pcbnew")
	(generator_version "8.0")
	(layer "F.Cu")
	(descr "8-pin 7.62mm 3124 series Open Horizontal PCB Header")
	(property "Reference" "691312410008"
		(at 0 3.8 0)
		(unlocked yes)
		(layer "F.Fab")
		(uuid "d5f89844-8ff5-4497-9f3e-46d12ac1df44")
		(effects
			(font
				(size 1.2 1.2)
				(thickness 0.12)
			)
		)
	)
	(property "Value" "691312410008"
		(at 0 3.8 0)
		(unlocked yes)
		(layer "F.Fab")
		(hide yes)
		(uuid "71d510ca-f85a-460c-ac0b-a590bcd6bc5d")
		(effects
			(font
				(size 1.2 1.2)
				(thickness 0.12)
			)
		)
	)
	(property "Footprint" ""
		(at 0 0 0)
		(unlocked yes)
		(layer "F.Fab")
		(hide yes)
		(uuid "61b8fc53-1bed-43da-bc6b-79444c3d143a")
		(effects
			(font
				(size 1.27 1.27)
				(thickness 0.15)
			)
		)
	)
	(property "Datasheet" ""
		(at 0 0 0)
		(unlocked yes)
		(layer "F.Fab")
		(hide yes)
		(uuid "41c1f3dc-c7ac-43dc-be9e-6083426b55b4")
		(effects
			(font
				(size 1.27 1.27)
				(thickness 0.15)
			)
		)
	)
	(property "Description" ""
		(at 0 0 0)
		(unlocked yes)
		(layer "F.Fab")
		(hide yes)
		(uuid "e6e7ee32-5fa8-45d3-92bf-3ff45fd85171")
		(effects
			(font
				(size 1.27 1.27)
				(thickness 0.15)
			)
		)
	)
	(attr through_hole)
	(fp_line
		(start -29.7 10.1)
		(end -29.7 -2.1)
		(stroke
			(width 0.12)
			(type default)
		)
		(layer "F.SilkS")
		(uuid "c59eaa82-88d9-4a70-8b4a-3a2c83704b53")
	)
	(fp_line
		(start -27.25 -2.1)
		(end -29.7 -2.1)
		(stroke
			(width 0.12)
			(type solid)
		)
		(layer "F.SilkS")
		(uuid "fadbd8f3-484a-42d4-9270-977b9b900efd")
	)
	(fp_line
		(start -26.05 -2.1)
		(end 29.7 -2.1)
		(stroke
			(width 0.12)
			(type solid)
		)
		(layer "F.SilkS")
		(uuid "04449119-8849-42d2-96de-68b2384e9163")
	)
	(fp_line
		(start 29.7 -2.1)
		(end 29.7 10.1)
		(stroke
			(width 0.12)
			(type default)
		)
		(layer "F.SilkS")
		(uuid "a38a9153-de61-4bbc-ac24-a7f2b3a1039c")
	)
	(fp_line
		(start 29.7 10.1)
		(end -29.7 10.1)
		(stroke
			(width 0.12)
			(type default)
		)
		(layer "F.SilkS")
		(uuid "10e44d43-3209-4644-8f1e-41022c2bce68")
	)
	(fp_circle
		(center -26.65 -2.5)
		(end -26.25 -2.5)
		(stroke
			(width 0.12)
			(type solid)
		)
		(fill solid)
		(layer "F.SilkS")
		(uuid "50eaec36-69ac-41c3-ac97-0a7fbe630e45")
	)
	(fp_rect
		(start -30.2 -2.6)
		(end 30.2 10.1)
		(stroke
			(width 0.01)
			(type default)
		)
		(fill none)
		(layer "F.CrtYd")
		(uuid "47ed4d55-2b71-47f2-af4e-fd4ab9053040")
	)
	(fp_line
		(start -28.7 10.1)
		(end -29.7 9.1)
		(stroke
			(width 0.1)
			(type default)
		)
		(layer "F.Fab")
		(uuid "43d8488f-4b6a-4712-ad7f-7d08ec7ed709")
	)
	(fp_rect
		(start -29.7 -2.1)
		(end 29.7 10.1)
		(stroke
			(width 0.1)
			(type default)
		)
		(fill none)
		(layer "F.Fab")
		(uuid "25bfbd8c-4c4e-470b-a161-a6c0270feb12")
	)
	(fp_text user "${REFERENCE}"
		(at 0 -2.75 0)
		(unlocked yes)
		(layer "F.SilkS")
		(uuid "4016d370-6f09-4152-8abe-2c4d8d4ca99a")
		(effects
			(font
				(size 0.8 0.8)
				(thickness 0.15)
			)
		)
	)
	(pad "1" thru_hole circle
		(at -26.67 0)
		(size 2.6 2.6)
		(drill 1.6)
		(layers "*.Cu" "*.Mask")
		(remove_unused_layers no)
		(uuid "c4e7ed06-f9f9-45c7-94b5-e106d2bd019b")
	)
	(pad "2" thru_hole circle
		(at -19.05 0)
		(size 2.6 2.6)
		(drill 1.6)
		(layers "*.Cu" "*.Mask")
		(remove_unused_layers no)
		(uuid "01b99775-af10-4caf-9317-d3ab643c949c")
	)
	(pad "3" thru_hole circle
		(at -11.43 0)
		(size 2.6 2.6)
		(drill 1.6)
		(layers "*.Cu" "*.Mask")
		(remove_unused_layers no)
		(uuid "b1ee82dc-aa2a-472b-8751-1ed782401000")
	)
	(pad "4" thru_hole circle
		(at -3.81 0)
		(size 2.6 2.6)
		(drill 1.6)
		(layers "*.Cu" "*.Mask")
		(remove_unused_layers no)
		(uuid "607d0c1e-1e9c-4b3d-ab4d-bcf1d14ce67d")
	)
	(pad "5" thru_hole circle
		(at 3.81 0)
		(size 2.6 2.6)
		(drill 1.6)
		(layers "*.Cu" "*.Mask")
		(remove_unused_layers no)
		(uuid "01de2dfe-8f7a-46b0-ad4c-1e810b43b5a3")
	)
	(pad "6" thru_hole circle
		(at 11.43 0)
		(size 2.6 2.6)
		(drill 1.6)
		(layers "*.Cu" "*.Mask")
		(remove_unused_layers no)
		(uuid "ff8ad2d6-26e5-4ddf-a0e1-e8bb80b96a50")
	)
	(pad "7" thru_hole circle
		(at 19.05 0)
		(size 2.6 2.6)
		(drill 1.6)
		(layers "*.Cu" "*.Mask")
		(remove_unused_layers no)
		(uuid "2f0f45d7-fb75-4fb2-a0b3-1a4a7288787a")
	)
	(pad "8" thru_hole circle
		(at 26.67 0)
		(size 2.6 2.6)
		(drill 1.6)
		(layers "*.Cu" "*.Mask")
		(remove_unused_layers no)
		(uuid "18962690-d34a-4abb-8f77-7cda83bd80a2")
	)
	(model ":KICAD6_3DMODEL_DIR:WE/WR-TBL-691312410008.wrl"
		(offset
			(xyz 0 0 0)
		)
		(scale
			(xyz 1 1 1)
		)
		(rotate
			(xyz 0 0 0)
		)
	)
)
