(module "Eikon-BLUEMORE500" (layer F.Cu) (tedit 5E3863B2)
  (descr "Bluetooth Module")
  (attr smd)
  (fp_text reference "BLUEMORE500" (at 0 0) (layer F.Fab)
    (effects (font (size 1.2 1.2) (thickness 0.12)))
  )
  (fp_text value "BLUEMORE500" (at 0 0) (layer F.Fab) hide
    (effects (font (size 1.2 1.2) (thickness 0.12)))
  )
  (fp_line (start -13.8 5.4) (end -13.8 -22.2) (layer F.Fab) (width 0.12))
  (fp_line (start 13.8 5.4) (end -13.8 5.4) (layer F.Fab) (width 0.12))
  (fp_line (start 13.8 -22.2) (end 13.8 5.4) (layer F.Fab) (width 0.12))
  (fp_line (start -13.8 -22.2) (end 13.8 -22.2) (layer F.Fab) (width 0.12))
  (fp_line (start -12.7 -21.1) (end -12.7 -15.385) (layer F.Fab) (width 0.12))
  (fp_line (start -12.7 -21.1) (end 12.7 -21.1) (layer F.Fab) (width 0.12))
  (fp_line (start -6.35 -21.1) (end -6.35 -17.925) (layer F.Fab) (width 0.12))
  (fp_line (start 24 -32.4) (end 24 -5.4) (layer Cmts.User) (width 0.12))
  (fp_line (start -24 -32.4) (end 24 -32.4) (layer Cmts.User) (width 0.12))
  (fp_line (start -24 -5.4) (end -24 -32.4) (layer Cmts.User) (width 0.12))
  (fp_line (start 24 -5.4) (end -24 -5.4) (layer Cmts.User) (width 0.12))
  (fp_line (start -24 -5.4) (end 3 -32.4) (layer Cmts.User) (width 0.12))
  (fp_line (start -24 -10.4) (end -2 -32.4) (layer Cmts.User) (width 0.12))
  (fp_line (start -7 -32.4) (end -24 -15.4) (layer Cmts.User) (width 0.12))
  (fp_line (start -24 -20.4) (end -12 -32.4) (layer Cmts.User) (width 0.12))
  (fp_line (start -17 -32.4) (end -24 -25.4) (layer Cmts.User) (width 0.12))
  (fp_line (start -24 -30.4) (end -22 -32.4) (layer Cmts.User) (width 0.12))
  (fp_line (start -19 -5.4) (end 8 -32.4) (layer Cmts.User) (width 0.12))
  (fp_line (start 13 -32.4) (end -14 -5.4) (layer Cmts.User) (width 0.12))
  (fp_line (start -9 -5.4) (end 18 -32.4) (layer Cmts.User) (width 0.12))
  (fp_line (start 23 -32.4) (end -4 -5.4) (layer Cmts.User) (width 0.12))
  (fp_line (start 1 -5.4) (end 24 -28.4) (layer Cmts.User) (width 0.12))
  (fp_line (start 24 -23.4) (end 6 -5.4) (layer Cmts.User) (width 0.12))
  (fp_line (start 11 -5.4) (end 24 -18.4) (layer Cmts.User) (width 0.12))
  (fp_line (start 24 -13.4) (end 16 -5.4) (layer Cmts.User) (width 0.12))
  (fp_line (start 21 -5.4) (end 24 -8.4) (layer Cmts.User) (width 0.12))
  (fp_line (start 13.55 2.1) (end -13.55 2.1) (layer F.CrtYd) (width 0.01))
  (fp_line (start 13.55 -2.15) (end 13.55 2.1) (layer F.CrtYd) (width 0.01))
  (fp_line (start -13.55 -2.15) (end 13.55 -2.15) (layer F.CrtYd) (width 0.01))
  (fp_line (start -13.55 2.1) (end -13.55 -2.15) (layer F.CrtYd) (width 0.01))
  (fp_line (start 13.462 -2.05) (end 13.462 2.014) (layer F.SilkS) (width 0.12))
  (fp_line (start -13.462 -2.05) (end 13.462 -2.05) (layer F.SilkS) (width 0.12))
  (fp_line (start -13.462 2.014) (end -13.462 -2.05) (layer F.SilkS) (width 0.12))
  (fp_circle (center -12.7 1.252) (end -12.7 1.506) (layer F.SilkS) (width 0.12))
  (fp_line (start -12.0904 3.2332) (end -12.7 2.014) (layer F.SilkS) (width 0.12))
  (fp_line (start -13.3096 3.2332) (end -12.0904 3.2332) (layer F.SilkS) (width 0.12))
  (fp_line (start -12.7 2.014) (end -13.3096 3.2332) (layer F.SilkS) (width 0.12))
  (fp_line (start -13.3096 2.014) (end -13.462 2.014) (layer F.SilkS) (width 0.12))
  (fp_line (start -12.0904 2.014) (end 13.462 2.014) (layer F.SilkS) (width 0.12))
)
