(footprint "Telecontrolli-RT5-XXX"
	(version 20240108)
	(generator "pcbnew")
	(generator_version "8.0")
	(layer "F.Cu")
	(descr "Radio Transmitter Module")
	(property "Reference" "RT5-XXX"
		(at 0 0 0)
		(layer "F.Fab")
		(uuid "2d2be90c-41be-4986-af2f-41903c26eb70")
		(effects
			(font
				(size 1.2 1.2)
				(thickness 0.12)
			)
		)
	)
	(property "Value" "RT5-XXX"
		(at 0 0 0)
		(layer "F.Fab")
		(hide yes)
		(uuid "9755c2fd-1095-43c6-8eac-de39c796d969")
		(effects
			(font
				(size 1.2 1.2)
				(thickness 0.12)
			)
		)
	)
	(property "Footprint" ""
		(at 0 0 0)
		(layer "F.Fab")
		(hide yes)
		(uuid "b5073e9f-81bb-47bf-b353-8a61c6c526c9")
		(effects
			(font
				(size 1.27 1.27)
				(thickness 0.15)
			)
		)
	)
	(property "Datasheet" ""
		(at 0 0 0)
		(layer "F.Fab")
		(hide yes)
		(uuid "bef9cfc4-8841-4d57-97e7-db1574fa583a")
		(effects
			(font
				(size 1.27 1.27)
				(thickness 0.15)
			)
		)
	)
	(property "Description" ""
		(at 0 0 0)
		(layer "F.Fab")
		(hide yes)
		(uuid "6aea4b4c-e61f-4284-abc6-13f561483a1a")
		(effects
			(font
				(size 1.27 1.27)
				(thickness 0.15)
			)
		)
	)
	(attr through_hole)
	(fp_rect
		(start -9 -1)
		(end 9 -0.7)
		(stroke
			(width 0.12)
			(type solid)
		)
		(fill none)
		(layer "F.SilkS")
		(uuid "4524f836-631b-4901-a5e0-f918853832d5")
	)
	(fp_rect
		(start -9.5 -1.5)
		(end 9.5 0.65)
		(stroke
			(width 0.01)
			(type solid)
		)
		(fill none)
		(layer "F.CrtYd")
		(uuid "9db9a396-2b82-46e0-b153-c7f288b4a38b")
	)
	(fp_rect
		(start -9 -1)
		(end 9 -0.7)
		(stroke
			(width 0.1)
			(type default)
		)
		(fill none)
		(layer "F.Fab")
		(uuid "2087eb95-2655-4121-9936-efc8a50a105f")
	)
	(pad "1" thru_hole circle
		(at -7.62 0)
		(size 0.9 0.9)
		(drill 0.6)
		(layers "*.Cu" "*.Mask")
		(remove_unused_layers no)
		(uuid "34079cfb-ea35-4e7d-862f-e7f04d98d570")
	)
	(pad "2" thru_hole circle
		(at -5.08 0)
		(size 0.9 0.9)
		(drill 0.6)
		(layers "*.Cu" "*.Mask")
		(remove_unused_layers no)
		(uuid "bf59e00f-21d6-4119-bbeb-54b609550b65")
	)
	(pad "6" thru_hole circle
		(at 5.08 0)
		(size 0.9 0.9)
		(drill 0.6)
		(layers "*.Cu" "*.Mask")
		(remove_unused_layers no)
		(uuid "6b493613-5bc1-4ea0-8673-e0e51e0288a6")
	)
	(pad "7" thru_hole circle
		(at 7.62 0)
		(size 0.9 0.9)
		(drill 0.6)
		(layers "*.Cu" "*.Mask")
		(remove_unused_layers no)
		(uuid "22359182-5025-49f2-9973-2c757a7dd73d")
	)
)
