(footprint "5566-08"
	(version 20240108)
	(generator "pcbnew")
	(generator_version "8.0")
	(layer "F.Cu")
	(descr "MiniFIT 4.2 Header 2×4 pins")
	(property "Reference" "5566-08"
		(at 0 0 0)
		(layer "F.Fab")
		(uuid "388790eb-6e6d-4a4c-a626-8d89362027fc")
		(effects
			(font
				(size 1.2 1.2)
				(thickness 0.12)
			)
		)
	)
	(property "Value" "5566-08"
		(at 0 0 0)
		(layer "F.Fab")
		(hide yes)
		(uuid "fa1d42f6-ea83-486d-85d6-dfaa20b3f71f")
		(effects
			(font
				(size 1.2 1.2)
				(thickness 0.12)
			)
		)
	)
	(property "Footprint" ""
		(at 0 0 0)
		(layer "F.Fab")
		(hide yes)
		(uuid "dbb19e3b-cc97-4a47-80f1-c5c0b6da199f")
		(effects
			(font
				(size 1.27 1.27)
				(thickness 0.15)
			)
		)
	)
	(property "Datasheet" ""
		(at 0 0 0)
		(layer "F.Fab")
		(hide yes)
		(uuid "c164970e-a2e4-4f1a-8d83-bd510303d88a")
		(effects
			(font
				(size 1.27 1.27)
				(thickness 0.15)
			)
		)
	)
	(property "Description" ""
		(at 0 0 0)
		(layer "F.Fab")
		(hide yes)
		(uuid "9807670d-8fce-46ec-9e4f-bb45f649f13d")
		(effects
			(font
				(size 1.27 1.27)
				(thickness 0.15)
			)
		)
	)
	(attr through_hole)
	(fp_line
		(start -9.2 -4.6)
		(end -9.2 5.2)
		(stroke
			(width 0.12)
			(type default)
		)
		(layer "F.SilkS")
		(uuid "3230b8a1-0662-4a73-9808-221abcee8502")
	)
	(fp_line
		(start -9.2 5.2)
		(end 5.7 5.2)
		(stroke
			(width 0.12)
			(type default)
		)
		(layer "F.SilkS")
		(uuid "bca76e2a-2dba-4bed-a1fd-946db393e65d")
	)
	(fp_line
		(start -1.8 -6.2)
		(end 1.8 -6.2)
		(stroke
			(width 0.12)
			(type default)
		)
		(layer "F.SilkS")
		(uuid "04fa27c5-9844-45b4-a0ac-6fa7045d5fe7")
	)
	(fp_line
		(start -1.8 -4.6)
		(end -1.8 -6.2)
		(stroke
			(width 0.12)
			(type default)
		)
		(layer "F.SilkS")
		(uuid "71b8f1b6-6523-496a-a453-44ea469eacf9")
	)
	(fp_line
		(start 1.8 -6.2)
		(end 1.8 -4.6)
		(stroke
			(width 0.12)
			(type default)
		)
		(layer "F.SilkS")
		(uuid "bffc88b6-a487-40ac-8277-5cc3d2b20379")
	)
	(fp_line
		(start 6.9 5.2)
		(end 9.2 5.2)
		(stroke
			(width 0.12)
			(type default)
		)
		(layer "F.SilkS")
		(uuid "8103db7a-9603-4f8e-85ca-63068fd350bb")
	)
	(fp_line
		(start 9.2 -4.6)
		(end -9.2 -4.6)
		(stroke
			(width 0.12)
			(type default)
		)
		(layer "F.SilkS")
		(uuid "a872d43f-3cf3-44b3-a266-737a1aec4ad2")
	)
	(fp_line
		(start 9.2 5.2)
		(end 9.2 -4.6)
		(stroke
			(width 0.12)
			(type default)
		)
		(layer "F.SilkS")
		(uuid "03fd11e4-767b-4ab5-9f8f-f91c16128f35")
	)
	(fp_circle
		(center 6.3 5.6)
		(end 6.7 5.6)
		(stroke
			(width 0.12)
			(type solid)
		)
		(fill solid)
		(layer "F.SilkS")
		(uuid "0beedf36-f221-4689-b66b-0aaa109ac28c")
	)
	(fp_line
		(start -9.7 -5.1)
		(end -9.7 5.7)
		(stroke
			(width 0.01)
			(type default)
		)
		(layer "F.CrtYd")
		(uuid "9c66b8fa-5170-4493-a657-0a29976bff41")
	)
	(fp_line
		(start -9.7 5.7)
		(end 9.7 5.7)
		(stroke
			(width 0.01)
			(type default)
		)
		(layer "F.CrtYd")
		(uuid "77054cd8-a364-436f-8335-b1b20e206dbe")
	)
	(fp_line
		(start -2.3 -6.7)
		(end -2.3 -5.1)
		(stroke
			(width 0.01)
			(type default)
		)
		(layer "F.CrtYd")
		(uuid "ec12afeb-ba81-482e-ba8d-599b5a9912ec")
	)
	(fp_line
		(start -2.3 -5.1)
		(end -9.7 -5.1)
		(stroke
			(width 0.01)
			(type default)
		)
		(layer "F.CrtYd")
		(uuid "8f982c07-9ecf-4081-9035-0477028c238e")
	)
	(fp_line
		(start 2.3 -6.7)
		(end -2.3 -6.7)
		(stroke
			(width 0.01)
			(type default)
		)
		(layer "F.CrtYd")
		(uuid "0e786829-cdc7-4b00-9f15-126f278c55df")
	)
	(fp_line
		(start 2.3 -5.1)
		(end 2.3 -6.7)
		(stroke
			(width 0.01)
			(type default)
		)
		(layer "F.CrtYd")
		(uuid "9d005df2-742e-4e18-b66b-70b5ad516f79")
	)
	(fp_line
		(start 9.7 -5.1)
		(end 2.3 -5.1)
		(stroke
			(width 0.01)
			(type default)
		)
		(layer "F.CrtYd")
		(uuid "2da8ba88-7d1b-4356-92f0-c1f6d0e01aa9")
	)
	(fp_line
		(start 9.7 5.7)
		(end 9.7 -5.1)
		(stroke
			(width 0.01)
			(type default)
		)
		(layer "F.CrtYd")
		(uuid "8443d058-5ea8-47e4-83c8-44c6929d10f1")
	)
	(fp_line
		(start -1.8 -6.2)
		(end 1.8 -6.2)
		(stroke
			(width 0.1)
			(type solid)
		)
		(layer "F.Fab")
		(uuid "37f3d979-b63b-40b0-a730-af181cc88ff9")
	)
	(fp_line
		(start -1.8 -4.6)
		(end -1.8 -6.2)
		(stroke
			(width 0.1)
			(type solid)
		)
		(layer "F.Fab")
		(uuid "a20d149a-066e-44e8-aada-abb9d0bcd7ab")
	)
	(fp_line
		(start 1.8 -6.2)
		(end 1.8 -4.6)
		(stroke
			(width 0.1)
			(type solid)
		)
		(layer "F.Fab")
		(uuid "7175432b-b994-4ecd-972d-d841a699a14c")
	)
	(fp_line
		(start 9.2 4.2)
		(end 8.2 5.2)
		(stroke
			(width 0.1)
			(type solid)
		)
		(layer "F.Fab")
		(uuid "6a895432-560c-4f6d-8ff8-35bc921fff2a")
	)
	(fp_rect
		(start -9.2 -4.6)
		(end 9.2 5.2)
		(stroke
			(width 0.1)
			(type solid)
		)
		(fill none)
		(layer "F.Fab")
		(uuid "e24b44dc-e3e4-45cd-9571-d893dab0a2f0")
	)
	(fp_text user "${REFERENCE}"
		(at 0 -6.85 0)
		(layer "F.SilkS")
		(uuid "aab221b7-65b2-4202-b915-7311ccc5d0ea")
		(effects
			(font
				(size 0.8 0.8)
				(thickness 0.15)
				(bold yes)
			)
		)
	)
	(pad "1" thru_hole circle
		(at 6.3 2.75)
		(size 2.1 2.1)
		(drill 1.4)
		(layers "*.Cu" "*.Mask")
		(remove_unused_layers no)
		(uuid "8d7fb2a8-519b-44f5-9ad0-1289ac87c41e")
	)
	(pad "2" thru_hole circle
		(at 2.1 2.75)
		(size 2.1 2.1)
		(drill 1.4)
		(layers "*.Cu" "*.Mask")
		(remove_unused_layers no)
		(uuid "48adbe22-1213-4b65-978a-97f8114e6e3d")
	)
	(pad "3" thru_hole circle
		(at -2.1 2.75)
		(size 2.1 2.1)
		(drill 1.4)
		(layers "*.Cu" "*.Mask")
		(remove_unused_layers no)
		(uuid "a3cbef4a-c50a-4075-ab2a-b55598464037")
	)
	(pad "4" thru_hole circle
		(at -6.3 2.75)
		(size 2.1 2.1)
		(drill 1.4)
		(layers "*.Cu" "*.Mask")
		(remove_unused_layers no)
		(uuid "037031af-591a-4eb4-b59e-d9c25aac0420")
	)
	(pad "5" thru_hole circle
		(at 6.3 -2.75)
		(size 2.1 2.1)
		(drill 1.4)
		(layers "*.Cu" "*.Mask")
		(remove_unused_layers no)
		(uuid "f0dd6891-b088-4625-9dfb-e147ecb18767")
	)
	(pad "6" thru_hole circle
		(at 2.1 -2.75)
		(size 2.1 2.1)
		(drill 1.4)
		(layers "*.Cu" "*.Mask")
		(remove_unused_layers no)
		(uuid "2de41820-fbb8-481b-8c56-d4c572a15214")
	)
	(pad "7" thru_hole circle
		(at -2.1 -2.75)
		(size 2.1 2.1)
		(drill 1.4)
		(layers "*.Cu" "*.Mask")
		(remove_unused_layers no)
		(uuid "52d123b2-7be3-488c-847e-441bd135ff70")
	)
	(pad "8" thru_hole circle
		(at -6.3 -2.75)
		(size 2.1 2.1)
		(drill 1.4)
		(layers "*.Cu" "*.Mask")
		(remove_unused_layers no)
		(uuid "d78afc1d-3fc0-4a07-9fac-fed023e012c3")
	)
	(model "${KICAD8_3DMODEL_DIR}/MiniFIT/5566-08.wrl"
		(offset
			(xyz 0 0 0)
		)
		(scale
			(xyz 1 1 1)
		)
		(rotate
			(xyz 0 0 0)
		)
	)
)
