(footprint "5566-22"
	(version 20240108)
	(generator "pcbnew")
	(generator_version "8.0")
	(layer "F.Cu")
	(descr "MiniFIT 4.2 Header 2×11 pins")
	(property "Reference" "5566-22"
		(at 0 0 0)
		(layer "F.Fab")
		(uuid "388790eb-6e6d-4a4c-a626-8d89362027fc")
		(effects
			(font
				(size 1.2 1.2)
				(thickness 0.12)
			)
		)
	)
	(property "Value" "5566-22"
		(at 0 0 0)
		(layer "F.Fab")
		(hide yes)
		(uuid "fa1d42f6-ea83-486d-85d6-dfaa20b3f71f")
		(effects
			(font
				(size 1.2 1.2)
				(thickness 0.12)
			)
		)
	)
	(property "Footprint" ""
		(at 19 0 0)
		(layer "F.Fab")
		(hide yes)
		(uuid "dbb19e3b-cc97-4a47-80f1-c5c0b6da199f")
		(effects
			(font
				(size 1.27 1.27)
				(thickness 0.15)
			)
		)
	)
	(property "Datasheet" ""
		(at 19 0 0)
		(layer "F.Fab")
		(hide yes)
		(uuid "c164970e-a2e4-4f1a-8d83-bd510303d88a")
		(effects
			(font
				(size 1.27 1.27)
				(thickness 0.15)
			)
		)
	)
	(property "Description" ""
		(at 19 0 0)
		(layer "F.Fab")
		(hide yes)
		(uuid "9807670d-8fce-46ec-9e4f-bb45f649f13d")
		(effects
			(font
				(size 1.27 1.27)
				(thickness 0.15)
			)
		)
	)
	(attr through_hole)
	(fp_line
		(start -24 -4.8)
		(end -24 5.2)
		(stroke
			(width 0.12)
			(type default)
		)
		(layer "F.SilkS")
		(uuid "3230b8a1-0662-4a73-9808-221abcee8502")
	)
	(fp_line
		(start -24 5.2)
		(end 20.5 5.2)
		(stroke
			(width 0.12)
			(type default)
		)
		(layer "F.SilkS")
		(uuid "bca76e2a-2dba-4bed-a1fd-946db393e65d")
	)
	(fp_line
		(start -1.7 -6.2)
		(end 1.9 -6.2)
		(stroke
			(width 0.12)
			(type default)
		)
		(layer "F.SilkS")
		(uuid "04fa27c5-9844-45b4-a0ac-6fa7045d5fe7")
	)
	(fp_line
		(start -1.7 -4.8)
		(end -1.7 -6.2)
		(stroke
			(width 0.12)
			(type default)
		)
		(layer "F.SilkS")
		(uuid "71b8f1b6-6523-496a-a453-44ea469eacf9")
	)
	(fp_line
		(start 1.9 -6.2)
		(end 1.9 -4.8)
		(stroke
			(width 0.12)
			(type default)
		)
		(layer "F.SilkS")
		(uuid "bffc88b6-a487-40ac-8277-5cc3d2b20379")
	)
	(fp_line
		(start 21.7 5.2)
		(end 24 5.2)
		(stroke
			(width 0.12)
			(type default)
		)
		(layer "F.SilkS")
		(uuid "8103db7a-9603-4f8e-85ca-63068fd350bb")
	)
	(fp_line
		(start 24 -4.8)
		(end -24 -4.8)
		(stroke
			(width 0.12)
			(type default)
		)
		(layer "F.SilkS")
		(uuid "a872d43f-3cf3-44b3-a266-737a1aec4ad2")
	)
	(fp_line
		(start 24 5.2)
		(end 24 -4.8)
		(stroke
			(width 0.12)
			(type default)
		)
		(layer "F.SilkS")
		(uuid "03fd11e4-767b-4ab5-9f8f-f91c16128f35")
	)
	(fp_circle
		(center 21.1 5.6)
		(end 21.5 5.6)
		(stroke
			(width 0.12)
			(type solid)
		)
		(fill solid)
		(layer "F.SilkS")
		(uuid "1e91c29e-82af-44c1-950f-4cb029d10e8b")
	)
	(fp_line
		(start -24.5 5.7)
		(end -24.5 -5.3)
		(stroke
			(width 0.01)
			(type default)
		)
		(layer "F.CrtYd")
		(uuid "64904036-c52f-4471-bea9-f7080487a40a")
	)
	(fp_line
		(start -24.5 5.7)
		(end 24.5 5.7)
		(stroke
			(width 0.01)
			(type default)
		)
		(layer "F.CrtYd")
		(uuid "77054cd8-a364-436f-8335-b1b20e206dbe")
	)
	(fp_line
		(start -2.2 -5.3)
		(end -24.5 -5.3)
		(stroke
			(width 0.01)
			(type default)
		)
		(layer "F.CrtYd")
		(uuid "8f982c07-9ecf-4081-9035-0477028c238e")
	)
	(fp_line
		(start -2.2 -5.3)
		(end -2.2 -6.7)
		(stroke
			(width 0.01)
			(type default)
		)
		(layer "F.CrtYd")
		(uuid "e3f71f54-63bd-4e24-819d-b86d9306e53f")
	)
	(fp_line
		(start 2.4 -6.7)
		(end -2.2 -6.7)
		(stroke
			(width 0.01)
			(type default)
		)
		(layer "F.CrtYd")
		(uuid "0e786829-cdc7-4b00-9f15-126f278c55df")
	)
	(fp_line
		(start 2.4 -6.7)
		(end 2.4 -5.3)
		(stroke
			(width 0.01)
			(type default)
		)
		(layer "F.CrtYd")
		(uuid "65f0c872-bbd6-48cc-9bea-f9a1360fc84d")
	)
	(fp_line
		(start 24.5 -5.3)
		(end 2.4 -5.3)
		(stroke
			(width 0.01)
			(type default)
		)
		(layer "F.CrtYd")
		(uuid "2da8ba88-7d1b-4356-92f0-c1f6d0e01aa9")
	)
	(fp_line
		(start 24.5 5.7)
		(end 24.5 -5.3)
		(stroke
			(width 0.01)
			(type default)
		)
		(layer "F.CrtYd")
		(uuid "9524c4b4-3b28-47bd-855a-1d643794763e")
	)
	(fp_line
		(start -1.7 -6.2)
		(end 1.9 -6.2)
		(stroke
			(width 0.1)
			(type solid)
		)
		(layer "F.Fab")
		(uuid "37f3d979-b63b-40b0-a730-af181cc88ff9")
	)
	(fp_line
		(start -1.7 -4.8)
		(end -1.7 -6.2)
		(stroke
			(width 0.1)
			(type solid)
		)
		(layer "F.Fab")
		(uuid "a20d149a-066e-44e8-aada-abb9d0bcd7ab")
	)
	(fp_line
		(start 1.9 -6.2)
		(end 1.9 -4.8)
		(stroke
			(width 0.1)
			(type solid)
		)
		(layer "F.Fab")
		(uuid "7175432b-b994-4ecd-972d-d841a699a14c")
	)
	(fp_line
		(start 24 4.2)
		(end 23 5.2)
		(stroke
			(width 0.1)
			(type solid)
		)
		(layer "F.Fab")
		(uuid "6a895432-560c-4f6d-8ff8-35bc921fff2a")
	)
	(fp_rect
		(start -24 -4.8)
		(end 24 5.2)
		(stroke
			(width 0.1)
			(type solid)
		)
		(fill none)
		(layer "F.Fab")
		(uuid "e24b44dc-e3e4-45cd-9571-d893dab0a2f0")
	)
	(fp_text user "${REFERENCE}"
		(at 0 -6.85 0)
		(layer "F.SilkS")
		(uuid "aab221b7-65b2-4202-b915-7311ccc5d0ea")
		(effects
			(font
				(size 0.8 0.8)
				(thickness 0.15)
				(bold yes)
			)
		)
	)
	(pad "1" thru_hole circle
		(at 21.1 2.75)
		(size 2.1 2.1)
		(drill 1.4)
		(layers "*.Cu" "*.Mask")
		(remove_unused_layers no)
		(uuid "8d7fb2a8-519b-44f5-9ad0-1289ac87c41e")
	)
	(pad "2" thru_hole circle
		(at 16.9 2.75)
		(size 2.1 2.1)
		(drill 1.4)
		(layers "*.Cu" "*.Mask")
		(remove_unused_layers no)
		(uuid "fc21e4d5-5115-40a9-a410-b15320863618")
	)
	(pad "3" thru_hole circle
		(at 12.7 2.75)
		(size 2.1 2.1)
		(drill 1.4)
		(layers "*.Cu" "*.Mask")
		(remove_unused_layers no)
		(uuid "efebeae2-db2f-4731-9d6a-1f2d4620c04a")
	)
	(pad "4" thru_hole circle
		(at 8.5 2.75)
		(size 2.1 2.1)
		(drill 1.4)
		(layers "*.Cu" "*.Mask")
		(remove_unused_layers no)
		(uuid "4b5f08c8-dc04-4430-92e8-7fc283bdb22b")
	)
	(pad "5" thru_hole circle
		(at 4.3 2.75)
		(size 2.1 2.1)
		(drill 1.4)
		(layers "*.Cu" "*.Mask")
		(remove_unused_layers no)
		(uuid "40d049f2-f87e-4a84-8180-78a293607d64")
	)
	(pad "6" thru_hole circle
		(at 0.1 2.75)
		(size 2.1 2.1)
		(drill 1.4)
		(layers "*.Cu" "*.Mask")
		(remove_unused_layers no)
		(uuid "07301735-cdbf-450a-8109-8777d004b38b")
	)
	(pad "7" thru_hole circle
		(at -4.1 2.75)
		(size 2.1 2.1)
		(drill 1.4)
		(layers "*.Cu" "*.Mask")
		(remove_unused_layers no)
		(uuid "4eb0ef25-d05b-4e21-bd59-6220ec7b1cd7")
	)
	(pad "8" thru_hole circle
		(at -8.3 2.75)
		(size 2.1 2.1)
		(drill 1.4)
		(layers "*.Cu" "*.Mask")
		(remove_unused_layers no)
		(uuid "231611bb-f34d-4fc4-bdca-ea0a48d674fe")
	)
	(pad "9" thru_hole circle
		(at -12.5 2.75)
		(size 2.1 2.1)
		(drill 1.4)
		(layers "*.Cu" "*.Mask")
		(remove_unused_layers no)
		(uuid "02117ba9-cff6-4f62-8f3e-cb20ba5a04eb")
	)
	(pad "10" thru_hole circle
		(at -16.7 2.75)
		(size 2.1 2.1)
		(drill 1.4)
		(layers "*.Cu" "*.Mask")
		(remove_unused_layers no)
		(uuid "54399af4-fdec-4a2d-b479-f73a386d3f09")
	)
	(pad "11" thru_hole circle
		(at -20.9 2.75)
		(size 2.1 2.1)
		(drill 1.4)
		(layers "*.Cu" "*.Mask")
		(remove_unused_layers no)
		(uuid "41a53210-17e5-4fda-b3a4-66d188544d1a")
	)
	(pad "12" thru_hole circle
		(at 21.1 -2.75)
		(size 2.1 2.1)
		(drill 1.4)
		(layers "*.Cu" "*.Mask")
		(remove_unused_layers no)
		(uuid "cd13f44f-d6c1-411e-ab31-9f3a6e16cfe6")
	)
	(pad "13" thru_hole circle
		(at 16.9 -2.75)
		(size 2.1 2.1)
		(drill 1.4)
		(layers "*.Cu" "*.Mask")
		(remove_unused_layers no)
		(uuid "a6df8ae3-41c9-4549-9112-5ed4d6482ead")
	)
	(pad "14" thru_hole circle
		(at 12.7 -2.75)
		(size 2.1 2.1)
		(drill 1.4)
		(layers "*.Cu" "*.Mask")
		(remove_unused_layers no)
		(uuid "43bf6879-d5fb-4724-b5fe-37c37089bcf9")
	)
	(pad "15" thru_hole circle
		(at 8.5 -2.75)
		(size 2.1 2.1)
		(drill 1.4)
		(layers "*.Cu" "*.Mask")
		(remove_unused_layers no)
		(uuid "871440bd-5fde-4c40-bcff-decb9814eadd")
	)
	(pad "16" thru_hole circle
		(at 4.3 -2.75)
		(size 2.1 2.1)
		(drill 1.4)
		(layers "*.Cu" "*.Mask")
		(remove_unused_layers no)
		(uuid "5c86330c-06c2-4ea7-838a-d6884b2a75c6")
	)
	(pad "17" thru_hole circle
		(at 0.1 -2.75)
		(size 2.1 2.1)
		(drill 1.4)
		(layers "*.Cu" "*.Mask")
		(remove_unused_layers no)
		(uuid "90860f20-c497-4861-ad41-dffd044ea921")
	)
	(pad "18" thru_hole circle
		(at -4.1 -2.75)
		(size 2.1 2.1)
		(drill 1.4)
		(layers "*.Cu" "*.Mask")
		(remove_unused_layers no)
		(uuid "0e892ba3-f4f7-4eb5-9891-65c99e6ee245")
	)
	(pad "19" thru_hole circle
		(at -8.3 -2.75)
		(size 2.1 2.1)
		(drill 1.4)
		(layers "*.Cu" "*.Mask")
		(remove_unused_layers no)
		(uuid "0099d304-bb5f-4505-803a-b96865a11c96")
	)
	(pad "20" thru_hole circle
		(at -12.5 -2.75)
		(size 2.1 2.1)
		(drill 1.4)
		(layers "*.Cu" "*.Mask")
		(remove_unused_layers no)
		(uuid "2b8594f3-eafb-4f5f-bceb-e64334db9333")
	)
	(pad "21" thru_hole circle
		(at -16.7 -2.75)
		(size 2.1 2.1)
		(drill 1.4)
		(layers "*.Cu" "*.Mask")
		(remove_unused_layers no)
		(uuid "640b15a9-5b2e-4f87-90ef-87148a59b279")
	)
	(pad "22" thru_hole circle
		(at -20.9 -2.75)
		(size 2.1 2.1)
		(drill 1.4)
		(layers "*.Cu" "*.Mask")
		(remove_unused_layers no)
		(uuid "952fdff8-f504-4815-a2cb-5b00efdbe22d")
	)
	(model "${KICAD8_3DMODEL_DIR}/MiniFIT/5566-22.wrl"
		(offset
			(xyz 0 0 0)
		)
		(scale
			(xyz 1 1 1)
		)
		(rotate
			(xyz 0 0 0)
		)
	)
)
