(footprint "5569-10A2"
	(version 20240108)
	(generator "pcbnew")
	(generator_version "8.0")
	(layer "F.Cu")
	(descr "MiniFIT 4.2 R.A. Header 2×5 pins (Pegs)")
	(property "Reference" "5569-10A2"
		(at 0 0 0)
		(layer "F.Fab")
		(uuid "59419327-d0bc-46b5-869b-7a98a33a4da6")
		(effects
			(font
				(size 1.2 1.2)
				(thickness 0.12)
			)
		)
	)
	(property "Value" "5569-10A2"
		(at 0 0 0)
		(layer "F.Fab")
		(hide yes)
		(uuid "d2ea71fa-78c4-47a2-86ec-6450e5402bde")
		(effects
			(font
				(size 1.2 1.2)
				(thickness 0.12)
			)
		)
	)
	(property "Footprint" ""
		(at -8.4 0 0)
		(layer "F.Fab")
		(hide yes)
		(uuid "03941fc1-11e7-4c43-b0bf-085866a662b8")
		(effects
			(font
				(size 1.27 1.27)
				(thickness 0.15)
			)
		)
	)
	(property "Datasheet" ""
		(at -8.4 0 0)
		(layer "F.Fab")
		(hide yes)
		(uuid "5fcb89e1-8903-4a24-8ed8-25907d88e3a8")
		(effects
			(font
				(size 1.27 1.27)
				(thickness 0.15)
			)
		)
	)
	(property "Description" ""
		(at -8.4 0 0)
		(layer "F.Fab")
		(hide yes)
		(uuid "f5c8b3b7-38ae-4ba2-85f5-00a5fc285513")
		(effects
			(font
				(size 1.27 1.27)
				(thickness 0.15)
			)
		)
	)
	(attr through_hole)
	(fp_line
		(start -11.3 3.45)
		(end -11.3 16.65)
		(stroke
			(width 0.12)
			(type solid)
		)
		(layer "F.SilkS")
		(uuid "5babdf53-f52c-4683-b50e-2d21b7dda0a1")
	)
	(fp_line
		(start -11.3 3.45)
		(end -10.05 3.45)
		(stroke
			(width 0.12)
			(type default)
		)
		(layer "F.SilkS")
		(uuid "ffa4b541-fbef-4826-97b6-f2189c1e57f3")
	)
	(fp_line
		(start -8.4 0.9)
		(end -8.4 -0.9)
		(stroke
			(width 0.12)
			(type solid)
		)
		(layer "F.SilkS")
		(uuid "138cec8f-69c2-4401-8f31-6ff70d7461e7")
	)
	(fp_line
		(start -4.2 0.9)
		(end -4.2 -0.9)
		(stroke
			(width 0.12)
			(type solid)
		)
		(layer "F.SilkS")
		(uuid "94ef6846-58f2-43d1-8de5-8cc09de44a4e")
	)
	(fp_line
		(start 0 0.9)
		(end 0 -0.9)
		(stroke
			(width 0.12)
			(type solid)
		)
		(layer "F.SilkS")
		(uuid "88a7a141-d352-4ee3-aa7e-2f88441fb6a4")
	)
	(fp_line
		(start 4.2 0.9)
		(end 4.2 -0.9)
		(stroke
			(width 0.12)
			(type solid)
		)
		(layer "F.SilkS")
		(uuid "c9da65a0-a221-47e9-b89f-53d6af98bae2")
	)
	(fp_line
		(start 8.4 -0.9)
		(end 8.4 0.9)
		(stroke
			(width 0.12)
			(type solid)
		)
		(layer "F.SilkS")
		(uuid "45c76bac-7234-43b4-8eef-c6d8ad301dd2")
	)
	(fp_line
		(start 10.05 3.45)
		(end 10.05 -2.75)
		(stroke
			(width 0.12)
			(type default)
		)
		(layer "F.SilkS")
		(uuid "1a5cc32d-ea9d-45bf-8ec5-93d3eadb98d3")
	)
	(fp_line
		(start 10.05 3.45)
		(end 11.3 3.45)
		(stroke
			(width 0.12)
			(type default)
		)
		(layer "F.SilkS")
		(uuid "3b85dc33-509e-4ada-9331-93c0b975c9b2")
	)
	(fp_line
		(start 11.3 3.45)
		(end 11.3 16.65)
		(stroke
			(width 0.12)
			(type solid)
		)
		(layer "F.SilkS")
		(uuid "7bad1895-5db7-4597-b0cf-914c9cea9917")
	)
	(fp_line
		(start 11.3 16.65)
		(end -11.3 16.65)
		(stroke
			(width 0.12)
			(type solid)
		)
		(layer "F.SilkS")
		(uuid "7510ea5a-db28-445e-a8df-ea92549a0230")
	)
	(fp_rect
		(start -11.8 -4.3)
		(end 11.8 17.15)
		(stroke
			(width 0.01)
			(type solid)
		)
		(fill none)
		(layer "F.CrtYd")
		(uuid "55ec76f6-740c-4ee2-bdfa-a6fadbaa6ae3")
	)
	(fp_line
		(start -0.7 14.65)
		(end 0.7 14.65)
		(stroke
			(width 0.12)
			(type solid)
		)
		(layer "F.Fab")
		(uuid "783a3ed9-4c47-4500-b5ad-76c47a765a50")
	)
	(fp_line
		(start -0.7 16.65)
		(end -0.7 14.65)
		(stroke
			(width 0.12)
			(type solid)
		)
		(layer "F.Fab")
		(uuid "97c3c3bb-1869-429b-8b11-5d9ea600c80a")
	)
	(fp_line
		(start 0.7 14.65)
		(end 0.7 16.65)
		(stroke
			(width 0.12)
			(type solid)
		)
		(layer "F.Fab")
		(uuid "f6507d66-df59-4058-a9a9-f783f840c949")
	)
	(fp_line
		(start 10.3 3.45)
		(end 11.3 4.45)
		(stroke
			(width 0.1)
			(type default)
		)
		(layer "F.Fab")
		(uuid "7f092a82-0e4f-4541-b3f5-56d133ac2580")
	)
	(fp_rect
		(start -11.3 3.45)
		(end 11.3 16.65)
		(stroke
			(width 0.1)
			(type default)
		)
		(fill none)
		(layer "F.Fab")
		(uuid "3b00bf76-957e-4c8b-9608-426be93804ba")
	)
	(fp_text user "${REFERENCE}"
		(at 0 -4.85 0)
		(layer "F.SilkS")
		(uuid "d9b65b33-27c6-4055-9feb-4115ab0a297b")
		(effects
			(font
				(size 0.8 0.8)
				(thickness 0.15)
				(bold yes)
			)
		)
	)
	(pad "" np_thru_hole circle
		(at -8.4 10.05)
		(size 3 3)
		(drill 3)
		(layers "*.Mask")
		(uuid "420897a6-cbc2-4d88-b1d9-8c60d60bd021")
	)
	(pad "" np_thru_hole circle
		(at 8.4 10.05)
		(size 3 3)
		(drill 3)
		(layers "*.Mask")
		(uuid "40aaffe9-51d3-46a8-bbed-8ebe96b1390f")
	)
	(pad "1" thru_hole circle
		(at 8.4 2.75)
		(size 2.7 2.7)
		(drill 1.8)
		(layers "*.Cu" "*.Mask")
		(remove_unused_layers no)
		(uuid "715c9a12-5789-467c-963f-dcd14c7bbed9")
	)
	(pad "2" thru_hole circle
		(at 4.2 2.75)
		(size 2.7 2.7)
		(drill 1.8)
		(layers "*.Cu" "*.Mask")
		(remove_unused_layers no)
		(uuid "2d8ee603-fcf2-494f-bf81-17fc950461e0")
	)
	(pad "3" thru_hole circle
		(at 0 2.75)
		(size 2.7 2.7)
		(drill 1.8)
		(layers "*.Cu" "*.Mask")
		(remove_unused_layers no)
		(uuid "ad53a493-8058-4847-9c2e-ca711aaaceb1")
	)
	(pad "4" thru_hole circle
		(at -4.2 2.75)
		(size 2.7 2.7)
		(drill 1.8)
		(layers "*.Cu" "*.Mask")
		(remove_unused_layers no)
		(uuid "e09ad0b7-3a55-4bef-813d-ae7aec16b5d2")
	)
	(pad "5" thru_hole circle
		(at -8.4 2.75)
		(size 2.7 2.7)
		(drill 1.8)
		(layers "*.Cu" "*.Mask")
		(remove_unused_layers no)
		(uuid "3a1b8db8-c263-45bd-83d3-b1c6ab98ad58")
	)
	(pad "6" thru_hole circle
		(at 8.4 -2.75)
		(size 2.7 2.7)
		(drill 1.8)
		(layers "*.Cu" "*.Mask")
		(remove_unused_layers no)
		(uuid "14366f2d-ccd1-45b0-a5d7-04615c237cbb")
	)
	(pad "7" thru_hole circle
		(at 4.2 -2.75)
		(size 2.7 2.7)
		(drill 1.8)
		(layers "*.Cu" "*.Mask")
		(remove_unused_layers no)
		(uuid "0dc14287-2087-4fe2-8bc0-3bfbce7c4b6b")
	)
	(pad "8" thru_hole circle
		(at 0 -2.75)
		(size 2.7 2.7)
		(drill 1.8)
		(layers "*.Cu" "*.Mask")
		(remove_unused_layers no)
		(uuid "2a923654-5d0c-406f-8200-003a411ef76c")
	)
	(pad "9" thru_hole circle
		(at -4.2 -2.75)
		(size 2.7 2.7)
		(drill 1.8)
		(layers "*.Cu" "*.Mask")
		(remove_unused_layers no)
		(uuid "9c03d628-de63-433a-aeed-6f42e16f8bfc")
	)
	(pad "10" thru_hole circle
		(at -8.4 -2.75)
		(size 2.7 2.7)
		(drill 1.8)
		(layers "*.Cu" "*.Mask")
		(remove_unused_layers no)
		(uuid "ce82dd98-eb09-4cdf-bac6-6d6cb7c65d94")
	)
	(model "${KICAD8_3DMODEL_DIR}/MiniFIT/5569-10A2.wrl"
		(offset
			(xyz 0 0 0)
		)
		(scale
			(xyz 1 1 1)
		)
		(rotate
			(xyz 0 0 0)
		)
	)
)
