(footprint "5569-16A2"
	(version 20240108)
	(generator "pcbnew")
	(generator_version "8.0")
	(layer "F.Cu")
	(descr "MiniFIT 4.2 R.A. Header 2×8 pins (Pegs)")
	(property "Reference" "5569-16A2"
		(at 0 0 0)
		(layer "F.Fab")
		(uuid "59419327-d0bc-46b5-869b-7a98a33a4da6")
		(effects
			(font
				(size 1.2 1.2)
				(thickness 0.12)
			)
		)
	)
	(property "Value" "5569-16A2"
		(at 0 0 0)
		(layer "F.Fab")
		(hide yes)
		(uuid "d2ea71fa-78c4-47a2-86ec-6450e5402bde")
		(effects
			(font
				(size 1.2 1.2)
				(thickness 0.12)
			)
		)
	)
	(property "Footprint" ""
		(at -6.3 0 0)
		(layer "F.Fab")
		(hide yes)
		(uuid "03941fc1-11e7-4c43-b0bf-085866a662b8")
		(effects
			(font
				(size 1.27 1.27)
				(thickness 0.15)
			)
		)
	)
	(property "Datasheet" ""
		(at -6.3 0 0)
		(layer "F.Fab")
		(hide yes)
		(uuid "5fcb89e1-8903-4a24-8ed8-25907d88e3a8")
		(effects
			(font
				(size 1.27 1.27)
				(thickness 0.15)
			)
		)
	)
	(property "Description" ""
		(at -6.3 0 0)
		(layer "F.Fab")
		(hide yes)
		(uuid "f5c8b3b7-38ae-4ba2-85f5-00a5fc285513")
		(effects
			(font
				(size 1.27 1.27)
				(thickness 0.15)
			)
		)
	)
	(attr through_hole)
	(fp_line
		(start -17.6 3.45)
		(end -17.6 16.65)
		(stroke
			(width 0.12)
			(type solid)
		)
		(layer "F.SilkS")
		(uuid "5babdf53-f52c-4683-b50e-2d21b7dda0a1")
	)
	(fp_line
		(start -17.6 3.45)
		(end -16.35 3.45)
		(stroke
			(width 0.12)
			(type default)
		)
		(layer "F.SilkS")
		(uuid "ffa4b541-fbef-4826-97b6-f2189c1e57f3")
	)
	(fp_line
		(start -14.7 0.9)
		(end -14.7 -0.9)
		(stroke
			(width 0.12)
			(type solid)
		)
		(layer "F.SilkS")
		(uuid "c6b5c528-af9d-43de-a965-859b2291e543")
	)
	(fp_line
		(start -10.5 0.9)
		(end -10.5 -0.9)
		(stroke
			(width 0.12)
			(type solid)
		)
		(layer "F.SilkS")
		(uuid "6d0d1132-7c9e-487f-8f02-6a23ad1dd036")
	)
	(fp_line
		(start -6.3 0.9)
		(end -6.3 -0.9)
		(stroke
			(width 0.12)
			(type solid)
		)
		(layer "F.SilkS")
		(uuid "fd1009e4-4aa5-4dcf-a80d-8acac11e38d9")
	)
	(fp_line
		(start -2.1 0.9)
		(end -2.1 -0.9)
		(stroke
			(width 0.12)
			(type solid)
		)
		(layer "F.SilkS")
		(uuid "138cec8f-69c2-4401-8f31-6ff70d7461e7")
	)
	(fp_line
		(start 2.1 0.9)
		(end 2.1 -0.9)
		(stroke
			(width 0.12)
			(type solid)
		)
		(layer "F.SilkS")
		(uuid "94ef6846-58f2-43d1-8de5-8cc09de44a4e")
	)
	(fp_line
		(start 6.3 0.9)
		(end 6.3 -0.9)
		(stroke
			(width 0.12)
			(type solid)
		)
		(layer "F.SilkS")
		(uuid "88a7a141-d352-4ee3-aa7e-2f88441fb6a4")
	)
	(fp_line
		(start 10.5 0.9)
		(end 10.5 -0.9)
		(stroke
			(width 0.12)
			(type solid)
		)
		(layer "F.SilkS")
		(uuid "c9da65a0-a221-47e9-b89f-53d6af98bae2")
	)
	(fp_line
		(start 14.7 -0.9)
		(end 14.7 0.9)
		(stroke
			(width 0.12)
			(type solid)
		)
		(layer "F.SilkS")
		(uuid "45c76bac-7234-43b4-8eef-c6d8ad301dd2")
	)
	(fp_line
		(start 16.35 3.45)
		(end 16.35 -2.75)
		(stroke
			(width 0.12)
			(type default)
		)
		(layer "F.SilkS")
		(uuid "1a5cc32d-ea9d-45bf-8ec5-93d3eadb98d3")
	)
	(fp_line
		(start 16.35 3.45)
		(end 17.6 3.45)
		(stroke
			(width 0.12)
			(type default)
		)
		(layer "F.SilkS")
		(uuid "3b85dc33-509e-4ada-9331-93c0b975c9b2")
	)
	(fp_line
		(start 17.6 3.45)
		(end 17.6 16.65)
		(stroke
			(width 0.12)
			(type solid)
		)
		(layer "F.SilkS")
		(uuid "7bad1895-5db7-4597-b0cf-914c9cea9917")
	)
	(fp_line
		(start 17.6 16.65)
		(end -17.6 16.65)
		(stroke
			(width 0.12)
			(type solid)
		)
		(layer "F.SilkS")
		(uuid "7510ea5a-db28-445e-a8df-ea92549a0230")
	)
	(fp_rect
		(start -18.1 -4.3)
		(end 18.1 17.15)
		(stroke
			(width 0.01)
			(type solid)
		)
		(fill none)
		(layer "F.CrtYd")
		(uuid "55ec76f6-740c-4ee2-bdfa-a6fadbaa6ae3")
	)
	(fp_line
		(start -0.7 14.65)
		(end 0.7 14.65)
		(stroke
			(width 0.12)
			(type solid)
		)
		(layer "F.Fab")
		(uuid "576cb72c-1749-48eb-b476-6f00534bec1a")
	)
	(fp_line
		(start -0.7 16.65)
		(end -0.7 14.65)
		(stroke
			(width 0.12)
			(type solid)
		)
		(layer "F.Fab")
		(uuid "46638f3a-1fea-4881-98c9-e8ba4ba790f9")
	)
	(fp_line
		(start 0.7 14.65)
		(end 0.7 16.65)
		(stroke
			(width 0.12)
			(type solid)
		)
		(layer "F.Fab")
		(uuid "85109f30-f380-479e-bf95-88f534c0b95d")
	)
	(fp_line
		(start 16.6 3.45)
		(end 17.6 4.45)
		(stroke
			(width 0.1)
			(type default)
		)
		(layer "F.Fab")
		(uuid "7f092a82-0e4f-4541-b3f5-56d133ac2580")
	)
	(fp_rect
		(start -17.6 3.45)
		(end 17.6 16.65)
		(stroke
			(width 0.1)
			(type default)
		)
		(fill none)
		(layer "F.Fab")
		(uuid "3b00bf76-957e-4c8b-9608-426be93804ba")
	)
	(fp_text user "${REFERENCE}"
		(at 0 -4.85 0)
		(layer "F.SilkS")
		(uuid "5cba8fa6-3a4b-4ab8-9be8-90511da78780")
		(effects
			(font
				(size 0.8 0.8)
				(thickness 0.15)
				(bold yes)
			)
		)
	)
	(pad "" np_thru_hole circle
		(at -14.7 10.05)
		(size 3 3)
		(drill 3)
		(layers "*.Mask")
		(uuid "420897a6-cbc2-4d88-b1d9-8c60d60bd021")
	)
	(pad "" np_thru_hole circle
		(at 14.7 10.05)
		(size 3 3)
		(drill 3)
		(layers "*.Mask")
		(uuid "40aaffe9-51d3-46a8-bbed-8ebe96b1390f")
	)
	(pad "1" thru_hole circle
		(at 14.7 2.75)
		(size 2.7 2.7)
		(drill 1.8)
		(layers "*.Cu" "*.Mask")
		(remove_unused_layers no)
		(uuid "715c9a12-5789-467c-963f-dcd14c7bbed9")
	)
	(pad "2" thru_hole circle
		(at 10.5 2.75)
		(size 2.7 2.7)
		(drill 1.8)
		(layers "*.Cu" "*.Mask")
		(remove_unused_layers no)
		(uuid "2d8ee603-fcf2-494f-bf81-17fc950461e0")
	)
	(pad "3" thru_hole circle
		(at 6.3 2.75)
		(size 2.7 2.7)
		(drill 1.8)
		(layers "*.Cu" "*.Mask")
		(remove_unused_layers no)
		(uuid "ad53a493-8058-4847-9c2e-ca711aaaceb1")
	)
	(pad "4" thru_hole circle
		(at 2.1 2.75)
		(size 2.7 2.7)
		(drill 1.8)
		(layers "*.Cu" "*.Mask")
		(remove_unused_layers no)
		(uuid "e09ad0b7-3a55-4bef-813d-ae7aec16b5d2")
	)
	(pad "5" thru_hole circle
		(at -2.1 2.75)
		(size 2.7 2.7)
		(drill 1.8)
		(layers "*.Cu" "*.Mask")
		(remove_unused_layers no)
		(uuid "3a1b8db8-c263-45bd-83d3-b1c6ab98ad58")
	)
	(pad "6" thru_hole circle
		(at -6.3 2.75)
		(size 2.7 2.7)
		(drill 1.8)
		(layers "*.Cu" "*.Mask")
		(remove_unused_layers no)
		(uuid "5b41c858-85af-4c92-8e2d-af0322a76b93")
	)
	(pad "7" thru_hole circle
		(at -10.5 2.75)
		(size 2.7 2.7)
		(drill 1.8)
		(layers "*.Cu" "*.Mask")
		(remove_unused_layers no)
		(uuid "ab7ecb01-8846-49bc-97b0-4438deb7e7f5")
	)
	(pad "8" thru_hole circle
		(at -14.7 2.75)
		(size 2.7 2.7)
		(drill 1.8)
		(layers "*.Cu" "*.Mask")
		(remove_unused_layers no)
		(uuid "334811b0-7d61-4ac2-8613-ceb36f51ca0d")
	)
	(pad "9" thru_hole circle
		(at 14.7 -2.75)
		(size 2.7 2.7)
		(drill 1.8)
		(layers "*.Cu" "*.Mask")
		(remove_unused_layers no)
		(uuid "14366f2d-ccd1-45b0-a5d7-04615c237cbb")
	)
	(pad "10" thru_hole circle
		(at 10.5 -2.75)
		(size 2.7 2.7)
		(drill 1.8)
		(layers "*.Cu" "*.Mask")
		(remove_unused_layers no)
		(uuid "0dc14287-2087-4fe2-8bc0-3bfbce7c4b6b")
	)
	(pad "11" thru_hole circle
		(at 6.3 -2.75)
		(size 2.7 2.7)
		(drill 1.8)
		(layers "*.Cu" "*.Mask")
		(remove_unused_layers no)
		(uuid "2a923654-5d0c-406f-8200-003a411ef76c")
	)
	(pad "12" thru_hole circle
		(at 2.1 -2.75)
		(size 2.7 2.7)
		(drill 1.8)
		(layers "*.Cu" "*.Mask")
		(remove_unused_layers no)
		(uuid "9c03d628-de63-433a-aeed-6f42e16f8bfc")
	)
	(pad "13" thru_hole circle
		(at -2.1 -2.75)
		(size 2.7 2.7)
		(drill 1.8)
		(layers "*.Cu" "*.Mask")
		(remove_unused_layers no)
		(uuid "ce82dd98-eb09-4cdf-bac6-6d6cb7c65d94")
	)
	(pad "14" thru_hole circle
		(at -6.3 -2.75)
		(size 2.7 2.7)
		(drill 1.8)
		(layers "*.Cu" "*.Mask")
		(remove_unused_layers no)
		(uuid "ac29b8c8-f357-4784-b5d4-853be6180beb")
	)
	(pad "15" thru_hole circle
		(at -10.5 -2.75)
		(size 2.7 2.7)
		(drill 1.8)
		(layers "*.Cu" "*.Mask")
		(remove_unused_layers no)
		(uuid "09494e0a-4a83-478b-869d-1ee312fd7209")
	)
	(pad "16" thru_hole circle
		(at -14.7 -2.75)
		(size 2.7 2.7)
		(drill 1.8)
		(layers "*.Cu" "*.Mask")
		(remove_unused_layers no)
		(uuid "fc4b9904-66e7-4eed-ba3d-295bafd08ffd")
	)
	(model "${KICAD8_3DMODEL_DIR}/MiniFIT/5569-16A2.wrl"
		(offset
			(xyz 0 0 0)
		)
		(scale
			(xyz 1 1 1)
		)
		(rotate
			(xyz 0 0 0)
		)
	)
)
