(module "WE-WA-SMSI-9774060360" (layer F.Cu) (tedit 5E5513B2)
  (descr "Internal M3×6mm SMD Steel Spacer")
  (attr smd)
  (fp_text reference "WE-WA-SMSI-9774010360" (at 0 0) (layer F.Fab)
    (effects (font (size 1.2 1.2) (thickness 0.12)))
  )
  (fp_text value "WE-WA-SMSI-9774010360" (at 0 0) (layer F.Fab) hide
    (effects (font (size 1.2 1.2) (thickness 0.12)))
  )
  (fp_circle (center 0 0) (end 1.5 0) (layer Dwgs.User) (width 0.12))
  (fp_circle (center 0 0) (end 4 0) (layer F.SilkS) (width 0.12))
  (fp_circle (center 0 0) (end 4.2 0) (layer B.CrtYd) (width 0.01))
  (fp_circle (center 0 0) (end 4.2 0) (layer F.CrtYd) (width 0.01))
  (fp_poly (pts (xy -2.2 1) (xy -1.7 1.7) (xy -1 2.2) (xy -0.4 2.35)
    (xy -0.4 3.45) (xy -1.35 3.25) (xy -2.5 2.5) (xy -3.25 1.35)
    (xy -3.45 0.4) (xy -2.35 0.4)) (layer F.Paste) (width 0.01))
  (fp_poly (pts (xy -1 -2.2) (xy -1.7 -1.7) (xy -2.2 -1) (xy -2.35 -0.4)
    (xy -3.45 -0.4) (xy -3.25 -1.35) (xy -2.5 -2.5) (xy -1.35 -3.25)
    (xy -0.4 -3.45) (xy -0.4 -2.35)) (layer F.Paste) (width 0.01))
  (fp_poly (pts (xy 2.2 -1) (xy 1.7 -1.7) (xy 1 -2.2) (xy 0.4 -2.35)
    (xy 0.4 -3.45) (xy 1.35 -3.25) (xy 2.5 -2.5) (xy 3.25 -1.35)
    (xy 3.45 -0.4) (xy 2.35 -0.4)) (layer F.Paste) (width 0.01))
  (fp_poly (pts (xy 1 2.2) (xy 1.7 1.7) (xy 2.2 1) (xy 2.35 0.4)
    (xy 3.45 0.4) (xy 3.25 1.35) (xy 2.5 2.5) (xy 1.35 3.25)
    (xy 0.4 3.45) (xy 0.4 2.35)) (layer F.Paste) (width 0.01))
  (pad "" np_thru_hole circle (at 0 0) (size 7.4 7.4) (drill 4.4) (layers "F.Cu" "F.Mask"))
  (model "${KISYS3DMOD}/WE/WA-SMSI-9774060360.wrl"
    (at (xyz 0 0 0))
    (scale (xyz 1 1 1))
    (rotate (xyz 0 0 0))
  )
)
