(footprint "B5B-PH-SM4-TB"
	(version 20240108)
	(generator "pcbnew")
	(generator_version "8.0")
	(layer "F.Cu")
	(descr "Top Entry SMD Header, 5 circuits")
	(property "Reference" "B5B-PH-SM4-TB"
		(at 0 0 0)
		(layer "F.Fab")
		(uuid "a16c3bbf-90c5-4989-b766-435680575bbb")
		(effects
			(font
				(size 1.2 1.2)
				(thickness 0.12)
			)
		)
	)
	(property "Value" "B5B-PH-SM4-TB"
		(at 0 0 0)
		(layer "F.Fab")
		(hide yes)
		(uuid "d91467c6-2f6f-4f08-9832-4e19ddbc517a")
		(effects
			(font
				(size 1.2 1.2)
				(thickness 0.12)
			)
		)
	)
	(property "Footprint" ""
		(at 0 0 0)
		(unlocked yes)
		(layer "F.Fab")
		(hide yes)
		(uuid "ad272a4e-c272-4233-9d15-45a3c7ad28a4")
		(effects
			(font
				(size 1.27 1.27)
				(thickness 0.15)
			)
		)
	)
	(property "Datasheet" ""
		(at 0 0 0)
		(unlocked yes)
		(layer "F.Fab")
		(hide yes)
		(uuid "a25af722-be80-4a13-8181-cdee84621e87")
		(effects
			(font
				(size 1.27 1.27)
				(thickness 0.15)
			)
		)
	)
	(property "Description" ""
		(at 0 0 0)
		(unlocked yes)
		(layer "F.Fab")
		(hide yes)
		(uuid "8ac3f857-e70e-46db-8daa-226502cb1ed3")
		(effects
			(font
				(size 1.27 1.27)
				(thickness 0.15)
			)
		)
	)
	(attr smd)
	(fp_line
		(start -7 -2.55)
		(end 7 -2.55)
		(stroke
			(width 0.12)
			(type solid)
		)
		(layer "F.SilkS")
		(uuid "9b56d45d-a4d7-49d0-ba49-031aff8617f9")
	)
	(fp_line
		(start -7 -1.8)
		(end -7 -2.55)
		(stroke
			(width 0.12)
			(type solid)
		)
		(layer "F.SilkS")
		(uuid "def1cd72-1e68-4cb2-a5b6-7577608137c2")
	)
	(fp_line
		(start -7 1.8)
		(end -7 2.55)
		(stroke
			(width 0.12)
			(type solid)
		)
		(layer "F.SilkS")
		(uuid "404b9df5-93ac-49f8-8950-9e5a6ed0f710")
	)
	(fp_line
		(start -7 2.55)
		(end -4.8 2.55)
		(stroke
			(width 0.12)
			(type solid)
		)
		(layer "F.SilkS")
		(uuid "e58ed05e-2a8c-42d0-9e12-2475f8788925")
	)
	(fp_line
		(start -4.8 2.55)
		(end -4.8 5)
		(stroke
			(width 0.12)
			(type solid)
		)
		(layer "F.SilkS")
		(uuid "035bbea8-92dd-4a20-addd-486bc2094c0c")
	)
	(fp_line
		(start 7 -2.55)
		(end 7 -1.8)
		(stroke
			(width 0.12)
			(type solid)
		)
		(layer "F.SilkS")
		(uuid "0a68fc8c-6807-42a3-99ca-90e6cbff2509")
	)
	(fp_line
		(start 7 1.8)
		(end 7 2.55)
		(stroke
			(width 0.12)
			(type solid)
		)
		(layer "F.SilkS")
		(uuid "d4b7986e-7394-484f-be71-2f18aaa374e9")
	)
	(fp_line
		(start 7 2.55)
		(end 4.8 2.55)
		(stroke
			(width 0.12)
			(type solid)
		)
		(layer "F.SilkS")
		(uuid "720a2dc1-5c96-4c6e-aba1-e6bf013e3715")
	)
	(fp_rect
		(start -7.4 -2.75)
		(end 7.4 5.2)
		(stroke
			(width 0.01)
			(type solid)
		)
		(fill none)
		(layer "F.CrtYd")
		(uuid "c2478be3-f4bb-4431-b9cb-ce919c15d8d5")
	)
	(fp_line
		(start -7 -2.55)
		(end 7 -2.55)
		(stroke
			(width 0.1)
			(type solid)
		)
		(layer "F.Fab")
		(uuid "f6b38fc3-3487-4803-a053-b9e4e6aec4cf")
	)
	(fp_line
		(start -7 1.55)
		(end -6 2.55)
		(stroke
			(width 0.1)
			(type solid)
		)
		(layer "F.Fab")
		(uuid "7dad299e-12a3-45a7-846e-425f1bb16037")
	)
	(fp_line
		(start -7 2.55)
		(end -7 -2.55)
		(stroke
			(width 0.1)
			(type solid)
		)
		(layer "F.Fab")
		(uuid "ef66f72e-ad89-456b-90ad-7ce64ca7a1ef")
	)
	(fp_line
		(start 5 2.55)
		(end -7 2.55)
		(stroke
			(width 0.1)
			(type solid)
		)
		(layer "F.Fab")
		(uuid "523d95a5-ae47-462c-a00a-3b8075c54ee2")
	)
	(fp_line
		(start 7 -2.55)
		(end 7 2.55)
		(stroke
			(width 0.1)
			(type solid)
		)
		(layer "F.Fab")
		(uuid "d7bac01d-b8ae-4ece-ad86-6de74ff1769a")
	)
	(fp_text user "${REFERENCE}"
		(at 0 -3.2 0)
		(layer "F.SilkS")
		(uuid "1f18538a-ab7c-41ac-9da5-7cb166f6f7ef")
		(effects
			(font
				(size 0.8 0.8)
				(thickness 0.15)
				(bold yes)
			)
		)
	)
	(pad "" smd rect
		(at -6.4 0)
		(size 1.6 3)
		(layers "F.Cu" "F.Paste" "F.Mask")
		(uuid "beb12015-5977-4be0-bea2-4945aa8eebde")
	)
	(pad "" smd rect
		(at 6.4 0)
		(size 1.6 3)
		(layers "F.Cu" "F.Paste" "F.Mask")
		(uuid "71e6f4e9-78e6-4451-b055-daa5eaecf180")
	)
	(pad "1" smd rect
		(at -4 2.25)
		(size 1 5.5)
		(layers "F.Cu" "F.Paste" "F.Mask")
		(uuid "8d8fbcb8-d783-416b-9090-ed18af508d95")
	)
	(pad "2" smd rect
		(at -2 2.25)
		(size 1 5.5)
		(layers "F.Cu" "F.Paste" "F.Mask")
		(uuid "ad756adb-e07d-4e9b-aa38-aedbf89e35ff")
	)
	(pad "3" smd rect
		(at 0 2.25)
		(size 1 5.5)
		(layers "F.Cu" "F.Paste" "F.Mask")
		(uuid "a7493cd1-fe5d-49ec-a29d-1719ff2bd478")
	)
	(pad "4" smd rect
		(at 2 2.25)
		(size 1 5.5)
		(layers "F.Cu" "F.Paste" "F.Mask")
		(uuid "edaf362c-3720-4dbe-9349-07cc7112d432")
	)
	(pad "5" smd rect
		(at 4 2.25)
		(size 1 5.5)
		(layers "F.Cu" "F.Paste" "F.Mask")
		(uuid "785eb43f-8d77-4260-8d2d-3d8ae735073e")
	)
)
