(footprint "S4B-PH-SM4-TB"
	(version 20240108)
	(generator "pcbnew")
	(generator_version "8.0")
	(layer "F.Cu")
	(descr "Side Entry SMD Header, 4 circuits")
	(property "Reference" "S4B-PH-SM4-TB"
		(at 0 0 0)
		(layer "F.Fab")
		(uuid "fc1d9a77-5b92-4053-bc0b-455812cab380")
		(effects
			(font
				(size 1.2 1.2)
				(thickness 0.12)
			)
		)
	)
	(property "Value" "S4B-PH-SM4-TB"
		(at 0 0 0)
		(layer "F.Fab")
		(hide yes)
		(uuid "73624f9d-a939-4508-9339-715c12d4de67")
		(effects
			(font
				(size 1.2 1.2)
				(thickness 0.12)
			)
		)
	)
	(property "Footprint" ""
		(at 0 0 0)
		(unlocked yes)
		(layer "F.Fab")
		(hide yes)
		(uuid "8ff8f45a-93bf-4d8d-ad3a-7bfa2b60df88")
		(effects
			(font
				(size 1.27 1.27)
				(thickness 0.15)
			)
		)
	)
	(property "Datasheet" ""
		(at 0 0 0)
		(unlocked yes)
		(layer "F.Fab")
		(hide yes)
		(uuid "3c774082-d95f-48df-8fc8-c825b36d8c9a")
		(effects
			(font
				(size 1.27 1.27)
				(thickness 0.15)
			)
		)
	)
	(property "Description" ""
		(at 0 0 0)
		(unlocked yes)
		(layer "F.Fab")
		(hide yes)
		(uuid "607ed188-0fc3-45f3-b0dc-dbfe4c12d94a")
		(effects
			(font
				(size 1.27 1.27)
				(thickness 0.15)
			)
		)
	)
	(attr smd)
	(fp_line
		(start -6.3 -4.7)
		(end -4.05 -4.7)
		(stroke
			(width 0.12)
			(type solid)
		)
		(layer "F.SilkS")
		(uuid "dc01ab5f-d5d9-49f3-bebc-0ac13d37f571")
	)
	(fp_line
		(start -6.3 3.1)
		(end -6.3 -4.7)
		(stroke
			(width 0.12)
			(type solid)
		)
		(layer "F.SilkS")
		(uuid "16f86f79-a8bf-416f-ab2e-f928b4f02050")
	)
	(fp_line
		(start -4.05 -5.9)
		(end -4.05 -3)
		(stroke
			(width 0.12)
			(type solid)
		)
		(layer "F.SilkS")
		(uuid "39f6ce99-1d5d-4531-bcf7-76b030ecd6f2")
	)
	(fp_line
		(start 4.05 -4.7)
		(end 4.05 -3)
		(stroke
			(width 0.12)
			(type solid)
		)
		(layer "F.SilkS")
		(uuid "98fdfcbb-673b-4db8-b395-5d6febe2748e")
	)
	(fp_line
		(start 4.3 3.1)
		(end -4.3 3.1)
		(stroke
			(width 0.12)
			(type solid)
		)
		(layer "F.SilkS")
		(uuid "f595b577-f958-4f29-b41f-f9fb7f80479d")
	)
	(fp_line
		(start 6.3 -4.7)
		(end 4.05 -4.7)
		(stroke
			(width 0.12)
			(type solid)
		)
		(layer "F.SilkS")
		(uuid "0e2ec7dd-9786-4936-8712-15a0f866f4a2")
	)
	(fp_line
		(start 6.3 3.1)
		(end 6.3 -4.7)
		(stroke
			(width 0.12)
			(type solid)
		)
		(layer "F.SilkS")
		(uuid "711e199d-3691-44ae-8edb-13992a86c8a2")
	)
	(fp_rect
		(start -6.35 -6.1)
		(end 6.35 3.1)
		(stroke
			(width 0.01)
			(type solid)
		)
		(fill none)
		(layer "F.CrtYd")
		(uuid "3be79b6b-4699-44b6-a38a-5cfdacec1d7a")
	)
	(fp_line
		(start -6.15 -4.7)
		(end -4.05 -4.7)
		(stroke
			(width 0.1)
			(type solid)
		)
		(layer "F.Fab")
		(uuid "40f33e7f-e466-4b2c-b216-138860e85721")
	)
	(fp_line
		(start -6.15 2.1)
		(end -5.15 3.1)
		(stroke
			(width 0.1)
			(type solid)
		)
		(layer "F.Fab")
		(uuid "116642eb-1ce2-41d5-8749-df4e747e0c50")
	)
	(fp_line
		(start -6.15 3.1)
		(end -6.15 -4.7)
		(stroke
			(width 0.1)
			(type solid)
		)
		(layer "F.Fab")
		(uuid "03d3d7c2-c3c9-481e-a9ab-6e85e6f68641")
	)
	(fp_line
		(start -6.15 3.1)
		(end 6.15 3.1)
		(stroke
			(width 0.1)
			(type solid)
		)
		(layer "F.Fab")
		(uuid "256339f5-b28a-4b14-8e4c-13e29fbc9a7a")
	)
	(fp_line
		(start -4.05 -4.7)
		(end -4.05 -3)
		(stroke
			(width 0.1)
			(type solid)
		)
		(layer "F.Fab")
		(uuid "d745979c-0f8e-4002-88da-15a09a783cb0")
	)
	(fp_line
		(start 4.05 -4.7)
		(end 4.05 -3)
		(stroke
			(width 0.1)
			(type solid)
		)
		(layer "F.Fab")
		(uuid "14df5f38-d568-488b-98e8-4758b1d09625")
	)
	(fp_line
		(start 4.05 -3)
		(end -4.05 -3)
		(stroke
			(width 0.1)
			(type solid)
		)
		(layer "F.Fab")
		(uuid "38d9720f-944e-43e0-a57a-6f091509c882")
	)
	(fp_line
		(start 6.15 -4.7)
		(end 4.05 -4.7)
		(stroke
			(width 0.1)
			(type solid)
		)
		(layer "F.Fab")
		(uuid "115bfa81-b756-4a6d-8a81-2e4526b20f5e")
	)
	(fp_line
		(start 6.15 3.1)
		(end 6.15 -4.7)
		(stroke
			(width 0.1)
			(type solid)
		)
		(layer "F.Fab")
		(uuid "f1a1f68d-6fd6-4b66-a95c-00cf0b95123f")
	)
	(fp_text user "${REFERENCE}"
		(at 0 -6.65 0)
		(layer "F.SilkS")
		(uuid "93e82b43-f1cb-41ce-aad9-62ba0f36a59c")
		(effects
			(font
				(size 0.8 0.8)
				(thickness 0.15)
				(bold yes)
			)
		)
	)
	(pad "" smd rect
		(at -5.3 1.45)
		(size 1.4 3.1)
		(layers "F.Cu" "F.Paste" "F.Mask")
		(uuid "2842d75e-5b04-45b5-9419-92eb701f33a2")
	)
	(pad "" smd rect
		(at 5.3 1.45)
		(size 1.4 3.1)
		(layers "F.Cu" "F.Paste" "F.Mask")
		(uuid "fb516c10-fcbb-44c4-96ee-315b07910b80")
	)
	(pad "1" smd rect
		(at -3 -4.2)
		(size 1.5 3.4)
		(layers "F.Cu" "F.Paste" "F.Mask")
		(uuid "1ca791c4-71aa-42d8-aa7e-29bfc219f246")
	)
	(pad "2" smd rect
		(at -1 -4.2)
		(size 1.5 3.4)
		(layers "F.Cu" "F.Paste" "F.Mask")
		(uuid "8edd84e2-0232-484a-88bc-d38424f93092")
	)
	(pad "3" smd rect
		(at 1 -4.2)
		(size 1.5 3.4)
		(layers "F.Cu" "F.Paste" "F.Mask")
		(uuid "b33833c5-77cf-4046-8ecb-ddb1839f70e4")
	)
	(pad "4" smd rect
		(at 3 -4.2)
		(size 1.5 3.4)
		(layers "F.Cu" "F.Paste" "F.Mask")
		(uuid "566526a3-c628-4107-ab81-4f338e27f717")
	)
)
