ISO-10303-21;
HEADER;
FILE_DESCRIPTION(('FreeCAD Model'),'2;1');
FILE_NAME('Open CASCADE Shape Model','2022-06-23T13:39:23',(''),(''),
  'Open CASCADE STEP processor 7.5','FreeCAD','Unknown');
FILE_SCHEMA(('AUTOMOTIVE_DESIGN { 1 0 10303 214 1 1 1 1 }'));
ENDSEC;
DATA;
#1 = APPLICATION_PROTOCOL_DEFINITION('international standard',
  'automotive_design',2000,#2);
#2 = APPLICATION_CONTEXT(
  'core data for automotive mechanical design processes');
#3 = SHAPE_DEFINITION_REPRESENTATION(#4,#10);
#4 = PRODUCT_DEFINITION_SHAPE('','',#5);
#5 = PRODUCT_DEFINITION('design','',#6,#9);
#6 = PRODUCT_DEFINITION_FORMATION('','',#7);
#7 = PRODUCT('MO229V4040B','MO229V4040B','',(#8));
#8 = PRODUCT_CONTEXT('',#2,'mechanical');
#9 = PRODUCT_DEFINITION_CONTEXT('part definition',#2,'design');
#10 = SHAPE_REPRESENTATION('',(#11,#15,#19,#23,#27,#31,#35,#39,#43,#47,
    #51,#55),#59);
#11 = AXIS2_PLACEMENT_3D('',#12,#13,#14);
#12 = CARTESIAN_POINT('',(0.,0.,0.));
#13 = DIRECTION('',(0.,0.,1.));
#14 = DIRECTION('',(1.,0.,-0.));
#15 = AXIS2_PLACEMENT_3D('',#16,#17,#18);
#16 = CARTESIAN_POINT('',(0.,0.,0.));
#17 = DIRECTION('',(0.,0.,1.));
#18 = DIRECTION('',(1.,0.,0.));
#19 = AXIS2_PLACEMENT_3D('',#20,#21,#22);
#20 = CARTESIAN_POINT('',(0.,0.,0.));
#21 = DIRECTION('',(0.,0.,1.));
#22 = DIRECTION('',(1.,0.,0.));
#23 = AXIS2_PLACEMENT_3D('',#24,#25,#26);
#24 = CARTESIAN_POINT('',(0.,0.,0.));
#25 = DIRECTION('',(0.,0.,1.));
#26 = DIRECTION('',(1.,0.,0.));
#27 = AXIS2_PLACEMENT_3D('',#28,#29,#30);
#28 = CARTESIAN_POINT('',(-1.2,0.,0.));
#29 = DIRECTION('',(0.,0.,1.));
#30 = DIRECTION('',(1.,0.,0.));
#31 = AXIS2_PLACEMENT_3D('',#32,#33,#34);
#32 = CARTESIAN_POINT('',(-0.4,0.,0.));
#33 = DIRECTION('',(0.,0.,1.));
#34 = DIRECTION('',(1.,0.,0.));
#35 = AXIS2_PLACEMENT_3D('',#36,#37,#38);
#36 = CARTESIAN_POINT('',(0.4,0.,0.));
#37 = DIRECTION('',(0.,0.,1.));
#38 = DIRECTION('',(1.,0.,0.));
#39 = AXIS2_PLACEMENT_3D('',#40,#41,#42);
#40 = CARTESIAN_POINT('',(1.2,0.,0.));
#41 = DIRECTION('',(0.,0.,1.));
#42 = DIRECTION('',(1.,0.,0.));
#43 = AXIS2_PLACEMENT_3D('',#44,#45,#46);
#44 = CARTESIAN_POINT('',(0.,0.,0.));
#45 = DIRECTION('',(0.,0.,1.));
#46 = DIRECTION('',(1.,0.,0.));
#47 = AXIS2_PLACEMENT_3D('',#48,#49,#50);
#48 = CARTESIAN_POINT('',(0.8,0.,0.));
#49 = DIRECTION('',(0.,0.,1.));
#50 = DIRECTION('',(1.,0.,0.));
#51 = AXIS2_PLACEMENT_3D('',#52,#53,#54);
#52 = CARTESIAN_POINT('',(1.6,0.,0.));
#53 = DIRECTION('',(0.,0.,1.));
#54 = DIRECTION('',(1.,0.,0.));
#55 = AXIS2_PLACEMENT_3D('',#56,#57,#58);
#56 = CARTESIAN_POINT('',(2.4,0.,0.));
#57 = DIRECTION('',(0.,0.,1.));
#58 = DIRECTION('',(1.,0.,0.));
#59 = ( GEOMETRIC_REPRESENTATION_CONTEXT(3) 
GLOBAL_UNCERTAINTY_ASSIGNED_CONTEXT((#63)) GLOBAL_UNIT_ASSIGNED_CONTEXT(
(#60,#61,#62)) REPRESENTATION_CONTEXT('Context #1',
  '3D Context with UNIT and UNCERTAINTY') );
#60 = ( LENGTH_UNIT() NAMED_UNIT(*) SI_UNIT(.MILLI.,.METRE.) );
#61 = ( NAMED_UNIT(*) PLANE_ANGLE_UNIT() SI_UNIT($,.RADIAN.) );
#62 = ( NAMED_UNIT(*) SI_UNIT($,.STERADIAN.) SOLID_ANGLE_UNIT() );
#63 = UNCERTAINTY_MEASURE_WITH_UNIT(LENGTH_MEASURE(1.E-07),#60,
  'distance_accuracy_value','confusion accuracy');
#64 = PRODUCT_RELATED_PRODUCT_CATEGORY('part',$,(#7));
#65 = ADVANCED_BREP_SHAPE_REPRESENTATION('',(#11,#66),#321);
#66 = MANIFOLD_SOLID_BREP('',#67);
#67 = CLOSED_SHELL('',(#68,#108,#147,#178,#195,#220,#238,#269,#293,#310)
  );
#68 = ADVANCED_FACE('',(#69),#103,.T.);
#69 = FACE_BOUND('',#70,.T.);
#70 = EDGE_LOOP('',(#71,#81,#89,#97));
#71 = ORIENTED_EDGE('',*,*,#72,.T.);
#72 = EDGE_CURVE('',#73,#75,#77,.T.);
#73 = VERTEX_POINT('',#74);
#74 = CARTESIAN_POINT('',(-2.,2.,2.E-02));
#75 = VERTEX_POINT('',#76);
#76 = CARTESIAN_POINT('',(-1.931471724295,1.931471724295,1.));
#77 = LINE('',#78,#79);
#78 = CARTESIAN_POINT('',(-1.990315194671,1.990315194671,0.158499168765)
  );
#79 = VECTOR('',#80,1.);
#80 = DIRECTION('',(6.958737431666E-02,-6.958737431666E-02,
    0.995145815784));
#81 = ORIENTED_EDGE('',*,*,#82,.T.);
#82 = EDGE_CURVE('',#75,#83,#85,.T.);
#83 = VERTEX_POINT('',#84);
#84 = CARTESIAN_POINT('',(1.931471724295,1.931471724295,1.));
#85 = LINE('',#86,#87);
#86 = CARTESIAN_POINT('',(-1.,1.931471724295,1.));
#87 = VECTOR('',#88,1.);
#88 = DIRECTION('',(1.,0.,0.));
#89 = ORIENTED_EDGE('',*,*,#90,.F.);
#90 = EDGE_CURVE('',#91,#83,#93,.T.);
#91 = VERTEX_POINT('',#92);
#92 = CARTESIAN_POINT('',(2.,2.,2.E-02));
#93 = LINE('',#94,#95);
#94 = CARTESIAN_POINT('',(1.990315194671,1.990315194671,0.158499168765)
  );
#95 = VECTOR('',#96,1.);
#96 = DIRECTION('',(-6.958737431666E-02,-6.958737431666E-02,
    0.995145815784));
#97 = ORIENTED_EDGE('',*,*,#98,.F.);
#98 = EDGE_CURVE('',#73,#91,#99,.T.);
#99 = LINE('',#100,#101);
#100 = CARTESIAN_POINT('',(-1.,2.,2.E-02));
#101 = VECTOR('',#102,1.);
#102 = DIRECTION('',(1.,0.,0.));
#103 = PLANE('',#104);
#104 = AXIS2_PLACEMENT_3D('',#105,#106,#107);
#105 = CARTESIAN_POINT('',(-2.,2.,2.E-02));
#106 = DIRECTION('',(0.,0.99756405026,6.975647374413E-02));
#107 = DIRECTION('',(1.,0.,0.));
#108 = ADVANCED_FACE('',(#109),#142,.T.);
#109 = FACE_BOUND('',#110,.T.);
#110 = EDGE_LOOP('',(#111,#121,#129,#135,#136));
#111 = ORIENTED_EDGE('',*,*,#112,.T.);
#112 = EDGE_CURVE('',#113,#115,#117,.T.);
#113 = VERTEX_POINT('',#114);
#114 = CARTESIAN_POINT('',(-2.,-2.,2.E-02));
#115 = VERTEX_POINT('',#116);
#116 = CARTESIAN_POINT('',(-1.931471724295,-1.931471724295,1.));
#117 = LINE('',#118,#119);
#118 = CARTESIAN_POINT('',(-1.990315194671,-1.990315194671,
    0.158499168765));
#119 = VECTOR('',#120,1.);
#120 = DIRECTION('',(6.958737431666E-02,6.958737431666E-02,
    0.995145815784));
#121 = ORIENTED_EDGE('',*,*,#122,.T.);
#122 = EDGE_CURVE('',#115,#123,#125,.T.);
#123 = VERTEX_POINT('',#124);
#124 = CARTESIAN_POINT('',(-1.931471724295,-1.431471724295,1.));
#125 = LINE('',#126,#127);
#126 = CARTESIAN_POINT('',(-1.931471724295,-1.,1.));
#127 = VECTOR('',#128,1.);
#128 = DIRECTION('',(0.,1.,0.));
#129 = ORIENTED_EDGE('',*,*,#130,.T.);
#130 = EDGE_CURVE('',#123,#75,#131,.T.);
#131 = LINE('',#132,#133);
#132 = CARTESIAN_POINT('',(-1.931471724295,-1.,1.));
#133 = VECTOR('',#134,1.);
#134 = DIRECTION('',(0.,1.,0.));
#135 = ORIENTED_EDGE('',*,*,#72,.F.);
#136 = ORIENTED_EDGE('',*,*,#137,.F.);
#137 = EDGE_CURVE('',#113,#73,#138,.T.);
#138 = LINE('',#139,#140);
#139 = CARTESIAN_POINT('',(-2.,-1.,2.E-02));
#140 = VECTOR('',#141,1.);
#141 = DIRECTION('',(0.,1.,0.));
#142 = PLANE('',#143);
#143 = AXIS2_PLACEMENT_3D('',#144,#145,#146);
#144 = CARTESIAN_POINT('',(-2.,-2.,2.E-02));
#145 = DIRECTION('',(-0.99756405026,0.,6.975647374413E-02));
#146 = DIRECTION('',(0.,1.,0.));
#147 = ADVANCED_FACE('',(#148),#173,.T.);
#148 = FACE_BOUND('',#149,.T.);
#149 = EDGE_LOOP('',(#150,#151,#159,#167));
#150 = ORIENTED_EDGE('',*,*,#90,.T.);
#151 = ORIENTED_EDGE('',*,*,#152,.T.);
#152 = EDGE_CURVE('',#83,#153,#155,.T.);
#153 = VERTEX_POINT('',#154);
#154 = CARTESIAN_POINT('',(1.931471724295,-1.931471724295,1.));
#155 = LINE('',#156,#157);
#156 = CARTESIAN_POINT('',(1.931471724295,1.,1.));
#157 = VECTOR('',#158,1.);
#158 = DIRECTION('',(0.,-1.,0.));
#159 = ORIENTED_EDGE('',*,*,#160,.F.);
#160 = EDGE_CURVE('',#161,#153,#163,.T.);
#161 = VERTEX_POINT('',#162);
#162 = CARTESIAN_POINT('',(2.,-2.,2.E-02));
#163 = LINE('',#164,#165);
#164 = CARTESIAN_POINT('',(1.990315194671,-1.990315194671,0.158499168765
    ));
#165 = VECTOR('',#166,1.);
#166 = DIRECTION('',(-6.958737431666E-02,6.958737431666E-02,
    0.995145815784));
#167 = ORIENTED_EDGE('',*,*,#168,.F.);
#168 = EDGE_CURVE('',#91,#161,#169,.T.);
#169 = LINE('',#170,#171);
#170 = CARTESIAN_POINT('',(2.,1.,2.E-02));
#171 = VECTOR('',#172,1.);
#172 = DIRECTION('',(0.,-1.,0.));
#173 = PLANE('',#174);
#174 = AXIS2_PLACEMENT_3D('',#175,#176,#177);
#175 = CARTESIAN_POINT('',(2.,2.,2.E-02));
#176 = DIRECTION('',(0.99756405026,0.,6.975647374413E-02));
#177 = DIRECTION('',(0.,-1.,0.));
#178 = ADVANCED_FACE('',(#179),#190,.F.);
#179 = FACE_BOUND('',#180,.T.);
#180 = EDGE_LOOP('',(#181,#182,#183,#189));
#181 = ORIENTED_EDGE('',*,*,#98,.T.);
#182 = ORIENTED_EDGE('',*,*,#168,.T.);
#183 = ORIENTED_EDGE('',*,*,#184,.T.);
#184 = EDGE_CURVE('',#161,#113,#185,.T.);
#185 = LINE('',#186,#187);
#186 = CARTESIAN_POINT('',(1.,-2.,2.E-02));
#187 = VECTOR('',#188,1.);
#188 = DIRECTION('',(-1.,0.,0.));
#189 = ORIENTED_EDGE('',*,*,#137,.T.);
#190 = PLANE('',#191);
#191 = AXIS2_PLACEMENT_3D('',#192,#193,#194);
#192 = CARTESIAN_POINT('',(0.,0.,2.E-02));
#193 = DIRECTION('',(0.,0.,1.));
#194 = DIRECTION('',(1.,0.,0.));
#195 = ADVANCED_FACE('',(#196),#215,.T.);
#196 = FACE_BOUND('',#197,.T.);
#197 = EDGE_LOOP('',(#198,#199,#200,#208,#214));
#198 = ORIENTED_EDGE('',*,*,#82,.F.);
#199 = ORIENTED_EDGE('',*,*,#130,.F.);
#200 = ORIENTED_EDGE('',*,*,#201,.F.);
#201 = EDGE_CURVE('',#202,#123,#204,.T.);
#202 = VERTEX_POINT('',#203);
#203 = CARTESIAN_POINT('',(-1.431471724295,-1.931471724295,1.));
#204 = LINE('',#205,#206);
#205 = CARTESIAN_POINT('',(-1.431471724295,-1.931471724295,1.));
#206 = VECTOR('',#207,1.);
#207 = DIRECTION('',(-0.707106781187,0.707106781187,0.));
#208 = ORIENTED_EDGE('',*,*,#209,.F.);
#209 = EDGE_CURVE('',#153,#202,#210,.T.);
#210 = LINE('',#211,#212);
#211 = CARTESIAN_POINT('',(1.,-1.931471724295,1.));
#212 = VECTOR('',#213,1.);
#213 = DIRECTION('',(-1.,0.,0.));
#214 = ORIENTED_EDGE('',*,*,#152,.F.);
#215 = PLANE('',#216);
#216 = AXIS2_PLACEMENT_3D('',#217,#218,#219);
#217 = CARTESIAN_POINT('',(0.,0.,1.));
#218 = DIRECTION('',(0.,0.,1.));
#219 = DIRECTION('',(1.,0.,0.));
#220 = ADVANCED_FACE('',(#221),#233,.T.);
#221 = FACE_BOUND('',#222,.T.);
#222 = EDGE_LOOP('',(#223,#224,#225,#231,#232));
#223 = ORIENTED_EDGE('',*,*,#160,.T.);
#224 = ORIENTED_EDGE('',*,*,#209,.T.);
#225 = ORIENTED_EDGE('',*,*,#226,.T.);
#226 = EDGE_CURVE('',#202,#115,#227,.T.);
#227 = LINE('',#228,#229);
#228 = CARTESIAN_POINT('',(1.,-1.931471724295,1.));
#229 = VECTOR('',#230,1.);
#230 = DIRECTION('',(-1.,0.,0.));
#231 = ORIENTED_EDGE('',*,*,#112,.F.);
#232 = ORIENTED_EDGE('',*,*,#184,.F.);
#233 = PLANE('',#234);
#234 = AXIS2_PLACEMENT_3D('',#235,#236,#237);
#235 = CARTESIAN_POINT('',(2.,-2.,2.E-02));
#236 = DIRECTION('',(0.,-0.99756405026,6.975647374413E-02));
#237 = DIRECTION('',(-1.,0.,0.));
#238 = ADVANCED_FACE('',(#239),#264,.F.);
#239 = FACE_BOUND('',#240,.F.);
#240 = EDGE_LOOP('',(#241,#249,#257,#263));
#241 = ORIENTED_EDGE('',*,*,#242,.T.);
#242 = EDGE_CURVE('',#123,#243,#245,.T.);
#243 = VERTEX_POINT('',#244);
#244 = CARTESIAN_POINT('',(-1.931471724295,-1.431471724295,0.9));
#245 = LINE('',#246,#247);
#246 = CARTESIAN_POINT('',(-1.931471724295,-1.431471724295,1.));
#247 = VECTOR('',#248,1.);
#248 = DIRECTION('',(-0.,-0.,-1.));
#249 = ORIENTED_EDGE('',*,*,#250,.T.);
#250 = EDGE_CURVE('',#243,#251,#253,.T.);
#251 = VERTEX_POINT('',#252);
#252 = CARTESIAN_POINT('',(-1.931471724295,-1.931471724295,0.9));
#253 = LINE('',#254,#255);
#254 = CARTESIAN_POINT('',(-1.931471724295,-1.431471724295,0.9));
#255 = VECTOR('',#256,1.);
#256 = DIRECTION('',(0.,-1.,0.));
#257 = ORIENTED_EDGE('',*,*,#258,.F.);
#258 = EDGE_CURVE('',#115,#251,#259,.T.);
#259 = LINE('',#260,#261);
#260 = CARTESIAN_POINT('',(-1.931471724295,-1.931471724295,1.));
#261 = VECTOR('',#262,1.);
#262 = DIRECTION('',(-0.,-0.,-1.));
#263 = ORIENTED_EDGE('',*,*,#122,.T.);
#264 = PLANE('',#265);
#265 = AXIS2_PLACEMENT_3D('',#266,#267,#268);
#266 = CARTESIAN_POINT('',(-1.931471724295,-1.431471724295,1.));
#267 = DIRECTION('',(-1.,0.,0.));
#268 = DIRECTION('',(0.,-1.,0.));
#269 = ADVANCED_FACE('',(#270),#288,.F.);
#270 = FACE_BOUND('',#271,.F.);
#271 = EDGE_LOOP('',(#272,#280,#286,#287));
#272 = ORIENTED_EDGE('',*,*,#273,.T.);
#273 = EDGE_CURVE('',#202,#274,#276,.T.);
#274 = VERTEX_POINT('',#275);
#275 = CARTESIAN_POINT('',(-1.431471724295,-1.931471724295,0.9));
#276 = LINE('',#277,#278);
#277 = CARTESIAN_POINT('',(-1.431471724295,-1.931471724295,1.));
#278 = VECTOR('',#279,1.);
#279 = DIRECTION('',(-0.,-0.,-1.));
#280 = ORIENTED_EDGE('',*,*,#281,.T.);
#281 = EDGE_CURVE('',#274,#243,#282,.T.);
#282 = LINE('',#283,#284);
#283 = CARTESIAN_POINT('',(-1.431471724295,-1.931471724295,0.9));
#284 = VECTOR('',#285,1.);
#285 = DIRECTION('',(-0.707106781187,0.707106781187,0.));
#286 = ORIENTED_EDGE('',*,*,#242,.F.);
#287 = ORIENTED_EDGE('',*,*,#201,.F.);
#288 = PLANE('',#289);
#289 = AXIS2_PLACEMENT_3D('',#290,#291,#292);
#290 = CARTESIAN_POINT('',(-1.431471724295,-1.931471724295,1.));
#291 = DIRECTION('',(0.707106781187,0.707106781187,0.));
#292 = DIRECTION('',(-0.707106781187,0.707106781187,0.));
#293 = ADVANCED_FACE('',(#294),#305,.F.);
#294 = FACE_BOUND('',#295,.F.);
#295 = EDGE_LOOP('',(#296,#297,#303,#304));
#296 = ORIENTED_EDGE('',*,*,#258,.T.);
#297 = ORIENTED_EDGE('',*,*,#298,.T.);
#298 = EDGE_CURVE('',#251,#274,#299,.T.);
#299 = LINE('',#300,#301);
#300 = CARTESIAN_POINT('',(-1.931471724295,-1.931471724295,0.9));
#301 = VECTOR('',#302,1.);
#302 = DIRECTION('',(1.,0.,0.));
#303 = ORIENTED_EDGE('',*,*,#273,.F.);
#304 = ORIENTED_EDGE('',*,*,#226,.T.);
#305 = PLANE('',#306);
#306 = AXIS2_PLACEMENT_3D('',#307,#308,#309);
#307 = CARTESIAN_POINT('',(-1.931471724295,-1.931471724295,1.));
#308 = DIRECTION('',(0.,-1.,0.));
#309 = DIRECTION('',(1.,0.,0.));
#310 = ADVANCED_FACE('',(#311),#316,.T.);
#311 = FACE_BOUND('',#312,.T.);
#312 = EDGE_LOOP('',(#313,#314,#315));
#313 = ORIENTED_EDGE('',*,*,#298,.T.);
#314 = ORIENTED_EDGE('',*,*,#281,.T.);
#315 = ORIENTED_EDGE('',*,*,#250,.T.);
#316 = PLANE('',#317);
#317 = AXIS2_PLACEMENT_3D('',#318,#319,#320);
#318 = CARTESIAN_POINT('',(-1.754695028999,-1.754695028999,0.9));
#319 = DIRECTION('',(0.,0.,1.));
#320 = DIRECTION('',(1.,0.,0.));
#321 = ( GEOMETRIC_REPRESENTATION_CONTEXT(3) 
GLOBAL_UNCERTAINTY_ASSIGNED_CONTEXT((#325)) GLOBAL_UNIT_ASSIGNED_CONTEXT
((#322,#323,#324)) REPRESENTATION_CONTEXT('Context #1',
  '3D Context with UNIT and UNCERTAINTY') );
#322 = ( LENGTH_UNIT() NAMED_UNIT(*) SI_UNIT(.MILLI.,.METRE.) );
#323 = ( NAMED_UNIT(*) PLANE_ANGLE_UNIT() SI_UNIT($,.RADIAN.) );
#324 = ( NAMED_UNIT(*) SI_UNIT($,.STERADIAN.) SOLID_ANGLE_UNIT() );
#325 = UNCERTAINTY_MEASURE_WITH_UNIT(LENGTH_MEASURE(1.E-07),#322,
  'distance_accuracy_value','confusion accuracy');
#326 = SHAPE_DEFINITION_REPRESENTATION(#327,#65);
#327 = PRODUCT_DEFINITION_SHAPE('','',#328);
#328 = PRODUCT_DEFINITION('design','',#329,#332);
#329 = PRODUCT_DEFINITION_FORMATION('','',#330);
#330 = PRODUCT('Body004','Body004','',(#331));
#331 = PRODUCT_CONTEXT('',#2,'mechanical');
#332 = PRODUCT_DEFINITION_CONTEXT('part definition',#2,'design');
#333 = CONTEXT_DEPENDENT_SHAPE_REPRESENTATION(#334,#336);
#334 = ( REPRESENTATION_RELATIONSHIP('','',#65,#10) 
REPRESENTATION_RELATIONSHIP_WITH_TRANSFORMATION(#335) 
SHAPE_REPRESENTATION_RELATIONSHIP() );
#335 = ITEM_DEFINED_TRANSFORMATION('','',#11,#15);
#336 = PRODUCT_DEFINITION_SHAPE('Placement','Placement of an item',#337
  );
#337 = NEXT_ASSEMBLY_USAGE_OCCURRENCE('15','Body004','',#5,#328,$);
#338 = PRODUCT_RELATED_PRODUCT_CATEGORY('part',$,(#330));
#339 = ADVANCED_BREP_SHAPE_REPRESENTATION('',(#11,#340),#490);
#340 = MANIFOLD_SOLID_BREP('',#341);
#341 = CLOSED_SHELL('',(#342,#382,#413,#444,#466,#478));
#342 = ADVANCED_FACE('',(#343),#377,.T.);
#343 = FACE_BOUND('',#344,.T.);
#344 = EDGE_LOOP('',(#345,#355,#363,#371));
#345 = ORIENTED_EDGE('',*,*,#346,.T.);
#346 = EDGE_CURVE('',#347,#349,#351,.T.);
#347 = VERTEX_POINT('',#348);
#348 = CARTESIAN_POINT('',(-1.5,1.1,0.));
#349 = VERTEX_POINT('',#350);
#350 = CARTESIAN_POINT('',(-1.5,1.1,0.2));
#351 = LINE('',#352,#353);
#352 = CARTESIAN_POINT('',(-1.5,1.1,0.));
#353 = VECTOR('',#354,1.);
#354 = DIRECTION('',(0.,0.,1.));
#355 = ORIENTED_EDGE('',*,*,#356,.T.);
#356 = EDGE_CURVE('',#349,#357,#359,.T.);
#357 = VERTEX_POINT('',#358);
#358 = CARTESIAN_POINT('',(1.5,1.1,0.2));
#359 = LINE('',#360,#361);
#360 = CARTESIAN_POINT('',(-1.5,1.1,0.2));
#361 = VECTOR('',#362,1.);
#362 = DIRECTION('',(1.,0.,0.));
#363 = ORIENTED_EDGE('',*,*,#364,.F.);
#364 = EDGE_CURVE('',#365,#357,#367,.T.);
#365 = VERTEX_POINT('',#366);
#366 = CARTESIAN_POINT('',(1.5,1.1,0.));
#367 = LINE('',#368,#369);
#368 = CARTESIAN_POINT('',(1.5,1.1,0.));
#369 = VECTOR('',#370,1.);
#370 = DIRECTION('',(0.,0.,1.));
#371 = ORIENTED_EDGE('',*,*,#372,.F.);
#372 = EDGE_CURVE('',#347,#365,#373,.T.);
#373 = LINE('',#374,#375);
#374 = CARTESIAN_POINT('',(-1.5,1.1,0.));
#375 = VECTOR('',#376,1.);
#376 = DIRECTION('',(1.,0.,0.));
#377 = PLANE('',#378);
#378 = AXIS2_PLACEMENT_3D('',#379,#380,#381);
#379 = CARTESIAN_POINT('',(-1.5,1.1,0.));
#380 = DIRECTION('',(0.,1.,0.));
#381 = DIRECTION('',(1.,0.,0.));
#382 = ADVANCED_FACE('',(#383),#408,.T.);
#383 = FACE_BOUND('',#384,.T.);
#384 = EDGE_LOOP('',(#385,#386,#394,#402));
#385 = ORIENTED_EDGE('',*,*,#364,.T.);
#386 = ORIENTED_EDGE('',*,*,#387,.T.);
#387 = EDGE_CURVE('',#357,#388,#390,.T.);
#388 = VERTEX_POINT('',#389);
#389 = CARTESIAN_POINT('',(1.5,-1.1,0.2));
#390 = LINE('',#391,#392);
#391 = CARTESIAN_POINT('',(1.5,1.1,0.2));
#392 = VECTOR('',#393,1.);
#393 = DIRECTION('',(0.,-1.,0.));
#394 = ORIENTED_EDGE('',*,*,#395,.F.);
#395 = EDGE_CURVE('',#396,#388,#398,.T.);
#396 = VERTEX_POINT('',#397);
#397 = CARTESIAN_POINT('',(1.5,-1.1,0.));
#398 = LINE('',#399,#400);
#399 = CARTESIAN_POINT('',(1.5,-1.1,0.));
#400 = VECTOR('',#401,1.);
#401 = DIRECTION('',(0.,0.,1.));
#402 = ORIENTED_EDGE('',*,*,#403,.F.);
#403 = EDGE_CURVE('',#365,#396,#404,.T.);
#404 = LINE('',#405,#406);
#405 = CARTESIAN_POINT('',(1.5,1.1,0.));
#406 = VECTOR('',#407,1.);
#407 = DIRECTION('',(0.,-1.,0.));
#408 = PLANE('',#409);
#409 = AXIS2_PLACEMENT_3D('',#410,#411,#412);
#410 = CARTESIAN_POINT('',(1.5,1.1,0.));
#411 = DIRECTION('',(1.,0.,0.));
#412 = DIRECTION('',(0.,-1.,0.));
#413 = ADVANCED_FACE('',(#414),#439,.T.);
#414 = FACE_BOUND('',#415,.T.);
#415 = EDGE_LOOP('',(#416,#417,#425,#433));
#416 = ORIENTED_EDGE('',*,*,#395,.T.);
#417 = ORIENTED_EDGE('',*,*,#418,.T.);
#418 = EDGE_CURVE('',#388,#419,#421,.T.);
#419 = VERTEX_POINT('',#420);
#420 = CARTESIAN_POINT('',(-1.5,-1.1,0.2));
#421 = LINE('',#422,#423);
#422 = CARTESIAN_POINT('',(1.5,-1.1,0.2));
#423 = VECTOR('',#424,1.);
#424 = DIRECTION('',(-1.,0.,0.));
#425 = ORIENTED_EDGE('',*,*,#426,.F.);
#426 = EDGE_CURVE('',#427,#419,#429,.T.);
#427 = VERTEX_POINT('',#428);
#428 = CARTESIAN_POINT('',(-1.5,-1.1,0.));
#429 = LINE('',#430,#431);
#430 = CARTESIAN_POINT('',(-1.5,-1.1,0.));
#431 = VECTOR('',#432,1.);
#432 = DIRECTION('',(0.,0.,1.));
#433 = ORIENTED_EDGE('',*,*,#434,.F.);
#434 = EDGE_CURVE('',#396,#427,#435,.T.);
#435 = LINE('',#436,#437);
#436 = CARTESIAN_POINT('',(1.5,-1.1,0.));
#437 = VECTOR('',#438,1.);
#438 = DIRECTION('',(-1.,0.,0.));
#439 = PLANE('',#440);
#440 = AXIS2_PLACEMENT_3D('',#441,#442,#443);
#441 = CARTESIAN_POINT('',(1.5,-1.1,0.));
#442 = DIRECTION('',(0.,-1.,0.));
#443 = DIRECTION('',(-1.,0.,0.));
#444 = ADVANCED_FACE('',(#445),#461,.T.);
#445 = FACE_BOUND('',#446,.T.);
#446 = EDGE_LOOP('',(#447,#448,#454,#455));
#447 = ORIENTED_EDGE('',*,*,#426,.T.);
#448 = ORIENTED_EDGE('',*,*,#449,.T.);
#449 = EDGE_CURVE('',#419,#349,#450,.T.);
#450 = LINE('',#451,#452);
#451 = CARTESIAN_POINT('',(-1.5,-1.1,0.2));
#452 = VECTOR('',#453,1.);
#453 = DIRECTION('',(0.,1.,0.));
#454 = ORIENTED_EDGE('',*,*,#346,.F.);
#455 = ORIENTED_EDGE('',*,*,#456,.F.);
#456 = EDGE_CURVE('',#427,#347,#457,.T.);
#457 = LINE('',#458,#459);
#458 = CARTESIAN_POINT('',(-1.5,-1.1,0.));
#459 = VECTOR('',#460,1.);
#460 = DIRECTION('',(0.,1.,0.));
#461 = PLANE('',#462);
#462 = AXIS2_PLACEMENT_3D('',#463,#464,#465);
#463 = CARTESIAN_POINT('',(-1.5,-1.1,0.));
#464 = DIRECTION('',(-1.,0.,0.));
#465 = DIRECTION('',(0.,1.,0.));
#466 = ADVANCED_FACE('',(#467),#473,.F.);
#467 = FACE_BOUND('',#468,.T.);
#468 = EDGE_LOOP('',(#469,#470,#471,#472));
#469 = ORIENTED_EDGE('',*,*,#372,.T.);
#470 = ORIENTED_EDGE('',*,*,#403,.T.);
#471 = ORIENTED_EDGE('',*,*,#434,.T.);
#472 = ORIENTED_EDGE('',*,*,#456,.T.);
#473 = PLANE('',#474);
#474 = AXIS2_PLACEMENT_3D('',#475,#476,#477);
#475 = CARTESIAN_POINT('',(4.270088556251E-17,4.270088556251E-17,0.));
#476 = DIRECTION('',(0.,0.,1.));
#477 = DIRECTION('',(1.,0.,0.));
#478 = ADVANCED_FACE('',(#479),#485,.T.);
#479 = FACE_BOUND('',#480,.F.);
#480 = EDGE_LOOP('',(#481,#482,#483,#484));
#481 = ORIENTED_EDGE('',*,*,#356,.T.);
#482 = ORIENTED_EDGE('',*,*,#387,.T.);
#483 = ORIENTED_EDGE('',*,*,#418,.T.);
#484 = ORIENTED_EDGE('',*,*,#449,.T.);
#485 = PLANE('',#486);
#486 = AXIS2_PLACEMENT_3D('',#487,#488,#489);
#487 = CARTESIAN_POINT('',(4.270088556251E-17,4.270088556251E-17,0.2));
#488 = DIRECTION('',(0.,0.,1.));
#489 = DIRECTION('',(1.,0.,0.));
#490 = ( GEOMETRIC_REPRESENTATION_CONTEXT(3) 
GLOBAL_UNCERTAINTY_ASSIGNED_CONTEXT((#494)) GLOBAL_UNIT_ASSIGNED_CONTEXT
((#491,#492,#493)) REPRESENTATION_CONTEXT('Context #1',
  '3D Context with UNIT and UNCERTAINTY') );
#491 = ( LENGTH_UNIT() NAMED_UNIT(*) SI_UNIT(.MILLI.,.METRE.) );
#492 = ( NAMED_UNIT(*) PLANE_ANGLE_UNIT() SI_UNIT($,.RADIAN.) );
#493 = ( NAMED_UNIT(*) SI_UNIT($,.STERADIAN.) SOLID_ANGLE_UNIT() );
#494 = UNCERTAINTY_MEASURE_WITH_UNIT(LENGTH_MEASURE(1.E-07),#491,
  'distance_accuracy_value','confusion accuracy');
#495 = SHAPE_DEFINITION_REPRESENTATION(#496,#339);
#496 = PRODUCT_DEFINITION_SHAPE('','',#497);
#497 = PRODUCT_DEFINITION('design','',#498,#501);
#498 = PRODUCT_DEFINITION_FORMATION('','',#499);
#499 = PRODUCT('Thermal001','Thermal001','',(#500));
#500 = PRODUCT_CONTEXT('',#2,'mechanical');
#501 = PRODUCT_DEFINITION_CONTEXT('part definition',#2,'design');
#502 = CONTEXT_DEPENDENT_SHAPE_REPRESENTATION(#503,#505);
#503 = ( REPRESENTATION_RELATIONSHIP('','',#339,#10) 
REPRESENTATION_RELATIONSHIP_WITH_TRANSFORMATION(#504) 
SHAPE_REPRESENTATION_RELATIONSHIP() );
#504 = ITEM_DEFINED_TRANSFORMATION('','',#11,#19);
#505 = PRODUCT_DEFINITION_SHAPE('Placement','Placement of an item',#506
  );
#506 = NEXT_ASSEMBLY_USAGE_OCCURRENCE('16','Thermal001','',#5,#497,$);
#507 = PRODUCT_RELATED_PRODUCT_CATEGORY('part',$,(#499));
#508 = ADVANCED_BREP_SHAPE_REPRESENTATION('',(#11,#509),#626);
#509 = MANIFOLD_SOLID_BREP('',#510);
#510 = CLOSED_SHELL('',(#511,#551,#582,#604,#615));
#511 = ADVANCED_FACE('',(#512),#546,.T.);
#512 = FACE_BOUND('',#513,.T.);
#513 = EDGE_LOOP('',(#514,#524,#532,#540));
#514 = ORIENTED_EDGE('',*,*,#515,.T.);
#515 = EDGE_CURVE('',#516,#518,#520,.T.);
#516 = VERTEX_POINT('',#517);
#517 = CARTESIAN_POINT('',(-1.431471724295,-1.931471724295,1.));
#518 = VERTEX_POINT('',#519);
#519 = CARTESIAN_POINT('',(-1.431471724295,-1.931471724295,0.9));
#520 = LINE('',#521,#522);
#521 = CARTESIAN_POINT('',(-1.431471724295,-1.931471724295,1.));
#522 = VECTOR('',#523,1.);
#523 = DIRECTION('',(-0.,-0.,-1.));
#524 = ORIENTED_EDGE('',*,*,#525,.T.);
#525 = EDGE_CURVE('',#518,#526,#528,.T.);
#526 = VERTEX_POINT('',#527);
#527 = CARTESIAN_POINT('',(-1.931471724295,-1.431471724295,0.9));
#528 = LINE('',#529,#530);
#529 = CARTESIAN_POINT('',(-1.431471724295,-1.931471724295,0.9));
#530 = VECTOR('',#531,1.);
#531 = DIRECTION('',(-0.707106781187,0.707106781187,0.));
#532 = ORIENTED_EDGE('',*,*,#533,.F.);
#533 = EDGE_CURVE('',#534,#526,#536,.T.);
#534 = VERTEX_POINT('',#535);
#535 = CARTESIAN_POINT('',(-1.931471724295,-1.431471724295,1.));
#536 = LINE('',#537,#538);
#537 = CARTESIAN_POINT('',(-1.931471724295,-1.431471724295,1.));
#538 = VECTOR('',#539,1.);
#539 = DIRECTION('',(-0.,-0.,-1.));
#540 = ORIENTED_EDGE('',*,*,#541,.F.);
#541 = EDGE_CURVE('',#516,#534,#542,.T.);
#542 = LINE('',#543,#544);
#543 = CARTESIAN_POINT('',(-1.431471724295,-1.931471724295,1.));
#544 = VECTOR('',#545,1.);
#545 = DIRECTION('',(-0.707106781187,0.707106781187,0.));
#546 = PLANE('',#547);
#547 = AXIS2_PLACEMENT_3D('',#548,#549,#550);
#548 = CARTESIAN_POINT('',(-1.431471724295,-1.931471724295,1.));
#549 = DIRECTION('',(0.707106781187,0.707106781187,0.));
#550 = DIRECTION('',(-0.707106781187,0.707106781187,0.));
#551 = ADVANCED_FACE('',(#552),#577,.T.);
#552 = FACE_BOUND('',#553,.T.);
#553 = EDGE_LOOP('',(#554,#555,#563,#571));
#554 = ORIENTED_EDGE('',*,*,#533,.T.);
#555 = ORIENTED_EDGE('',*,*,#556,.T.);
#556 = EDGE_CURVE('',#526,#557,#559,.T.);
#557 = VERTEX_POINT('',#558);
#558 = CARTESIAN_POINT('',(-1.931471724295,-1.931471724295,0.9));
#559 = LINE('',#560,#561);
#560 = CARTESIAN_POINT('',(-1.931471724295,-1.431471724295,0.9));
#561 = VECTOR('',#562,1.);
#562 = DIRECTION('',(0.,-1.,0.));
#563 = ORIENTED_EDGE('',*,*,#564,.F.);
#564 = EDGE_CURVE('',#565,#557,#567,.T.);
#565 = VERTEX_POINT('',#566);
#566 = CARTESIAN_POINT('',(-1.931471724295,-1.931471724295,1.));
#567 = LINE('',#568,#569);
#568 = CARTESIAN_POINT('',(-1.931471724295,-1.931471724295,1.));
#569 = VECTOR('',#570,1.);
#570 = DIRECTION('',(-0.,-0.,-1.));
#571 = ORIENTED_EDGE('',*,*,#572,.F.);
#572 = EDGE_CURVE('',#534,#565,#573,.T.);
#573 = LINE('',#574,#575);
#574 = CARTESIAN_POINT('',(-1.931471724295,-1.431471724295,1.));
#575 = VECTOR('',#576,1.);
#576 = DIRECTION('',(0.,-1.,0.));
#577 = PLANE('',#578);
#578 = AXIS2_PLACEMENT_3D('',#579,#580,#581);
#579 = CARTESIAN_POINT('',(-1.931471724295,-1.431471724295,1.));
#580 = DIRECTION('',(-1.,0.,0.));
#581 = DIRECTION('',(0.,-1.,0.));
#582 = ADVANCED_FACE('',(#583),#599,.T.);
#583 = FACE_BOUND('',#584,.T.);
#584 = EDGE_LOOP('',(#585,#586,#592,#593));
#585 = ORIENTED_EDGE('',*,*,#564,.T.);
#586 = ORIENTED_EDGE('',*,*,#587,.T.);
#587 = EDGE_CURVE('',#557,#518,#588,.T.);
#588 = LINE('',#589,#590);
#589 = CARTESIAN_POINT('',(-1.931471724295,-1.931471724295,0.9));
#590 = VECTOR('',#591,1.);
#591 = DIRECTION('',(1.,0.,0.));
#592 = ORIENTED_EDGE('',*,*,#515,.F.);
#593 = ORIENTED_EDGE('',*,*,#594,.F.);
#594 = EDGE_CURVE('',#565,#516,#595,.T.);
#595 = LINE('',#596,#597);
#596 = CARTESIAN_POINT('',(-1.931471724295,-1.931471724295,1.));
#597 = VECTOR('',#598,1.);
#598 = DIRECTION('',(1.,0.,0.));
#599 = PLANE('',#600);
#600 = AXIS2_PLACEMENT_3D('',#601,#602,#603);
#601 = CARTESIAN_POINT('',(-1.931471724295,-1.931471724295,1.));
#602 = DIRECTION('',(0.,-1.,0.));
#603 = DIRECTION('',(1.,0.,0.));
#604 = ADVANCED_FACE('',(#605),#610,.T.);
#605 = FACE_BOUND('',#606,.T.);
#606 = EDGE_LOOP('',(#607,#608,#609));
#607 = ORIENTED_EDGE('',*,*,#541,.T.);
#608 = ORIENTED_EDGE('',*,*,#572,.T.);
#609 = ORIENTED_EDGE('',*,*,#594,.T.);
#610 = PLANE('',#611);
#611 = AXIS2_PLACEMENT_3D('',#612,#613,#614);
#612 = CARTESIAN_POINT('',(-1.754695028999,-1.754695028999,1.));
#613 = DIRECTION('',(0.,0.,1.));
#614 = DIRECTION('',(1.,0.,0.));
#615 = ADVANCED_FACE('',(#616),#621,.F.);
#616 = FACE_BOUND('',#617,.F.);
#617 = EDGE_LOOP('',(#618,#619,#620));
#618 = ORIENTED_EDGE('',*,*,#525,.T.);
#619 = ORIENTED_EDGE('',*,*,#556,.T.);
#620 = ORIENTED_EDGE('',*,*,#587,.T.);
#621 = PLANE('',#622);
#622 = AXIS2_PLACEMENT_3D('',#623,#624,#625);
#623 = CARTESIAN_POINT('',(-1.754695028999,-1.754695028999,0.9));
#624 = DIRECTION('',(0.,0.,1.));
#625 = DIRECTION('',(1.,0.,0.));
#626 = ( GEOMETRIC_REPRESENTATION_CONTEXT(3) 
GLOBAL_UNCERTAINTY_ASSIGNED_CONTEXT((#630)) GLOBAL_UNIT_ASSIGNED_CONTEXT
((#627,#628,#629)) REPRESENTATION_CONTEXT('Context #1',
  '3D Context with UNIT and UNCERTAINTY') );
#627 = ( LENGTH_UNIT() NAMED_UNIT(*) SI_UNIT(.MILLI.,.METRE.) );
#628 = ( NAMED_UNIT(*) PLANE_ANGLE_UNIT() SI_UNIT($,.RADIAN.) );
#629 = ( NAMED_UNIT(*) SI_UNIT($,.STERADIAN.) SOLID_ANGLE_UNIT() );
#630 = UNCERTAINTY_MEASURE_WITH_UNIT(LENGTH_MEASURE(1.E-07),#627,
  'distance_accuracy_value','confusion accuracy');
#631 = SHAPE_DEFINITION_REPRESENTATION(#632,#508);
#632 = PRODUCT_DEFINITION_SHAPE('','',#633);
#633 = PRODUCT_DEFINITION('design','',#634,#637);
#634 = PRODUCT_DEFINITION_FORMATION('','',#635);
#635 = PRODUCT('Marking001','Marking001','',(#636));
#636 = PRODUCT_CONTEXT('',#2,'mechanical');
#637 = PRODUCT_DEFINITION_CONTEXT('part definition',#2,'design');
#638 = CONTEXT_DEPENDENT_SHAPE_REPRESENTATION(#639,#641);
#639 = ( REPRESENTATION_RELATIONSHIP('','',#508,#10) 
REPRESENTATION_RELATIONSHIP_WITH_TRANSFORMATION(#640) 
SHAPE_REPRESENTATION_RELATIONSHIP() );
#640 = ITEM_DEFINED_TRANSFORMATION('','',#11,#23);
#641 = PRODUCT_DEFINITION_SHAPE('Placement','Placement of an item',#642
  );
#642 = NEXT_ASSEMBLY_USAGE_OCCURRENCE('17','Marking001','',#5,#633,$);
#643 = PRODUCT_RELATED_PRODUCT_CATEGORY('part',$,(#635));
#644 = ADVANCED_BREP_SHAPE_REPRESENTATION('',(#11,#645),#795);
#645 = MANIFOLD_SOLID_BREP('',#646);
#646 = CLOSED_SHELL('',(#647,#687,#718,#749,#771,#783));
#647 = ADVANCED_FACE('',(#648),#682,.T.);
#648 = FACE_BOUND('',#649,.T.);
#649 = EDGE_LOOP('',(#650,#660,#668,#676));
#650 = ORIENTED_EDGE('',*,*,#651,.T.);
#651 = EDGE_CURVE('',#652,#654,#656,.T.);
#652 = VERTEX_POINT('',#653);
#653 = CARTESIAN_POINT('',(-0.15,-1.45,0.));
#654 = VERTEX_POINT('',#655);
#655 = CARTESIAN_POINT('',(-0.15,-1.45,0.2));
#656 = LINE('',#657,#658);
#657 = CARTESIAN_POINT('',(-0.15,-1.45,0.));
#658 = VECTOR('',#659,1.);
#659 = DIRECTION('',(0.,0.,1.));
#660 = ORIENTED_EDGE('',*,*,#661,.T.);
#661 = EDGE_CURVE('',#654,#662,#664,.T.);
#662 = VERTEX_POINT('',#663);
#663 = CARTESIAN_POINT('',(0.15,-1.45,0.2));
#664 = LINE('',#665,#666);
#665 = CARTESIAN_POINT('',(-0.15,-1.45,0.2));
#666 = VECTOR('',#667,1.);
#667 = DIRECTION('',(1.,0.,0.));
#668 = ORIENTED_EDGE('',*,*,#669,.F.);
#669 = EDGE_CURVE('',#670,#662,#672,.T.);
#670 = VERTEX_POINT('',#671);
#671 = CARTESIAN_POINT('',(0.15,-1.45,0.));
#672 = LINE('',#673,#674);
#673 = CARTESIAN_POINT('',(0.15,-1.45,0.));
#674 = VECTOR('',#675,1.);
#675 = DIRECTION('',(0.,0.,1.));
#676 = ORIENTED_EDGE('',*,*,#677,.F.);
#677 = EDGE_CURVE('',#652,#670,#678,.T.);
#678 = LINE('',#679,#680);
#679 = CARTESIAN_POINT('',(-0.15,-1.45,0.));
#680 = VECTOR('',#681,1.);
#681 = DIRECTION('',(1.,0.,0.));
#682 = PLANE('',#683);
#683 = AXIS2_PLACEMENT_3D('',#684,#685,#686);
#684 = CARTESIAN_POINT('',(-0.15,-1.45,0.));
#685 = DIRECTION('',(0.,1.,0.));
#686 = DIRECTION('',(1.,0.,0.));
#687 = ADVANCED_FACE('',(#688),#713,.T.);
#688 = FACE_BOUND('',#689,.T.);
#689 = EDGE_LOOP('',(#690,#691,#699,#707));
#690 = ORIENTED_EDGE('',*,*,#669,.T.);
#691 = ORIENTED_EDGE('',*,*,#692,.T.);
#692 = EDGE_CURVE('',#662,#693,#695,.T.);
#693 = VERTEX_POINT('',#694);
#694 = CARTESIAN_POINT('',(0.15,-2.,0.2));
#695 = LINE('',#696,#697);
#696 = CARTESIAN_POINT('',(0.15,-1.45,0.2));
#697 = VECTOR('',#698,1.);
#698 = DIRECTION('',(0.,-1.,0.));
#699 = ORIENTED_EDGE('',*,*,#700,.F.);
#700 = EDGE_CURVE('',#701,#693,#703,.T.);
#701 = VERTEX_POINT('',#702);
#702 = CARTESIAN_POINT('',(0.15,-2.,0.));
#703 = LINE('',#704,#705);
#704 = CARTESIAN_POINT('',(0.15,-2.,0.));
#705 = VECTOR('',#706,1.);
#706 = DIRECTION('',(0.,0.,1.));
#707 = ORIENTED_EDGE('',*,*,#708,.F.);
#708 = EDGE_CURVE('',#670,#701,#709,.T.);
#709 = LINE('',#710,#711);
#710 = CARTESIAN_POINT('',(0.15,-1.45,0.));
#711 = VECTOR('',#712,1.);
#712 = DIRECTION('',(0.,-1.,0.));
#713 = PLANE('',#714);
#714 = AXIS2_PLACEMENT_3D('',#715,#716,#717);
#715 = CARTESIAN_POINT('',(0.15,-1.45,0.));
#716 = DIRECTION('',(1.,0.,0.));
#717 = DIRECTION('',(0.,-1.,0.));
#718 = ADVANCED_FACE('',(#719),#744,.T.);
#719 = FACE_BOUND('',#720,.T.);
#720 = EDGE_LOOP('',(#721,#722,#730,#738));
#721 = ORIENTED_EDGE('',*,*,#700,.T.);
#722 = ORIENTED_EDGE('',*,*,#723,.T.);
#723 = EDGE_CURVE('',#693,#724,#726,.T.);
#724 = VERTEX_POINT('',#725);
#725 = CARTESIAN_POINT('',(-0.15,-2.,0.2));
#726 = LINE('',#727,#728);
#727 = CARTESIAN_POINT('',(0.15,-2.,0.2));
#728 = VECTOR('',#729,1.);
#729 = DIRECTION('',(-1.,0.,0.));
#730 = ORIENTED_EDGE('',*,*,#731,.F.);
#731 = EDGE_CURVE('',#732,#724,#734,.T.);
#732 = VERTEX_POINT('',#733);
#733 = CARTESIAN_POINT('',(-0.15,-2.,0.));
#734 = LINE('',#735,#736);
#735 = CARTESIAN_POINT('',(-0.15,-2.,0.));
#736 = VECTOR('',#737,1.);
#737 = DIRECTION('',(0.,0.,1.));
#738 = ORIENTED_EDGE('',*,*,#739,.F.);
#739 = EDGE_CURVE('',#701,#732,#740,.T.);
#740 = LINE('',#741,#742);
#741 = CARTESIAN_POINT('',(0.15,-2.,0.));
#742 = VECTOR('',#743,1.);
#743 = DIRECTION('',(-1.,0.,0.));
#744 = PLANE('',#745);
#745 = AXIS2_PLACEMENT_3D('',#746,#747,#748);
#746 = CARTESIAN_POINT('',(0.15,-2.,0.));
#747 = DIRECTION('',(0.,-1.,0.));
#748 = DIRECTION('',(-1.,0.,0.));
#749 = ADVANCED_FACE('',(#750),#766,.T.);
#750 = FACE_BOUND('',#751,.T.);
#751 = EDGE_LOOP('',(#752,#753,#759,#760));
#752 = ORIENTED_EDGE('',*,*,#731,.T.);
#753 = ORIENTED_EDGE('',*,*,#754,.T.);
#754 = EDGE_CURVE('',#724,#654,#755,.T.);
#755 = LINE('',#756,#757);
#756 = CARTESIAN_POINT('',(-0.15,-2.,0.2));
#757 = VECTOR('',#758,1.);
#758 = DIRECTION('',(0.,1.,0.));
#759 = ORIENTED_EDGE('',*,*,#651,.F.);
#760 = ORIENTED_EDGE('',*,*,#761,.F.);
#761 = EDGE_CURVE('',#732,#652,#762,.T.);
#762 = LINE('',#763,#764);
#763 = CARTESIAN_POINT('',(-0.15,-2.,0.));
#764 = VECTOR('',#765,1.);
#765 = DIRECTION('',(0.,1.,0.));
#766 = PLANE('',#767);
#767 = AXIS2_PLACEMENT_3D('',#768,#769,#770);
#768 = CARTESIAN_POINT('',(-0.15,-2.,0.));
#769 = DIRECTION('',(-1.,0.,0.));
#770 = DIRECTION('',(0.,1.,0.));
#771 = ADVANCED_FACE('',(#772),#778,.F.);
#772 = FACE_BOUND('',#773,.T.);
#773 = EDGE_LOOP('',(#774,#775,#776,#777));
#774 = ORIENTED_EDGE('',*,*,#677,.T.);
#775 = ORIENTED_EDGE('',*,*,#708,.T.);
#776 = ORIENTED_EDGE('',*,*,#739,.T.);
#777 = ORIENTED_EDGE('',*,*,#761,.T.);
#778 = PLANE('',#779);
#779 = AXIS2_PLACEMENT_3D('',#780,#781,#782);
#780 = CARTESIAN_POINT('',(8.163404592832E-18,-1.725,0.));
#781 = DIRECTION('',(0.,0.,1.));
#782 = DIRECTION('',(1.,0.,0.));
#783 = ADVANCED_FACE('',(#784),#790,.T.);
#784 = FACE_BOUND('',#785,.F.);
#785 = EDGE_LOOP('',(#786,#787,#788,#789));
#786 = ORIENTED_EDGE('',*,*,#661,.T.);
#787 = ORIENTED_EDGE('',*,*,#692,.T.);
#788 = ORIENTED_EDGE('',*,*,#723,.T.);
#789 = ORIENTED_EDGE('',*,*,#754,.T.);
#790 = PLANE('',#791);
#791 = AXIS2_PLACEMENT_3D('',#792,#793,#794);
#792 = CARTESIAN_POINT('',(8.163404592832E-18,-1.725,0.2));
#793 = DIRECTION('',(0.,0.,1.));
#794 = DIRECTION('',(1.,0.,0.));
#795 = ( GEOMETRIC_REPRESENTATION_CONTEXT(3) 
GLOBAL_UNCERTAINTY_ASSIGNED_CONTEXT((#799)) GLOBAL_UNIT_ASSIGNED_CONTEXT
((#796,#797,#798)) REPRESENTATION_CONTEXT('Context #1',
  '3D Context with UNIT and UNCERTAINTY') );
#796 = ( LENGTH_UNIT() NAMED_UNIT(*) SI_UNIT(.MILLI.,.METRE.) );
#797 = ( NAMED_UNIT(*) PLANE_ANGLE_UNIT() SI_UNIT($,.RADIAN.) );
#798 = ( NAMED_UNIT(*) SI_UNIT($,.STERADIAN.) SOLID_ANGLE_UNIT() );
#799 = UNCERTAINTY_MEASURE_WITH_UNIT(LENGTH_MEASURE(1.E-07),#796,
  'distance_accuracy_value','confusion accuracy');
#800 = SHAPE_DEFINITION_REPRESENTATION(#801,#644);
#801 = PRODUCT_DEFINITION_SHAPE('','',#802);
#802 = PRODUCT_DEFINITION('design','',#803,#806);
#803 = PRODUCT_DEFINITION_FORMATION('','',#804);
#804 = PRODUCT('Solid','Solid','',(#805));
#805 = PRODUCT_CONTEXT('',#2,'mechanical');
#806 = PRODUCT_DEFINITION_CONTEXT('part definition',#2,'design');
#807 = CONTEXT_DEPENDENT_SHAPE_REPRESENTATION(#808,#810);
#808 = ( REPRESENTATION_RELATIONSHIP('','',#644,#10) 
REPRESENTATION_RELATIONSHIP_WITH_TRANSFORMATION(#809) 
SHAPE_REPRESENTATION_RELATIONSHIP() );
#809 = ITEM_DEFINED_TRANSFORMATION('','',#11,#27);
#810 = PRODUCT_DEFINITION_SHAPE('Placement','Placement of an item',#811
  );
#811 = NEXT_ASSEMBLY_USAGE_OCCURRENCE('18','Solid','',#5,#802,$);
#812 = PRODUCT_RELATED_PRODUCT_CATEGORY('part',$,(#804));
#813 = CONTEXT_DEPENDENT_SHAPE_REPRESENTATION(#814,#816);
#814 = ( REPRESENTATION_RELATIONSHIP('','',#644,#10) 
REPRESENTATION_RELATIONSHIP_WITH_TRANSFORMATION(#815) 
SHAPE_REPRESENTATION_RELATIONSHIP() );
#815 = ITEM_DEFINED_TRANSFORMATION('','',#11,#31);
#816 = PRODUCT_DEFINITION_SHAPE('Placement','Placement of an item',#817
  );
#817 = NEXT_ASSEMBLY_USAGE_OCCURRENCE('19','Solid001','',#5,#802,$);
#818 = CONTEXT_DEPENDENT_SHAPE_REPRESENTATION(#819,#821);
#819 = ( REPRESENTATION_RELATIONSHIP('','',#644,#10) 
REPRESENTATION_RELATIONSHIP_WITH_TRANSFORMATION(#820) 
SHAPE_REPRESENTATION_RELATIONSHIP() );
#820 = ITEM_DEFINED_TRANSFORMATION('','',#11,#35);
#821 = PRODUCT_DEFINITION_SHAPE('Placement','Placement of an item',#822
  );
#822 = NEXT_ASSEMBLY_USAGE_OCCURRENCE('20','Solid002','',#5,#802,$);
#823 = CONTEXT_DEPENDENT_SHAPE_REPRESENTATION(#824,#826);
#824 = ( REPRESENTATION_RELATIONSHIP('','',#644,#10) 
REPRESENTATION_RELATIONSHIP_WITH_TRANSFORMATION(#825) 
SHAPE_REPRESENTATION_RELATIONSHIP() );
#825 = ITEM_DEFINED_TRANSFORMATION('','',#11,#39);
#826 = PRODUCT_DEFINITION_SHAPE('Placement','Placement of an item',#827
  );
#827 = NEXT_ASSEMBLY_USAGE_OCCURRENCE('21','Solid003','',#5,#802,$);
#828 = ADVANCED_BREP_SHAPE_REPRESENTATION('',(#11,#829),#979);
#829 = MANIFOLD_SOLID_BREP('',#830);
#830 = CLOSED_SHELL('',(#831,#871,#902,#933,#955,#967));
#831 = ADVANCED_FACE('',(#832),#866,.T.);
#832 = FACE_BOUND('',#833,.F.);
#833 = EDGE_LOOP('',(#834,#844,#852,#860));
#834 = ORIENTED_EDGE('',*,*,#835,.T.);
#835 = EDGE_CURVE('',#836,#838,#840,.T.);
#836 = VERTEX_POINT('',#837);
#837 = CARTESIAN_POINT('',(-1.35,1.45,0.));
#838 = VERTEX_POINT('',#839);
#839 = CARTESIAN_POINT('',(-1.35,1.45,0.2));
#840 = LINE('',#841,#842);
#841 = CARTESIAN_POINT('',(-1.35,1.45,0.));
#842 = VECTOR('',#843,1.);
#843 = DIRECTION('',(-0.,-0.,1.));
#844 = ORIENTED_EDGE('',*,*,#845,.T.);
#845 = EDGE_CURVE('',#838,#846,#848,.T.);
#846 = VERTEX_POINT('',#847);
#847 = CARTESIAN_POINT('',(-1.05,1.45,0.2));
#848 = LINE('',#849,#850);
#849 = CARTESIAN_POINT('',(-1.35,1.45,0.2));
#850 = VECTOR('',#851,1.);
#851 = DIRECTION('',(1.,0.,0.));
#852 = ORIENTED_EDGE('',*,*,#853,.F.);
#853 = EDGE_CURVE('',#854,#846,#856,.T.);
#854 = VERTEX_POINT('',#855);
#855 = CARTESIAN_POINT('',(-1.05,1.45,0.));
#856 = LINE('',#857,#858);
#857 = CARTESIAN_POINT('',(-1.05,1.45,0.));
#858 = VECTOR('',#859,1.);
#859 = DIRECTION('',(-0.,-0.,1.));
#860 = ORIENTED_EDGE('',*,*,#861,.F.);
#861 = EDGE_CURVE('',#836,#854,#862,.T.);
#862 = LINE('',#863,#864);
#863 = CARTESIAN_POINT('',(-1.35,1.45,0.));
#864 = VECTOR('',#865,1.);
#865 = DIRECTION('',(1.,0.,0.));
#866 = PLANE('',#867);
#867 = AXIS2_PLACEMENT_3D('',#868,#869,#870);
#868 = CARTESIAN_POINT('',(-1.35,1.45,0.));
#869 = DIRECTION('',(-0.,-1.,-0.));
#870 = DIRECTION('',(-1.,0.,0.));
#871 = ADVANCED_FACE('',(#872),#897,.T.);
#872 = FACE_BOUND('',#873,.F.);
#873 = EDGE_LOOP('',(#874,#875,#883,#891));
#874 = ORIENTED_EDGE('',*,*,#853,.T.);
#875 = ORIENTED_EDGE('',*,*,#876,.T.);
#876 = EDGE_CURVE('',#846,#877,#879,.T.);
#877 = VERTEX_POINT('',#878);
#878 = CARTESIAN_POINT('',(-1.05,2.,0.2));
#879 = LINE('',#880,#881);
#880 = CARTESIAN_POINT('',(-1.05,1.45,0.2));
#881 = VECTOR('',#882,1.);
#882 = DIRECTION('',(0.,1.,0.));
#883 = ORIENTED_EDGE('',*,*,#884,.F.);
#884 = EDGE_CURVE('',#885,#877,#887,.T.);
#885 = VERTEX_POINT('',#886);
#886 = CARTESIAN_POINT('',(-1.05,2.,0.));
#887 = LINE('',#888,#889);
#888 = CARTESIAN_POINT('',(-1.05,2.,0.));
#889 = VECTOR('',#890,1.);
#890 = DIRECTION('',(-0.,-0.,1.));
#891 = ORIENTED_EDGE('',*,*,#892,.F.);
#892 = EDGE_CURVE('',#854,#885,#893,.T.);
#893 = LINE('',#894,#895);
#894 = CARTESIAN_POINT('',(-1.05,1.45,0.));
#895 = VECTOR('',#896,1.);
#896 = DIRECTION('',(0.,1.,0.));
#897 = PLANE('',#898);
#898 = AXIS2_PLACEMENT_3D('',#899,#900,#901);
#899 = CARTESIAN_POINT('',(-1.05,1.45,0.));
#900 = DIRECTION('',(1.,-0.,-0.));
#901 = DIRECTION('',(0.,-1.,0.));
#902 = ADVANCED_FACE('',(#903),#928,.T.);
#903 = FACE_BOUND('',#904,.F.);
#904 = EDGE_LOOP('',(#905,#906,#914,#922));
#905 = ORIENTED_EDGE('',*,*,#884,.T.);
#906 = ORIENTED_EDGE('',*,*,#907,.T.);
#907 = EDGE_CURVE('',#877,#908,#910,.T.);
#908 = VERTEX_POINT('',#909);
#909 = CARTESIAN_POINT('',(-1.35,2.,0.2));
#910 = LINE('',#911,#912);
#911 = CARTESIAN_POINT('',(-1.05,2.,0.2));
#912 = VECTOR('',#913,1.);
#913 = DIRECTION('',(-1.,-0.,-0.));
#914 = ORIENTED_EDGE('',*,*,#915,.F.);
#915 = EDGE_CURVE('',#916,#908,#918,.T.);
#916 = VERTEX_POINT('',#917);
#917 = CARTESIAN_POINT('',(-1.35,2.,0.));
#918 = LINE('',#919,#920);
#919 = CARTESIAN_POINT('',(-1.35,2.,0.));
#920 = VECTOR('',#921,1.);
#921 = DIRECTION('',(-0.,-0.,1.));
#922 = ORIENTED_EDGE('',*,*,#923,.F.);
#923 = EDGE_CURVE('',#885,#916,#924,.T.);
#924 = LINE('',#925,#926);
#925 = CARTESIAN_POINT('',(-1.05,2.,0.));
#926 = VECTOR('',#927,1.);
#927 = DIRECTION('',(-1.,-0.,-0.));
#928 = PLANE('',#929);
#929 = AXIS2_PLACEMENT_3D('',#930,#931,#932);
#930 = CARTESIAN_POINT('',(-1.05,2.,0.));
#931 = DIRECTION('',(-0.,1.,-0.));
#932 = DIRECTION('',(1.,0.,0.));
#933 = ADVANCED_FACE('',(#934),#950,.T.);
#934 = FACE_BOUND('',#935,.F.);
#935 = EDGE_LOOP('',(#936,#937,#943,#944));
#936 = ORIENTED_EDGE('',*,*,#915,.T.);
#937 = ORIENTED_EDGE('',*,*,#938,.T.);
#938 = EDGE_CURVE('',#908,#838,#939,.T.);
#939 = LINE('',#940,#941);
#940 = CARTESIAN_POINT('',(-1.35,2.,0.2));
#941 = VECTOR('',#942,1.);
#942 = DIRECTION('',(-0.,-1.,-0.));
#943 = ORIENTED_EDGE('',*,*,#835,.F.);
#944 = ORIENTED_EDGE('',*,*,#945,.F.);
#945 = EDGE_CURVE('',#916,#836,#946,.T.);
#946 = LINE('',#947,#948);
#947 = CARTESIAN_POINT('',(-1.35,2.,0.));
#948 = VECTOR('',#949,1.);
#949 = DIRECTION('',(-0.,-1.,-0.));
#950 = PLANE('',#951);
#951 = AXIS2_PLACEMENT_3D('',#952,#953,#954);
#952 = CARTESIAN_POINT('',(-1.35,2.,0.));
#953 = DIRECTION('',(-1.,-0.,-0.));
#954 = DIRECTION('',(0.,1.,0.));
#955 = ADVANCED_FACE('',(#956),#962,.F.);
#956 = FACE_BOUND('',#957,.F.);
#957 = EDGE_LOOP('',(#958,#959,#960,#961));
#958 = ORIENTED_EDGE('',*,*,#861,.T.);
#959 = ORIENTED_EDGE('',*,*,#892,.T.);
#960 = ORIENTED_EDGE('',*,*,#923,.T.);
#961 = ORIENTED_EDGE('',*,*,#945,.T.);
#962 = PLANE('',#963);
#963 = AXIS2_PLACEMENT_3D('',#964,#965,#966);
#964 = CARTESIAN_POINT('',(-1.2,1.725,0.));
#965 = DIRECTION('',(0.,0.,1.));
#966 = DIRECTION('',(-1.,0.,0.));
#967 = ADVANCED_FACE('',(#968),#974,.T.);
#968 = FACE_BOUND('',#969,.T.);
#969 = EDGE_LOOP('',(#970,#971,#972,#973));
#970 = ORIENTED_EDGE('',*,*,#845,.T.);
#971 = ORIENTED_EDGE('',*,*,#876,.T.);
#972 = ORIENTED_EDGE('',*,*,#907,.T.);
#973 = ORIENTED_EDGE('',*,*,#938,.T.);
#974 = PLANE('',#975);
#975 = AXIS2_PLACEMENT_3D('',#976,#977,#978);
#976 = CARTESIAN_POINT('',(-1.2,1.725,0.2));
#977 = DIRECTION('',(0.,0.,1.));
#978 = DIRECTION('',(-1.,0.,0.));
#979 = ( GEOMETRIC_REPRESENTATION_CONTEXT(3) 
GLOBAL_UNCERTAINTY_ASSIGNED_CONTEXT((#983)) GLOBAL_UNIT_ASSIGNED_CONTEXT
((#980,#981,#982)) REPRESENTATION_CONTEXT('Context #1',
  '3D Context with UNIT and UNCERTAINTY') );
#980 = ( LENGTH_UNIT() NAMED_UNIT(*) SI_UNIT(.MILLI.,.METRE.) );
#981 = ( NAMED_UNIT(*) PLANE_ANGLE_UNIT() SI_UNIT($,.RADIAN.) );
#982 = ( NAMED_UNIT(*) SI_UNIT($,.STERADIAN.) SOLID_ANGLE_UNIT() );
#983 = UNCERTAINTY_MEASURE_WITH_UNIT(LENGTH_MEASURE(1.E-07),#980,
  'distance_accuracy_value','confusion accuracy');
#984 = SHAPE_DEFINITION_REPRESENTATION(#985,#828);
#985 = PRODUCT_DEFINITION_SHAPE('','',#986);
#986 = PRODUCT_DEFINITION('design','',#987,#990);
#987 = PRODUCT_DEFINITION_FORMATION('','',#988);
#988 = PRODUCT('Solid004','Solid004','',(#989));
#989 = PRODUCT_CONTEXT('',#2,'mechanical');
#990 = PRODUCT_DEFINITION_CONTEXT('part definition',#2,'design');
#991 = CONTEXT_DEPENDENT_SHAPE_REPRESENTATION(#992,#994);
#992 = ( REPRESENTATION_RELATIONSHIP('','',#828,#10) 
REPRESENTATION_RELATIONSHIP_WITH_TRANSFORMATION(#993) 
SHAPE_REPRESENTATION_RELATIONSHIP() );
#993 = ITEM_DEFINED_TRANSFORMATION('','',#11,#43);
#994 = PRODUCT_DEFINITION_SHAPE('Placement','Placement of an item',#995
  );
#995 = NEXT_ASSEMBLY_USAGE_OCCURRENCE('22','Solid004','',#5,#986,$);
#996 = PRODUCT_RELATED_PRODUCT_CATEGORY('part',$,(#988));
#997 = ADVANCED_BREP_SHAPE_REPRESENTATION('',(#11,#998),#1148);
#998 = MANIFOLD_SOLID_BREP('',#999);
#999 = CLOSED_SHELL('',(#1000,#1040,#1071,#1102,#1124,#1136));
#1000 = ADVANCED_FACE('',(#1001),#1035,.T.);
#1001 = FACE_BOUND('',#1002,.F.);
#1002 = EDGE_LOOP('',(#1003,#1013,#1021,#1029));
#1003 = ORIENTED_EDGE('',*,*,#1004,.T.);
#1004 = EDGE_CURVE('',#1005,#1007,#1009,.T.);
#1005 = VERTEX_POINT('',#1006);
#1006 = CARTESIAN_POINT('',(-1.35,1.45,0.));
#1007 = VERTEX_POINT('',#1008);
#1008 = CARTESIAN_POINT('',(-1.35,1.45,0.2));
#1009 = LINE('',#1010,#1011);
#1010 = CARTESIAN_POINT('',(-1.35,1.45,0.));
#1011 = VECTOR('',#1012,1.);
#1012 = DIRECTION('',(-0.,-0.,1.));
#1013 = ORIENTED_EDGE('',*,*,#1014,.T.);
#1014 = EDGE_CURVE('',#1007,#1015,#1017,.T.);
#1015 = VERTEX_POINT('',#1016);
#1016 = CARTESIAN_POINT('',(-1.05,1.45,0.2));
#1017 = LINE('',#1018,#1019);
#1018 = CARTESIAN_POINT('',(-1.35,1.45,0.2));
#1019 = VECTOR('',#1020,1.);
#1020 = DIRECTION('',(1.,0.,0.));
#1021 = ORIENTED_EDGE('',*,*,#1022,.F.);
#1022 = EDGE_CURVE('',#1023,#1015,#1025,.T.);
#1023 = VERTEX_POINT('',#1024);
#1024 = CARTESIAN_POINT('',(-1.05,1.45,0.));
#1025 = LINE('',#1026,#1027);
#1026 = CARTESIAN_POINT('',(-1.05,1.45,0.));
#1027 = VECTOR('',#1028,1.);
#1028 = DIRECTION('',(-0.,-0.,1.));
#1029 = ORIENTED_EDGE('',*,*,#1030,.F.);
#1030 = EDGE_CURVE('',#1005,#1023,#1031,.T.);
#1031 = LINE('',#1032,#1033);
#1032 = CARTESIAN_POINT('',(-1.35,1.45,0.));
#1033 = VECTOR('',#1034,1.);
#1034 = DIRECTION('',(1.,0.,0.));
#1035 = PLANE('',#1036);
#1036 = AXIS2_PLACEMENT_3D('',#1037,#1038,#1039);
#1037 = CARTESIAN_POINT('',(-1.35,1.45,0.));
#1038 = DIRECTION('',(-0.,-1.,-0.));
#1039 = DIRECTION('',(-1.,0.,0.));
#1040 = ADVANCED_FACE('',(#1041),#1066,.T.);
#1041 = FACE_BOUND('',#1042,.F.);
#1042 = EDGE_LOOP('',(#1043,#1044,#1052,#1060));
#1043 = ORIENTED_EDGE('',*,*,#1022,.T.);
#1044 = ORIENTED_EDGE('',*,*,#1045,.T.);
#1045 = EDGE_CURVE('',#1015,#1046,#1048,.T.);
#1046 = VERTEX_POINT('',#1047);
#1047 = CARTESIAN_POINT('',(-1.05,2.,0.2));
#1048 = LINE('',#1049,#1050);
#1049 = CARTESIAN_POINT('',(-1.05,1.45,0.2));
#1050 = VECTOR('',#1051,1.);
#1051 = DIRECTION('',(0.,1.,0.));
#1052 = ORIENTED_EDGE('',*,*,#1053,.F.);
#1053 = EDGE_CURVE('',#1054,#1046,#1056,.T.);
#1054 = VERTEX_POINT('',#1055);
#1055 = CARTESIAN_POINT('',(-1.05,2.,0.));
#1056 = LINE('',#1057,#1058);
#1057 = CARTESIAN_POINT('',(-1.05,2.,0.));
#1058 = VECTOR('',#1059,1.);
#1059 = DIRECTION('',(-0.,-0.,1.));
#1060 = ORIENTED_EDGE('',*,*,#1061,.F.);
#1061 = EDGE_CURVE('',#1023,#1054,#1062,.T.);
#1062 = LINE('',#1063,#1064);
#1063 = CARTESIAN_POINT('',(-1.05,1.45,0.));
#1064 = VECTOR('',#1065,1.);
#1065 = DIRECTION('',(0.,1.,0.));
#1066 = PLANE('',#1067);
#1067 = AXIS2_PLACEMENT_3D('',#1068,#1069,#1070);
#1068 = CARTESIAN_POINT('',(-1.05,1.45,0.));
#1069 = DIRECTION('',(1.,-0.,-0.));
#1070 = DIRECTION('',(0.,-1.,0.));
#1071 = ADVANCED_FACE('',(#1072),#1097,.T.);
#1072 = FACE_BOUND('',#1073,.F.);
#1073 = EDGE_LOOP('',(#1074,#1075,#1083,#1091));
#1074 = ORIENTED_EDGE('',*,*,#1053,.T.);
#1075 = ORIENTED_EDGE('',*,*,#1076,.T.);
#1076 = EDGE_CURVE('',#1046,#1077,#1079,.T.);
#1077 = VERTEX_POINT('',#1078);
#1078 = CARTESIAN_POINT('',(-1.35,2.,0.2));
#1079 = LINE('',#1080,#1081);
#1080 = CARTESIAN_POINT('',(-1.05,2.,0.2));
#1081 = VECTOR('',#1082,1.);
#1082 = DIRECTION('',(-1.,-0.,-0.));
#1083 = ORIENTED_EDGE('',*,*,#1084,.F.);
#1084 = EDGE_CURVE('',#1085,#1077,#1087,.T.);
#1085 = VERTEX_POINT('',#1086);
#1086 = CARTESIAN_POINT('',(-1.35,2.,0.));
#1087 = LINE('',#1088,#1089);
#1088 = CARTESIAN_POINT('',(-1.35,2.,0.));
#1089 = VECTOR('',#1090,1.);
#1090 = DIRECTION('',(-0.,-0.,1.));
#1091 = ORIENTED_EDGE('',*,*,#1092,.F.);
#1092 = EDGE_CURVE('',#1054,#1085,#1093,.T.);
#1093 = LINE('',#1094,#1095);
#1094 = CARTESIAN_POINT('',(-1.05,2.,0.));
#1095 = VECTOR('',#1096,1.);
#1096 = DIRECTION('',(-1.,-0.,-0.));
#1097 = PLANE('',#1098);
#1098 = AXIS2_PLACEMENT_3D('',#1099,#1100,#1101);
#1099 = CARTESIAN_POINT('',(-1.05,2.,0.));
#1100 = DIRECTION('',(-0.,1.,-0.));
#1101 = DIRECTION('',(1.,0.,0.));
#1102 = ADVANCED_FACE('',(#1103),#1119,.T.);
#1103 = FACE_BOUND('',#1104,.F.);
#1104 = EDGE_LOOP('',(#1105,#1106,#1112,#1113));
#1105 = ORIENTED_EDGE('',*,*,#1084,.T.);
#1106 = ORIENTED_EDGE('',*,*,#1107,.T.);
#1107 = EDGE_CURVE('',#1077,#1007,#1108,.T.);
#1108 = LINE('',#1109,#1110);
#1109 = CARTESIAN_POINT('',(-1.35,2.,0.2));
#1110 = VECTOR('',#1111,1.);
#1111 = DIRECTION('',(-0.,-1.,-0.));
#1112 = ORIENTED_EDGE('',*,*,#1004,.F.);
#1113 = ORIENTED_EDGE('',*,*,#1114,.F.);
#1114 = EDGE_CURVE('',#1085,#1005,#1115,.T.);
#1115 = LINE('',#1116,#1117);
#1116 = CARTESIAN_POINT('',(-1.35,2.,0.));
#1117 = VECTOR('',#1118,1.);
#1118 = DIRECTION('',(-0.,-1.,-0.));
#1119 = PLANE('',#1120);
#1120 = AXIS2_PLACEMENT_3D('',#1121,#1122,#1123);
#1121 = CARTESIAN_POINT('',(-1.35,2.,0.));
#1122 = DIRECTION('',(-1.,-0.,-0.));
#1123 = DIRECTION('',(0.,1.,0.));
#1124 = ADVANCED_FACE('',(#1125),#1131,.F.);
#1125 = FACE_BOUND('',#1126,.F.);
#1126 = EDGE_LOOP('',(#1127,#1128,#1129,#1130));
#1127 = ORIENTED_EDGE('',*,*,#1030,.T.);
#1128 = ORIENTED_EDGE('',*,*,#1061,.T.);
#1129 = ORIENTED_EDGE('',*,*,#1092,.T.);
#1130 = ORIENTED_EDGE('',*,*,#1114,.T.);
#1131 = PLANE('',#1132);
#1132 = AXIS2_PLACEMENT_3D('',#1133,#1134,#1135);
#1133 = CARTESIAN_POINT('',(-1.2,1.725,0.));
#1134 = DIRECTION('',(0.,0.,1.));
#1135 = DIRECTION('',(-1.,0.,0.));
#1136 = ADVANCED_FACE('',(#1137),#1143,.T.);
#1137 = FACE_BOUND('',#1138,.T.);
#1138 = EDGE_LOOP('',(#1139,#1140,#1141,#1142));
#1139 = ORIENTED_EDGE('',*,*,#1014,.T.);
#1140 = ORIENTED_EDGE('',*,*,#1045,.T.);
#1141 = ORIENTED_EDGE('',*,*,#1076,.T.);
#1142 = ORIENTED_EDGE('',*,*,#1107,.T.);
#1143 = PLANE('',#1144);
#1144 = AXIS2_PLACEMENT_3D('',#1145,#1146,#1147);
#1145 = CARTESIAN_POINT('',(-1.2,1.725,0.2));
#1146 = DIRECTION('',(0.,0.,1.));
#1147 = DIRECTION('',(-1.,0.,0.));
#1148 = ( GEOMETRIC_REPRESENTATION_CONTEXT(3) 
GLOBAL_UNCERTAINTY_ASSIGNED_CONTEXT((#1152)) 
GLOBAL_UNIT_ASSIGNED_CONTEXT((#1149,#1150,#1151)) REPRESENTATION_CONTEXT
('Context #1','3D Context with UNIT and UNCERTAINTY') );
#1149 = ( LENGTH_UNIT() NAMED_UNIT(*) SI_UNIT(.MILLI.,.METRE.) );
#1150 = ( NAMED_UNIT(*) PLANE_ANGLE_UNIT() SI_UNIT($,.RADIAN.) );
#1151 = ( NAMED_UNIT(*) SI_UNIT($,.STERADIAN.) SOLID_ANGLE_UNIT() );
#1152 = UNCERTAINTY_MEASURE_WITH_UNIT(LENGTH_MEASURE(1.E-07),#1149,
  'distance_accuracy_value','confusion accuracy');
#1153 = SHAPE_DEFINITION_REPRESENTATION(#1154,#997);
#1154 = PRODUCT_DEFINITION_SHAPE('','',#1155);
#1155 = PRODUCT_DEFINITION('design','',#1156,#1159);
#1156 = PRODUCT_DEFINITION_FORMATION('','',#1157);
#1157 = PRODUCT('Solid005','Solid005','',(#1158));
#1158 = PRODUCT_CONTEXT('',#2,'mechanical');
#1159 = PRODUCT_DEFINITION_CONTEXT('part definition',#2,'design');
#1160 = CONTEXT_DEPENDENT_SHAPE_REPRESENTATION(#1161,#1163);
#1161 = ( REPRESENTATION_RELATIONSHIP('','',#997,#10) 
REPRESENTATION_RELATIONSHIP_WITH_TRANSFORMATION(#1162) 
SHAPE_REPRESENTATION_RELATIONSHIP() );
#1162 = ITEM_DEFINED_TRANSFORMATION('','',#11,#47);
#1163 = PRODUCT_DEFINITION_SHAPE('Placement','Placement of an item',
  #1164);
#1164 = NEXT_ASSEMBLY_USAGE_OCCURRENCE('23','Solid005','',#5,#1155,$);
#1165 = PRODUCT_RELATED_PRODUCT_CATEGORY('part',$,(#1157));
#1166 = ADVANCED_BREP_SHAPE_REPRESENTATION('',(#11,#1167),#1317);
#1167 = MANIFOLD_SOLID_BREP('',#1168);
#1168 = CLOSED_SHELL('',(#1169,#1209,#1240,#1271,#1293,#1305));
#1169 = ADVANCED_FACE('',(#1170),#1204,.T.);
#1170 = FACE_BOUND('',#1171,.F.);
#1171 = EDGE_LOOP('',(#1172,#1182,#1190,#1198));
#1172 = ORIENTED_EDGE('',*,*,#1173,.T.);
#1173 = EDGE_CURVE('',#1174,#1176,#1178,.T.);
#1174 = VERTEX_POINT('',#1175);
#1175 = CARTESIAN_POINT('',(-1.35,1.45,0.));
#1176 = VERTEX_POINT('',#1177);
#1177 = CARTESIAN_POINT('',(-1.35,1.45,0.2));
#1178 = LINE('',#1179,#1180);
#1179 = CARTESIAN_POINT('',(-1.35,1.45,0.));
#1180 = VECTOR('',#1181,1.);
#1181 = DIRECTION('',(-0.,-0.,1.));
#1182 = ORIENTED_EDGE('',*,*,#1183,.T.);
#1183 = EDGE_CURVE('',#1176,#1184,#1186,.T.);
#1184 = VERTEX_POINT('',#1185);
#1185 = CARTESIAN_POINT('',(-1.05,1.45,0.2));
#1186 = LINE('',#1187,#1188);
#1187 = CARTESIAN_POINT('',(-1.35,1.45,0.2));
#1188 = VECTOR('',#1189,1.);
#1189 = DIRECTION('',(1.,0.,0.));
#1190 = ORIENTED_EDGE('',*,*,#1191,.F.);
#1191 = EDGE_CURVE('',#1192,#1184,#1194,.T.);
#1192 = VERTEX_POINT('',#1193);
#1193 = CARTESIAN_POINT('',(-1.05,1.45,0.));
#1194 = LINE('',#1195,#1196);
#1195 = CARTESIAN_POINT('',(-1.05,1.45,0.));
#1196 = VECTOR('',#1197,1.);
#1197 = DIRECTION('',(-0.,-0.,1.));
#1198 = ORIENTED_EDGE('',*,*,#1199,.F.);
#1199 = EDGE_CURVE('',#1174,#1192,#1200,.T.);
#1200 = LINE('',#1201,#1202);
#1201 = CARTESIAN_POINT('',(-1.35,1.45,0.));
#1202 = VECTOR('',#1203,1.);
#1203 = DIRECTION('',(1.,0.,0.));
#1204 = PLANE('',#1205);
#1205 = AXIS2_PLACEMENT_3D('',#1206,#1207,#1208);
#1206 = CARTESIAN_POINT('',(-1.35,1.45,0.));
#1207 = DIRECTION('',(-0.,-1.,-0.));
#1208 = DIRECTION('',(-1.,0.,0.));
#1209 = ADVANCED_FACE('',(#1210),#1235,.T.);
#1210 = FACE_BOUND('',#1211,.F.);
#1211 = EDGE_LOOP('',(#1212,#1213,#1221,#1229));
#1212 = ORIENTED_EDGE('',*,*,#1191,.T.);
#1213 = ORIENTED_EDGE('',*,*,#1214,.T.);
#1214 = EDGE_CURVE('',#1184,#1215,#1217,.T.);
#1215 = VERTEX_POINT('',#1216);
#1216 = CARTESIAN_POINT('',(-1.05,2.,0.2));
#1217 = LINE('',#1218,#1219);
#1218 = CARTESIAN_POINT('',(-1.05,1.45,0.2));
#1219 = VECTOR('',#1220,1.);
#1220 = DIRECTION('',(0.,1.,0.));
#1221 = ORIENTED_EDGE('',*,*,#1222,.F.);
#1222 = EDGE_CURVE('',#1223,#1215,#1225,.T.);
#1223 = VERTEX_POINT('',#1224);
#1224 = CARTESIAN_POINT('',(-1.05,2.,0.));
#1225 = LINE('',#1226,#1227);
#1226 = CARTESIAN_POINT('',(-1.05,2.,0.));
#1227 = VECTOR('',#1228,1.);
#1228 = DIRECTION('',(-0.,-0.,1.));
#1229 = ORIENTED_EDGE('',*,*,#1230,.F.);
#1230 = EDGE_CURVE('',#1192,#1223,#1231,.T.);
#1231 = LINE('',#1232,#1233);
#1232 = CARTESIAN_POINT('',(-1.05,1.45,0.));
#1233 = VECTOR('',#1234,1.);
#1234 = DIRECTION('',(0.,1.,0.));
#1235 = PLANE('',#1236);
#1236 = AXIS2_PLACEMENT_3D('',#1237,#1238,#1239);
#1237 = CARTESIAN_POINT('',(-1.05,1.45,0.));
#1238 = DIRECTION('',(1.,-0.,-0.));
#1239 = DIRECTION('',(0.,-1.,0.));
#1240 = ADVANCED_FACE('',(#1241),#1266,.T.);
#1241 = FACE_BOUND('',#1242,.F.);
#1242 = EDGE_LOOP('',(#1243,#1244,#1252,#1260));
#1243 = ORIENTED_EDGE('',*,*,#1222,.T.);
#1244 = ORIENTED_EDGE('',*,*,#1245,.T.);
#1245 = EDGE_CURVE('',#1215,#1246,#1248,.T.);
#1246 = VERTEX_POINT('',#1247);
#1247 = CARTESIAN_POINT('',(-1.35,2.,0.2));
#1248 = LINE('',#1249,#1250);
#1249 = CARTESIAN_POINT('',(-1.05,2.,0.2));
#1250 = VECTOR('',#1251,1.);
#1251 = DIRECTION('',(-1.,-0.,-0.));
#1252 = ORIENTED_EDGE('',*,*,#1253,.F.);
#1253 = EDGE_CURVE('',#1254,#1246,#1256,.T.);
#1254 = VERTEX_POINT('',#1255);
#1255 = CARTESIAN_POINT('',(-1.35,2.,0.));
#1256 = LINE('',#1257,#1258);
#1257 = CARTESIAN_POINT('',(-1.35,2.,0.));
#1258 = VECTOR('',#1259,1.);
#1259 = DIRECTION('',(-0.,-0.,1.));
#1260 = ORIENTED_EDGE('',*,*,#1261,.F.);
#1261 = EDGE_CURVE('',#1223,#1254,#1262,.T.);
#1262 = LINE('',#1263,#1264);
#1263 = CARTESIAN_POINT('',(-1.05,2.,0.));
#1264 = VECTOR('',#1265,1.);
#1265 = DIRECTION('',(-1.,-0.,-0.));
#1266 = PLANE('',#1267);
#1267 = AXIS2_PLACEMENT_3D('',#1268,#1269,#1270);
#1268 = CARTESIAN_POINT('',(-1.05,2.,0.));
#1269 = DIRECTION('',(-0.,1.,-0.));
#1270 = DIRECTION('',(1.,0.,0.));
#1271 = ADVANCED_FACE('',(#1272),#1288,.T.);
#1272 = FACE_BOUND('',#1273,.F.);
#1273 = EDGE_LOOP('',(#1274,#1275,#1281,#1282));
#1274 = ORIENTED_EDGE('',*,*,#1253,.T.);
#1275 = ORIENTED_EDGE('',*,*,#1276,.T.);
#1276 = EDGE_CURVE('',#1246,#1176,#1277,.T.);
#1277 = LINE('',#1278,#1279);
#1278 = CARTESIAN_POINT('',(-1.35,2.,0.2));
#1279 = VECTOR('',#1280,1.);
#1280 = DIRECTION('',(-0.,-1.,-0.));
#1281 = ORIENTED_EDGE('',*,*,#1173,.F.);
#1282 = ORIENTED_EDGE('',*,*,#1283,.F.);
#1283 = EDGE_CURVE('',#1254,#1174,#1284,.T.);
#1284 = LINE('',#1285,#1286);
#1285 = CARTESIAN_POINT('',(-1.35,2.,0.));
#1286 = VECTOR('',#1287,1.);
#1287 = DIRECTION('',(-0.,-1.,-0.));
#1288 = PLANE('',#1289);
#1289 = AXIS2_PLACEMENT_3D('',#1290,#1291,#1292);
#1290 = CARTESIAN_POINT('',(-1.35,2.,0.));
#1291 = DIRECTION('',(-1.,-0.,-0.));
#1292 = DIRECTION('',(0.,1.,0.));
#1293 = ADVANCED_FACE('',(#1294),#1300,.F.);
#1294 = FACE_BOUND('',#1295,.F.);
#1295 = EDGE_LOOP('',(#1296,#1297,#1298,#1299));
#1296 = ORIENTED_EDGE('',*,*,#1199,.T.);
#1297 = ORIENTED_EDGE('',*,*,#1230,.T.);
#1298 = ORIENTED_EDGE('',*,*,#1261,.T.);
#1299 = ORIENTED_EDGE('',*,*,#1283,.T.);
#1300 = PLANE('',#1301);
#1301 = AXIS2_PLACEMENT_3D('',#1302,#1303,#1304);
#1302 = CARTESIAN_POINT('',(-1.2,1.725,0.));
#1303 = DIRECTION('',(0.,0.,1.));
#1304 = DIRECTION('',(-1.,0.,0.));
#1305 = ADVANCED_FACE('',(#1306),#1312,.T.);
#1306 = FACE_BOUND('',#1307,.T.);
#1307 = EDGE_LOOP('',(#1308,#1309,#1310,#1311));
#1308 = ORIENTED_EDGE('',*,*,#1183,.T.);
#1309 = ORIENTED_EDGE('',*,*,#1214,.T.);
#1310 = ORIENTED_EDGE('',*,*,#1245,.T.);
#1311 = ORIENTED_EDGE('',*,*,#1276,.T.);
#1312 = PLANE('',#1313);
#1313 = AXIS2_PLACEMENT_3D('',#1314,#1315,#1316);
#1314 = CARTESIAN_POINT('',(-1.2,1.725,0.2));
#1315 = DIRECTION('',(0.,0.,1.));
#1316 = DIRECTION('',(-1.,0.,0.));
#1317 = ( GEOMETRIC_REPRESENTATION_CONTEXT(3) 
GLOBAL_UNCERTAINTY_ASSIGNED_CONTEXT((#1321)) 
GLOBAL_UNIT_ASSIGNED_CONTEXT((#1318,#1319,#1320)) REPRESENTATION_CONTEXT
('Context #1','3D Context with UNIT and UNCERTAINTY') );
#1318 = ( LENGTH_UNIT() NAMED_UNIT(*) SI_UNIT(.MILLI.,.METRE.) );
#1319 = ( NAMED_UNIT(*) PLANE_ANGLE_UNIT() SI_UNIT($,.RADIAN.) );
#1320 = ( NAMED_UNIT(*) SI_UNIT($,.STERADIAN.) SOLID_ANGLE_UNIT() );
#1321 = UNCERTAINTY_MEASURE_WITH_UNIT(LENGTH_MEASURE(1.E-07),#1318,
  'distance_accuracy_value','confusion accuracy');
#1322 = SHAPE_DEFINITION_REPRESENTATION(#1323,#1166);
#1323 = PRODUCT_DEFINITION_SHAPE('','',#1324);
#1324 = PRODUCT_DEFINITION('design','',#1325,#1328);
#1325 = PRODUCT_DEFINITION_FORMATION('','',#1326);
#1326 = PRODUCT('Solid006','Solid006','',(#1327));
#1327 = PRODUCT_CONTEXT('',#2,'mechanical');
#1328 = PRODUCT_DEFINITION_CONTEXT('part definition',#2,'design');
#1329 = CONTEXT_DEPENDENT_SHAPE_REPRESENTATION(#1330,#1332);
#1330 = ( REPRESENTATION_RELATIONSHIP('','',#1166,#10) 
REPRESENTATION_RELATIONSHIP_WITH_TRANSFORMATION(#1331) 
SHAPE_REPRESENTATION_RELATIONSHIP() );
#1331 = ITEM_DEFINED_TRANSFORMATION('','',#11,#51);
#1332 = PRODUCT_DEFINITION_SHAPE('Placement','Placement of an item',
  #1333);
#1333 = NEXT_ASSEMBLY_USAGE_OCCURRENCE('24','Solid006','',#5,#1324,$);
#1334 = PRODUCT_RELATED_PRODUCT_CATEGORY('part',$,(#1326));
#1335 = ADVANCED_BREP_SHAPE_REPRESENTATION('',(#11,#1336),#1486);
#1336 = MANIFOLD_SOLID_BREP('',#1337);
#1337 = CLOSED_SHELL('',(#1338,#1378,#1409,#1440,#1462,#1474));
#1338 = ADVANCED_FACE('',(#1339),#1373,.T.);
#1339 = FACE_BOUND('',#1340,.F.);
#1340 = EDGE_LOOP('',(#1341,#1351,#1359,#1367));
#1341 = ORIENTED_EDGE('',*,*,#1342,.T.);
#1342 = EDGE_CURVE('',#1343,#1345,#1347,.T.);
#1343 = VERTEX_POINT('',#1344);
#1344 = CARTESIAN_POINT('',(-1.35,1.45,0.));
#1345 = VERTEX_POINT('',#1346);
#1346 = CARTESIAN_POINT('',(-1.35,1.45,0.2));
#1347 = LINE('',#1348,#1349);
#1348 = CARTESIAN_POINT('',(-1.35,1.45,0.));
#1349 = VECTOR('',#1350,1.);
#1350 = DIRECTION('',(-0.,-0.,1.));
#1351 = ORIENTED_EDGE('',*,*,#1352,.T.);
#1352 = EDGE_CURVE('',#1345,#1353,#1355,.T.);
#1353 = VERTEX_POINT('',#1354);
#1354 = CARTESIAN_POINT('',(-1.05,1.45,0.2));
#1355 = LINE('',#1356,#1357);
#1356 = CARTESIAN_POINT('',(-1.35,1.45,0.2));
#1357 = VECTOR('',#1358,1.);
#1358 = DIRECTION('',(1.,0.,0.));
#1359 = ORIENTED_EDGE('',*,*,#1360,.F.);
#1360 = EDGE_CURVE('',#1361,#1353,#1363,.T.);
#1361 = VERTEX_POINT('',#1362);
#1362 = CARTESIAN_POINT('',(-1.05,1.45,0.));
#1363 = LINE('',#1364,#1365);
#1364 = CARTESIAN_POINT('',(-1.05,1.45,0.));
#1365 = VECTOR('',#1366,1.);
#1366 = DIRECTION('',(-0.,-0.,1.));
#1367 = ORIENTED_EDGE('',*,*,#1368,.F.);
#1368 = EDGE_CURVE('',#1343,#1361,#1369,.T.);
#1369 = LINE('',#1370,#1371);
#1370 = CARTESIAN_POINT('',(-1.35,1.45,0.));
#1371 = VECTOR('',#1372,1.);
#1372 = DIRECTION('',(1.,0.,0.));
#1373 = PLANE('',#1374);
#1374 = AXIS2_PLACEMENT_3D('',#1375,#1376,#1377);
#1375 = CARTESIAN_POINT('',(-1.35,1.45,0.));
#1376 = DIRECTION('',(-0.,-1.,-0.));
#1377 = DIRECTION('',(-1.,0.,0.));
#1378 = ADVANCED_FACE('',(#1379),#1404,.T.);
#1379 = FACE_BOUND('',#1380,.F.);
#1380 = EDGE_LOOP('',(#1381,#1382,#1390,#1398));
#1381 = ORIENTED_EDGE('',*,*,#1360,.T.);
#1382 = ORIENTED_EDGE('',*,*,#1383,.T.);
#1383 = EDGE_CURVE('',#1353,#1384,#1386,.T.);
#1384 = VERTEX_POINT('',#1385);
#1385 = CARTESIAN_POINT('',(-1.05,2.,0.2));
#1386 = LINE('',#1387,#1388);
#1387 = CARTESIAN_POINT('',(-1.05,1.45,0.2));
#1388 = VECTOR('',#1389,1.);
#1389 = DIRECTION('',(0.,1.,0.));
#1390 = ORIENTED_EDGE('',*,*,#1391,.F.);
#1391 = EDGE_CURVE('',#1392,#1384,#1394,.T.);
#1392 = VERTEX_POINT('',#1393);
#1393 = CARTESIAN_POINT('',(-1.05,2.,0.));
#1394 = LINE('',#1395,#1396);
#1395 = CARTESIAN_POINT('',(-1.05,2.,0.));
#1396 = VECTOR('',#1397,1.);
#1397 = DIRECTION('',(-0.,-0.,1.));
#1398 = ORIENTED_EDGE('',*,*,#1399,.F.);
#1399 = EDGE_CURVE('',#1361,#1392,#1400,.T.);
#1400 = LINE('',#1401,#1402);
#1401 = CARTESIAN_POINT('',(-1.05,1.45,0.));
#1402 = VECTOR('',#1403,1.);
#1403 = DIRECTION('',(0.,1.,0.));
#1404 = PLANE('',#1405);
#1405 = AXIS2_PLACEMENT_3D('',#1406,#1407,#1408);
#1406 = CARTESIAN_POINT('',(-1.05,1.45,0.));
#1407 = DIRECTION('',(1.,-0.,-0.));
#1408 = DIRECTION('',(0.,-1.,0.));
#1409 = ADVANCED_FACE('',(#1410),#1435,.T.);
#1410 = FACE_BOUND('',#1411,.F.);
#1411 = EDGE_LOOP('',(#1412,#1413,#1421,#1429));
#1412 = ORIENTED_EDGE('',*,*,#1391,.T.);
#1413 = ORIENTED_EDGE('',*,*,#1414,.T.);
#1414 = EDGE_CURVE('',#1384,#1415,#1417,.T.);
#1415 = VERTEX_POINT('',#1416);
#1416 = CARTESIAN_POINT('',(-1.35,2.,0.2));
#1417 = LINE('',#1418,#1419);
#1418 = CARTESIAN_POINT('',(-1.05,2.,0.2));
#1419 = VECTOR('',#1420,1.);
#1420 = DIRECTION('',(-1.,-0.,-0.));
#1421 = ORIENTED_EDGE('',*,*,#1422,.F.);
#1422 = EDGE_CURVE('',#1423,#1415,#1425,.T.);
#1423 = VERTEX_POINT('',#1424);
#1424 = CARTESIAN_POINT('',(-1.35,2.,0.));
#1425 = LINE('',#1426,#1427);
#1426 = CARTESIAN_POINT('',(-1.35,2.,0.));
#1427 = VECTOR('',#1428,1.);
#1428 = DIRECTION('',(-0.,-0.,1.));
#1429 = ORIENTED_EDGE('',*,*,#1430,.F.);
#1430 = EDGE_CURVE('',#1392,#1423,#1431,.T.);
#1431 = LINE('',#1432,#1433);
#1432 = CARTESIAN_POINT('',(-1.05,2.,0.));
#1433 = VECTOR('',#1434,1.);
#1434 = DIRECTION('',(-1.,-0.,-0.));
#1435 = PLANE('',#1436);
#1436 = AXIS2_PLACEMENT_3D('',#1437,#1438,#1439);
#1437 = CARTESIAN_POINT('',(-1.05,2.,0.));
#1438 = DIRECTION('',(-0.,1.,-0.));
#1439 = DIRECTION('',(1.,0.,0.));
#1440 = ADVANCED_FACE('',(#1441),#1457,.T.);
#1441 = FACE_BOUND('',#1442,.F.);
#1442 = EDGE_LOOP('',(#1443,#1444,#1450,#1451));
#1443 = ORIENTED_EDGE('',*,*,#1422,.T.);
#1444 = ORIENTED_EDGE('',*,*,#1445,.T.);
#1445 = EDGE_CURVE('',#1415,#1345,#1446,.T.);
#1446 = LINE('',#1447,#1448);
#1447 = CARTESIAN_POINT('',(-1.35,2.,0.2));
#1448 = VECTOR('',#1449,1.);
#1449 = DIRECTION('',(-0.,-1.,-0.));
#1450 = ORIENTED_EDGE('',*,*,#1342,.F.);
#1451 = ORIENTED_EDGE('',*,*,#1452,.F.);
#1452 = EDGE_CURVE('',#1423,#1343,#1453,.T.);
#1453 = LINE('',#1454,#1455);
#1454 = CARTESIAN_POINT('',(-1.35,2.,0.));
#1455 = VECTOR('',#1456,1.);
#1456 = DIRECTION('',(-0.,-1.,-0.));
#1457 = PLANE('',#1458);
#1458 = AXIS2_PLACEMENT_3D('',#1459,#1460,#1461);
#1459 = CARTESIAN_POINT('',(-1.35,2.,0.));
#1460 = DIRECTION('',(-1.,-0.,-0.));
#1461 = DIRECTION('',(0.,1.,0.));
#1462 = ADVANCED_FACE('',(#1463),#1469,.F.);
#1463 = FACE_BOUND('',#1464,.F.);
#1464 = EDGE_LOOP('',(#1465,#1466,#1467,#1468));
#1465 = ORIENTED_EDGE('',*,*,#1368,.T.);
#1466 = ORIENTED_EDGE('',*,*,#1399,.T.);
#1467 = ORIENTED_EDGE('',*,*,#1430,.T.);
#1468 = ORIENTED_EDGE('',*,*,#1452,.T.);
#1469 = PLANE('',#1470);
#1470 = AXIS2_PLACEMENT_3D('',#1471,#1472,#1473);
#1471 = CARTESIAN_POINT('',(-1.2,1.725,0.));
#1472 = DIRECTION('',(0.,0.,1.));
#1473 = DIRECTION('',(-1.,0.,0.));
#1474 = ADVANCED_FACE('',(#1475),#1481,.T.);
#1475 = FACE_BOUND('',#1476,.T.);
#1476 = EDGE_LOOP('',(#1477,#1478,#1479,#1480));
#1477 = ORIENTED_EDGE('',*,*,#1352,.T.);
#1478 = ORIENTED_EDGE('',*,*,#1383,.T.);
#1479 = ORIENTED_EDGE('',*,*,#1414,.T.);
#1480 = ORIENTED_EDGE('',*,*,#1445,.T.);
#1481 = PLANE('',#1482);
#1482 = AXIS2_PLACEMENT_3D('',#1483,#1484,#1485);
#1483 = CARTESIAN_POINT('',(-1.2,1.725,0.2));
#1484 = DIRECTION('',(0.,0.,1.));
#1485 = DIRECTION('',(-1.,0.,0.));
#1486 = ( GEOMETRIC_REPRESENTATION_CONTEXT(3) 
GLOBAL_UNCERTAINTY_ASSIGNED_CONTEXT((#1490)) 
GLOBAL_UNIT_ASSIGNED_CONTEXT((#1487,#1488,#1489)) REPRESENTATION_CONTEXT
('Context #1','3D Context with UNIT and UNCERTAINTY') );
#1487 = ( LENGTH_UNIT() NAMED_UNIT(*) SI_UNIT(.MILLI.,.METRE.) );
#1488 = ( NAMED_UNIT(*) PLANE_ANGLE_UNIT() SI_UNIT($,.RADIAN.) );
#1489 = ( NAMED_UNIT(*) SI_UNIT($,.STERADIAN.) SOLID_ANGLE_UNIT() );
#1490 = UNCERTAINTY_MEASURE_WITH_UNIT(LENGTH_MEASURE(1.E-07),#1487,
  'distance_accuracy_value','confusion accuracy');
#1491 = SHAPE_DEFINITION_REPRESENTATION(#1492,#1335);
#1492 = PRODUCT_DEFINITION_SHAPE('','',#1493);
#1493 = PRODUCT_DEFINITION('design','',#1494,#1497);
#1494 = PRODUCT_DEFINITION_FORMATION('','',#1495);
#1495 = PRODUCT('Solid007','Solid007','',(#1496));
#1496 = PRODUCT_CONTEXT('',#2,'mechanical');
#1497 = PRODUCT_DEFINITION_CONTEXT('part definition',#2,'design');
#1498 = CONTEXT_DEPENDENT_SHAPE_REPRESENTATION(#1499,#1501);
#1499 = ( REPRESENTATION_RELATIONSHIP('','',#1335,#10) 
REPRESENTATION_RELATIONSHIP_WITH_TRANSFORMATION(#1500) 
SHAPE_REPRESENTATION_RELATIONSHIP() );
#1500 = ITEM_DEFINED_TRANSFORMATION('','',#11,#55);
#1501 = PRODUCT_DEFINITION_SHAPE('Placement','Placement of an item',
  #1502);
#1502 = NEXT_ASSEMBLY_USAGE_OCCURRENCE('25','Solid007','',#5,#1493,$);
#1503 = PRODUCT_RELATED_PRODUCT_CATEGORY('part',$,(#1495));
#1504 = SHAPE_DEFINITION_REPRESENTATION(#816,#1505);
#1505 = SHAPE_REPRESENTATION('',(#31),#795);
#1506 = SHAPE_DEFINITION_REPRESENTATION(#821,#1507);
#1507 = SHAPE_REPRESENTATION('',(#35),#795);
#1508 = SHAPE_DEFINITION_REPRESENTATION(#826,#1509);
#1509 = SHAPE_REPRESENTATION('',(#39),#795);
#1510 = MECHANICAL_DESIGN_GEOMETRIC_PRESENTATION_REPRESENTATION('',(
    #1511),#1317);
#1511 = STYLED_ITEM('color',(#1512),#1167);
#1512 = PRESENTATION_STYLE_ASSIGNMENT((#1513,#1519));
#1513 = SURFACE_STYLE_USAGE(.BOTH.,#1514);
#1514 = SURFACE_SIDE_STYLE('',(#1515));
#1515 = SURFACE_STYLE_FILL_AREA(#1516);
#1516 = FILL_AREA_STYLE('',(#1517));
#1517 = FILL_AREA_STYLE_COLOUR('',#1518);
#1518 = COLOUR_RGB('',0.823999987314,0.819999987296,0.781000009244);
#1519 = CURVE_STYLE('',#1520,POSITIVE_LENGTH_MEASURE(0.1),#1521);
#1520 = DRAUGHTING_PRE_DEFINED_CURVE_FONT('continuous');
#1521 = COLOUR_RGB('',9.803921802644E-02,9.803921802644E-02,
  9.803921802644E-02);
#1522 = MECHANICAL_DESIGN_GEOMETRIC_PRESENTATION_REPRESENTATION('',(
    #1523),#626);
#1523 = STYLED_ITEM('color',(#1524),#509);
#1524 = PRESENTATION_STYLE_ASSIGNMENT((#1525,#1531));
#1525 = SURFACE_STYLE_USAGE(.BOTH.,#1526);
#1526 = SURFACE_SIDE_STYLE('',(#1527));
#1527 = SURFACE_STYLE_FILL_AREA(#1528);
#1528 = FILL_AREA_STYLE('',(#1529));
#1529 = FILL_AREA_STYLE_COLOUR('',#1530);
#1530 = COLOUR_RGB('',0.690196106937,0.662745111292,0.596078458879);
#1531 = CURVE_STYLE('',#1532,POSITIVE_LENGTH_MEASURE(0.1),#1521);
#1532 = DRAUGHTING_PRE_DEFINED_CURVE_FONT('continuous');
#1533 = MECHANICAL_DESIGN_GEOMETRIC_PRESENTATION_REPRESENTATION('',(
    #1534),#1148);
#1534 = STYLED_ITEM('color',(#1535),#998);
#1535 = PRESENTATION_STYLE_ASSIGNMENT((#1536,#1541));
#1536 = SURFACE_STYLE_USAGE(.BOTH.,#1537);
#1537 = SURFACE_SIDE_STYLE('',(#1538));
#1538 = SURFACE_STYLE_FILL_AREA(#1539);
#1539 = FILL_AREA_STYLE('',(#1540));
#1540 = FILL_AREA_STYLE_COLOUR('',#1518);
#1541 = CURVE_STYLE('',#1542,POSITIVE_LENGTH_MEASURE(0.1),#1521);
#1542 = DRAUGHTING_PRE_DEFINED_CURVE_FONT('continuous');
#1543 = MECHANICAL_DESIGN_GEOMETRIC_PRESENTATION_REPRESENTATION('',(
    #1544,#1553,#1564,#1573),#795);
#1544 = STYLED_ITEM('color',(#1545),#645);
#1545 = PRESENTATION_STYLE_ASSIGNMENT((#1546,#1551));
#1546 = SURFACE_STYLE_USAGE(.BOTH.,#1547);
#1547 = SURFACE_SIDE_STYLE('',(#1548));
#1548 = SURFACE_STYLE_FILL_AREA(#1549);
#1549 = FILL_AREA_STYLE('',(#1550));
#1550 = FILL_AREA_STYLE_COLOUR('',#1518);
#1551 = CURVE_STYLE('',#1552,POSITIVE_LENGTH_MEASURE(0.1),#1521);
#1552 = DRAUGHTING_PRE_DEFINED_CURVE_FONT('continuous');
#1553 = OVER_RIDING_STYLED_ITEM('overriding color',(#1554),#645,#1544);
#1554 = PRESENTATION_STYLE_BY_CONTEXT((#1555,#1561),#1505);
#1555 = SURFACE_STYLE_USAGE(.BOTH.,#1556);
#1556 = SURFACE_SIDE_STYLE('',(#1557));
#1557 = SURFACE_STYLE_FILL_AREA(#1558);
#1558 = FILL_AREA_STYLE('',(#1559));
#1559 = FILL_AREA_STYLE_COLOUR('',#1560);
#1560 = COLOUR_RGB('',0.823999987314,0.819999987296,0.781000009244);
#1561 = CURVE_STYLE('',#1562,POSITIVE_LENGTH_MEASURE(0.1),#1563);
#1562 = DRAUGHTING_PRE_DEFINED_CURVE_FONT('continuous');
#1563 = COLOUR_RGB('',9.803921802644E-02,9.803921802644E-02,
  9.803921802644E-02);
#1564 = OVER_RIDING_STYLED_ITEM('overriding color',(#1565),#645,#1544);
#1565 = PRESENTATION_STYLE_BY_CONTEXT((#1566,#1571),#1507);
#1566 = SURFACE_STYLE_USAGE(.BOTH.,#1567);
#1567 = SURFACE_SIDE_STYLE('',(#1568));
#1568 = SURFACE_STYLE_FILL_AREA(#1569);
#1569 = FILL_AREA_STYLE('',(#1570));
#1570 = FILL_AREA_STYLE_COLOUR('',#1560);
#1571 = CURVE_STYLE('',#1572,POSITIVE_LENGTH_MEASURE(0.1),#1563);
#1572 = DRAUGHTING_PRE_DEFINED_CURVE_FONT('continuous');
#1573 = OVER_RIDING_STYLED_ITEM('overriding color',(#1574),#645,#1544);
#1574 = PRESENTATION_STYLE_BY_CONTEXT((#1575,#1580),#1509);
#1575 = SURFACE_STYLE_USAGE(.BOTH.,#1576);
#1576 = SURFACE_SIDE_STYLE('',(#1577));
#1577 = SURFACE_STYLE_FILL_AREA(#1578);
#1578 = FILL_AREA_STYLE('',(#1579));
#1579 = FILL_AREA_STYLE_COLOUR('',#1560);
#1580 = CURVE_STYLE('',#1581,POSITIVE_LENGTH_MEASURE(0.1),#1563);
#1581 = DRAUGHTING_PRE_DEFINED_CURVE_FONT('continuous');
#1582 = MECHANICAL_DESIGN_GEOMETRIC_PRESENTATION_REPRESENTATION('',(
    #1583),#1486);
#1583 = STYLED_ITEM('color',(#1584),#1336);
#1584 = PRESENTATION_STYLE_ASSIGNMENT((#1585,#1590));
#1585 = SURFACE_STYLE_USAGE(.BOTH.,#1586);
#1586 = SURFACE_SIDE_STYLE('',(#1587));
#1587 = SURFACE_STYLE_FILL_AREA(#1588);
#1588 = FILL_AREA_STYLE('',(#1589));
#1589 = FILL_AREA_STYLE_COLOUR('',#1518);
#1590 = CURVE_STYLE('',#1591,POSITIVE_LENGTH_MEASURE(0.1),#1521);
#1591 = DRAUGHTING_PRE_DEFINED_CURVE_FONT('continuous');
#1592 = MECHANICAL_DESIGN_GEOMETRIC_PRESENTATION_REPRESENTATION('',(
    #1593),#490);
#1593 = STYLED_ITEM('color',(#1594),#340);
#1594 = PRESENTATION_STYLE_ASSIGNMENT((#1595,#1600));
#1595 = SURFACE_STYLE_USAGE(.BOTH.,#1596);
#1596 = SURFACE_SIDE_STYLE('',(#1597));
#1597 = SURFACE_STYLE_FILL_AREA(#1598);
#1598 = FILL_AREA_STYLE('',(#1599));
#1599 = FILL_AREA_STYLE_COLOUR('',#1518);
#1600 = CURVE_STYLE('',#1601,POSITIVE_LENGTH_MEASURE(0.1),#1521);
#1601 = DRAUGHTING_PRE_DEFINED_CURVE_FONT('continuous');
#1602 = MECHANICAL_DESIGN_GEOMETRIC_PRESENTATION_REPRESENTATION('',(
    #1603),#321);
#1603 = STYLED_ITEM('color',(#1604),#66);
#1604 = PRESENTATION_STYLE_ASSIGNMENT((#1605,#1611));
#1605 = SURFACE_STYLE_USAGE(.BOTH.,#1606);
#1606 = SURFACE_SIDE_STYLE('',(#1607));
#1607 = SURFACE_STYLE_FILL_AREA(#1608);
#1608 = FILL_AREA_STYLE('',(#1609));
#1609 = FILL_AREA_STYLE_COLOUR('',#1610);
#1610 = COLOUR_RGB('',0.149019617616,0.145098047169,0.145098047169);
#1611 = CURVE_STYLE('',#1612,POSITIVE_LENGTH_MEASURE(0.1),#1521);
#1612 = DRAUGHTING_PRE_DEFINED_CURVE_FONT('continuous');
#1613 = MECHANICAL_DESIGN_GEOMETRIC_PRESENTATION_REPRESENTATION('',(
    #1614),#979);
#1614 = STYLED_ITEM('color',(#1615),#829);
#1615 = PRESENTATION_STYLE_ASSIGNMENT((#1616,#1621));
#1616 = SURFACE_STYLE_USAGE(.BOTH.,#1617);
#1617 = SURFACE_SIDE_STYLE('',(#1618));
#1618 = SURFACE_STYLE_FILL_AREA(#1619);
#1619 = FILL_AREA_STYLE('',(#1620));
#1620 = FILL_AREA_STYLE_COLOUR('',#1518);
#1621 = CURVE_STYLE('',#1622,POSITIVE_LENGTH_MEASURE(0.1),#1521);
#1622 = DRAUGHTING_PRE_DEFINED_CURVE_FONT('continuous');
ENDSEC;
END-ISO-10303-21;
