#VRML V2.0 utf8
#kicad StepUp wrl exported

Shape {
    appearance Appearance {material DEF PIN-01 Material {
        ambientIntensity 0.271
        diffuseColor 0.824 0.820 0.781
        specularColor 0.328 0.258 0.172
        emissiveColor 0.0 0.0 0.0
        shininess 0.70
        transparency 0.0
        }
    }
}
Shape {
    appearance Appearance {material DEF MET-01 Material {
        ambientIntensity 0.249999
        diffuseColor 0.298 0.298 0.298
        specularColor 0.398 0.398 0.398
        emissiveColor 0.0 0.0 0.0
        shininess 0.056122
        transparency 0.0
        }
    }
}
Shape {
    appearance Appearance {material DEF PIN-02 Material {
        ambientIntensity 0.379
        diffuseColor 0.859 0.738 0.496
        specularColor 0.137 0.145 0.184
        emissiveColor 0.0 0.0 0.0
        shininess 0.40
        transparency 0.0
        }
    }
}
Shape {
    appearance Appearance {material DEF IC-BODY-EPOXY-04 Material {
        ambientIntensity 0.293
        diffuseColor 0.148 0.145 0.145
        specularColor 0.180 0.168 0.160
        emissiveColor 0.0 0.0 0.0
        shininess 0.35
        transparency 0.0
        }
    }
}
Shape {
    appearance Appearance {material DEF RES-SMD-01 Material {
        diffuseColor 0.082 0.086 0.094
        emissiveColor 0.000 0.000 0.000
        specularColor 0.066 0.063 0.063
        ambientIntensity 0.638
        transparency 0.0
        shininess 0.3
        }
    }
}
Shape {
    appearance Appearance {material DEF IC-BODY-EPOXY-01 Material {
        ambientIntensity 0.117
        diffuseColor 0.250 0.262 0.281
        specularColor 0.316 0.281 0.176
        emissiveColor 0.0 0.0 0.0
        shininess 0.25
        transparency 0.0
        }
    }
}
Shape {
    appearance Appearance {material DEF CAP-CERAMIC-05 Material {
        ambientIntensity 0.179
        diffuseColor 0.273 0.273 0.273
        specularColor 0.203 0.188 0.176
        emissiveColor 0.0 0.0 0.0
        shininess 0.15
        transparency 0.0
        }
    }
}
Shape {
    appearance Appearance {material DEF CAP-CERAMIC-06 Material {
        ambientIntensity 0.453
        diffuseColor 0.379 0.270 0.215
        specularColor 0.223 0.223 0.223
        emissiveColor 0.0 0.0 0.0
        shininess 0.15
        transparency 0.0
        }
    }
}
Shape {
    appearance Appearance {material DEF RES-THT-01 Material {
        ambientIntensity 0.149
        diffuseColor 0.883 0.711 0.492
        specularColor 0.043 0.121 0.281
        emissiveColor 0.0 0.0 0.0
        shininess 0.40
        transparency 0.0
        }
    }
}
Shape {
    appearance Appearance {material DEF PLASTIC-BLUE-01 Material {
        ambientIntensity 0.565
        diffuseColor 0.137 0.402 0.727
        specularColor 0.359 0.379 0.270
        emissiveColor 0.0 0.0 0.0
        shininess 0.25
        transparency 0.0
        }
    }
}
Shape {
    appearance Appearance {material DEF PLASTIC-GREEN-01 Material {
        ambientIntensity 0.315
        diffuseColor 0.340 0.680 0.445
        specularColor 0.176 0.105 0.195
        emissiveColor 0.0 0.0 0.0
        shininess 0.25
        transparency 0.0
        }
    }
}
Shape {
    appearance Appearance {material DEF PLASTIC-ORANGE-01 Material {
        ambientIntensity 0.284
        diffuseColor 0.809 0.426 0.148
        specularColor 0.039 0.102 0.145
        emissiveColor 0.0 0.0 0.0
        shininess 0.25
        transparency 0.0
        }
    }
}
Shape {
    appearance Appearance {material DEF RED-BODY Material {
        ambientIntensity 0.683
        diffuseColor 0.700 0.100 0.050
        emissiveColor 0.000 0.000 0.000
        specularColor 0.300 0.400 0.150
        shininess 0.25
        transparency 0.0
        }
    }
}
Shape {
    appearance Appearance {material DEF CAP-CERAMIC-02 Material {
        ambientIntensity 0.683
        diffuseColor 0.578 0.336 0.352
        specularColor 0.105 0.273 0.270
        emissiveColor 0.0 0.0 0.0
        shininess 0.25
        transparency 0.0
        }
    }
}
Shape {
    appearance Appearance {material DEF PLASTIC-YELLOW-01 Material {
        ambientIntensity 0.522
        diffuseColor 0.832 0.680 0.066
        specularColor 0.160 0.203 0.320
        emissiveColor 0.0 0.0 0.0
        shininess 0.25
        transparency 0.0
        }
    }
}
Shape {
    appearance Appearance {material DEF PLASTIC-WHITE-01 Material {
        ambientIntensity 0.494
        diffuseColor 0.895 0.891 0.813
        specularColor 0.047 0.055 0.109
        emissiveColor 0.0 0.0 0.0
        shininess 0.25
        transparency 0.0
        }
    }
}
Shape {
    appearance Appearance {material DEF IC-LABEL-01 Material {
        ambientIntensity 0.082
        diffuseColor 0.691 0.664 0.598
        specularColor 0.000 0.000 0.000
        emissiveColor 0.0 0.0 0.0
        shininess 0.01
        transparency 0.0
        }
    }
}
Shape {
    appearance Appearance {material DEF LED-RED Material {
        ambientIntensity 0.789
        diffuseColor 0.700 0.100 0.050
        emissiveColor 0.000 0.000 0.000
        specularColor 0.300 0.400 0.150
        shininess 0.125
        transparency 0.10
        }
    }
}
Shape {
    appearance Appearance {material DEF LED-GREEN Material {
        ambientIntensity 0.789
        diffuseColor 0.400 0.700 0.150
        emissiveColor 0.000 0.000 0.000
        specularColor 0.600 0.300 0.100
        shininess 0.05
        transparency 0.10
        }
    }
}
Shape {
    appearance Appearance {material DEF LED-BLUE Material {
        ambientIntensity 0.789
        diffuseColor 0.100 0.250 0.700
        emissiveColor 0.000 0.000 0.000
        specularColor 0.500 0.600 0.300
        shininess 0.125
        transparency 0.10
        }
    }
}
Shape {
    appearance Appearance {material DEF LED-YELLOW Material {
        ambientIntensity 0.522
        diffuseColor 0.98 0.840 0.066
        specularColor 0.160 0.203 0.320
        emissiveColor 0.0 0.0 0.0
        shininess 0.125
        transparency 0.10
        }
    }
}
Shape {
    appearance Appearance {material DEF LED-WHITE Material {
        ambientIntensity 0.494
        diffuseColor 0.895 0.891 0.813
        specularColor 0.047 0.055 0.109
        emissiveColor 0.0 0.0 0.0
        shininess 0.125
        transparency 0.10
        }
    }
}
Shape {
    appearance Appearance {material DEF LED-GREY Material {
        ambientIntensity 0.494
        diffuseColor 0.27 0.25 0.27
        specularColor 0.5 0.5 0.6
        emissiveColor 0.0 0.0 0.0
        shininess 0.35
        transparency 0.10
        }
    }
}
Shape {
    appearance Appearance {material DEF LED-BLACK Material {
        ambientIntensity 0.494
        diffuseColor 0.1 0.05 0.1
        specularColor 0.6 0.5 0.6
        emissiveColor 0.0 0.0 0.0
        shininess 0.5
        transparency 0.0
        }
    }
}
Shape {
    appearance Appearance {material DEF GLASS-19 Material {
        ambientIntensity 2.018212
        diffuseColor 0.400769 0.441922 0.459091
        specularColor 0.573887 0.649271 0.810811
        emissiveColor 0.000000 0.000000 0.000000
        shininess 0.127273
        transparency 0.37
        }
    }
}
Shape {
    appearance Appearance {material DEF GLASS-29 Material {
        ambientIntensity 0.234375
        diffuseColor 0.566681 0.580872 0.580874
        specularColor 0.617761 0.429816 0.400140
        emissiveColor 0.000000 0.000000 0.000000
        shininess 0.072727
        transparency 0.38
        }
    }
}
Shape {
    appearance Appearance {material DEF GLASS-13 Material {
        ambientIntensity 0.250000
        diffuseColor 0.000000 0.631244 0.748016
        specularColor 0.915152 0.915152 0.915152
        emissiveColor 0.000000 0.000000 0.000000
        shininess 0.642424
        transparency 0.39
        }
    }
}
Shape {
    appearance Appearance {material DEF GLASS-GREEN Material {
        ambientIntensity 0.250000
        diffuseColor 0.000000 0.75 0.44
        specularColor 0.915152 0.915152 0.915152
        emissiveColor 0.000000 0.000000 0.000000
        shininess 0.642424
        transparency 0.39
        }
    }
}
Shape {
    appearance Appearance {material DEF GLASS-ORANGE Material {
        ambientIntensity 0.250000
        diffuseColor 0.75 0.44 0.000000
        specularColor 0.915152 0.915152 0.915152
        emissiveColor 0.000000 0.000000 0.000000
        shininess 0.642424
        transparency 0.39
        }
    }
}
Shape {
    appearance Appearance {material DEF BOARD-GREEN-02 Material {
        ambientIntensity 1
        diffuseColor 0.07 0.3 0.12
        specularColor 0.07 0.3 0.12
        emissiveColor 0.0 0.0 0.0
        shininess 0.40
        transparency 0.0
        }
    }
}
Shape {
    appearance Appearance {material DEF BOARD-BLUE-01 Material {
        ambientIntensity 1
        diffuseColor 0.07 0.12 0.3
        specularColor 0.07 0.12 0.3
        emissiveColor 0.0 0.0 0.0
        shininess 0.40
        transparency 0.0
        }
    }
}
Shape {
    appearance Appearance {material DEF BOARD-BLACK-03 Material {
        ambientIntensity 1
        diffuseColor 0.16 0.16 0.16
        specularColor 0.16 0.16 0.16
        emissiveColor 0.0 0.0 0.0
        shininess 0.40
        transparency 0.0
        }
    }
}
Shape {
    appearance Appearance {material DEF MET-ALUMINUM Material {
        ambientIntensity 0.256000
        diffuseColor 0.372322 0.371574 0.373173
        specularColor 0.556122 0.554201 0.556122
        emissiveColor 0.0 0.0 0.0
        shininess 0.127551
        transparency 0.0
        }
    }
}
Shape {
    appearance Appearance {material DEF MET-BRONZE Material {
        ambientIntensity 0.022727
        diffuseColor 0.714 0.4284 0.18144
        specularColor 0.393548 0.271906 0.166721
        emissiveColor 0.000000 0.000000 0.000000
        shininess 0.2
        transparency 0.0
        }
    }
}
Shape {
    appearance Appearance {material DEF MET-SILVER Material {
        ambientIntensity 0.022727
        diffuseColor 0.50754 0.50754 0.50754
        specularColor 0.508273 0.508273 0.508273
        emissiveColor 0.000000 0.000000 0.000000
        shininess 0.4
        transparency 0.0
        }
    }
}
Shape {
    appearance Appearance {material DEF MET-COPPER Material {
        ambientIntensity 0.022727
        diffuseColor 0.7038 0.27048 0.0828
        specularColor 0.780612 0.37 0.000000
        emissiveColor 0.000000 0.000000 0.000000
        shininess 0.2
        transparency 0.0
        }
    }
}
Shape { geometry IndexedFaceSet 
{ creaseAngle 0.50 coordIndex [0,1,2,-1,2,1,3,-1]
coord Coordinate { point [-0.255905 -0.31496 0.098425,-0.334645 -0.31496 0.098425,-0.255905 -0.31496 0,-0.334645 -0.31496 0]
}}
appearance Appearance{material USE PIN-01 }}
Shape { geometry IndexedFaceSet 
{ creaseAngle 0.50 coordIndex [0,1,2,-1,0,3,1,-1]
coord Coordinate { point [-0.255905 -0.295275 0.019685,-0.334645 -0.177165 0.019685,-0.334645 -0.295275 0.019685,-0.255905 -0.177165 0.019685]
}}
appearance Appearance{material USE PIN-01 }}
Shape { geometry IndexedFaceSet 
{ creaseAngle 0.50 coordIndex [0,1,2,-1,2,1,3,-1]
coord Coordinate { point [-0.255905 -0.177165 0,-0.255905 -0.31496 0,-0.334645 -0.177165 0,-0.334645 -0.31496 0]
}}
appearance Appearance{material USE PIN-01 }}
Shape { geometry IndexedFaceSet 
{ creaseAngle 0.50 coordIndex [0,1,2,-1,0,2,3,-1]
coord Coordinate { point [-0.334645 -0.177165 0.019685,-0.255905 -0.177165 0.019685,-0.255905 -0.177165 0,-0.334645 -0.177165 0]
}}
appearance Appearance{material USE PIN-01 }}
Shape { geometry IndexedFaceSet 
{ creaseAngle 0.50 coordIndex [0,1,2,-1,0,2,3,-1]
coord Coordinate { point [-0.334645 -0.295275 0.098425,-0.255905 -0.295275 0.098425,-0.255905 -0.295275 0.019685,-0.334645 -0.295275 0.019685]
}}
appearance Appearance{material USE PIN-01 }}
Shape { geometry IndexedFaceSet 
{ creaseAngle 0.50 coordIndex [0,1,2,-1,0,3,1,-1]
coord Coordinate { point [-0.255905 -0.31496 0.098425,-0.334645 -0.295275 0.098425,-0.334645 -0.31496 0.098425,-0.255905 -0.295275 0.098425]
}}
appearance Appearance{material USE PIN-01 }}
Shape { geometry IndexedFaceSet 
{ creaseAngle 0.50 coordIndex [0,1,2,-1,2,1,3,-1,4,5,1,-1,1,5,3,-1]
coord Coordinate { point [-0.255905 -0.177165 0.019685,-0.255905 -0.295275 0.019685,-0.255905 -0.177165 0,-0.255905 -0.31496 0,-0.255905 -0.295275 0.098425,-0.255905 -0.31496 0.098425]
}}
appearance Appearance{material USE PIN-01 }}
Shape { geometry IndexedFaceSet 
{ creaseAngle 0.50 coordIndex [0,1,2,-1,0,3,1,-1,4,5,0,-1,4,0,2,-1]
coord Coordinate { point [-0.334645 -0.295275 0.019685,-0.334645 -0.177165 0,-0.334645 -0.31496 0,-0.334645 -0.177165 0.019685,-0.334645 -0.31496 0.098425,-0.334645 -0.295275 0.098425]
}}
appearance Appearance{material USE PIN-01 }}
Shape { geometry IndexedFaceSet 
{ creaseAngle 0.50 coordIndex [0,1,2,-1,2,1,3,-1]
coord Coordinate { point [-0.059055 -0.31496 0.098425,-0.137795 -0.31496 0.098425,-0.059055 -0.31496 0,-0.137795 -0.31496 0]
}}
appearance Appearance{material USE PIN-01 }}
Shape { geometry IndexedFaceSet 
{ creaseAngle 0.50 coordIndex [0,1,2,-1,0,3,1,-1]
coord Coordinate { point [-0.059055 -0.295275 0.019685,-0.137795 -0.177165 0.019685,-0.137795 -0.295275 0.019685,-0.059055 -0.177165 0.019685]
}}
appearance Appearance{material USE PIN-01 }}
Shape { geometry IndexedFaceSet 
{ creaseAngle 0.50 coordIndex [0,1,2,-1,2,1,3,-1]
coord Coordinate { point [-0.059055 -0.177165 0,-0.059055 -0.31496 0,-0.137795 -0.177165 0,-0.137795 -0.31496 0]
}}
appearance Appearance{material USE PIN-01 }}
Shape { geometry IndexedFaceSet 
{ creaseAngle 0.50 coordIndex [0,1,2,-1,0,2,3,-1]
coord Coordinate { point [-0.137795 -0.177165 0.019685,-0.059055 -0.177165 0.019685,-0.059055 -0.177165 0,-0.137795 -0.177165 0]
}}
appearance Appearance{material USE PIN-01 }}
Shape { geometry IndexedFaceSet 
{ creaseAngle 0.50 coordIndex [0,1,2,-1,0,2,3,-1]
coord Coordinate { point [-0.137795 -0.295275 0.098425,-0.059055 -0.295275 0.098425,-0.059055 -0.295275 0.019685,-0.137795 -0.295275 0.019685]
}}
appearance Appearance{material USE PIN-01 }}
Shape { geometry IndexedFaceSet 
{ creaseAngle 0.50 coordIndex [0,1,2,-1,0,3,1,-1]
coord Coordinate { point [-0.059055 -0.31496 0.098425,-0.137795 -0.295275 0.098425,-0.137795 -0.31496 0.098425,-0.059055 -0.295275 0.098425]
}}
appearance Appearance{material USE PIN-01 }}
Shape { geometry IndexedFaceSet 
{ creaseAngle 0.50 coordIndex [0,1,2,-1,2,1,3,-1,4,5,1,-1,1,5,3,-1]
coord Coordinate { point [-0.059055 -0.177165 0.019685,-0.059055 -0.295275 0.019685,-0.059055 -0.177165 0,-0.059055 -0.31496 0,-0.059055 -0.295275 0.098425,-0.059055 -0.31496 0.098425]
}}
appearance Appearance{material USE PIN-01 }}
Shape { geometry IndexedFaceSet 
{ creaseAngle 0.50 coordIndex [0,1,2,-1,0,3,1,-1,4,5,0,-1,4,0,2,-1]
coord Coordinate { point [-0.137795 -0.295275 0.019685,-0.137795 -0.177165 0,-0.137795 -0.31496 0,-0.137795 -0.177165 0.019685,-0.137795 -0.31496 0.098425,-0.137795 -0.295275 0.098425]
}}
appearance Appearance{material USE PIN-01 }}
Shape { geometry IndexedFaceSet 
{ creaseAngle 0.50 coordIndex [0,1,2,-1,2,1,3,-1]
coord Coordinate { point [0.137795 -0.31496 0.098425,0.059055 -0.31496 0.098425,0.137795 -0.31496 0,0.059055 -0.31496 0]
}}
appearance Appearance{material USE PIN-01 }}
Shape { geometry IndexedFaceSet 
{ creaseAngle 0.50 coordIndex [0,1,2,-1,0,3,1,-1]
coord Coordinate { point [0.137795 -0.295275 0.019685,0.059055 -0.177165 0.019685,0.059055 -0.295275 0.019685,0.137795 -0.177165 0.019685]
}}
appearance Appearance{material USE PIN-01 }}
Shape { geometry IndexedFaceSet 
{ creaseAngle 0.50 coordIndex [0,1,2,-1,2,1,3,-1]
coord Coordinate { point [0.137795 -0.177165 0,0.137795 -0.31496 0,0.059055 -0.177165 0,0.059055 -0.31496 0]
}}
appearance Appearance{material USE PIN-01 }}
Shape { geometry IndexedFaceSet 
{ creaseAngle 0.50 coordIndex [0,1,2,-1,0,2,3,-1]
coord Coordinate { point [0.059055 -0.177165 0.019685,0.137795 -0.177165 0.019685,0.137795 -0.177165 0,0.059055 -0.177165 0]
}}
appearance Appearance{material USE PIN-01 }}
Shape { geometry IndexedFaceSet 
{ creaseAngle 0.50 coordIndex [0,1,2,-1,0,2,3,-1]
coord Coordinate { point [0.059055 -0.295275 0.098425,0.137795 -0.295275 0.098425,0.137795 -0.295275 0.019685,0.059055 -0.295275 0.019685]
}}
appearance Appearance{material USE PIN-01 }}
Shape { geometry IndexedFaceSet 
{ creaseAngle 0.50 coordIndex [0,1,2,-1,0,3,1,-1]
coord Coordinate { point [0.137795 -0.31496 0.098425,0.059055 -0.295275 0.098425,0.059055 -0.31496 0.098425,0.137795 -0.295275 0.098425]
}}
appearance Appearance{material USE PIN-01 }}
Shape { geometry IndexedFaceSet 
{ creaseAngle 0.50 coordIndex [0,1,2,-1,2,1,3,-1,4,5,1,-1,1,5,3,-1]
coord Coordinate { point [0.137795 -0.177165 0.019685,0.137795 -0.295275 0.019685,0.137795 -0.177165 0,0.137795 -0.31496 0,0.137795 -0.295275 0.098425,0.137795 -0.31496 0.098425]
}}
appearance Appearance{material USE PIN-01 }}
Shape { geometry IndexedFaceSet 
{ creaseAngle 0.50 coordIndex [0,1,2,-1,0,3,1,-1,4,5,0,-1,4,0,2,-1]
coord Coordinate { point [0.059055 -0.295275 0.019685,0.059055 -0.177165 0,0.059055 -0.31496 0,0.059055 -0.177165 0.019685,0.059055 -0.31496 0.098425,0.059055 -0.295275 0.098425]
}}
appearance Appearance{material USE PIN-01 }}
Shape { geometry IndexedFaceSet 
{ creaseAngle 0.50 coordIndex [0,1,2,-1,2,1,3,-1]
coord Coordinate { point [0.334645 -0.31496 0.098425,0.255905 -0.31496 0.098425,0.334645 -0.31496 0,0.255905 -0.31496 0]
}}
appearance Appearance{material USE PIN-01 }}
Shape { geometry IndexedFaceSet 
{ creaseAngle 0.50 coordIndex [0,1,2,-1,0,3,1,-1]
coord Coordinate { point [0.334645 -0.295275 0.019685,0.255905 -0.177165 0.019685,0.255905 -0.295275 0.019685,0.334645 -0.177165 0.019685]
}}
appearance Appearance{material USE PIN-01 }}
Shape { geometry IndexedFaceSet 
{ creaseAngle 0.50 coordIndex [0,1,2,-1,2,1,3,-1]
coord Coordinate { point [0.334645 -0.177165 0,0.334645 -0.31496 0,0.255905 -0.177165 0,0.255905 -0.31496 0]
}}
appearance Appearance{material USE PIN-01 }}
Shape { geometry IndexedFaceSet 
{ creaseAngle 0.50 coordIndex [0,1,2,-1,0,2,3,-1]
coord Coordinate { point [0.255905 -0.177165 0.019685,0.334645 -0.177165 0.019685,0.334645 -0.177165 0,0.255905 -0.177165 0]
}}
appearance Appearance{material USE PIN-01 }}
Shape { geometry IndexedFaceSet 
{ creaseAngle 0.50 coordIndex [0,1,2,-1,0,2,3,-1]
coord Coordinate { point [0.255905 -0.295275 0.098425,0.334645 -0.295275 0.098425,0.334645 -0.295275 0.019685,0.255905 -0.295275 0.019685]
}}
appearance Appearance{material USE PIN-01 }}
Shape { geometry IndexedFaceSet 
{ creaseAngle 0.50 coordIndex [0,1,2,-1,0,3,1,-1]
coord Coordinate { point [0.334645 -0.31496 0.098425,0.255905 -0.295275 0.098425,0.255905 -0.31496 0.098425,0.334645 -0.295275 0.098425]
}}
appearance Appearance{material USE PIN-01 }}
Shape { geometry IndexedFaceSet 
{ creaseAngle 0.50 coordIndex [0,1,2,-1,2,1,3,-1,4,5,1,-1,1,5,3,-1]
coord Coordinate { point [0.334645 -0.177165 0.019685,0.334645 -0.295275 0.019685,0.334645 -0.177165 0,0.334645 -0.31496 0,0.334645 -0.295275 0.098425,0.334645 -0.31496 0.098425]
}}
appearance Appearance{material USE PIN-01 }}
Shape { geometry IndexedFaceSet 
{ creaseAngle 0.50 coordIndex [0,1,2,-1,0,3,1,-1,4,5,0,-1,4,0,2,-1]
coord Coordinate { point [0.255905 -0.295275 0.019685,0.255905 -0.177165 0,0.255905 -0.31496 0,0.255905 -0.177165 0.019685,0.255905 -0.31496 0.098425,0.255905 -0.295275 0.098425]
}}
appearance Appearance{material USE PIN-01 }}
Shape { geometry IndexedFaceSet 
{ creaseAngle 0.50 coordIndex [0,1,2,-1,0,2,3,-1]
coord Coordinate { point [0.27559 -0.03937 0.019685,0.27559 0.03937 0.019685,0.27559 0.03937 0,0.27559 -0.03937 0]
}}
appearance Appearance{material USE PIN-01 }}
Shape { geometry IndexedFaceSet 
{ creaseAngle 0.50 coordIndex [0,1,2,-1,2,1,3,-1,4,5,1,-1,1,5,3,-1]
coord Coordinate { point [0.27559 0.03937 0.019685,0.3937 0.03937 0.019685,0.27559 0.03937 0,0.413385 0.03937 0,0.3937 0.03937 0.098425,0.413385 0.03937 0.098425]
}}
appearance Appearance{material USE PIN-01 }}
Shape { geometry IndexedFaceSet 
{ creaseAngle 0.50 coordIndex [0,1,2,-1,0,3,1,-1]
coord Coordinate { point [0.3937 0.03937 0.019685,0.27559 -0.03937 0.019685,0.3937 -0.03937 0.019685,0.27559 0.03937 0.019685]
}}
appearance Appearance{material USE PIN-01 }}
Shape { geometry IndexedFaceSet 
{ creaseAngle 0.50 coordIndex [0,1,2,-1,0,3,1,-1,4,5,0,-1,4,0,2,-1]
coord Coordinate { point [0.3937 -0.03937 0.019685,0.27559 -0.03937 0,0.413385 -0.03937 0,0.27559 -0.03937 0.019685,0.413385 -0.03937 0.098425,0.3937 -0.03937 0.098425]
}}
appearance Appearance{material USE PIN-01 }}
Shape { geometry IndexedFaceSet 
{ creaseAngle 0.50 coordIndex [0,1,2,-1,0,3,1,-1]
coord Coordinate { point [0.413385 0.03937 0.098425,0.3937 -0.03937 0.098425,0.413385 -0.03937 0.098425,0.3937 0.03937 0.098425]
}}
appearance Appearance{material USE PIN-01 }}
Shape { geometry IndexedFaceSet 
{ creaseAngle 0.50 coordIndex [0,1,2,-1,2,1,3,-1]
coord Coordinate { point [0.413385 0.03937 0.098425,0.413385 -0.03937 0.098425,0.413385 0.03937 0,0.413385 -0.03937 0]
}}
appearance Appearance{material USE PIN-01 }}
Shape { geometry IndexedFaceSet 
{ creaseAngle 0.50 coordIndex [0,1,2,-1,2,1,3,-1]
coord Coordinate { point [0.27559 0.03937 0,0.413385 0.03937 0,0.27559 -0.03937 0,0.413385 -0.03937 0]
}}
appearance Appearance{material USE PIN-01 }}
Shape { geometry IndexedFaceSet 
{ creaseAngle 0.50 coordIndex [0,1,2,-1,0,2,3,-1]
coord Coordinate { point [0.3937 -0.03937 0.098425,0.3937 0.03937 0.098425,0.3937 0.03937 0.019685,0.3937 -0.03937 0.019685]
}}
appearance Appearance{material USE PIN-01 }}
Shape { geometry IndexedFaceSet 
{ creaseAngle 0.50 coordIndex [0,1,2,-1,2,1,3,-1]
coord Coordinate { point [0.255905 0.177165 0,0.255905 0.31496 0,0.334645 0.177165 0,0.334645 0.31496 0]
}}
appearance Appearance{material USE PIN-01 }}
Shape { geometry IndexedFaceSet 
{ creaseAngle 0.50 coordIndex [0,1,2,-1,0,3,1,-1,4,5,0,-1,4,0,2,-1]
coord Coordinate { point [0.334645 0.295275 0.019685,0.334645 0.177165 0,0.334645 0.31496 0,0.334645 0.177165 0.019685,0.334645 0.31496 0.098425,0.334645 0.295275 0.098425]
}}
appearance Appearance{material USE PIN-01 }}
Shape { geometry IndexedFaceSet 
{ creaseAngle 0.50 coordIndex [0,1,2,-1,0,2,3,-1]
coord Coordinate { point [0.334645 0.177165 0.019685,0.255905 0.177165 0.019685,0.255905 0.177165 0,0.334645 0.177165 0]
}}
appearance Appearance{material USE PIN-01 }}
Shape { geometry IndexedFaceSet 
{ creaseAngle 0.50 coordIndex [0,1,2,-1,0,2,3,-1]
coord Coordinate { point [0.334645 0.295275 0.098425,0.255905 0.295275 0.098425,0.255905 0.295275 0.019685,0.334645 0.295275 0.019685]
}}
appearance Appearance{material USE PIN-01 }}
Shape { geometry IndexedFaceSet 
{ creaseAngle 0.50 coordIndex [0,1,2,-1,0,3,1,-1]
coord Coordinate { point [0.255905 0.295275 0.019685,0.334645 0.177165 0.019685,0.334645 0.295275 0.019685,0.255905 0.177165 0.019685]
}}
appearance Appearance{material USE PIN-01 }}
Shape { geometry IndexedFaceSet 
{ creaseAngle 0.50 coordIndex [0,1,2,-1,2,1,3,-1]
coord Coordinate { point [0.255905 0.31496 0.098425,0.334645 0.31496 0.098425,0.255905 0.31496 0,0.334645 0.31496 0]
}}
appearance Appearance{material USE PIN-01 }}
Shape { geometry IndexedFaceSet 
{ creaseAngle 0.50 coordIndex [0,1,2,-1,2,1,3,-1,4,5,1,-1,1,5,3,-1]
coord Coordinate { point [0.255905 0.177165 0.019685,0.255905 0.295275 0.019685,0.255905 0.177165 0,0.255905 0.31496 0,0.255905 0.295275 0.098425,0.255905 0.31496 0.098425]
}}
appearance Appearance{material USE PIN-01 }}
Shape { geometry IndexedFaceSet 
{ creaseAngle 0.50 coordIndex [0,1,2,-1,0,3,1,-1]
coord Coordinate { point [0.255905 0.31496 0.098425,0.334645 0.295275 0.098425,0.334645 0.31496 0.098425,0.255905 0.295275 0.098425]
}}
appearance Appearance{material USE PIN-01 }}
Shape { geometry IndexedFaceSet 
{ creaseAngle 0.50 coordIndex [0,1,2,-1,2,1,3,-1]
coord Coordinate { point [0.059055 0.177165 0,0.059055 0.31496 0,0.137795 0.177165 0,0.137795 0.31496 0]
}}
appearance Appearance{material USE PIN-01 }}
Shape { geometry IndexedFaceSet 
{ creaseAngle 0.50 coordIndex [0,1,2,-1,0,3,1,-1,4,5,0,-1,4,0,2,-1]
coord Coordinate { point [0.137795 0.295275 0.019685,0.137795 0.177165 0,0.137795 0.31496 0,0.137795 0.177165 0.019685,0.137795 0.31496 0.098425,0.137795 0.295275 0.098425]
}}
appearance Appearance{material USE PIN-01 }}
Shape { geometry IndexedFaceSet 
{ creaseAngle 0.50 coordIndex [0,1,2,-1,0,2,3,-1]
coord Coordinate { point [0.137795 0.177165 0.019685,0.059055 0.177165 0.019685,0.059055 0.177165 0,0.137795 0.177165 0]
}}
appearance Appearance{material USE PIN-01 }}
Shape { geometry IndexedFaceSet 
{ creaseAngle 0.50 coordIndex [0,1,2,-1,0,2,3,-1]
coord Coordinate { point [0.137795 0.295275 0.098425,0.059055 0.295275 0.098425,0.059055 0.295275 0.019685,0.137795 0.295275 0.019685]
}}
appearance Appearance{material USE PIN-01 }}
Shape { geometry IndexedFaceSet 
{ creaseAngle 0.50 coordIndex [0,1,2,-1,0,3,1,-1]
coord Coordinate { point [0.059055 0.295275 0.019685,0.137795 0.177165 0.019685,0.137795 0.295275 0.019685,0.059055 0.177165 0.019685]
}}
appearance Appearance{material USE PIN-01 }}
Shape { geometry IndexedFaceSet 
{ creaseAngle 0.50 coordIndex [0,1,2,-1,2,1,3,-1]
coord Coordinate { point [0.059055 0.31496 0.098425,0.137795 0.31496 0.098425,0.059055 0.31496 0,0.137795 0.31496 0]
}}
appearance Appearance{material USE PIN-01 }}
Shape { geometry IndexedFaceSet 
{ creaseAngle 0.50 coordIndex [0,1,2,-1,2,1,3,-1,4,5,1,-1,1,5,3,-1]
coord Coordinate { point [0.059055 0.177165 0.019685,0.059055 0.295275 0.019685,0.059055 0.177165 0,0.059055 0.31496 0,0.059055 0.295275 0.098425,0.059055 0.31496 0.098425]
}}
appearance Appearance{material USE PIN-01 }}
Shape { geometry IndexedFaceSet 
{ creaseAngle 0.50 coordIndex [0,1,2,-1,0,3,1,-1]
coord Coordinate { point [0.059055 0.31496 0.098425,0.137795 0.295275 0.098425,0.137795 0.31496 0.098425,0.059055 0.295275 0.098425]
}}
appearance Appearance{material USE PIN-01 }}
Shape { geometry IndexedFaceSet 
{ creaseAngle 0.50 coordIndex [0,1,2,-1,2,1,3,-1]
coord Coordinate { point [-0.137795 0.177165 0,-0.137795 0.31496 0,-0.059055 0.177165 0,-0.059055 0.31496 0]
}}
appearance Appearance{material USE PIN-01 }}
Shape { geometry IndexedFaceSet 
{ creaseAngle 0.50 coordIndex [0,1,2,-1,0,3,1,-1,4,5,0,-1,4,0,2,-1]
coord Coordinate { point [-0.059055 0.295275 0.019685,-0.059055 0.177165 0,-0.059055 0.31496 0,-0.059055 0.177165 0.019685,-0.059055 0.31496 0.098425,-0.059055 0.295275 0.098425]
}}
appearance Appearance{material USE PIN-01 }}
Shape { geometry IndexedFaceSet 
{ creaseAngle 0.50 coordIndex [0,1,2,-1,0,2,3,-1]
coord Coordinate { point [-0.059055 0.177165 0.019685,-0.137795 0.177165 0.019685,-0.137795 0.177165 0,-0.059055 0.177165 0]
}}
appearance Appearance{material USE PIN-01 }}
Shape { geometry IndexedFaceSet 
{ creaseAngle 0.50 coordIndex [0,1,2,-1,0,2,3,-1]
coord Coordinate { point [-0.059055 0.295275 0.098425,-0.137795 0.295275 0.098425,-0.137795 0.295275 0.019685,-0.059055 0.295275 0.019685]
}}
appearance Appearance{material USE PIN-01 }}
Shape { geometry IndexedFaceSet 
{ creaseAngle 0.50 coordIndex [0,1,2,-1,0,3,1,-1]
coord Coordinate { point [-0.137795 0.295275 0.019685,-0.059055 0.177165 0.019685,-0.059055 0.295275 0.019685,-0.137795 0.177165 0.019685]
}}
appearance Appearance{material USE PIN-01 }}
Shape { geometry IndexedFaceSet 
{ creaseAngle 0.50 coordIndex [0,1,2,-1,2,1,3,-1]
coord Coordinate { point [-0.137795 0.31496 0.098425,-0.059055 0.31496 0.098425,-0.137795 0.31496 0,-0.059055 0.31496 0]
}}
appearance Appearance{material USE PIN-01 }}
Shape { geometry IndexedFaceSet 
{ creaseAngle 0.50 coordIndex [0,1,2,-1,2,1,3,-1,4,5,1,-1,1,5,3,-1]
coord Coordinate { point [-0.137795 0.177165 0.019685,-0.137795 0.295275 0.019685,-0.137795 0.177165 0,-0.137795 0.31496 0,-0.137795 0.295275 0.098425,-0.137795 0.31496 0.098425]
}}
appearance Appearance{material USE PIN-01 }}
Shape { geometry IndexedFaceSet 
{ creaseAngle 0.50 coordIndex [0,1,2,-1,0,3,1,-1]
coord Coordinate { point [-0.137795 0.31496 0.098425,-0.059055 0.295275 0.098425,-0.059055 0.31496 0.098425,-0.137795 0.295275 0.098425]
}}
appearance Appearance{material USE PIN-01 }}
Shape { geometry IndexedFaceSet 
{ creaseAngle 0.50 coordIndex [0,1,2,-1,2,1,3,-1]
coord Coordinate { point [-0.334645 0.177165 0,-0.334645 0.31496 0,-0.255905 0.177165 0,-0.255905 0.31496 0]
}}
appearance Appearance{material USE PIN-01 }}
Shape { geometry IndexedFaceSet 
{ creaseAngle 0.50 coordIndex [0,1,2,-1,0,3,1,-1,4,5,0,-1,4,0,2,-1]
coord Coordinate { point [-0.255905 0.295275 0.019685,-0.255905 0.177165 0,-0.255905 0.31496 0,-0.255905 0.177165 0.019685,-0.255905 0.31496 0.098425,-0.255905 0.295275 0.098425]
}}
appearance Appearance{material USE PIN-01 }}
Shape { geometry IndexedFaceSet 
{ creaseAngle 0.50 coordIndex [0,1,2,-1,0,2,3,-1]
coord Coordinate { point [-0.255905 0.177165 0.019685,-0.334645 0.177165 0.019685,-0.334645 0.177165 0,-0.255905 0.177165 0]
}}
appearance Appearance{material USE PIN-01 }}
Shape { geometry IndexedFaceSet 
{ creaseAngle 0.50 coordIndex [0,1,2,-1,0,2,3,-1]
coord Coordinate { point [-0.255905 0.295275 0.098425,-0.334645 0.295275 0.098425,-0.334645 0.295275 0.019685,-0.255905 0.295275 0.019685]
}}
appearance Appearance{material USE PIN-01 }}
Shape { geometry IndexedFaceSet 
{ creaseAngle 0.50 coordIndex [0,1,2,-1,0,3,1,-1]
coord Coordinate { point [-0.334645 0.295275 0.019685,-0.255905 0.177165 0.019685,-0.255905 0.295275 0.019685,-0.334645 0.177165 0.019685]
}}
appearance Appearance{material USE PIN-01 }}
Shape { geometry IndexedFaceSet 
{ creaseAngle 0.50 coordIndex [0,1,2,-1,2,1,3,-1]
coord Coordinate { point [-0.334645 0.31496 0.098425,-0.255905 0.31496 0.098425,-0.334645 0.31496 0,-0.255905 0.31496 0]
}}
appearance Appearance{material USE PIN-01 }}
Shape { geometry IndexedFaceSet 
{ creaseAngle 0.50 coordIndex [0,1,2,-1,2,1,3,-1,4,5,1,-1,1,5,3,-1]
coord Coordinate { point [-0.334645 0.177165 0.019685,-0.334645 0.295275 0.019685,-0.334645 0.177165 0,-0.334645 0.31496 0,-0.334645 0.295275 0.098425,-0.334645 0.31496 0.098425]
}}
appearance Appearance{material USE PIN-01 }}
Shape { geometry IndexedFaceSet 
{ creaseAngle 0.50 coordIndex [0,1,2,-1,0,3,1,-1]
coord Coordinate { point [-0.334645 0.31496 0.098425,-0.255905 0.295275 0.098425,-0.255905 0.31496 0.098425,-0.334645 0.295275 0.098425]
}}
appearance Appearance{material USE PIN-01 }}
Shape { geometry IndexedFaceSet 
{ creaseAngle 0.50 coordIndex [0,1,2,-1,0,2,3,-1]
coord Coordinate { point [-0.3937 0.03937 0.098425,-0.3937 -0.03937 0.098425,-0.3937 -0.03937 0.019685,-0.3937 0.03937 0.019685]
}}
appearance Appearance{material USE PIN-01 }}
Shape { geometry IndexedFaceSet 
{ creaseAngle 0.50 coordIndex [0,1,2,-1,2,1,3,-1]
coord Coordinate { point [-0.27559 -0.03937 0,-0.413385 -0.03937 0,-0.27559 0.03937 0,-0.413385 0.03937 0]
}}
appearance Appearance{material USE PIN-01 }}
Shape { geometry IndexedFaceSet 
{ creaseAngle 0.50 coordIndex [0,1,2,-1,0,2,3,-1]
coord Coordinate { point [-0.27559 0.03937 0.019685,-0.27559 -0.03937 0.019685,-0.27559 -0.03937 0,-0.27559 0.03937 0]
}}
appearance Appearance{material USE PIN-01 }}
Shape { geometry IndexedFaceSet 
{ creaseAngle 0.50 coordIndex [0,1,2,-1,2,1,3,-1]
coord Coordinate { point [-0.413385 -0.03937 0.098425,-0.413385 0.03937 0.098425,-0.413385 -0.03937 0,-0.413385 0.03937 0]
}}
appearance Appearance{material USE PIN-01 }}
Shape { geometry IndexedFaceSet 
{ creaseAngle 0.50 coordIndex [0,1,2,-1,0,3,1,-1]
coord Coordinate { point [-0.3937 -0.03937 0.019685,-0.27559 0.03937 0.019685,-0.3937 0.03937 0.019685,-0.27559 -0.03937 0.019685]
}}
appearance Appearance{material USE PIN-01 }}
Shape { geometry IndexedFaceSet 
{ creaseAngle 0.50 coordIndex [0,1,2,-1,0,3,1,-1]
coord Coordinate { point [-0.413385 -0.03937 0.098425,-0.3937 0.03937 0.098425,-0.413385 0.03937 0.098425,-0.3937 -0.03937 0.098425]
}}
appearance Appearance{material USE PIN-01 }}
Shape { geometry IndexedFaceSet 
{ creaseAngle 0.50 coordIndex [0,1,2,-1,2,1,3,-1,4,5,1,-1,1,5,3,-1]
coord Coordinate { point [-0.27559 -0.03937 0.019685,-0.3937 -0.03937 0.019685,-0.27559 -0.03937 0,-0.413385 -0.03937 0,-0.3937 -0.03937 0.098425,-0.413385 -0.03937 0.098425]
}}
appearance Appearance{material USE PIN-01 }}
Shape { geometry IndexedFaceSet 
{ creaseAngle 0.50 coordIndex [0,1,2,-1,0,3,1,-1,4,5,0,-1,4,0,2,-1]
coord Coordinate { point [-0.3937 0.03937 0.019685,-0.27559 0.03937 0,-0.413385 0.03937 0,-0.27559 0.03937 0.019685,-0.413385 0.03937 0.098425,-0.3937 0.03937 0.098425]
}}
appearance Appearance{material USE PIN-01 }}
Shape { geometry IndexedFaceSet 
{ creaseAngle 0.50 coordIndex [0,1,2,-1,3,4,5,-1,3,5,6,-1,3,7,8,-1,3,8,9,-1,3,9,10,-1,3,10,11,-1,3,11,12,-1,3,12,13,-1,3,13,14,-1,3,14,15,-1,3,15,16,-1,3,16,17,-1,3,17,18,-1,3,18,19,-1,3,19,20,-1,3,20,21,-1,3,21,22,-1,3,22,23,-1,3,23,24,-1,3,24,25,-1,3,25,1,-1,3,0,4,-1,3,1,0,-1]
coord Coordinate { point [-0.215694 -0.174877 0.137795,-0.249064 -0.157363 0.137795,-0.233442 -0.168146 0.137795,-0.144636 -0.157363 0.137795,-0.19685 -0.177165 0.137795,-0.178006 -0.174877 0.137795,-0.160258 -0.168146 0.137795,-0.132048 -0.143154 0.137795,-0.123227 -0.126347 0.137795,-0.118684 -0.107916 0.137795,-0.118684 -0.0889339 0.137795,-0.123227 -0.0705034 0.137795,-0.132048 -0.0536956 0.137795,-0.144636 -0.0394873 0.137795,-0.160258 -0.0287042 0.137795,-0.178006 -0.021973 0.137795,-0.19685 -0.019685 0.137795,-0.215694 -0.021973 0.137795,-0.233442 -0.0287042 0.137795,-0.249064 -0.0394873 0.137795,-0.261652 -0.0536956 0.137795,-0.270473 -0.0705034 0.137795,-0.275016 -0.0889339 0.137795,-0.275016 -0.107916 0.137795,-0.270473 -0.126347 0.137795,-0.261652 -0.143154 0.137795]
}}
appearance Appearance{material USE IC-LABEL-01 }}
Shape { geometry IndexedFaceSet 
{ creaseAngle 0.50 coordIndex [0,1,2,-1,2,1,3,-1,0,4,1,-1,5,4,0,-1,6,7,5,-1,5,7,4,-1,8,9,6,-1,6,9,7,-1,10,11,8,-1,8,11,9,-1,3,12,13,-1,1,12,3,-1,10,14,11,-1,15,14,16,-1,17,14,10,-1,16,14,17,-1,1,18,12,-1,4,18,1,-1,7,19,4,-1,4,19,18,-1,7,20,19,-1,9,20,7,-1,11,21,9,-1,9,21,20,-1,13,22,23,-1,12,22,13,-1,24,25,15,-1,11,25,21,-1,15,25,14,-1,14,25,11,-1,12,26,22,-1,18,26,12,-1,18,27,26,-1,19,27,18,-1,20,28,19,-1,19,28,27,-1,20,29,28,-1,21,29,20,-1,23,30,31,-1,22,30,23,-1,25,32,21,-1,33,32,24,-1,21,32,29,-1,24,32,25,-1,22,34,30,-1,26,34,22,-1,26,35,34,-1,27,35,26,-1,27,36,35,-1,28,36,27,-1,29,37,28,-1,28,37,36,-1,31,38,39,-1,30,38,31,-1,40,41,33,-1,32,41,29,-1,33,41,32,-1,29,41,37,-1,30,42,38,-1,34,42,30,-1,35,43,34,-1,34,43,42,-1,36,44,35,-1,35,44,43,-1,37,45,36,-1,36,45,44,-1,39,46,47,-1,38,46,39,-1,48,49,40,-1,40,49,41,-1,41,49,37,-1,37,49,45,-1,42,50,38,-1,38,50,46,-1,43,51,42,-1,42,51,50,-1,44,52,43,-1,43,52,51,-1,45,53,44,-1,44,53,52,-1,47,54,55,-1,46,54,47,-1,56,57,48,-1,48,57,49,-1,49,57,45,-1,45,57,53,-1,50,58,46,-1,46,58,54,-1,51,59,50,-1,50,59,58,-1,52,60,51,-1,51,60,59,-1,53,61,52,-1,52,61,60,-1,55,62,63,-1,54,62,55,-1,64,65,56,-1,56,65,57,-1,57,65,53,-1,53,65,61,-1,58,66,54,-1,54,66,62,-1,59,67,58,-1,58,67,66,-1,59,68,67,-1,60,68,59,-1,60,69,68,-1,61,69,60,-1,63,70,71,-1,62,70,63,-1,65,72,61,-1,73,72,64,-1,64,72,65,-1,61,72,69,-1,62,74,70,-1,66,74,62,-1,67,75,66,-1,66,75,74,-1,68,76,67,-1,67,76,75,-1,69,77,68,-1,68,77,76,-1,70,78,71,-1,71,78,79,-1,80,81,73,-1,73,81,72,-1,69,81,77,-1,72,81,69,-1,70,82,78,-1,74,82,70,-1,75,83,74,-1,74,83,82,-1,76,84,75,-1,75,84,83,-1,77,85,76,-1,76,85,84,-1,78,86,79,-1,79,86,87,-1,88,89,80,-1,80,89,81,-1,81,89,77,-1,77,89,85,-1,78,90,86,-1,82,90,78,-1,82,91,90,-1,83,91,82,-1,85,92,84,-1,84,92,83,-1,83,92,91,-1,85,93,92,-1,94,95,96,-1,87,95,97,-1,97,95,94,-1,86,95,87,-1,98,99,88,-1,88,99,89,-1,89,99,85,-1,85,99,93,-1,96,100,101,-1,90,100,86,-1,86,100,95,-1,95,100,96,-1,101,102,103,-1,91,102,90,-1,90,102,100,-1,100,102,101,-1,103,104,105,-1,91,104,102,-1,92,104,91,-1,102,104,103,-1,105,106,107,-1,93,106,92,-1,104,106,105,-1,92,106,104,-1,107,108,109,-1,109,108,110,-1,111,108,98,-1,110,108,111,-1,98,108,99,-1,99,108,93,-1,106,108,107,-1,93,108,106,-1]
coord Coordinate { point [-0.19685 -0.0153047 0.138289,-0.216742 -0.01772 0.138289,-0.19685 -0.019685 0.137795,-0.215694 -0.021973 0.137795,-0.217738 -0.0136802 0.139744,-0.19685 -0.011144 0.139744,-0.19685 -0.0074116 0.14209,-0.218631 -0.0100563 0.14209,-0.19685 -0.00429465 0.145207,-0.219377 -0.0070299 0.145207,-0.19685 -0.00194943 0.148939,-0.219938 -0.00475283 0.148939,-0.235478 -0.0248256 0.138289,-0.233442 -0.0287042 0.137795,-0.220287 -0.00333925 0.1531,-0.220405 -0.00286005 0.15748,-0.19685 0 0.15748,-0.19685 -0.000493544 0.1531,-0.237412 -0.0211415 0.139744,-0.239146 -0.0178366 0.14209,-0.240595 -0.0150767 0.145207,-0.241684 -0.0130001 0.148939,-0.251969 -0.0362085 0.138289,-0.249064 -0.0394873 0.137795,-0.24259 -0.011274 0.15748,-0.242361 -0.011711 0.1531,-0.254728 -0.0330942 0.139744,-0.257203 -0.0303005 0.14209,-0.25927 -0.0279674 0.145207,-0.260825 -0.026212 0.148939,-0.265257 -0.0512073 0.138289,-0.261652 -0.0536956 0.137795,-0.261791 -0.0251223 0.1531,-0.262118 -0.0247528 0.15748,-0.268681 -0.0488437 0.139744,-0.271753 -0.0467235 0.14209,-0.274318 -0.0449529 0.145207,-0.276248 -0.0436206 0.148939,-0.274569 -0.0689501 0.138289,-0.270473 -0.0705034 0.137795,-0.277852 -0.0425132 0.15748,-0.277446 -0.0427936 0.1531,-0.278459 -0.0674747 0.139744,-0.281949 -0.0661512 0.14209,-0.284863 -0.0650459 0.145207,-0.287056 -0.0642143 0.148939,-0.279364 -0.088406 0.138289,-0.275016 -0.0889339 0.137795,-0.288879 -0.063523 0.15748,-0.288418 -0.063698 0.1531,-0.283495 -0.0879044 0.139744,-0.2872 -0.0874545 0.14209,-0.290294 -0.0870788 0.145207,-0.292622 -0.0867962 0.148939,-0.279364 -0.108444 0.138289,-0.275016 -0.107916 0.137795,-0.294557 -0.0865612 0.15748,-0.294067 -0.0866207 0.1531,-0.283495 -0.108946 0.139744,-0.2872 -0.109395 0.14209,-0.290294 -0.109771 0.145207,-0.292622 -0.110054 0.148939,-0.274569 -0.1279 0.138289,-0.270473 -0.126347 0.137795,-0.294557 -0.110289 0.15748,-0.294067 -0.110229 0.1531,-0.278459 -0.129375 0.139744,-0.281949 -0.130699 0.14209,-0.284863 -0.131804 0.145207,-0.287056 -0.132636 0.148939,-0.265257 -0.145643 0.138289,-0.261652 -0.143154 0.137795,-0.288418 -0.133152 0.1531,-0.288879 -0.133327 0.15748,-0.268681 -0.148006 0.139744,-0.271753 -0.150127 0.14209,-0.274318 -0.151897 0.145207,-0.276248 -0.153229 0.148939,-0.251969 -0.160641 0.138289,-0.249064 -0.157363 0.137795,-0.277852 -0.154337 0.15748,-0.277446 -0.154056 0.1531,-0.254728 -0.163756 0.139744,-0.257203 -0.16655 0.14209,-0.25927 -0.168883 0.145207,-0.260825 -0.170638 0.148939,-0.235478 -0.172024 0.138289,-0.233442 -0.168146 0.137795,-0.262118 -0.172097 0.15748,-0.261791 -0.171728 0.1531,-0.237412 -0.175708 0.139744,-0.239146 -0.179013 0.14209,-0.240595 -0.181773 0.145207,-0.241684 -0.18385 0.148939,-0.19685 -0.177165 0.137795,-0.216742 -0.17913 0.138289,-0.19685 -0.181545 0.138289,-0.215694 -0.174877 0.137795,-0.24259 -0.185576 0.15748,-0.242361 -0.185139 0.1531,-0.217738 -0.18317 0.139744,-0.19685 -0.185706 0.139744,-0.218631 -0.186794 0.14209,-0.19685 -0.189438 0.14209,-0.219377 -0.18982 0.145207,-0.19685 -0.192555 0.145207,-0.219938 -0.192097 0.148939,-0.19685 -0.194901 0.148939,-0.220287 -0.193511 0.1531,-0.19685 -0.196356 0.1531,-0.19685 -0.19685 0.15748,-0.220405 -0.19399 0.15748]
}}
appearance Appearance{material USE IC-BODY-EPOXY-04 }}
Shape { geometry IndexedFaceSet 
{ creaseAngle 0.50 coordIndex [0,1,2,-1,2,1,3,-1]
coord Coordinate { point [-0.3937 -0.295275 0.15748,-0.3937 0.295275 0.15748,-0.3937 -0.295275 0.019685,-0.3937 0.295275 0.019685]
}}
appearance Appearance{material USE IC-BODY-EPOXY-04 }}
Shape { geometry IndexedFaceSet 
{ creaseAngle 0.50 coordIndex [0,1,2,-1,2,1,3,-1]
coord Coordinate { point [0.3937 -0.295275 0.15748,-0.3937 -0.295275 0.15748,0.3937 -0.295275 0.019685,-0.3937 -0.295275 0.019685]
}}
appearance Appearance{material USE IC-BODY-EPOXY-04 }}
Shape { geometry IndexedFaceSet 
{ creaseAngle 0.50 coordIndex [0,1,2,-1,2,1,3,-1]
coord Coordinate { point [0.3937 0.295275 0.15748,0.3937 -0.295275 0.15748,0.3937 0.295275 0.019685,0.3937 -0.295275 0.019685]
}}
appearance Appearance{material USE IC-BODY-EPOXY-04 }}
Shape { geometry IndexedFaceSet 
{ creaseAngle 0.50 coordIndex [0,1,2,-1,2,1,3,-1]
coord Coordinate { point [-0.3937 0.295275 0.15748,0.3937 0.295275 0.15748,-0.3937 0.295275 0.019685,0.3937 0.295275 0.019685]
}}
appearance Appearance{material USE IC-BODY-EPOXY-04 }}
Shape { geometry IndexedFaceSet 
{ creaseAngle 0.50 coordIndex [0,1,2,-1,3,2,1,-1,4,0,2,-1,5,2,3,-1,6,4,2,-1,7,2,5,-1,8,2,7,-1,9,2,8,-1,10,11,6,-1,10,12,11,-1,10,13,12,-1,10,6,2,-1,14,13,10,-1,15,14,10,-1,16,15,10,-1,17,16,10,-1,18,17,10,-1,19,20,21,-1,19,22,20,-1,19,23,22,-1,19,9,23,-1,19,2,9,-1,24,25,18,-1,24,26,25,-1,24,27,26,-1,24,28,27,-1,24,29,28,-1,24,21,29,-1,24,19,21,-1,24,18,10,-1]
coord Coordinate { point [-0.277852 -0.0425132 0.15748,-0.262118 -0.0247528 0.15748,-0.3937 0.295275 0.15748,-0.24259 -0.011274 0.15748,-0.288879 -0.063523 0.15748,-0.220405 -0.00286005 0.15748,-0.294557 -0.0865612 0.15748,-0.19685 0 0.15748,-0.173295 -0.00286005 0.15748,-0.15111 -0.011274 0.15748,-0.3937 -0.295275 0.15748,-0.294557 -0.110289 0.15748,-0.288879 -0.133327 0.15748,-0.277852 -0.154337 0.15748,-0.262118 -0.172097 0.15748,-0.24259 -0.185576 0.15748,-0.220405 -0.19399 0.15748,-0.19685 -0.19685 0.15748,-0.173295 -0.19399 0.15748,0.3937 0.295275 0.15748,-0.104821 -0.063523 0.15748,-0.0991426 -0.0865612 0.15748,-0.115848 -0.0425132 0.15748,-0.131582 -0.0247528 0.15748,0.3937 -0.295275 0.15748,-0.15111 -0.185576 0.15748,-0.131582 -0.172097 0.15748,-0.115848 -0.154337 0.15748,-0.104821 -0.133327 0.15748,-0.0991426 -0.110289 0.15748]
}}
appearance Appearance{material USE IC-BODY-EPOXY-04 }}
Shape { geometry IndexedFaceSet 
{ creaseAngle 0.50 coordIndex [0,1,2,-1,2,1,3,-1]
coord Coordinate { point [0.3937 0.295275 0.019685,0.3937 -0.295275 0.019685,-0.3937 0.295275 0.019685,-0.3937 -0.295275 0.019685]
}}
appearance Appearance{material USE IC-BODY-EPOXY-04 }}
Shape { geometry IndexedFaceSet 
{ creaseAngle 0.50 coordIndex [0,1,2,-1,2,1,3,-1,4,5,0,-1,0,5,1,-1,4,6,5,-1,7,6,4,-1,8,9,7,-1,7,9,6,-1,10,11,8,-1,8,11,9,-1,3,12,13,-1,1,12,3,-1,14,15,16,-1,17,15,10,-1,16,15,17,-1,10,15,11,-1,5,18,1,-1,1,18,12,-1,5,19,18,-1,6,19,5,-1,9,20,6,-1,6,20,19,-1,11,21,9,-1,9,21,20,-1,13,22,23,-1,12,22,13,-1,24,25,14,-1,14,25,15,-1,11,25,21,-1,15,25,11,-1,18,26,12,-1,12,26,22,-1,18,27,26,-1,19,27,18,-1,19,28,27,-1,20,28,19,-1,20,29,28,-1,21,29,20,-1,22,30,23,-1,23,30,31,-1,32,33,24,-1,24,33,25,-1,21,33,29,-1,25,33,21,-1,26,34,22,-1,22,34,30,-1,26,35,34,-1,27,35,26,-1,27,36,35,-1,28,36,27,-1,29,37,28,-1,28,37,36,-1,31,38,39,-1,30,38,31,-1,40,41,32,-1,33,41,29,-1,29,41,37,-1,32,41,33,-1,34,42,30,-1,30,42,38,-1,35,43,34,-1,34,43,42,-1,36,44,35,-1,35,44,43,-1,37,45,36,-1,36,45,44,-1,39,46,47,-1,38,46,39,-1,48,49,40,-1,40,49,41,-1,41,49,37,-1,37,49,45,-1,42,50,38,-1,38,50,46,-1,43,51,42,-1,42,51,50,-1,44,52,43,-1,43,52,51,-1,45,53,44,-1,44,53,52,-1,47,54,55,-1,46,54,47,-1,56,57,48,-1,48,57,49,-1,49,57,45,-1,45,57,53,-1,50,58,46,-1,46,58,54,-1,51,59,50,-1,50,59,58,-1,52,60,51,-1,51,60,59,-1,53,61,52,-1,52,61,60,-1,55,62,63,-1,54,62,55,-1,64,65,56,-1,56,65,57,-1,57,65,53,-1,53,65,61,-1,58,66,54,-1,54,66,62,-1,59,67,58,-1,58,67,66,-1,59,68,67,-1,60,68,59,-1,60,69,68,-1,61,69,60,-1,63,70,71,-1,62,70,63,-1,65,72,61,-1,73,72,64,-1,64,72,65,-1,61,72,69,-1,62,74,70,-1,66,74,62,-1,67,75,66,-1,66,75,74,-1,68,76,67,-1,67,76,75,-1,69,77,68,-1,68,77,76,-1,70,78,71,-1,71,78,79,-1,80,81,73,-1,69,81,77,-1,73,81,72,-1,72,81,69,-1,70,82,78,-1,74,82,70,-1,75,83,74,-1,74,83,82,-1,75,84,83,-1,76,84,75,-1,77,85,76,-1,76,85,84,-1,79,86,87,-1,78,86,79,-1,88,89,80,-1,80,89,81,-1,81,89,77,-1,77,89,85,-1,78,90,86,-1,82,90,78,-1,82,91,90,-1,83,91,82,-1,84,92,83,-1,85,92,84,-1,83,92,91,-1,85,93,92,-1,87,94,95,-1,95,94,96,-1,96,94,97,-1,86,94,87,-1,98,99,88,-1,89,99,85,-1,85,99,93,-1,88,99,89,-1,94,100,97,-1,97,100,101,-1,90,100,86,-1,86,100,94,-1,90,102,100,-1,101,102,103,-1,91,102,90,-1,100,102,101,-1,102,104,103,-1,103,104,105,-1,92,104,91,-1,91,104,102,-1,105,106,107,-1,104,106,105,-1,93,106,92,-1,92,106,104,-1,108,109,98,-1,110,109,108,-1,106,109,107,-1,107,109,111,-1,111,109,110,-1,98,109,99,-1,99,109,93,-1,93,109,106,-1]
coord Coordinate { point [-0.19685 -0.181545 0.138289,-0.176958 -0.17913 0.138289,-0.19685 -0.177165 0.137795,-0.178006 -0.174877 0.137795,-0.19685 -0.185706 0.139744,-0.175962 -0.18317 0.139744,-0.175069 -0.186794 0.14209,-0.19685 -0.189438 0.14209,-0.19685 -0.192555 0.145207,-0.174323 -0.18982 0.145207,-0.19685 -0.194901 0.148939,-0.173762 -0.192097 0.148939,-0.158222 -0.172024 0.138289,-0.160258 -0.168146 0.137795,-0.173295 -0.19399 0.15748,-0.173413 -0.193511 0.1531,-0.19685 -0.19685 0.15748,-0.19685 -0.196356 0.1531,-0.156288 -0.175708 0.139744,-0.154554 -0.179013 0.14209,-0.153105 -0.181773 0.145207,-0.152016 -0.18385 0.148939,-0.141731 -0.160641 0.138289,-0.144636 -0.157363 0.137795,-0.15111 -0.185576 0.15748,-0.151339 -0.185139 0.1531,-0.138972 -0.163756 0.139744,-0.136497 -0.16655 0.14209,-0.13443 -0.168883 0.145207,-0.132875 -0.170638 0.148939,-0.128443 -0.145643 0.138289,-0.132048 -0.143154 0.137795,-0.131582 -0.172097 0.15748,-0.131909 -0.171728 0.1531,-0.125019 -0.148006 0.139744,-0.121947 -0.150127 0.14209,-0.119382 -0.151897 0.145207,-0.117452 -0.153229 0.148939,-0.119131 -0.1279 0.138289,-0.123227 -0.126347 0.137795,-0.115848 -0.154337 0.15748,-0.116254 -0.154056 0.1531,-0.115241 -0.129375 0.139744,-0.111751 -0.130699 0.14209,-0.108837 -0.131804 0.145207,-0.106644 -0.132636 0.148939,-0.114336 -0.108444 0.138289,-0.118684 -0.107916 0.137795,-0.104821 -0.133327 0.15748,-0.105282 -0.133152 0.1531,-0.110205 -0.108946 0.139744,-0.1065 -0.109395 0.14209,-0.103406 -0.109771 0.145207,-0.101078 -0.110054 0.148939,-0.114336 -0.088406 0.138289,-0.118684 -0.0889339 0.137795,-0.0991426 -0.110289 0.15748,-0.0996326 -0.110229 0.1531,-0.110205 -0.0879044 0.139744,-0.1065 -0.0874545 0.14209,-0.103406 -0.0870788 0.145207,-0.101078 -0.0867962 0.148939,-0.119131 -0.0689501 0.138289,-0.123227 -0.0705034 0.137795,-0.0991426 -0.0865612 0.15748,-0.0996326 -0.0866207 0.1531,-0.115241 -0.0674747 0.139744,-0.111751 -0.0661512 0.14209,-0.108837 -0.0650459 0.145207,-0.106644 -0.0642143 0.148939,-0.128443 -0.0512073 0.138289,-0.132048 -0.0536956 0.137795,-0.105282 -0.063698 0.1531,-0.104821 -0.063523 0.15748,-0.125019 -0.0488437 0.139744,-0.121947 -0.0467235 0.14209,-0.119382 -0.0449529 0.145207,-0.117452 -0.0436206 0.148939,-0.141731 -0.0362085 0.138289,-0.144636 -0.0394873 0.137795,-0.115848 -0.0425132 0.15748,-0.116254 -0.0427936 0.1531,-0.138972 -0.0330942 0.139744,-0.136497 -0.0303005 0.14209,-0.13443 -0.0279674 0.145207,-0.132875 -0.026212 0.148939,-0.158222 -0.0248256 0.138289,-0.160258 -0.0287042 0.137795,-0.131582 -0.0247528 0.15748,-0.131909 -0.0251223 0.1531,-0.156288 -0.0211415 0.139744,-0.154554 -0.0178366 0.14209,-0.153105 -0.0150767 0.145207,-0.152016 -0.0130001 0.148939,-0.176958 -0.01772 0.138289,-0.178006 -0.021973 0.137795,-0.19685 -0.019685 0.137795,-0.19685 -0.0153047 0.138289,-0.15111 -0.011274 0.15748,-0.151339 -0.011711 0.1531,-0.175962 -0.0136802 0.139744,-0.19685 -0.011144 0.139744,-0.175069 -0.0100563 0.14209,-0.19685 -0.0074116 0.14209,-0.174323 -0.0070299 0.145207,-0.19685 -0.00429465 0.145207,-0.173762 -0.00475283 0.148939,-0.19685 -0.00194943 0.148939,-0.173295 -0.00286005 0.15748,-0.173413 -0.00333925 0.1531,-0.19685 0 0.15748,-0.19685 -0.000493544 0.1531]
}}
appearance Appearance{material USE IC-BODY-EPOXY-04 }}
