(module "PICOFLEX-90325-10" (layer "F.Cu") (tedit 4E5B5DD2)
  (descr "Picoflex 10 pin header")
  (fp_text reference "PICOFLEX-90325-10" (at 0 0) (layer "F.Fab")  (effects (font (size 1.2 1.2) (thickness 0.12)))
  )
  (fp_text value "PICOFLEX-90325-10" (at 0 0) (layer "F.Fab") hide  (effects (font (size 1.2 1.2) (thickness 0.12)))
  )
  (fp_line (start -5.715 2.54) (end -6.35 3.81) (layer "F.Fab") (width 0.12))
  (fp_line (start -6.35 3.81) (end -5.08 3.81) (layer "F.Fab") (width 0.12))
  (fp_line (start -5.08 3.81) (end -5.715 2.54) (layer "F.Fab") (width 0.12))
  (fp_line (start 6 2.5) (end -6 2.5) (layer "F.Fab") (width 0.12))
  (fp_line (start -9 2.5) (end -9 -2.5) (layer "F.Fab") (width 0.12))
  (fp_line (start -9 -2.5) (end 9 -2.5) (layer "F.Fab") (width 0.12))
  (fp_line (start 9 -2.5) (end 9 2.5) (layer "F.Fab") (width 0.12))
  (pad "1" thru_hole rect (at -5.715 1.27) (size 1.2 1.2) (drill 0.8) (layers "*.Cu" "*.Mask"))
  (pad "2" thru_hole circle (at -4.445 -1.27) (size 1.2 1.2) (drill 0.8) (layers "*.Cu" "*.Mask"))
  (pad "3" thru_hole circle (at -3.175 1.27) (size 1.2 1.2) (drill 0.8) (layers "*.Cu" "*.Mask"))
  (pad "4" thru_hole circle (at -1.905 -1.27) (size 1.2 1.2) (drill 0.8) (layers "*.Cu" "*.Mask"))
  (pad "5" thru_hole circle (at -0.635 1.27) (size 1.2 1.2) (drill 0.8) (layers "*.Cu" "*.Mask"))
  (pad "6" thru_hole circle (at 0.635 -1.27) (size 1.2 1.2) (drill 0.8) (layers "*.Cu" "*.Mask"))
  (pad "7" thru_hole circle (at 1.905 1.27) (size 1.2 1.2) (drill 0.8) (layers "*.Cu" "*.Mask"))
  (pad "8" thru_hole circle (at 3.175 -1.27) (size 1.2 1.2) (drill 0.8) (layers "*.Cu" "*.Mask"))
  (pad "9" thru_hole circle (at 4.445 1.27) (size 1.2 1.2) (drill 0.8) (layers "*.Cu" "*.Mask"))
  (pad "10" thru_hole circle (at 5.715 -1.27) (size 1.2 1.2) (drill 0.8) (layers "*.Cu" "*.Mask"))
  (pad "" np_thru_hole circle (at -7.5 2.75) (size 1.5 1.5) (drill 1.5) (layers "*.Mask"))
  (pad "" np_thru_hole circle (at 7.5 2.75) (size 1.5 1.5) (drill 1.5) (layers "*.Mask"))
)
