(module "PICOFLEX-90325-24" (layer "F.Cu") (tedit 4E5B5DFF)
  (descr "Picoflex 24 pin header")
  (fp_text reference "PICOFLEX-90325-24" (at 0 0) (layer "F.Fab")  (effects (font (size 1.2 1.2) (thickness 0.12)))
  )
  (fp_text value "PICOFLEX-90325-24" (at 0 0) (layer "F.Fab") hide  (effects (font (size 1.2 1.2) (thickness 0.12)))
  )
  (fp_line (start -14.605 2.54) (end -15.24 3.81) (layer "F.Fab") (width 0.12))
  (fp_line (start -15.24 3.81) (end -13.97 3.81) (layer "F.Fab") (width 0.12))
  (fp_line (start -13.97 3.81) (end -14.605 2.54) (layer "F.Fab") (width 0.12))
  (fp_line (start 15 2.5) (end -15 2.5) (layer "F.Fab") (width 0.12))
  (fp_line (start -17.5 2.5) (end -17.5 -2.5) (layer "F.Fab") (width 0.12))
  (fp_line (start -17.5 -2.5) (end 17.5 -2.5) (layer "F.Fab") (width 0.12))
  (fp_line (start 17.5 -2.5) (end 17.5 2.5) (layer "F.Fab") (width 0.12))
  (pad "1" thru_hole rect (at -14.605 1.27) (size 1.2 1.2) (drill 0.8) (layers "*.Cu" "*.Mask"))
  (pad "2" thru_hole circle (at -13.335 -1.27) (size 1.2 1.2) (drill 0.8) (layers "*.Cu" "*.Mask"))
  (pad "3" thru_hole circle (at -12.065 1.27) (size 1.2 1.2) (drill 0.8) (layers "*.Cu" "*.Mask"))
  (pad "4" thru_hole circle (at -10.795 -1.27) (size 1.2 1.2) (drill 0.8) (layers "*.Cu" "*.Mask"))
  (pad "5" thru_hole circle (at -9.525 1.27) (size 1.2 1.2) (drill 0.8) (layers "*.Cu" "*.Mask"))
  (pad "6" thru_hole circle (at -8.255 -1.27) (size 1.2 1.2) (drill 0.8) (layers "*.Cu" "*.Mask"))
  (pad "7" thru_hole circle (at -6.985 1.27) (size 1.2 1.2) (drill 0.8) (layers "*.Cu" "*.Mask"))
  (pad "8" thru_hole circle (at -5.715 -1.27) (size 1.2 1.2) (drill 0.8) (layers "*.Cu" "*.Mask"))
  (pad "9" thru_hole circle (at -4.445 1.27) (size 1.2 1.2) (drill 0.8) (layers "*.Cu" "*.Mask"))
  (pad "10" thru_hole circle (at -3.175 -1.27) (size 1.2 1.2) (drill 0.8) (layers "*.Cu" "*.Mask"))
  (pad "11" thru_hole circle (at -1.905 1.27) (size 1.2 1.2) (drill 0.8) (layers "*.Cu" "*.Mask"))
  (pad "12" thru_hole circle (at -0.635 -1.27) (size 1.2 1.2) (drill 0.8) (layers "*.Cu" "*.Mask"))
  (pad "13" thru_hole circle (at 0.635 1.27) (size 1.2 1.2) (drill 0.8) (layers "*.Cu" "*.Mask"))
  (pad "14" thru_hole circle (at 1.905 -1.27) (size 1.2 1.2) (drill 0.8) (layers "*.Cu" "*.Mask"))
  (pad "15" thru_hole circle (at 3.175 1.27) (size 1.2 1.2) (drill 0.8) (layers "*.Cu" "*.Mask"))
  (pad "16" thru_hole circle (at 4.445 -1.27) (size 1.2 1.2) (drill 0.8) (layers "*.Cu" "*.Mask"))
  (pad "17" thru_hole circle (at 5.715 1.27) (size 1.2 1.2) (drill 0.8) (layers "*.Cu" "*.Mask"))
  (pad "18" thru_hole circle (at 6.985 -1.27) (size 1.2 1.2) (drill 0.8) (layers "*.Cu" "*.Mask"))
  (pad "19" thru_hole circle (at 8.255 1.27) (size 1.2 1.2) (drill 0.8) (layers "*.Cu" "*.Mask"))
  (pad "20" thru_hole circle (at 9.525 -1.27) (size 1.2 1.2) (drill 0.8) (layers "*.Cu" "*.Mask"))
  (pad "21" thru_hole circle (at 10.795 1.27) (size 1.2 1.2) (drill 0.8) (layers "*.Cu" "*.Mask"))
  (pad "22" thru_hole circle (at 12.065 -1.27) (size 1.2 1.2) (drill 0.8) (layers "*.Cu" "*.Mask"))
  (pad "23" thru_hole circle (at 13.335 1.27) (size 1.2 1.2) (drill 0.8) (layers "*.Cu" "*.Mask"))
  (pad "24" thru_hole circle (at 14.605 -1.27) (size 1.2 1.2) (drill 0.8) (layers "*.Cu" "*.Mask"))
  (pad "" np_thru_hole circle (at -16.4 2.75) (size 1.5 1.5) (drill 1.5) (layers "*.Mask"))
  (pad "" np_thru_hole circle (at 16.4 2.75) (size 1.5 1.5) (drill 1.5) (layers "*.Mask"))
)
