(module "PICOFLEX-90814-16" (layer "F.Cu") (tedit 4910433B)
  (descr "Picoflex 16 pin SMD header")
  (attr smd)
  (fp_text reference "PICOFLEX-90814-16" (at 0 0) (layer "F.Fab")  (effects (font (size 1.2 1.2) (thickness 0.12)))
  )
  (fp_text value "PICOFLEX-90814-16" (at 0 0) (layer "F.Fab") hide  (effects (font (size 1.2 1.2) (thickness 0.12)))
  )
  (fp_line (start -12.065 3.81) (end -11.43 2.54) (layer "F.Fab") (width 0.12))
  (fp_line (start -11.43 2.54) (end -10.795 3.81) (layer "F.Fab") (width 0.12))
  (fp_line (start -10.795 3.81) (end -12.065 3.81) (layer "F.Fab") (width 0.12))
  (fp_line (start 9.5 2.5) (end 12.5 2.5) (layer "F.Fab") (width 0.12))
  (fp_line (start 12.5 2.5) (end 12.5 -2.5) (layer "F.Fab") (width 0.12))
  (fp_line (start 12.5 -2.5) (end 11 -2.5) (layer "F.Fab") (width 0.12))
  (fp_line (start -9.5 -2.5) (end -12.5 -2.5) (layer "F.Fab") (width 0.12))
  (fp_line (start -12.5 -2.5) (end -12.5 2.5) (layer "F.Fab") (width 0.12))
  (fp_line (start -12.5 2.5) (end -11 2.5) (layer "F.Fab") (width 0.12))
  (pad "1" smd rect (at -9.525 3) (size 1.2 2) (layers "F.Cu" "F.Paste" "F.Mask"))
  (pad "2" smd rect (at -8.255 -3) (size 1.2 2) (layers "F.Cu" "F.Paste" "F.Mask"))
  (pad "3" smd rect (at -6.985 3) (size 1.2 2) (layers "F.Cu" "F.Paste" "F.Mask"))
  (pad "4" smd rect (at -5.715 -3) (size 1.2 2) (layers "F.Cu" "F.Paste" "F.Mask"))
  (pad "5" smd rect (at -4.445 3) (size 1.2 2) (layers "F.Cu" "F.Paste" "F.Mask"))
  (pad "6" smd rect (at -3.175 -3) (size 1.2 2) (layers "F.Cu" "F.Paste" "F.Mask"))
  (pad "7" smd rect (at -1.905 3) (size 1.2 2) (layers "F.Cu" "F.Paste" "F.Mask"))
  (pad "8" smd rect (at -0.635 -3) (size 1.2 2) (layers "F.Cu" "F.Paste" "F.Mask"))
  (pad "9" smd rect (at 0.635 3) (size 1.2 2) (layers "F.Cu" "F.Paste" "F.Mask"))
  (pad "10" smd rect (at 1.905 -3) (size 1.2 2) (layers "F.Cu" "F.Paste" "F.Mask"))
  (pad "11" smd rect (at 3.175 3) (size 1.2 2) (layers "F.Cu" "F.Paste" "F.Mask"))
  (pad "12" smd rect (at 4.445 -3) (size 1.2 2) (layers "F.Cu" "F.Paste" "F.Mask"))
  (pad "13" smd rect (at 5.715 3) (size 1.2 2) (layers "F.Cu" "F.Paste" "F.Mask"))
  (pad "14" smd rect (at 6.985 -3) (size 1.2 2) (layers "F.Cu" "F.Paste" "F.Mask"))
  (pad "15" smd rect (at 8.255 3) (size 1.2 2) (layers "F.Cu" "F.Paste" "F.Mask"))
  (pad "16" smd rect (at 9.525 -3) (size 1.2 2) (layers "F.Cu" "F.Paste" "F.Mask"))
)
