(module "PICOFLEX-90814-10" (layer "F.Cu") (tedit 491042D4)
  (descr "Picoflex 10 pin SMD header")
  (attr smd)
  (fp_text reference "PICOFLEX-90814-10" (at 0 0) (layer "F.Fab")  (effects (font (size 1.2 1.2) (thickness 0.12)))
  )
  (fp_text value "PICOFLEX-90814-10" (at 0 0) (layer "F.Fab") hide  (effects (font (size 1.2 1.2) (thickness 0.12)))
  )
  (fp_line (start -8.255 3.81) (end -7.62 2.54) (layer "F.Fab") (width 0.12))
  (fp_line (start -7.62 2.54) (end -6.985 3.81) (layer "F.Fab") (width 0.12))
  (fp_line (start -6.985 3.81) (end -8.255 3.81) (layer "F.Fab") (width 0.12))
  (fp_line (start 5.5 2.5) (end 8.5 2.5) (layer "F.Fab") (width 0.12))
  (fp_line (start 8.5 2.5) (end 8.5 -2.5) (layer "F.Fab") (width 0.12))
  (fp_line (start 8.5 -2.5) (end 7 -2.5) (layer "F.Fab") (width 0.12))
  (fp_line (start -5.5 -2.5) (end -8.5 -2.5) (layer "F.Fab") (width 0.12))
  (fp_line (start -8.5 -2.5) (end -8.5 2.5) (layer "F.Fab") (width 0.12))
  (fp_line (start -8.5 2.5) (end -7 2.5) (layer "F.Fab") (width 0.12))
  (pad "1" smd rect (at -5.715 3) (size 1.2 2) (layers "F.Cu" "F.Paste" "F.Mask"))
  (pad "2" smd rect (at -4.445 -3) (size 1.2 2) (layers "F.Cu" "F.Paste" "F.Mask"))
  (pad "3" smd rect (at -3.175 3) (size 1.2 2) (layers "F.Cu" "F.Paste" "F.Mask"))
  (pad "4" smd rect (at -1.905 -3) (size 1.2 2) (layers "F.Cu" "F.Paste" "F.Mask"))
  (pad "5" smd rect (at -0.635 3) (size 1.2 2) (layers "F.Cu" "F.Paste" "F.Mask"))
  (pad "6" smd rect (at 0.635 -3) (size 1.2 2) (layers "F.Cu" "F.Paste" "F.Mask"))
  (pad "7" smd rect (at 1.905 3) (size 1.2 2) (layers "F.Cu" "F.Paste" "F.Mask"))
  (pad "8" smd rect (at 3.175 -3) (size 1.2 2) (layers "F.Cu" "F.Paste" "F.Mask"))
  (pad "9" smd rect (at 4.445 3) (size 1.2 2) (layers "F.Cu" "F.Paste" "F.Mask"))
  (pad "10" smd rect (at 5.715 -3) (size 1.2 2) (layers "F.Cu" "F.Paste" "F.Mask"))
)
