(footprint "Linear-MSE12"
	(version 20240108)
	(generator "pcbnew")
	(generator_version "8.0")
	(layer "F.Cu")
	(descr "pseudo-MO187 0,65-pitch SOP 12-pin 4.00x3.00 t.e. body")
	(tags "LINEAR-MSE12 SOP65 12pin")
	(property "Reference" "MSE12"
		(at 0 0 -90)
		(layer "F.Fab")
		(uuid "b07ae1a8-e1b4-4e1d-a8e7-8f17f56b2584")
		(effects
			(font
				(size 0.8 0.8)
				(thickness 0.08)
			)
		)
	)
	(property "Value" "MSE12"
		(at 0 0 -90)
		(layer "F.Fab")
		(hide yes)
		(uuid "0e11aa83-6957-472e-8317-ac53b0e52906")
		(effects
			(font
				(size 0.8 0.8)
				(thickness 0.08)
			)
		)
	)
	(property "Footprint" ""
		(at 0 0 -90)
		(unlocked yes)
		(layer "F.Fab")
		(hide yes)
		(uuid "a7fec15c-47eb-46d1-af28-2e0a158500b9")
		(effects
			(font
				(size 1.27 1.27)
				(thickness 0.15)
			)
		)
	)
	(property "Datasheet" ""
		(at 0 0 -90)
		(unlocked yes)
		(layer "F.Fab")
		(hide yes)
		(uuid "f5ebda09-44fb-42e0-a61b-3ff42707cf1d")
		(effects
			(font
				(size 1.27 1.27)
				(thickness 0.15)
			)
		)
	)
	(property "Description" ""
		(at 0 0 -90)
		(unlocked yes)
		(layer "F.Fab")
		(hide yes)
		(uuid "7a80460f-dff4-41aa-b576-03961146054c")
		(effects
			(font
				(size 1.27 1.27)
				(thickness 0.15)
			)
		)
	)
	(attr smd)
	(fp_line
		(start 1.6 -2.15)
		(end -2.7 -2.15)
		(stroke
			(width 0.12)
			(type solid)
		)
		(layer "F.SilkS")
		(uuid "6ebf0a60-627d-4739-937f-bc7691606e67")
	)
	(fp_line
		(start 1.6 2.15)
		(end -1.6 2.15)
		(stroke
			(width 0.12)
			(type solid)
		)
		(layer "F.SilkS")
		(uuid "a4bac623-be7a-4e18-a12b-823cb8bcbd32")
	)
	(fp_line
		(start -1.6 -1.1)
		(end -0.6 -2.1)
		(stroke
			(width 0.1)
			(type solid)
		)
		(layer "F.Fab")
		(uuid "e69c578e-c6c6-43bb-9d1b-cc8aebf21c6e")
	)
	(fp_rect
		(start -1.6 -2.1)
		(end 1.6 2.1)
		(stroke
			(width 0.1)
			(type solid)
		)
		(fill none)
		(layer "F.Fab")
		(uuid "16d5c4ef-b586-40b6-84b9-edee8a3982db")
	)
	(pad "1" smd rect
		(at -2.2 -1.625 270)
		(size 0.4 1)
		(layers "F.Cu" "F.Paste" "F.Mask")
		(uuid "439d5aa3-f35e-4c8a-9c00-241279f1f000")
	)
	(pad "2" smd rect
		(at -2.2 -0.975 270)
		(size 0.4 1)
		(layers "F.Cu" "F.Paste" "F.Mask")
		(uuid "ce5c2b44-9687-4705-b31a-dc46179fc131")
	)
	(pad "3" smd rect
		(at -2.2 -0.325 270)
		(size 0.4 1)
		(layers "F.Cu" "F.Paste" "F.Mask")
		(uuid "932c3c60-2f63-4483-9c7e-dc956571ada4")
	)
	(pad "4" smd rect
		(at -2.2 0.325 270)
		(size 0.4 1)
		(layers "F.Cu" "F.Paste" "F.Mask")
		(uuid "10b85d9c-7085-413f-aa84-6f4854e38b67")
	)
	(pad "5" smd rect
		(at -2.2 1 270)
		(size 0.4 1)
		(layers "F.Cu" "F.Paste" "F.Mask")
		(uuid "03da52a9-6c64-46ff-ba9c-d2cf7810e42e")
	)
	(pad "6" smd rect
		(at -2.2 1.625 270)
		(size 0.4 1)
		(layers "F.Cu" "F.Paste" "F.Mask")
		(uuid "d0e82593-e053-42fb-93e6-4b678f33ca04")
	)
	(pad "7" smd rect
		(at 2.2 1.625 270)
		(size 0.4 1)
		(layers "F.Cu" "F.Paste" "F.Mask")
		(uuid "d3f3a037-a93e-49b7-a3db-ece317e70ead")
	)
	(pad "8" smd rect
		(at 2.2 0.975 270)
		(size 0.4 1)
		(layers "F.Cu" "F.Paste" "F.Mask")
		(uuid "972e15b8-6c0a-4018-9130-47c78326403b")
	)
	(pad "9" smd rect
		(at 2.2 0.325 270)
		(size 0.4 1)
		(layers "F.Cu" "F.Paste" "F.Mask")
		(uuid "382d6f47-2057-4e8a-9698-d36ffb42bac1")
	)
	(pad "10" smd rect
		(at 2.2 -0.325 270)
		(size 0.4 1)
		(layers "F.Cu" "F.Paste" "F.Mask")
		(uuid "413750ad-0802-413a-9e0f-4fb906b4051d")
	)
	(pad "11" smd rect
		(at 2.2 -0.975 270)
		(size 0.4 1)
		(layers "F.Cu" "F.Paste" "F.Mask")
		(uuid "a0273fa7-d79a-4b63-aa69-66b753a007b6")
	)
	(pad "12" smd rect
		(at 2.2 -1.625 270)
		(size 0.4 1)
		(layers "F.Cu" "F.Paste" "F.Mask")
		(uuid "c264b13b-4141-4280-8947-e78837ada78d")
	)
	(pad "P" smd rect
		(at 0 0 270)
		(size 2.9 1.7)
		(layers "F.Cu" "F.Paste" "F.Mask")
		(uuid "4388234f-d9a5-4533-b63c-104775aeb94e")
	)
)
