(footprint "MO153HA"
	(version 20240108)
	(generator "pcbnew")
	(generator_version "8.0")
	(layer "F.Cu")
	(descr "MO153HA 0.5-pitch SOIC, 36-pin, 8.00x9.70 mm body")
	(tags "MO153HA")
	(property "Reference" "MO153HA"
		(at 0 0 -90)
		(layer "F.Fab")
		(uuid "35281c34-9323-4507-b8c5-be663e871c6a")
		(effects
			(font
				(size 1.2 1.2)
				(thickness 0.12)
			)
		)
	)
	(property "Value" "MO153HA"
		(at 0 0 -90)
		(layer "F.Fab")
		(hide yes)
		(uuid "78f3b0ed-d62a-4451-920a-b453f8547284")
		(effects
			(font
				(size 1.2 1.2)
				(thickness 0.12)
			)
		)
	)
	(property "Footprint" ""
		(at 0 0 -90)
		(unlocked yes)
		(layer "F.Fab")
		(hide yes)
		(uuid "9621ba17-234c-46b2-bc2c-1c5a891fc329")
		(effects
			(font
				(size 1.27 1.27)
				(thickness 0.15)
			)
		)
	)
	(property "Datasheet" ""
		(at 0 0 -90)
		(unlocked yes)
		(layer "F.Fab")
		(hide yes)
		(uuid "8d7c7498-8245-4756-94ac-02decd5281dd")
		(effects
			(font
				(size 1.27 1.27)
				(thickness 0.15)
			)
		)
	)
	(property "Description" ""
		(at 0 0 -90)
		(unlocked yes)
		(layer "F.Fab")
		(hide yes)
		(uuid "32daf2a1-ed40-4cc4-bf7b-d4edf326882b")
		(effects
			(font
				(size 1.27 1.27)
				(thickness 0.15)
			)
		)
	)
	(attr smd)
	(fp_line
		(start -4.05 -4.9)
		(end -4.05 -4.7)
		(stroke
			(width 0.12)
			(type solid)
		)
		(layer "F.SilkS")
		(uuid "c4ef2833-e71e-441b-804a-9f9e1b03297e")
	)
	(fp_line
		(start -4.05 -4.7)
		(end -5.55 -4.7)
		(stroke
			(width 0.12)
			(type default)
		)
		(layer "F.SilkS")
		(uuid "8d5b2dba-aa2c-4137-acef-11f8d840ee50")
	)
	(fp_line
		(start -4.05 4.9)
		(end -4.05 4.7)
		(stroke
			(width 0.12)
			(type solid)
		)
		(layer "F.SilkS")
		(uuid "ed133728-cb58-4a4e-a957-e9031f8e8aa1")
	)
	(fp_line
		(start 4.05 -4.9)
		(end -4.05 -4.9)
		(stroke
			(width 0.12)
			(type solid)
		)
		(layer "F.SilkS")
		(uuid "4618ce70-59fc-4acd-80f0-0865b2b0ced5")
	)
	(fp_line
		(start 4.05 -4.9)
		(end 4.05 -4.7)
		(stroke
			(width 0.12)
			(type solid)
		)
		(layer "F.SilkS")
		(uuid "f539fe12-50eb-47af-8807-b3782b8b615a")
	)
	(fp_line
		(start 4.05 4.9)
		(end -4.05 4.9)
		(stroke
			(width 0.12)
			(type solid)
		)
		(layer "F.SilkS")
		(uuid "3286a95c-98e4-4a8b-a6f0-911fa59b1249")
	)
	(fp_line
		(start 4.05 4.9)
		(end 4.05 4.7)
		(stroke
			(width 0.12)
			(type solid)
		)
		(layer "F.SilkS")
		(uuid "ff323028-76b0-4d9e-a55a-b592bf5502a4")
	)
	(fp_line
		(start -3.05 -4.9)
		(end -4.05 -3.9)
		(stroke
			(width 0.1)
			(type solid)
		)
		(layer "F.Fab")
		(uuid "e9e4349f-0adb-4427-8159-433f007a97a6")
	)
	(fp_rect
		(start -4.05 -4.9)
		(end 4.05 4.9)
		(stroke
			(width 0.1)
			(type solid)
		)
		(fill none)
		(layer "F.Fab")
		(uuid "d1a4b3f8-0f8d-45b2-9cbb-6f230ea2821a")
	)
	(pad "1" smd rect
		(at -4.75 -4.25 270)
		(size 0.3 1.6)
		(layers "F.Cu" "F.Paste" "F.Mask")
		(uuid "fb0a9517-1d0e-46df-8e75-d224daab72ef")
	)
	(pad "2" smd rect
		(at -4.75 -3.75 270)
		(size 0.3 1.6)
		(layers "F.Cu" "F.Paste" "F.Mask")
		(uuid "e8e19cab-60f5-4cf9-9b50-185a3b493f64")
	)
	(pad "3" smd rect
		(at -4.75 -3.25 270)
		(size 0.3 1.6)
		(layers "F.Cu" "F.Paste" "F.Mask")
		(uuid "442b6373-87e6-4a1a-bc73-1860c19744af")
	)
	(pad "4" smd rect
		(at -4.75 -2.75 270)
		(size 0.3 1.6)
		(layers "F.Cu" "F.Paste" "F.Mask")
		(uuid "0a9376e1-9f90-48e5-9edf-73bc775ceec1")
	)
	(pad "5" smd rect
		(at -4.75 -2.25 270)
		(size 0.3 1.6)
		(layers "F.Cu" "F.Paste" "F.Mask")
		(uuid "6a802830-0caf-4adc-b17e-586c6d0e3b6b")
	)
	(pad "6" smd rect
		(at -4.75 -1.75 270)
		(size 0.3 1.6)
		(layers "F.Cu" "F.Paste" "F.Mask")
		(uuid "a906145f-b6b6-4c6e-976f-18af8d1833bb")
	)
	(pad "7" smd rect
		(at -4.75 -1.25 270)
		(size 0.3 1.6)
		(layers "F.Cu" "F.Paste" "F.Mask")
		(uuid "8e6875ab-1b02-4bc9-9abf-8418eb692c1f")
	)
	(pad "8" smd rect
		(at -4.75 -0.75 270)
		(size 0.3 1.6)
		(layers "F.Cu" "F.Paste" "F.Mask")
		(uuid "22d3dc97-961d-4cf4-a118-56528a84f2ed")
	)
	(pad "9" smd rect
		(at -4.75 -0.25 270)
		(size 0.3 1.6)
		(layers "F.Cu" "F.Paste" "F.Mask")
		(uuid "9dd356b0-4cba-4d7f-8293-4a29174226e3")
	)
	(pad "10" smd rect
		(at -4.75 0.25 270)
		(size 0.3 1.6)
		(layers "F.Cu" "F.Paste" "F.Mask")
		(uuid "98a582cc-3102-4ddf-bb2a-12e75ec17001")
	)
	(pad "11" smd rect
		(at -4.75 0.75 270)
		(size 0.3 1.6)
		(layers "F.Cu" "F.Paste" "F.Mask")
		(uuid "b9eec0ac-f9a7-4945-bdbb-ef65fc7067e0")
	)
	(pad "12" smd rect
		(at -4.75 1.25 270)
		(size 0.3 1.6)
		(layers "F.Cu" "F.Paste" "F.Mask")
		(uuid "7ddf1b86-be61-4bd8-983f-724fcbdaa274")
	)
	(pad "13" smd rect
		(at -4.75 1.75 270)
		(size 0.3 1.6)
		(layers "F.Cu" "F.Paste" "F.Mask")
		(uuid "316ffed2-4204-4718-8fd1-279415073505")
	)
	(pad "14" smd rect
		(at -4.75 2.25 270)
		(size 0.3 1.6)
		(layers "F.Cu" "F.Paste" "F.Mask")
		(uuid "7bae5296-d224-4d5f-a4fa-2c135a966dc3")
	)
	(pad "15" smd rect
		(at -4.75 2.75 270)
		(size 0.3 1.6)
		(layers "F.Cu" "F.Paste" "F.Mask")
		(uuid "c61cf6a9-cd0d-47f0-b99d-a2e68be20995")
	)
	(pad "16" smd rect
		(at -4.75 3.25 270)
		(size 0.3 1.6)
		(layers "F.Cu" "F.Paste" "F.Mask")
		(uuid "e6a5689a-26f7-41f9-b6f7-406734a55c22")
	)
	(pad "17" smd rect
		(at -4.75 3.75 270)
		(size 0.3 1.6)
		(layers "F.Cu" "F.Paste" "F.Mask")
		(uuid "cc7dfab0-2066-4ef3-9190-4eb0bfbaa9cc")
	)
	(pad "18" smd rect
		(at -4.75 4.25 270)
		(size 0.3 1.6)
		(layers "F.Cu" "F.Paste" "F.Mask")
		(uuid "cd9d46cb-1e16-44da-9c05-f746eabbee05")
	)
	(pad "19" smd rect
		(at 4.75 4.25 270)
		(size 0.3 1.6)
		(layers "F.Cu" "F.Paste" "F.Mask")
		(uuid "1ed109bd-04be-456b-b3f5-56b150e3bdaa")
	)
	(pad "20" smd rect
		(at 4.75 3.75 270)
		(size 0.3 1.6)
		(layers "F.Cu" "F.Paste" "F.Mask")
		(uuid "7afe0b63-872c-4ed4-8cbe-3bf2cad31c6c")
	)
	(pad "21" smd rect
		(at 4.75 3.25 270)
		(size 0.3 1.6)
		(layers "F.Cu" "F.Paste" "F.Mask")
		(uuid "3ffa2aeb-be29-4fbd-bd8e-6c909ebab0b9")
	)
	(pad "22" smd rect
		(at 4.75 2.75 270)
		(size 0.3 1.6)
		(layers "F.Cu" "F.Paste" "F.Mask")
		(uuid "3e6c70af-ef41-4979-89d6-742442ec0e04")
	)
	(pad "23" smd rect
		(at 4.75 2.25 270)
		(size 0.3 1.6)
		(layers "F.Cu" "F.Paste" "F.Mask")
		(uuid "5b4b9562-6909-42be-bfcd-c011ab30e4a6")
	)
	(pad "24" smd rect
		(at 4.75 1.75 270)
		(size 0.3 1.6)
		(layers "F.Cu" "F.Paste" "F.Mask")
		(uuid "0c5d1a08-8436-40cd-944f-1580fb89c17d")
	)
	(pad "25" smd rect
		(at 4.75 1.25 270)
		(size 0.3 1.6)
		(layers "F.Cu" "F.Paste" "F.Mask")
		(uuid "4dc7c307-717f-41ff-83db-ef0686ac53ab")
	)
	(pad "26" smd rect
		(at 4.75 0.75 270)
		(size 0.3 1.6)
		(layers "F.Cu" "F.Paste" "F.Mask")
		(uuid "70abd625-3630-4add-85ae-2243b1469b7a")
	)
	(pad "27" smd rect
		(at 4.75 0.25 270)
		(size 0.3 1.6)
		(layers "F.Cu" "F.Paste" "F.Mask")
		(uuid "a6369809-3498-496a-94e6-ff98b9b572e4")
	)
	(pad "28" smd rect
		(at 4.75 -0.25 270)
		(size 0.3 1.6)
		(layers "F.Cu" "F.Paste" "F.Mask")
		(uuid "4b2150e5-1af8-405f-9a95-4ea1fef8cb64")
	)
	(pad "29" smd rect
		(at 4.75 -0.75 270)
		(size 0.3 1.6)
		(layers "F.Cu" "F.Paste" "F.Mask")
		(uuid "8b36bbc9-858e-4039-882d-d4b88296031e")
	)
	(pad "30" smd rect
		(at 4.75 -1.25 270)
		(size 0.3 1.6)
		(layers "F.Cu" "F.Paste" "F.Mask")
		(uuid "db0f0353-157b-43bc-9dc4-0e4de437c843")
	)
	(pad "31" smd rect
		(at 4.75 -1.75 270)
		(size 0.3 1.6)
		(layers "F.Cu" "F.Paste" "F.Mask")
		(uuid "f6b2990d-63e8-41a2-b329-ba8f48c32d73")
	)
	(pad "32" smd rect
		(at 4.75 -2.25 270)
		(size 0.3 1.6)
		(layers "F.Cu" "F.Paste" "F.Mask")
		(uuid "3fba6b94-225a-4a1c-ba9f-4356a279ae73")
	)
	(pad "33" smd rect
		(at 4.75 -2.75 270)
		(size 0.3 1.6)
		(layers "F.Cu" "F.Paste" "F.Mask")
		(uuid "da7de50a-9af2-4dbc-b346-436465d34ef2")
	)
	(pad "34" smd rect
		(at 4.75 -3.25 270)
		(size 0.3 1.6)
		(layers "F.Cu" "F.Paste" "F.Mask")
		(uuid "47d7e33c-012e-4fb3-adab-58acb2b2a042")
	)
	(pad "35" smd rect
		(at 4.75 -3.75 270)
		(size 0.3 1.6)
		(layers "F.Cu" "F.Paste" "F.Mask")
		(uuid "e7e5b95e-f2be-4390-ba69-6270382e8890")
	)
	(pad "36" smd rect
		(at 4.75 -4.25 270)
		(size 0.3 1.6)
		(layers "F.Cu" "F.Paste" "F.Mask")
		(uuid "628e5749-e6db-4cef-9767-899d852217fe")
	)
)
