(footprint "MO153AB"
	(version 20240108)
	(generator "pcbnew")
	(generator_version "8.0")
	(layer "F.Cu")
	(descr "MO153AB 0.65-pitch SOIC, 16-pin, 4.40x5.00 mm body")
	(tags "MO153AB")
	(property "Reference" "MO153AB"
		(at 0 0 -90)
		(layer "F.Fab")
		(uuid "813fed1e-c1ed-4520-be95-76f4d92b1047")
		(effects
			(font
				(size 1.2 1.2)
				(thickness 0.12)
			)
		)
	)
	(property "Value" "MO153AB"
		(at 0 0 -90)
		(layer "F.Fab")
		(hide yes)
		(uuid "e46c737e-65e4-43e0-99f1-fc1010eeaf70")
		(effects
			(font
				(size 1.2 1.2)
				(thickness 0.12)
			)
		)
	)
	(property "Footprint" ""
		(at 0 0 -90)
		(unlocked yes)
		(layer "F.Fab")
		(hide yes)
		(uuid "f73981c6-b74f-4eb7-af75-7a8205b60d13")
		(effects
			(font
				(size 1.27 1.27)
				(thickness 0.15)
			)
		)
	)
	(property "Datasheet" ""
		(at 0 0 -90)
		(unlocked yes)
		(layer "F.Fab")
		(hide yes)
		(uuid "4f7dd6ab-a8cb-4f34-96af-419defe62e8c")
		(effects
			(font
				(size 1.27 1.27)
				(thickness 0.15)
			)
		)
	)
	(property "Description" ""
		(at 0 0 -90)
		(unlocked yes)
		(layer "F.Fab")
		(hide yes)
		(uuid "fde81892-6eb9-4bc3-98ef-c316f93f468b")
		(effects
			(font
				(size 1.27 1.27)
				(thickness 0.15)
			)
		)
	)
	(attr smd)
	(fp_line
		(start 2.25 -2.8)
		(end -3.75 -2.8)
		(stroke
			(width 0.12)
			(type solid)
		)
		(layer "F.SilkS")
		(uuid "ff94eaa0-a427-482f-828d-4090b97236b0")
	)
	(fp_line
		(start 2.25 2.8)
		(end -2.25 2.8)
		(stroke
			(width 0.12)
			(type solid)
		)
		(layer "F.SilkS")
		(uuid "d81bd010-01e4-4462-b197-380a84b79fc5")
	)
	(fp_rect
		(start -3.95 -2.75)
		(end 3.95 2.75)
		(stroke
			(width 0.01)
			(type solid)
		)
		(fill none)
		(layer "F.CrtYd")
		(uuid "e01a4147-24e7-418c-b336-2d96c0eb7048")
	)
	(fp_line
		(start -1.25 -2.55)
		(end -2.25 -1.55)
		(stroke
			(width 0.1)
			(type solid)
		)
		(layer "F.Fab")
		(uuid "95f70d39-8ab7-4bab-82cc-0e08adef249f")
	)
	(fp_rect
		(start -2.25 -2.55)
		(end 2.25 2.55)
		(stroke
			(width 0.1)
			(type solid)
		)
		(fill none)
		(layer "F.Fab")
		(uuid "2c8883af-821c-4d76-8e78-f017cf5f7795")
	)
	(pad "1" smd rect
		(at -2.95 -2.275 270)
		(size 0.4 1.6)
		(layers "F.Cu" "F.Paste" "F.Mask")
		(uuid "3ec3002f-cee9-4373-ac69-244c0d8331c5")
	)
	(pad "2" smd rect
		(at -2.95 -1.625 270)
		(size 0.4 1.6)
		(layers "F.Cu" "F.Paste" "F.Mask")
		(uuid "adfb68d9-3677-48c6-9d52-d4041bb6ec26")
	)
	(pad "3" smd rect
		(at -2.95 -0.975 270)
		(size 0.4 1.6)
		(layers "F.Cu" "F.Paste" "F.Mask")
		(uuid "68a0e773-e988-4d32-81bf-cfecba340c42")
	)
	(pad "4" smd rect
		(at -2.95 -0.325 270)
		(size 0.4 1.6)
		(layers "F.Cu" "F.Paste" "F.Mask")
		(uuid "e43301dc-4b84-4819-bf67-a1626a72b0fc")
	)
	(pad "5" smd rect
		(at -2.95 0.325 270)
		(size 0.4 1.6)
		(layers "F.Cu" "F.Paste" "F.Mask")
		(uuid "841aab02-c40b-4549-a307-af9b3a75badc")
	)
	(pad "6" smd rect
		(at -2.95 0.975 270)
		(size 0.4 1.6)
		(layers "F.Cu" "F.Paste" "F.Mask")
		(uuid "d9018235-2649-43b1-bc72-04a26b714483")
	)
	(pad "7" smd rect
		(at -2.95 1.625 270)
		(size 0.4 1.6)
		(layers "F.Cu" "F.Paste" "F.Mask")
		(uuid "466d7580-14d4-40b7-aa2a-ac5d5a0aa489")
	)
	(pad "8" smd rect
		(at -2.95 2.275 270)
		(size 0.4 1.6)
		(layers "F.Cu" "F.Paste" "F.Mask")
		(uuid "b542ff95-2b2a-4b03-9a85-41837bf9f75e")
	)
	(pad "9" smd rect
		(at 2.95 2.275 270)
		(size 0.4 1.6)
		(layers "F.Cu" "F.Paste" "F.Mask")
		(uuid "2041b18e-6dde-4ded-bfe0-31e1bf8e3254")
	)
	(pad "10" smd rect
		(at 2.95 1.625 270)
		(size 0.4 1.6)
		(layers "F.Cu" "F.Paste" "F.Mask")
		(uuid "ea2defcf-8d22-4346-86b7-a89aea890fe9")
	)
	(pad "11" smd rect
		(at 2.95 0.975 270)
		(size 0.4 1.6)
		(layers "F.Cu" "F.Paste" "F.Mask")
		(uuid "204d915a-03ec-4240-9e73-523e3e62dbcb")
	)
	(pad "12" smd rect
		(at 2.95 0.325 270)
		(size 0.4 1.6)
		(layers "F.Cu" "F.Paste" "F.Mask")
		(uuid "b673a1c0-a731-4724-bc95-4ed5f88a0ba8")
	)
	(pad "13" smd rect
		(at 2.95 -0.325 270)
		(size 0.4 1.6)
		(layers "F.Cu" "F.Paste" "F.Mask")
		(uuid "c5d10847-6ed6-4890-a0dc-93dfd8239e4a")
	)
	(pad "14" smd rect
		(at 2.95 -0.975 270)
		(size 0.4 1.6)
		(layers "F.Cu" "F.Paste" "F.Mask")
		(uuid "f5a02a6e-859d-45c2-a3af-f582f5bc1e28")
	)
	(pad "15" smd rect
		(at 2.95 -1.625 270)
		(size 0.4 1.6)
		(layers "F.Cu" "F.Paste" "F.Mask")
		(uuid "c6780ed0-99bb-47f3-a37d-97de71bd57ca")
	)
	(pad "16" smd rect
		(at 2.95 -2.275 270)
		(size 0.4 1.6)
		(layers "F.Cu" "F.Paste" "F.Mask")
		(uuid "e67a7e06-2528-47bc-ab02-1f8945cf6eba")
	)
	(model "${KISYS3DMOD}/MO/MO153AB.wrl"
		(offset
			(xyz 0 0 0)
		)
		(scale
			(xyz 1 1 1)
		)
		(rotate
			(xyz 0 0 90)
		)
	)
)
