(footprint "MO153AC"
	(version 20240108)
	(generator "pcbnew")
	(generator_version "8.0")
	(layer "F.Cu")
	(descr "MO153AC 0.65-pitch SOIC, 20-pin, 4.40x6.50 mm body")
	(tags "IPC7352")
	(property "Reference" "MO153AC"
		(at 0 0 -90)
		(layer "F.Fab")
		(uuid "5aa034d3-fe19-4621-b12d-e2760f0e9683")
		(effects
			(font
				(size 1.2 1.2)
				(thickness 0.12)
			)
		)
	)
	(property "Value" "MO153AC"
		(at 0 0 -90)
		(layer "F.Fab")
		(hide yes)
		(uuid "774b9705-acf9-4b6a-b21b-b00e890ca185")
		(effects
			(font
				(size 1.2 1.2)
				(thickness 0.12)
			)
		)
	)
	(property "Footprint" ""
		(at 0 0 -90)
		(unlocked yes)
		(layer "F.Fab")
		(hide yes)
		(uuid "594d0c38-6e37-4ac2-baa7-ccf77e90c3e3")
		(effects
			(font
				(size 1.27 1.27)
				(thickness 0.15)
			)
		)
	)
	(property "Datasheet" ""
		(at 0 0 -90)
		(unlocked yes)
		(layer "F.Fab")
		(hide yes)
		(uuid "d801b84e-99f9-4e18-997a-fa767cda89a4")
		(effects
			(font
				(size 1.27 1.27)
				(thickness 0.15)
			)
		)
	)
	(property "Description" ""
		(at 0 0 -90)
		(unlocked yes)
		(layer "F.Fab")
		(hide yes)
		(uuid "07c5f49a-e7fa-495d-acda-a3b2ae6aa9c2")
		(effects
			(font
				(size 1.27 1.27)
				(thickness 0.15)
			)
		)
	)
	(attr smd)
	(fp_line
		(start 2.25 -3.4)
		(end -3.5 -3.4)
		(stroke
			(width 0.12)
			(type solid)
		)
		(layer "F.SilkS")
		(uuid "b09e19f1-8892-4577-9272-ba0b2a568a53")
	)
	(fp_line
		(start 2.25 3.4)
		(end -2.25 3.4)
		(stroke
			(width 0.12)
			(type solid)
		)
		(layer "F.SilkS")
		(uuid "b192bf3e-2fff-418b-9b73-ac68605afafa")
	)
	(fp_rect
		(start -3.7 -3.5)
		(end 3.7 3.5)
		(stroke
			(width 0.01)
			(type solid)
		)
		(fill none)
		(layer "F.CrtYd")
		(uuid "1e99dff8-340b-476a-a428-9e4b6b846668")
	)
	(fp_line
		(start -1.25 -3.3)
		(end -2.25 -2.3)
		(stroke
			(width 0.1)
			(type solid)
		)
		(layer "F.Fab")
		(uuid "17284c00-251e-4f83-ba58-170ebf1c179a")
	)
	(fp_rect
		(start -2.25 -3.3)
		(end 2.25 3.3)
		(stroke
			(width 0.1)
			(type solid)
		)
		(fill none)
		(layer "F.Fab")
		(uuid "5a549ecc-30b9-4747-b5d3-0c3a5a290e9a")
	)
	(pad "1" smd rect
		(at -2.85 -2.925 270)
		(size 0.38 1.3)
		(layers "F.Cu" "F.Paste" "F.Mask")
		(uuid "ec59417a-614b-48e3-8e04-d105de84c113")
	)
	(pad "2" smd rect
		(at -2.85 -2.275 270)
		(size 0.38 1.3)
		(layers "F.Cu" "F.Paste" "F.Mask")
		(uuid "d9ed3e18-1ea5-43e1-9c62-d3a82a0b8381")
	)
	(pad "3" smd rect
		(at -2.85 -1.625 270)
		(size 0.38 1.3)
		(layers "F.Cu" "F.Paste" "F.Mask")
		(uuid "a6c50dac-d945-4e72-8140-e2c8ec3615a4")
	)
	(pad "4" smd rect
		(at -2.85 -0.975 270)
		(size 0.38 1.3)
		(layers "F.Cu" "F.Paste" "F.Mask")
		(uuid "02f5af80-4aca-4dbe-8bfd-0ac21aa3ea59")
	)
	(pad "5" smd rect
		(at -2.85 -0.325 270)
		(size 0.38 1.3)
		(layers "F.Cu" "F.Paste" "F.Mask")
		(uuid "3c4ac01f-f570-4df4-b015-346d2508e4aa")
	)
	(pad "6" smd rect
		(at -2.85 0.325 270)
		(size 0.38 1.3)
		(layers "F.Cu" "F.Paste" "F.Mask")
		(uuid "ba24dcd9-317c-4c00-a1cc-55b9a98fcbd7")
	)
	(pad "7" smd rect
		(at -2.85 0.975 270)
		(size 0.38 1.3)
		(layers "F.Cu" "F.Paste" "F.Mask")
		(uuid "a98efb96-937f-44a1-9d0d-083084909e43")
	)
	(pad "8" smd rect
		(at -2.85 1.625 270)
		(size 0.38 1.3)
		(layers "F.Cu" "F.Paste" "F.Mask")
		(uuid "cc86f121-2de5-499d-92bf-f6e9fbff6e95")
	)
	(pad "9" smd rect
		(at -2.85 2.275 270)
		(size 0.38 1.3)
		(layers "F.Cu" "F.Paste" "F.Mask")
		(uuid "2872a6c1-84f9-4700-beaf-9583431d4059")
	)
	(pad "10" smd rect
		(at -2.85 2.925 270)
		(size 0.38 1.3)
		(layers "F.Cu" "F.Paste" "F.Mask")
		(uuid "c9a658af-7290-46bb-ab88-46d9bc5e1c87")
	)
	(pad "11" smd rect
		(at 2.85 2.925 270)
		(size 0.38 1.3)
		(layers "F.Cu" "F.Paste" "F.Mask")
		(uuid "84550370-2c4a-4cd5-8b13-d35788207937")
	)
	(pad "12" smd rect
		(at 2.85 2.275 270)
		(size 0.38 1.3)
		(layers "F.Cu" "F.Paste" "F.Mask")
		(uuid "d00c610e-c0df-475a-8ff4-40aa694e6643")
	)
	(pad "13" smd rect
		(at 2.85 1.625 270)
		(size 0.38 1.3)
		(layers "F.Cu" "F.Paste" "F.Mask")
		(uuid "38cc7a2e-7620-42cc-aece-3d3354f29f1c")
	)
	(pad "14" smd rect
		(at 2.85 0.975 270)
		(size 0.38 1.3)
		(layers "F.Cu" "F.Paste" "F.Mask")
		(uuid "32010f50-5ff1-4a95-93d7-b8b0f7fc1a19")
	)
	(pad "15" smd rect
		(at 2.85 0.325 270)
		(size 0.38 1.3)
		(layers "F.Cu" "F.Paste" "F.Mask")
		(uuid "4433de20-9286-41e5-aac2-8117d2c23be5")
	)
	(pad "16" smd rect
		(at 2.85 -0.325 270)
		(size 0.38 1.3)
		(layers "F.Cu" "F.Paste" "F.Mask")
		(uuid "ee57d1e3-8f87-40b7-912e-96d3f9d86985")
	)
	(pad "17" smd rect
		(at 2.85 -0.975 270)
		(size 0.38 1.3)
		(layers "F.Cu" "F.Paste" "F.Mask")
		(uuid "61ac835f-4b06-4470-93d3-fbe4e711f03b")
	)
	(pad "18" smd rect
		(at 2.85 -1.625 270)
		(size 0.38 1.3)
		(layers "F.Cu" "F.Paste" "F.Mask")
		(uuid "093c986e-b4c5-494b-b9e0-e2cd53656b1d")
	)
	(pad "19" smd rect
		(at 2.85 -2.275 270)
		(size 0.38 1.3)
		(layers "F.Cu" "F.Paste" "F.Mask")
		(uuid "ef2562d8-eb08-49dd-be3d-0ddf86ee80c0")
	)
	(pad "20" smd rect
		(at 2.85 -2.925 270)
		(size 0.38 1.3)
		(layers "F.Cu" "F.Paste" "F.Mask")
		(uuid "1ea20ebf-5eef-475d-aeb9-ba44e492f0cb")
	)
	(model "${KISYS3DMOD}/MO/MO153AC.wrl"
		(offset
			(xyz 0 0 0)
		)
		(scale
			(xyz 1 1 1)
		)
		(rotate
			(xyz 0 0 90)
		)
	)
)
