(footprint "MO153HD"
	(version 20240108)
	(generator "pcbnew")
	(generator_version "8.0")
	(layer "F.Cu")
	(descr "MO153HD 0.5-pitch SOIC, 56-pin, 8.00x14.00 mm body")
	(tags "MO153HD")
	(property "Reference" "MO153HD"
		(at 0 0 -90)
		(layer "F.Fab")
		(uuid "e128115a-ad27-4ee6-bbc1-4932a57114e9")
		(effects
			(font
				(size 1.2 1.2)
				(thickness 0.12)
			)
		)
	)
	(property "Value" "MO153HD"
		(at 0 0 -90)
		(layer "F.Fab")
		(hide yes)
		(uuid "6a0b5e1b-ddb6-4f1c-9180-a7e1609c5ccc")
		(effects
			(font
				(size 1.2 1.2)
				(thickness 0.12)
			)
		)
	)
	(property "Footprint" ""
		(at 0 0 -90)
		(unlocked yes)
		(layer "F.Fab")
		(hide yes)
		(uuid "b7a1e805-40f6-4a72-a5a3-c2c203019eff")
		(effects
			(font
				(size 1.27 1.27)
				(thickness 0.15)
			)
		)
	)
	(property "Datasheet" ""
		(at 0 0 -90)
		(unlocked yes)
		(layer "F.Fab")
		(hide yes)
		(uuid "0384d683-73e1-407c-a561-8ae4298dbe0f")
		(effects
			(font
				(size 1.27 1.27)
				(thickness 0.15)
			)
		)
	)
	(property "Description" ""
		(at 0 0 -90)
		(unlocked yes)
		(layer "F.Fab")
		(hide yes)
		(uuid "91841dfd-299d-48bf-aa8a-5ccfd21dd4aa")
		(effects
			(font
				(size 1.27 1.27)
				(thickness 0.15)
			)
		)
	)
	(attr smd)
	(fp_line
		(start -5.55 -7.2)
		(end 4.05 -7.2)
		(stroke
			(width 0.12)
			(type solid)
		)
		(layer "F.SilkS")
		(uuid "5f2a529e-6dde-4127-87e6-be5d1116e785")
	)
	(fp_line
		(start -4.05 7.2)
		(end 4.05 7.2)
		(stroke
			(width 0.12)
			(type solid)
		)
		(layer "F.SilkS")
		(uuid "f3fc00bb-0343-417a-a491-d6cd7dd1ce46")
	)
	(fp_line
		(start -4.05 -6.05)
		(end -3.05 -7.05)
		(stroke
			(width 0.1)
			(type solid)
		)
		(layer "F.Fab")
		(uuid "245ff7aa-69c1-4302-9355-7483f1e970be")
	)
	(fp_rect
		(start -4.05 -7.05)
		(end 4.05 7.05)
		(stroke
			(width 0.1)
			(type solid)
		)
		(fill none)
		(layer "F.Fab")
		(uuid "1d4af7f9-9eb7-428f-a8cb-1ce6c4ade955")
	)
	(pad "1" smd rect
		(at -4.75 -6.75 270)
		(size 0.3 1.6)
		(layers "F.Cu" "F.Paste" "F.Mask")
		(uuid "c20a8db8-3019-4b17-bc8a-4a9eb4c07ef2")
	)
	(pad "2" smd rect
		(at -4.75 -6.25 270)
		(size 0.3 1.6)
		(layers "F.Cu" "F.Paste" "F.Mask")
		(uuid "82e0eea4-0607-4cac-bcc5-40a05e342c02")
	)
	(pad "3" smd rect
		(at -4.75 -5.75 270)
		(size 0.3 1.6)
		(layers "F.Cu" "F.Paste" "F.Mask")
		(uuid "0bc27d09-20d8-4eb5-a1a7-f7d9101c3722")
	)
	(pad "4" smd rect
		(at -4.75 -5.25 270)
		(size 0.3 1.6)
		(layers "F.Cu" "F.Paste" "F.Mask")
		(uuid "5b0cf8f4-f15f-4a40-8474-f48f5d873487")
	)
	(pad "5" smd rect
		(at -4.75 -4.75 270)
		(size 0.3 1.6)
		(layers "F.Cu" "F.Paste" "F.Mask")
		(uuid "2d4311a7-9369-4abb-8d49-2c4f1e3aa413")
	)
	(pad "6" smd rect
		(at -4.75 -4.25 270)
		(size 0.3 1.6)
		(layers "F.Cu" "F.Paste" "F.Mask")
		(uuid "c44f5cdf-fbc8-47f8-ae84-08147e85058e")
	)
	(pad "7" smd rect
		(at -4.75 -3.75 270)
		(size 0.3 1.6)
		(layers "F.Cu" "F.Paste" "F.Mask")
		(uuid "3624d6aa-ceba-44e0-8f8d-945c79f6c6e7")
	)
	(pad "8" smd rect
		(at -4.75 -3.25 270)
		(size 0.3 1.6)
		(layers "F.Cu" "F.Paste" "F.Mask")
		(uuid "ee5772af-694e-4540-b844-42fd315a6bd1")
	)
	(pad "9" smd rect
		(at -4.75 -2.75 270)
		(size 0.3 1.6)
		(layers "F.Cu" "F.Paste" "F.Mask")
		(uuid "0b796814-fd43-489f-af6c-d13f85f95731")
	)
	(pad "10" smd rect
		(at -4.75 -2.25 270)
		(size 0.3 1.6)
		(layers "F.Cu" "F.Paste" "F.Mask")
		(uuid "00f2f93a-e087-4f37-b525-3bffef492766")
	)
	(pad "11" smd rect
		(at -4.75 -1.75 270)
		(size 0.3 1.6)
		(layers "F.Cu" "F.Paste" "F.Mask")
		(uuid "02dd8faa-405d-45ac-8430-cc9e19aa123e")
	)
	(pad "12" smd rect
		(at -4.75 -1.25 270)
		(size 0.3 1.6)
		(layers "F.Cu" "F.Paste" "F.Mask")
		(uuid "a2d8c23e-18e9-4677-90b7-a5e835533dd2")
	)
	(pad "13" smd rect
		(at -4.75 -0.75 270)
		(size 0.3 1.6)
		(layers "F.Cu" "F.Paste" "F.Mask")
		(uuid "267c9b74-009e-4dbd-91fe-4b972b395006")
	)
	(pad "14" smd rect
		(at -4.75 -0.25 270)
		(size 0.3 1.6)
		(layers "F.Cu" "F.Paste" "F.Mask")
		(uuid "ba057bcf-b181-4589-83cc-2fd745f5cfb3")
	)
	(pad "15" smd rect
		(at -4.75 0.25 270)
		(size 0.3 1.6)
		(layers "F.Cu" "F.Paste" "F.Mask")
		(uuid "cb9178ab-ce17-43c3-bf8e-36a7bad4bc2e")
	)
	(pad "16" smd rect
		(at -4.75 0.75 270)
		(size 0.3 1.6)
		(layers "F.Cu" "F.Paste" "F.Mask")
		(uuid "e60918b4-dd71-4c5a-b2ee-961768654c3a")
	)
	(pad "17" smd rect
		(at -4.75 1.25 270)
		(size 0.3 1.6)
		(layers "F.Cu" "F.Paste" "F.Mask")
		(uuid "373ffe6a-9494-4eb6-aeb1-f55552f1e7fd")
	)
	(pad "18" smd rect
		(at -4.75 1.75 270)
		(size 0.3 1.6)
		(layers "F.Cu" "F.Paste" "F.Mask")
		(uuid "3df580e1-bd5e-48da-baca-60add42a8477")
	)
	(pad "19" smd rect
		(at -4.75 2.25 270)
		(size 0.3 1.6)
		(layers "F.Cu" "F.Paste" "F.Mask")
		(uuid "32a5e454-f96b-4f21-94e9-2761b727cadf")
	)
	(pad "20" smd rect
		(at -4.75 2.75 270)
		(size 0.3 1.6)
		(layers "F.Cu" "F.Paste" "F.Mask")
		(uuid "7602bb9e-c974-4c0a-9141-4d4736b06c9d")
	)
	(pad "21" smd rect
		(at -4.75 3.25 270)
		(size 0.3 1.6)
		(layers "F.Cu" "F.Paste" "F.Mask")
		(uuid "040e13a1-f3e4-4ac9-bd33-568219e4844c")
	)
	(pad "22" smd rect
		(at -4.75 3.75 270)
		(size 0.3 1.6)
		(layers "F.Cu" "F.Paste" "F.Mask")
		(uuid "29a36bcc-8acb-4942-8ede-98a10918f854")
	)
	(pad "23" smd rect
		(at -4.75 4.25 270)
		(size 0.3 1.6)
		(layers "F.Cu" "F.Paste" "F.Mask")
		(uuid "9a72359d-e365-47d5-8265-48b0ecce4a5f")
	)
	(pad "24" smd rect
		(at -4.75 4.75 270)
		(size 0.3 1.6)
		(layers "F.Cu" "F.Paste" "F.Mask")
		(uuid "247d95cf-28cb-414a-9866-ce9efc3d6ddc")
	)
	(pad "25" smd rect
		(at -4.75 5.25 270)
		(size 0.3 1.6)
		(layers "F.Cu" "F.Paste" "F.Mask")
		(uuid "832aacb7-f7d1-4a21-acef-904c58959043")
	)
	(pad "26" smd rect
		(at -4.75 5.75 270)
		(size 0.3 1.6)
		(layers "F.Cu" "F.Paste" "F.Mask")
		(uuid "78dd7290-b3b7-4e4c-9abd-de8d079c430f")
	)
	(pad "27" smd rect
		(at -4.75 6.25 270)
		(size 0.3 1.6)
		(layers "F.Cu" "F.Paste" "F.Mask")
		(uuid "97f3011f-ca68-43a1-a46b-eabc137804b6")
	)
	(pad "28" smd rect
		(at -4.75 6.75 270)
		(size 0.3 1.6)
		(layers "F.Cu" "F.Paste" "F.Mask")
		(uuid "b2c18bec-702f-4b81-a87e-15670d6161a4")
	)
	(pad "29" smd rect
		(at 4.75 6.75 270)
		(size 0.3 1.6)
		(layers "F.Cu" "F.Paste" "F.Mask")
		(uuid "d93ab185-e76d-4460-80de-730f55213366")
	)
	(pad "30" smd rect
		(at 4.75 6.25 270)
		(size 0.3 1.6)
		(layers "F.Cu" "F.Paste" "F.Mask")
		(uuid "0e68c74d-5ea0-404e-ae21-55263aeabdd7")
	)
	(pad "31" smd rect
		(at 4.75 5.75 270)
		(size 0.3 1.6)
		(layers "F.Cu" "F.Paste" "F.Mask")
		(uuid "88a702cd-a7aa-43ec-960b-3ba8f9fd9390")
	)
	(pad "32" smd rect
		(at 4.75 5.25 270)
		(size 0.3 1.6)
		(layers "F.Cu" "F.Paste" "F.Mask")
		(uuid "341c715b-86fc-46af-a8ad-aad951ed23fc")
	)
	(pad "33" smd rect
		(at 4.75 4.75 270)
		(size 0.3 1.6)
		(layers "F.Cu" "F.Paste" "F.Mask")
		(uuid "6ee0c348-ae62-4062-9abd-030cc8328386")
	)
	(pad "34" smd rect
		(at 4.75 4.25 270)
		(size 0.3 1.6)
		(layers "F.Cu" "F.Paste" "F.Mask")
		(uuid "53ae47a2-12be-4671-bb21-62bd089850d6")
	)
	(pad "35" smd rect
		(at 4.75 3.75 270)
		(size 0.3 1.6)
		(layers "F.Cu" "F.Paste" "F.Mask")
		(uuid "8502b6f4-cf8d-47e1-a0e6-c3c78f4d212b")
	)
	(pad "36" smd rect
		(at 4.75 3.25 270)
		(size 0.3 1.6)
		(layers "F.Cu" "F.Paste" "F.Mask")
		(uuid "a35a2d4c-38ec-4ab6-98de-f65feff1e526")
	)
	(pad "37" smd rect
		(at 4.75 2.75 270)
		(size 0.3 1.6)
		(layers "F.Cu" "F.Paste" "F.Mask")
		(uuid "330b7472-11cb-4e1e-9eb6-7b7a74c7d759")
	)
	(pad "38" smd rect
		(at 4.75 2.25 270)
		(size 0.3 1.6)
		(layers "F.Cu" "F.Paste" "F.Mask")
		(uuid "8b96306b-08bb-4b9c-8799-c9bfb2aee0fc")
	)
	(pad "39" smd rect
		(at 4.75 1.75 270)
		(size 0.3 1.6)
		(layers "F.Cu" "F.Paste" "F.Mask")
		(uuid "8742e906-d160-4cf2-9012-52ac3264f9f9")
	)
	(pad "40" smd rect
		(at 4.75 1.25 270)
		(size 0.3 1.6)
		(layers "F.Cu" "F.Paste" "F.Mask")
		(uuid "944720a5-6198-4aef-bbaa-014a1a075749")
	)
	(pad "41" smd rect
		(at 4.75 0.75 270)
		(size 0.3 1.6)
		(layers "F.Cu" "F.Paste" "F.Mask")
		(uuid "203326e9-c065-4ddb-bb73-1ec7e27b80f7")
	)
	(pad "42" smd rect
		(at 4.75 0.25 270)
		(size 0.3 1.6)
		(layers "F.Cu" "F.Paste" "F.Mask")
		(uuid "96ff168c-efa0-4535-907c-0d96f20684d3")
	)
	(pad "43" smd rect
		(at 4.75 -0.25 270)
		(size 0.3 1.6)
		(layers "F.Cu" "F.Paste" "F.Mask")
		(uuid "6a82d592-a497-481b-8b12-702c62d97e99")
	)
	(pad "44" smd rect
		(at 4.75 -0.75 270)
		(size 0.3 1.6)
		(layers "F.Cu" "F.Paste" "F.Mask")
		(uuid "45185003-08d9-420d-b793-8b7b7525370f")
	)
	(pad "45" smd rect
		(at 4.75 -1.25 270)
		(size 0.3 1.6)
		(layers "F.Cu" "F.Paste" "F.Mask")
		(uuid "106bffcf-6d95-4650-8927-77d7041e3b5b")
	)
	(pad "46" smd rect
		(at 4.75 -1.75 270)
		(size 0.3 1.6)
		(layers "F.Cu" "F.Paste" "F.Mask")
		(uuid "0d8fd677-a210-4af6-ad29-b480f31a0b93")
	)
	(pad "47" smd rect
		(at 4.75 -2.25 270)
		(size 0.3 1.6)
		(layers "F.Cu" "F.Paste" "F.Mask")
		(uuid "9e26dc2a-cf26-485b-ba3f-d1dbc0fce83f")
	)
	(pad "48" smd rect
		(at 4.75 -2.75 270)
		(size 0.3 1.6)
		(layers "F.Cu" "F.Paste" "F.Mask")
		(uuid "9c5fb27b-8ac5-423f-99b4-cd37097ef4e5")
	)
	(pad "49" smd rect
		(at 4.75 -3.25 270)
		(size 0.3 1.6)
		(layers "F.Cu" "F.Paste" "F.Mask")
		(uuid "7f239a3f-8db9-4818-9470-10c1f24a0897")
	)
	(pad "50" smd rect
		(at 4.75 -3.75 270)
		(size 0.3 1.6)
		(layers "F.Cu" "F.Paste" "F.Mask")
		(uuid "855cff58-918f-410d-8d11-128e65df6d10")
	)
	(pad "51" smd rect
		(at 4.75 -4.25 270)
		(size 0.3 1.6)
		(layers "F.Cu" "F.Paste" "F.Mask")
		(uuid "d645f7e2-6807-425d-a74d-693e5087bb2c")
	)
	(pad "52" smd rect
		(at 4.75 -4.75 270)
		(size 0.3 1.6)
		(layers "F.Cu" "F.Paste" "F.Mask")
		(uuid "4988852e-749e-4bcf-b23c-c3679432fd63")
	)
	(pad "53" smd rect
		(at 4.75 -5.25 270)
		(size 0.3 1.6)
		(layers "F.Cu" "F.Paste" "F.Mask")
		(uuid "7b1c16df-e051-47f7-9304-cdc5cea4b7cc")
	)
	(pad "54" smd rect
		(at 4.75 -5.75 270)
		(size 0.3 1.6)
		(layers "F.Cu" "F.Paste" "F.Mask")
		(uuid "1615535e-32aa-4db4-bb27-3472436c1eb4")
	)
	(pad "55" smd rect
		(at 4.75 -6.25 270)
		(size 0.3 1.6)
		(layers "F.Cu" "F.Paste" "F.Mask")
		(uuid "18ec1920-b9d5-405c-994d-222653897610")
	)
	(pad "56" smd rect
		(at 4.75 -6.75 270)
		(size 0.3 1.6)
		(layers "F.Cu" "F.Paste" "F.Mask")
		(uuid "850a95b6-0bfc-4052-b4c3-d642f5cfa492")
	)
)
