(footprint "MO153GA"
	(version 20240108)
	(generator "pcbnew")
	(generator_version "8.0")
	(layer "F.Cu")
	(descr "MO153GA 0.65-pitch SOIC, 28-pin, 8.00x9.70 mm body")
	(tags "MO153GA")
	(property "Reference" "MO153GA"
		(at 0 0 -90)
		(layer "F.Fab")
		(uuid "777aa8b9-ae60-4c96-bba3-9a87608ee1ca")
		(effects
			(font
				(size 1.2 1.2)
				(thickness 0.12)
			)
		)
	)
	(property "Value" "MO153GA"
		(at 0 0 -90)
		(layer "F.Fab")
		(hide yes)
		(uuid "437892fe-7b2a-4360-aa4b-b6df5de5a32a")
		(effects
			(font
				(size 1.2 1.2)
				(thickness 0.12)
			)
		)
	)
	(property "Footprint" ""
		(at 0 0 -90)
		(unlocked yes)
		(layer "F.Fab")
		(hide yes)
		(uuid "b1b9d4c9-3ffb-4881-a5e0-3c2372423ad7")
		(effects
			(font
				(size 1.27 1.27)
				(thickness 0.15)
			)
		)
	)
	(property "Datasheet" ""
		(at 0 0 -90)
		(unlocked yes)
		(layer "F.Fab")
		(hide yes)
		(uuid "b36013b8-85b8-4a02-8960-f1b3042e557c")
		(effects
			(font
				(size 1.27 1.27)
				(thickness 0.15)
			)
		)
	)
	(property "Description" ""
		(at 0 0 -90)
		(unlocked yes)
		(layer "F.Fab")
		(hide yes)
		(uuid "e05ccd96-8355-46cc-ad2a-3fc74515782e")
		(effects
			(font
				(size 1.27 1.27)
				(thickness 0.15)
			)
		)
	)
	(attr smd)
	(fp_line
		(start -4.05 -4.9)
		(end -4.05 -4.75)
		(stroke
			(width 0.12)
			(type solid)
		)
		(layer "F.SilkS")
		(uuid "da49026c-fc1e-4dd4-998a-a0790287ff09")
	)
	(fp_line
		(start -4.05 -4.75)
		(end -5.55 -4.75)
		(stroke
			(width 0.12)
			(type default)
		)
		(layer "F.SilkS")
		(uuid "11e4d925-1531-487f-8cd9-3224b88f9459")
	)
	(fp_line
		(start -4.05 4.9)
		(end -4.05 4.75)
		(stroke
			(width 0.12)
			(type solid)
		)
		(layer "F.SilkS")
		(uuid "13e5eafa-2ddb-495e-9629-b616882ed352")
	)
	(fp_line
		(start 4.05 -4.9)
		(end -4.05 -4.9)
		(stroke
			(width 0.12)
			(type solid)
		)
		(layer "F.SilkS")
		(uuid "a50909cc-af15-4786-98ec-017f0136308d")
	)
	(fp_line
		(start 4.05 -4.9)
		(end 4.05 -4.75)
		(stroke
			(width 0.12)
			(type solid)
		)
		(layer "F.SilkS")
		(uuid "3f016d5e-32e2-4962-b8c0-1c1d8a4c92a9")
	)
	(fp_line
		(start 4.05 4.9)
		(end -4.05 4.9)
		(stroke
			(width 0.12)
			(type solid)
		)
		(layer "F.SilkS")
		(uuid "59ad6be1-050f-4737-abc3-c4b5a5f488a2")
	)
	(fp_line
		(start 4.05 4.9)
		(end 4.05 4.75)
		(stroke
			(width 0.12)
			(type solid)
		)
		(layer "F.SilkS")
		(uuid "e7484797-34cb-47d7-ac7d-c90d4e1221ff")
	)
	(fp_line
		(start -3.05 -4.9)
		(end -4.05 -3.9)
		(stroke
			(width 0.1)
			(type solid)
		)
		(layer "F.Fab")
		(uuid "351d1d75-6d90-49e1-9f5e-200f0e140ee2")
	)
	(fp_rect
		(start -4.05 -4.9)
		(end 4.05 4.9)
		(stroke
			(width 0.1)
			(type solid)
		)
		(fill none)
		(layer "F.Fab")
		(uuid "12c9fa58-9568-4e16-a498-58f33652a6e0")
	)
	(pad "1" smd rect
		(at -4.75 -4.225 270)
		(size 0.4 1.6)
		(layers "F.Cu" "F.Paste" "F.Mask")
		(uuid "c23dd269-58ae-45e9-922d-3f406ce077bf")
	)
	(pad "2" smd rect
		(at -4.75 -3.575 270)
		(size 0.4 1.6)
		(layers "F.Cu" "F.Paste" "F.Mask")
		(uuid "718d2112-caef-41a9-9931-3d986342b332")
	)
	(pad "3" smd rect
		(at -4.75 -2.925 270)
		(size 0.4 1.6)
		(layers "F.Cu" "F.Paste" "F.Mask")
		(uuid "43e33911-19e5-403e-a622-d065c312bc27")
	)
	(pad "4" smd rect
		(at -4.75 -2.275 270)
		(size 0.4 1.6)
		(layers "F.Cu" "F.Paste" "F.Mask")
		(uuid "c891cad6-9ebf-4021-b93b-892fb866a693")
	)
	(pad "5" smd rect
		(at -4.75 -1.625 270)
		(size 0.4 1.6)
		(layers "F.Cu" "F.Paste" "F.Mask")
		(uuid "eee1ff80-7933-48fa-bd54-3e3b88c7f599")
	)
	(pad "6" smd rect
		(at -4.75 -0.975 270)
		(size 0.4 1.6)
		(layers "F.Cu" "F.Paste" "F.Mask")
		(uuid "33020d82-35b5-4656-9f5c-530c74aa9ae8")
	)
	(pad "7" smd rect
		(at -4.75 -0.325 270)
		(size 0.4 1.6)
		(layers "F.Cu" "F.Paste" "F.Mask")
		(uuid "e436b41f-678e-4e61-8a12-66a6f0095d7b")
	)
	(pad "8" smd rect
		(at -4.75 0.325 270)
		(size 0.4 1.6)
		(layers "F.Cu" "F.Paste" "F.Mask")
		(uuid "feca1034-1720-4260-a056-9a31e5565fb0")
	)
	(pad "9" smd rect
		(at -4.75 0.975 270)
		(size 0.4 1.6)
		(layers "F.Cu" "F.Paste" "F.Mask")
		(uuid "9ba59c6e-5f0c-405e-8875-bfe4fe778303")
	)
	(pad "10" smd rect
		(at -4.75 1.625 270)
		(size 0.4 1.6)
		(layers "F.Cu" "F.Paste" "F.Mask")
		(uuid "de5d1338-961c-410a-ba34-e28c711b272c")
	)
	(pad "11" smd rect
		(at -4.75 2.275 270)
		(size 0.4 1.6)
		(layers "F.Cu" "F.Paste" "F.Mask")
		(uuid "3441d624-afe0-4296-a2d7-21eb3d3a517e")
	)
	(pad "12" smd rect
		(at -4.75 2.925 270)
		(size 0.4 1.6)
		(layers "F.Cu" "F.Paste" "F.Mask")
		(uuid "7970b004-b9b7-44d8-a2cc-5174513351b7")
	)
	(pad "13" smd rect
		(at -4.75 3.575 270)
		(size 0.4 1.6)
		(layers "F.Cu" "F.Paste" "F.Mask")
		(uuid "d4a69a9d-0ffb-470b-94bb-529bf6b66a54")
	)
	(pad "14" smd rect
		(at -4.75 4.225 270)
		(size 0.4 1.6)
		(layers "F.Cu" "F.Paste" "F.Mask")
		(uuid "3d5ee25e-fe3d-4e30-a8aa-a01f003145a8")
	)
	(pad "15" smd rect
		(at 4.75 4.225 270)
		(size 0.4 1.6)
		(layers "F.Cu" "F.Paste" "F.Mask")
		(uuid "59cc90f1-af93-428b-a5a1-a03f2de60d80")
	)
	(pad "16" smd rect
		(at 4.75 3.575 270)
		(size 0.4 1.6)
		(layers "F.Cu" "F.Paste" "F.Mask")
		(uuid "e613d1ef-9827-4a16-8ae1-3150f534415b")
	)
	(pad "17" smd rect
		(at 4.75 2.925 270)
		(size 0.4 1.6)
		(layers "F.Cu" "F.Paste" "F.Mask")
		(uuid "581d3815-0ab4-4ed2-81fb-3f81d44cc7d2")
	)
	(pad "18" smd rect
		(at 4.75 2.275 270)
		(size 0.4 1.6)
		(layers "F.Cu" "F.Paste" "F.Mask")
		(uuid "cf41612f-a967-4dd1-8952-04a3812d9611")
	)
	(pad "19" smd rect
		(at 4.75 1.625 270)
		(size 0.4 1.6)
		(layers "F.Cu" "F.Paste" "F.Mask")
		(uuid "6c70b4fb-f12d-4b92-b62e-a6e08d68b959")
	)
	(pad "20" smd rect
		(at 4.75 0.975 270)
		(size 0.4 1.6)
		(layers "F.Cu" "F.Paste" "F.Mask")
		(uuid "85324500-cca2-4b00-a5a2-004a666e4cd5")
	)
	(pad "21" smd rect
		(at 4.75 0.325 270)
		(size 0.4 1.6)
		(layers "F.Cu" "F.Paste" "F.Mask")
		(uuid "87414c7e-a3c6-427a-a60f-bccdc7f0dd8e")
	)
	(pad "22" smd rect
		(at 4.75 -0.325 270)
		(size 0.4 1.6)
		(layers "F.Cu" "F.Paste" "F.Mask")
		(uuid "b97db106-1e23-4d2d-a72c-548cf607ad9e")
	)
	(pad "23" smd rect
		(at 4.75 -0.975 270)
		(size 0.4 1.6)
		(layers "F.Cu" "F.Paste" "F.Mask")
		(uuid "0c8dad00-0af7-4f7f-8944-fca40af7f58a")
	)
	(pad "24" smd rect
		(at 4.75 -1.625 270)
		(size 0.4 1.6)
		(layers "F.Cu" "F.Paste" "F.Mask")
		(uuid "567b7a70-d76d-414e-9ad5-50092e49ce43")
	)
	(pad "25" smd rect
		(at 4.75 -2.275 270)
		(size 0.4 1.6)
		(layers "F.Cu" "F.Paste" "F.Mask")
		(uuid "a4311574-156c-46b7-97d1-3b0d540c7cb3")
	)
	(pad "26" smd rect
		(at 4.75 -2.925 270)
		(size 0.4 1.6)
		(layers "F.Cu" "F.Paste" "F.Mask")
		(uuid "ef4ffca2-6fd2-4077-b219-a68dd03bd940")
	)
	(pad "27" smd rect
		(at 4.75 -3.575 270)
		(size 0.4 1.6)
		(layers "F.Cu" "F.Paste" "F.Mask")
		(uuid "38736d5b-34bf-4ff9-ad57-0844530b7550")
	)
	(pad "28" smd rect
		(at 4.75 -4.225 270)
		(size 0.4 1.6)
		(layers "F.Cu" "F.Paste" "F.Mask")
		(uuid "f087793a-4300-45b3-a223-145488237d44")
	)
)
