(footprint "MO153AD"
	(version 20240108)
	(generator "pcbnew")
	(generator_version "8.0")
	(layer "F.Cu")
	(descr "MO153AD 0.65-pitch SOIC, 24-pin, 4.40x7.80 mm body")
	(tags "IFC7352")
	(property "Reference" "MO153AD"
		(at 0 0 -90)
		(layer "F.Fab")
		(uuid "219783f5-4be0-4b5c-b053-a409b909fd23")
		(effects
			(font
				(size 1.2 1.2)
				(thickness 0.12)
			)
		)
	)
	(property "Value" "MO153AD"
		(at 0 0 -90)
		(layer "F.Fab")
		(hide yes)
		(uuid "5d55204e-c153-408f-81c5-be5b1a015b34")
		(effects
			(font
				(size 1.2 1.2)
				(thickness 0.12)
			)
		)
	)
	(property "Footprint" ""
		(at 0 0 -90)
		(unlocked yes)
		(layer "F.Fab")
		(hide yes)
		(uuid "ced492a0-e2a7-44f6-9db2-17bee2553c57")
		(effects
			(font
				(size 1.27 1.27)
				(thickness 0.15)
			)
		)
	)
	(property "Datasheet" ""
		(at 0 0 -90)
		(unlocked yes)
		(layer "F.Fab")
		(hide yes)
		(uuid "49ff8955-554e-446b-856d-df5afe924a32")
		(effects
			(font
				(size 1.27 1.27)
				(thickness 0.15)
			)
		)
	)
	(property "Description" ""
		(at 0 0 -90)
		(unlocked yes)
		(layer "F.Fab")
		(hide yes)
		(uuid "a149f969-bdd2-4e94-983d-512fda3388ad")
		(effects
			(font
				(size 1.27 1.27)
				(thickness 0.15)
			)
		)
	)
	(attr smd)
	(fp_line
		(start 2.25 -4.05)
		(end -3.5 -4.05)
		(stroke
			(width 0.12)
			(type solid)
		)
		(layer "F.SilkS")
		(uuid "923ebe84-ad2a-4ccb-8df7-932aee8e31f6")
	)
	(fp_line
		(start 2.25 4.05)
		(end -2.25 4.05)
		(stroke
			(width 0.12)
			(type solid)
		)
		(layer "F.SilkS")
		(uuid "0d5fb236-92e0-403a-a410-17a20a738353")
	)
	(fp_rect
		(start -3.7 -4.15)
		(end 3.7 4.15)
		(stroke
			(width 0.01)
			(type solid)
		)
		(fill none)
		(layer "F.CrtYd")
		(uuid "a5bb7540-5846-44cc-b44e-98a8acb5911f")
	)
	(fp_line
		(start -1.25 -3.95)
		(end -2.25 -2.95)
		(stroke
			(width 0.1)
			(type solid)
		)
		(layer "F.Fab")
		(uuid "ab065260-38e1-4073-9cc8-7da3245bb73c")
	)
	(fp_rect
		(start -2.25 -3.95)
		(end 2.25 3.95)
		(stroke
			(width 0.1)
			(type solid)
		)
		(fill none)
		(layer "F.Fab")
		(uuid "f3a5b5c0-1260-4718-82b4-e3d92649fcc2")
	)
	(pad "1" smd rect
		(at -2.85 -3.575 270)
		(size 0.38 1.3)
		(layers "F.Cu" "F.Paste" "F.Mask")
		(uuid "619ffef0-ceb9-4d00-b2a7-5e9e9e01b1cd")
	)
	(pad "2" smd rect
		(at -2.85 -2.925 270)
		(size 0.38 1.3)
		(layers "F.Cu" "F.Paste" "F.Mask")
		(uuid "53e2a62f-2553-485d-8946-ee1fe72d8998")
	)
	(pad "3" smd rect
		(at -2.85 -2.275 270)
		(size 0.38 1.3)
		(layers "F.Cu" "F.Paste" "F.Mask")
		(uuid "77df7e88-e7be-4e94-b9a1-30de3537999a")
	)
	(pad "4" smd rect
		(at -2.85 -1.625 270)
		(size 0.38 1.3)
		(layers "F.Cu" "F.Paste" "F.Mask")
		(uuid "db5ac1b9-df55-4d18-9ea7-3dc60a736afb")
	)
	(pad "5" smd rect
		(at -2.85 -0.975 270)
		(size 0.38 1.3)
		(layers "F.Cu" "F.Paste" "F.Mask")
		(uuid "cd8f7518-f56d-4733-9ea9-b5889bec9d5f")
	)
	(pad "6" smd rect
		(at -2.85 -0.325 270)
		(size 0.38 1.3)
		(layers "F.Cu" "F.Paste" "F.Mask")
		(uuid "b4cefbf0-f0ff-46c4-9c3f-ba8e0db06f37")
	)
	(pad "7" smd rect
		(at -2.85 0.325 270)
		(size 0.38 1.3)
		(layers "F.Cu" "F.Paste" "F.Mask")
		(uuid "3b02b134-9180-4b64-987e-d22abb33c4d7")
	)
	(pad "8" smd rect
		(at -2.85 0.975 270)
		(size 0.38 1.3)
		(layers "F.Cu" "F.Paste" "F.Mask")
		(uuid "87085267-60b2-4109-bab6-84c732d38bfa")
	)
	(pad "9" smd rect
		(at -2.85 1.625 270)
		(size 0.38 1.3)
		(layers "F.Cu" "F.Paste" "F.Mask")
		(uuid "cf903e45-0f76-414b-8fdb-b766ab813335")
	)
	(pad "10" smd rect
		(at -2.85 2.275 270)
		(size 0.38 1.3)
		(layers "F.Cu" "F.Paste" "F.Mask")
		(uuid "c6bb47d9-a774-4336-b007-1b2a9158a050")
	)
	(pad "11" smd rect
		(at -2.85 2.925 270)
		(size 0.38 1.3)
		(layers "F.Cu" "F.Paste" "F.Mask")
		(uuid "6e3b37ea-56c7-42e5-a3a2-de13fe97d610")
	)
	(pad "12" smd rect
		(at -2.85 3.575 270)
		(size 0.38 1.3)
		(layers "F.Cu" "F.Paste" "F.Mask")
		(uuid "3fe43e91-4623-4a3a-a090-d6bfbfccceb7")
	)
	(pad "13" smd rect
		(at 2.85 3.575 270)
		(size 0.38 1.3)
		(layers "F.Cu" "F.Paste" "F.Mask")
		(uuid "1aae39f4-a42e-4542-8547-7dd5e3de4b3c")
	)
	(pad "14" smd rect
		(at 2.85 2.925 270)
		(size 0.38 1.3)
		(layers "F.Cu" "F.Paste" "F.Mask")
		(uuid "c7a57fdf-469d-4e45-bda1-db01d2998090")
	)
	(pad "15" smd rect
		(at 2.85 2.275 270)
		(size 0.38 1.3)
		(layers "F.Cu" "F.Paste" "F.Mask")
		(uuid "1d2589a6-f297-4941-a87f-cffe35a4324e")
	)
	(pad "16" smd rect
		(at 2.85 1.625 270)
		(size 0.38 1.3)
		(layers "F.Cu" "F.Paste" "F.Mask")
		(uuid "0080ad47-4879-4d17-a779-6c1a3a1f5e85")
	)
	(pad "17" smd rect
		(at 2.85 0.975 270)
		(size 0.38 1.3)
		(layers "F.Cu" "F.Paste" "F.Mask")
		(uuid "911195a9-2693-4aa3-b2ac-2a900ef5a8c0")
	)
	(pad "18" smd rect
		(at 2.85 0.325 270)
		(size 0.38 1.3)
		(layers "F.Cu" "F.Paste" "F.Mask")
		(uuid "80cc7b89-fc50-4efb-ba97-8ebc689fd0a0")
	)
	(pad "19" smd rect
		(at 2.85 -0.325 270)
		(size 0.38 1.3)
		(layers "F.Cu" "F.Paste" "F.Mask")
		(uuid "abf97ba3-1dc1-41fc-9395-1be45535cd7b")
	)
	(pad "20" smd rect
		(at 2.85 -0.975 270)
		(size 0.38 1.3)
		(layers "F.Cu" "F.Paste" "F.Mask")
		(uuid "132dbbf8-a737-4767-b741-f748a9e7201b")
	)
	(pad "21" smd rect
		(at 2.85 -1.625 270)
		(size 0.38 1.3)
		(layers "F.Cu" "F.Paste" "F.Mask")
		(uuid "adff96f7-f202-4ba9-ba25-cf16ea8ea582")
	)
	(pad "22" smd rect
		(at 2.85 -2.275 270)
		(size 0.38 1.3)
		(layers "F.Cu" "F.Paste" "F.Mask")
		(uuid "748556df-9469-4d5b-9a8d-680a71c89537")
	)
	(pad "23" smd rect
		(at 2.85 -2.925 270)
		(size 0.38 1.3)
		(layers "F.Cu" "F.Paste" "F.Mask")
		(uuid "190f88a9-e7e0-4c4e-bf75-bc7acfd1013d")
	)
	(pad "24" smd rect
		(at 2.85 -3.575 270)
		(size 0.38 1.3)
		(layers "F.Cu" "F.Paste" "F.Mask")
		(uuid "355d89af-150d-49a0-ae5d-321250e9c93d")
	)
	(model "MO/MO153AD.wrl"
		(offset
			(xyz 0 0 0)
		)
		(scale
			(xyz 1 1 1)
		)
		(rotate
			(xyz 0 0 90)
		)
	)
)
