(footprint "MO187DA"
	(version 20240108)
	(generator "pcbnew")
	(generator_version "8.0")
	(layer "F.Cu")
	(descr "MO187DA 0.65-pitch SOIC, 8-pin, 2.80x2.95 mm body")
	(tags "MO187DA")
	(property "Reference" "MO187DA"
		(at 0 0 -90)
		(layer "F.Fab")
		(uuid "c151ad12-d984-404d-90af-20503b4ae11a")
		(effects
			(font
				(size 0.6 0.6)
				(thickness 0.06)
			)
		)
	)
	(property "Value" "MO187DA"
		(at 0 0 -90)
		(layer "F.Fab")
		(hide yes)
		(uuid "b1e8b671-f47b-49a7-9067-eff496d826ec")
		(effects
			(font
				(size 0.6 0.6)
				(thickness 0.06)
			)
		)
	)
	(property "Footprint" ""
		(at 0 0 -90)
		(unlocked yes)
		(layer "F.Fab")
		(hide yes)
		(uuid "fe8c49a0-a757-4333-bae4-09f1be55cf10")
		(effects
			(font
				(size 1.27 1.27)
				(thickness 0.15)
			)
		)
	)
	(property "Datasheet" ""
		(at 0 0 -90)
		(unlocked yes)
		(layer "F.Fab")
		(hide yes)
		(uuid "37cf1c04-a791-458d-b51a-b598d05d02a1")
		(effects
			(font
				(size 1.27 1.27)
				(thickness 0.15)
			)
		)
	)
	(property "Description" ""
		(at 0 0 -90)
		(unlocked yes)
		(layer "F.Fab")
		(hide yes)
		(uuid "59db709b-96c1-4bc6-8b4e-c4d055f3eaf6")
		(effects
			(font
				(size 1.27 1.27)
				(thickness 0.15)
			)
		)
	)
	(attr smd)
	(fp_line
		(start -1.6 -1.7)
		(end -1.6 -1.5)
		(stroke
			(width 0.12)
			(type solid)
		)
		(layer "F.SilkS")
		(uuid "e7521954-c129-4ed5-a99b-9f60b34ecdc8")
	)
	(fp_line
		(start -1.6 -1.5)
		(end -2.5 -1.5)
		(stroke
			(width 0.12)
			(type default)
		)
		(layer "F.SilkS")
		(uuid "3589804a-4efc-499b-922b-66a2db73f618")
	)
	(fp_line
		(start -1.6 1.7)
		(end -1.6 1.5)
		(stroke
			(width 0.12)
			(type solid)
		)
		(layer "F.SilkS")
		(uuid "df4b3643-e8d5-4fff-9ec6-3f98b66b8c3e")
	)
	(fp_line
		(start 1.6 -1.7)
		(end -1.6 -1.7)
		(stroke
			(width 0.12)
			(type solid)
		)
		(layer "F.SilkS")
		(uuid "c0dddce3-79f6-4708-8fc2-a0092568a69d")
	)
	(fp_line
		(start 1.6 -1.7)
		(end 1.6 -1.5)
		(stroke
			(width 0.12)
			(type solid)
		)
		(layer "F.SilkS")
		(uuid "6d1eb7e5-c8b6-49a2-96fb-b60af7fa389a")
	)
	(fp_line
		(start 1.6 1.7)
		(end -1.6 1.7)
		(stroke
			(width 0.12)
			(type solid)
		)
		(layer "F.SilkS")
		(uuid "ab43b1a8-d883-43ea-9da4-958ffa10940b")
	)
	(fp_line
		(start 1.6 1.7)
		(end 1.6 1.5)
		(stroke
			(width 0.12)
			(type solid)
		)
		(layer "F.SilkS")
		(uuid "f28e42d1-a0af-4643-90e1-162a57116921")
	)
	(fp_line
		(start -0.9 -1.7)
		(end -1.6 -1)
		(stroke
			(width 0.1)
			(type solid)
		)
		(layer "F.Fab")
		(uuid "f6245998-a142-404e-a476-f4c580020e68")
	)
	(fp_rect
		(start -1.6 -1.7)
		(end 1.6 1.7)
		(stroke
			(width 0.1)
			(type solid)
		)
		(fill none)
		(layer "F.Fab")
		(uuid "18959d8c-370a-4aab-b544-9e584526ca1c")
	)
	(pad "1" smd rect
		(at -1.95 -0.975 270)
		(size 0.4 1.1)
		(layers "F.Cu" "F.Paste" "F.Mask")
		(uuid "d57749c2-1b30-4b57-9a84-fafe146c8a0c")
	)
	(pad "2" smd rect
		(at -1.95 -0.325 270)
		(size 0.4 1.1)
		(layers "F.Cu" "F.Paste" "F.Mask")
		(uuid "657c5eb6-6b4d-4f38-b4df-349125f62052")
	)
	(pad "3" smd rect
		(at -1.95 0.325 270)
		(size 0.4 1.1)
		(layers "F.Cu" "F.Paste" "F.Mask")
		(uuid "a950b7f8-dac5-4f62-8891-148737e82658")
	)
	(pad "4" smd rect
		(at -1.95 0.975 270)
		(size 0.4 1.1)
		(layers "F.Cu" "F.Paste" "F.Mask")
		(uuid "b76843e0-8c77-426d-8b6b-b5c0237dc2dc")
	)
	(pad "5" smd rect
		(at 1.95 0.975 270)
		(size 0.4 1.1)
		(layers "F.Cu" "F.Paste" "F.Mask")
		(uuid "581241f6-e411-4e9c-a42a-4a4588ea7b5b")
	)
	(pad "6" smd rect
		(at 1.95 0.325 270)
		(size 0.4 1.1)
		(layers "F.Cu" "F.Paste" "F.Mask")
		(uuid "40396643-ccd5-4d7a-b695-e3f278983b43")
	)
	(pad "7" smd rect
		(at 1.95 -0.325 270)
		(size 0.4 1.1)
		(layers "F.Cu" "F.Paste" "F.Mask")
		(uuid "5f214aef-0c2f-49ad-b33f-6a7e946e2fb0")
	)
	(pad "8" smd rect
		(at 1.95 -0.975 270)
		(size 0.4 1.1)
		(layers "F.Cu" "F.Paste" "F.Mask")
		(uuid "7fb182df-7440-4764-90bd-01267c51c2c1")
	)
	(model "${KISYS3DMOD}/MO/MO187DA.wrl"
		(offset
			(xyz 0 0 0)
		)
		(scale
			(xyz 1 1 1)
		)
		(rotate
			(xyz 0 0 90)
		)
	)
)
