(footprint "MS013AB"
	(version 20240108)
	(generator "pcbnew")
	(generator_version "8.0")
	(layer "F.Cu")
	(descr "MS013AB 1.27-pitch SOIC, 18-pin, 7.50x11.55 mm body")
	(tags "MS013AB")
	(property "Reference" "MS013AB"
		(at 0 0 -90)
		(layer "F.Fab")
		(uuid "f0a366f4-0406-4236-8266-2b7e9da98843")
		(effects
			(font
				(size 1.2 1.2)
				(thickness 0.12)
			)
		)
	)
	(property "Value" "MS013AB"
		(at 0 0 -90)
		(layer "F.Fab")
		(hide yes)
		(uuid "0c486901-67e9-40a0-bb12-acac8474eeb8")
		(effects
			(font
				(size 1.2 1.2)
				(thickness 0.12)
			)
		)
	)
	(property "Footprint" ""
		(at 0 0 -90)
		(unlocked yes)
		(layer "F.Fab")
		(hide yes)
		(uuid "c48bdf21-1ca5-4cd1-8419-69d75abfe338")
		(effects
			(font
				(size 1.27 1.27)
				(thickness 0.15)
			)
		)
	)
	(property "Datasheet" ""
		(at 0 0 -90)
		(unlocked yes)
		(layer "F.Fab")
		(hide yes)
		(uuid "75339059-27fa-4dff-b5c5-9d33b2fb4a93")
		(effects
			(font
				(size 1.27 1.27)
				(thickness 0.15)
			)
		)
	)
	(property "Description" ""
		(at 0 0 -90)
		(unlocked yes)
		(layer "F.Fab")
		(hide yes)
		(uuid "2fb0d5f5-2b8d-4425-af90-8738e2c567cb")
		(effects
			(font
				(size 1.27 1.27)
				(thickness 0.15)
			)
		)
	)
	(attr smd)
	(fp_line
		(start -3.85 -6)
		(end -3.85 -5.7)
		(stroke
			(width 0.12)
			(type solid)
		)
		(layer "F.SilkS")
		(uuid "1c54e902-0f30-436f-84ba-d6902a492b49")
	)
	(fp_line
		(start -3.85 -5.7)
		(end -5.85 -5.7)
		(stroke
			(width 0.12)
			(type default)
		)
		(layer "F.SilkS")
		(uuid "5b81fc8a-8258-493d-be05-1b56c22bcf47")
	)
	(fp_line
		(start -3.85 6)
		(end -3.85 5.7)
		(stroke
			(width 0.12)
			(type solid)
		)
		(layer "F.SilkS")
		(uuid "8d5d9823-925a-4f3c-9d70-29e9e824c984")
	)
	(fp_line
		(start 3.85 -6)
		(end -3.85 -6)
		(stroke
			(width 0.12)
			(type solid)
		)
		(layer "F.SilkS")
		(uuid "651e8306-07a4-4a3e-8844-2673edd1e02f")
	)
	(fp_line
		(start 3.85 -6)
		(end 3.85 -5.7)
		(stroke
			(width 0.12)
			(type solid)
		)
		(layer "F.SilkS")
		(uuid "6b3cc78c-2703-4dc0-a717-b48b6b34104b")
	)
	(fp_line
		(start 3.85 6)
		(end -3.85 6)
		(stroke
			(width 0.12)
			(type solid)
		)
		(layer "F.SilkS")
		(uuid "ecc9225b-6471-48a7-b1ff-fc512349ef56")
	)
	(fp_line
		(start 3.85 6)
		(end 3.85 5.7)
		(stroke
			(width 0.12)
			(type solid)
		)
		(layer "F.SilkS")
		(uuid "142e540e-b109-4b96-97a5-0d7a493c1b40")
	)
	(fp_rect
		(start -6.05 -6.2)
		(end 6.05 6.2)
		(stroke
			(width 0.01)
			(type solid)
		)
		(fill none)
		(layer "F.CrtYd")
		(uuid "32f32126-c1dc-4127-836e-07129466a3b5")
	)
	(fp_line
		(start -2.85 -6)
		(end -3.85 -5)
		(stroke
			(width 0.1)
			(type solid)
		)
		(layer "F.Fab")
		(uuid "8b924958-2189-48ef-a2d4-ff2e26ba0b33")
	)
	(fp_rect
		(start -3.85 -6)
		(end 3.85 6)
		(stroke
			(width 0.1)
			(type solid)
		)
		(fill none)
		(layer "F.Fab")
		(uuid "c62022d3-0a74-4d9e-b08e-071cc9c1ffeb")
	)
	(pad "1" smd rect
		(at -4.8 -5.08 270)
		(size 0.6 2.1)
		(layers "F.Cu" "F.Paste" "F.Mask")
		(uuid "4e6804cf-02c6-4845-8d21-45c1aa524142")
	)
	(pad "2" smd rect
		(at -4.8 -3.81 270)
		(size 0.6 2.1)
		(layers "F.Cu" "F.Paste" "F.Mask")
		(uuid "26da1f84-13ec-49be-bf39-60e66d49716e")
	)
	(pad "3" smd rect
		(at -4.8 -2.54 270)
		(size 0.6 2.1)
		(layers "F.Cu" "F.Paste" "F.Mask")
		(uuid "95f8e53f-b6fe-40d7-b5be-0b5c6ba4d361")
	)
	(pad "4" smd rect
		(at -4.8 -1.27 270)
		(size 0.6 2.1)
		(layers "F.Cu" "F.Paste" "F.Mask")
		(uuid "97ef4716-db36-4970-828a-d9bb18985794")
	)
	(pad "5" smd rect
		(at -4.8 0 270)
		(size 0.6 2.1)
		(layers "F.Cu" "F.Paste" "F.Mask")
		(uuid "de3b6802-c943-453f-9253-2955a0816b3c")
	)
	(pad "6" smd rect
		(at -4.8 1.27 270)
		(size 0.6 2.1)
		(layers "F.Cu" "F.Paste" "F.Mask")
		(uuid "da4409c6-1ad9-4577-b52f-876ad216b76d")
	)
	(pad "7" smd rect
		(at -4.8 2.54 270)
		(size 0.6 2.1)
		(layers "F.Cu" "F.Paste" "F.Mask")
		(uuid "10900bd8-0594-4ad0-a991-757a10f5a3e0")
	)
	(pad "8" smd rect
		(at -4.8 3.81 270)
		(size 0.6 2.1)
		(layers "F.Cu" "F.Paste" "F.Mask")
		(uuid "a341c9b8-6aaf-4e5d-ada5-c659247e4b25")
	)
	(pad "9" smd rect
		(at -4.8 5.08 270)
		(size 0.6 2.1)
		(layers "F.Cu" "F.Paste" "F.Mask")
		(uuid "89dc5557-4e61-44f9-8765-d47fcdb44495")
	)
	(pad "10" smd rect
		(at 4.8 5.08 270)
		(size 0.6 2.1)
		(layers "F.Cu" "F.Paste" "F.Mask")
		(uuid "d014114c-1a5c-4ae1-8bbe-3c93519359a0")
	)
	(pad "11" smd rect
		(at 4.8 3.81 270)
		(size 0.6 2.1)
		(layers "F.Cu" "F.Paste" "F.Mask")
		(uuid "33a8c833-6566-4985-a496-777306675ab4")
	)
	(pad "12" smd rect
		(at 4.8 2.54 270)
		(size 0.6 2.1)
		(layers "F.Cu" "F.Paste" "F.Mask")
		(uuid "664d972f-a30f-4ef8-989e-c547d3440222")
	)
	(pad "13" smd rect
		(at 4.8 1.27 270)
		(size 0.6 2.1)
		(layers "F.Cu" "F.Paste" "F.Mask")
		(uuid "92abe5f1-5e7c-4d7e-a6b5-ac43d5595bdf")
	)
	(pad "14" smd rect
		(at 4.8 0 270)
		(size 0.6 2.1)
		(layers "F.Cu" "F.Paste" "F.Mask")
		(uuid "654ca997-aa74-4b72-af8b-40a5959b9d3c")
	)
	(pad "15" smd rect
		(at 4.8 -1.27 270)
		(size 0.6 2.1)
		(layers "F.Cu" "F.Paste" "F.Mask")
		(uuid "d1436a9e-d868-4e76-b5e4-67f4fbca04fc")
	)
	(pad "16" smd rect
		(at 4.8 -2.54 270)
		(size 0.6 2.1)
		(layers "F.Cu" "F.Paste" "F.Mask")
		(uuid "3ef39aca-4489-4299-8c58-6ba7939d32f5")
	)
	(pad "17" smd rect
		(at 4.8 -3.81 270)
		(size 0.6 2.1)
		(layers "F.Cu" "F.Paste" "F.Mask")
		(uuid "dca1e690-fcd7-495c-a34b-a3ef3dc71d98")
	)
	(pad "18" smd rect
		(at 4.8 -5.08 270)
		(size 0.6 2.1)
		(layers "F.Cu" "F.Paste" "F.Mask")
		(uuid "2bbc228d-8b80-408b-adda-60a1d44f8544")
	)
	(model "${KISYS3DMOD}/MS/MS013AB.wrl"
		(offset
			(xyz 0 0 0)
		)
		(scale
			(xyz 1 1 1)
		)
		(rotate
			(xyz 0 0 90)
		)
	)
)
