(footprint "WE-SL2"
	(version 20240108)
	(generator "pcbnew")
	(generator_version "8.0")
	(layer "F.Cu")
	(descr "9.2×6×5mm SMD Common Mode Line Filter")
	(property "Reference" "WE-SL2"
		(at 0 0 0)
		(layer "F.Fab")
		(uuid "aef2117c-4386-4ccc-9f65-7d829ea91584")
		(effects
			(font
				(size 1.2 1.2)
				(thickness 0.12)
			)
		)
	)
	(property "Value" "WE-SL2"
		(at 0 0 0)
		(layer "F.Fab")
		(hide yes)
		(uuid "be0de141-1f1d-44ab-8981-b8b6f3cc8ddf")
		(effects
			(font
				(size 1.2 1.2)
				(thickness 0.12)
			)
		)
	)
	(property "Footprint" ""
		(at 0 0 0)
		(layer "F.Fab")
		(hide yes)
		(uuid "38ca24a8-ecf7-419c-8215-9021073545ce")
		(effects
			(font
				(size 1.27 1.27)
				(thickness 0.15)
			)
		)
	)
	(property "Datasheet" ""
		(at 0 0 0)
		(layer "F.Fab")
		(hide yes)
		(uuid "c18c5962-d643-4cb6-a74c-7dffd9fccb35")
		(effects
			(font
				(size 1.27 1.27)
				(thickness 0.15)
			)
		)
	)
	(property "Description" ""
		(at 0 0 0)
		(layer "F.Fab")
		(hide yes)
		(uuid "1220b9ba-f6cb-4189-8e1b-aecc4836eb75")
		(effects
			(font
				(size 1.27 1.27)
				(thickness 0.15)
			)
		)
	)
	(attr through_hole)
	(fp_line
		(start -4.75 -3.15)
		(end 4.75 -3.15)
		(stroke
			(width 0.12)
			(type solid)
		)
		(layer "F.SilkS")
		(uuid "ecc3bdf6-0d5c-4518-b4ca-ccce0a5a9433")
	)
	(fp_line
		(start -4.75 -2.15)
		(end -4.75 -3.15)
		(stroke
			(width 0.12)
			(type solid)
		)
		(layer "F.SilkS")
		(uuid "62e96b26-6081-4ff1-9954-67e3216b613a")
	)
	(fp_line
		(start -4.75 0.35)
		(end -4.75 -0.35)
		(stroke
			(width 0.12)
			(type solid)
		)
		(layer "F.SilkS")
		(uuid "408b372a-e85d-4e03-9c34-ee8b0b5f353e")
	)
	(fp_line
		(start -4.75 3.15)
		(end -4.75 2.15)
		(stroke
			(width 0.12)
			(type solid)
		)
		(layer "F.SilkS")
		(uuid "a9be6f85-00f3-4ecc-a56c-77121fd00e86")
	)
	(fp_line
		(start 4.75 -3.15)
		(end 4.75 -2.15)
		(stroke
			(width 0.12)
			(type solid)
		)
		(layer "F.SilkS")
		(uuid "37da54a9-d58c-48c6-9d20-e204ed74af16")
	)
	(fp_line
		(start 4.75 0.35)
		(end 4.75 -0.35)
		(stroke
			(width 0.12)
			(type solid)
		)
		(layer "F.SilkS")
		(uuid "d612eda8-4981-400b-8ae7-1e5cc3b0bc10")
	)
	(fp_line
		(start 4.75 2.15)
		(end 4.75 3.15)
		(stroke
			(width 0.12)
			(type solid)
		)
		(layer "F.SilkS")
		(uuid "6d0eeb38-b451-4976-9bc0-26340d77fded")
	)
	(fp_line
		(start 4.75 3.15)
		(end -4.75 3.15)
		(stroke
			(width 0.12)
			(type solid)
		)
		(layer "F.SilkS")
		(uuid "61d3cd31-5b17-47a7-9a4f-1682e40ddd92")
	)
	(fp_rect
		(start -4.95 -3.35)
		(end 4.95 3.35)
		(stroke
			(width 0.01)
			(type solid)
		)
		(fill none)
		(layer "F.CrtYd")
		(uuid "ce079d10-5696-4566-ad42-c90c4ea9448b")
	)
	(fp_rect
		(start -4.75 -3.15)
		(end 4.75 3.15)
		(stroke
			(width 0.1)
			(type solid)
		)
		(fill none)
		(layer "F.Fab")
		(uuid "f741cc62-93b1-4d7b-b998-ef3fcae366d5")
	)
	(pad "1" smd rect
		(at -3.75 -1.25)
		(size 2 1.2)
		(layers "F.Cu" "F.Paste" "F.Mask")
		(uuid "180badfb-ad13-42d3-bb83-543f13899fa2")
	)
	(pad "2" smd rect
		(at -3.75 1.25)
		(size 2 1.2)
		(layers "F.Cu" "F.Paste" "F.Mask")
		(uuid "29972dc3-ddd4-4402-ab60-35a8fe50001e")
	)
	(pad "3" smd rect
		(at 3.75 1.25)
		(size 2 1.2)
		(layers "F.Cu" "F.Paste" "F.Mask")
		(uuid "55f98a2e-ea2c-4176-a9a9-d41601895c92")
	)
	(pad "4" smd rect
		(at 3.75 -1.25)
		(size 2 1.2)
		(layers "F.Cu" "F.Paste" "F.Mask")
		(uuid "c477b183-e9f5-45a0-af7c-670c6486beea")
	)
	(model "${KISYS3DMOD}/WE/WE-SL2.wrl"
		(offset
			(xyz 0 0 0)
		)
		(scale
			(xyz 1 1 1)
		)
		(rotate
			(xyz 0 0 0)
		)
	)
)
