(footprint "Essentra-PSM-6-01"
	(version 20240108)
	(generator "pcbnew")
	(generator_version "8.0")
	(layer "F.Cu")
	(descr "Plastic spacer")
	(property "Reference" "PSM-6-01"
		(at 0 0 0)
		(layer "F.Fab")
		(uuid "a777267c-d2f1-4427-b0e9-ba394f6ba49a")
		(effects
			(font
				(size 1.2 1.2)
				(thickness 0.12)
			)
		)
	)
	(property "Value" "PSM-6-01"
		(at 0 0 0)
		(layer "F.Fab")
		(hide yes)
		(uuid "e24dddd3-667e-4080-8fa6-1dc580153b06")
		(effects
			(font
				(size 1.2 1.2)
				(thickness 0.12)
			)
		)
	)
	(property "Footprint" ""
		(at 0 0 0)
		(layer "F.Fab")
		(hide yes)
		(uuid "36405344-ae5b-4724-a347-ea8198b34ab7")
		(effects
			(font
				(size 1.27 1.27)
				(thickness 0.15)
			)
		)
	)
	(property "Datasheet" ""
		(at 0 0 0)
		(layer "F.Fab")
		(hide yes)
		(uuid "9b20468b-7f93-4177-80a2-17a909198683")
		(effects
			(font
				(size 1.27 1.27)
				(thickness 0.15)
			)
		)
	)
	(property "Description" ""
		(at 0 0 0)
		(layer "F.Fab")
		(hide yes)
		(uuid "7f48c805-e086-4aab-9501-db96d61b5c39")
		(effects
			(font
				(size 1.27 1.27)
				(thickness 0.15)
			)
		)
	)
	(fp_line
		(start -4.65 -2.2)
		(end -4.65 2.2)
		(stroke
			(width 0.12)
			(type default)
		)
		(layer "F.SilkS")
		(uuid "22f97723-db3a-468e-b71d-2b421b665564")
	)
	(fp_line
		(start -4.65 2.2)
		(end -1.1 2.199999)
		(stroke
			(width 0.12)
			(type default)
		)
		(layer "F.SilkS")
		(uuid "02f9a326-02cb-41fc-89bb-9700ad41c4e1")
	)
	(fp_line
		(start -1.1 -2.199999)
		(end -4.65 -2.2)
		(stroke
			(width 0.12)
			(type default)
		)
		(layer "F.SilkS")
		(uuid "0c5b4423-5a7b-48a1-8667-4172b7a02ac9")
	)
	(fp_line
		(start 1.1 2.199999)
		(end 4.65 2.2)
		(stroke
			(width 0.12)
			(type default)
		)
		(layer "F.SilkS")
		(uuid "121b7214-9822-4888-ba48-5f4da1f60656")
	)
	(fp_line
		(start 4.65 -2.2)
		(end 1.1 -2.199999)
		(stroke
			(width 0.12)
			(type default)
		)
		(layer "F.SilkS")
		(uuid "056f3959-824d-448a-b724-90adb1a2ed0a")
	)
	(fp_line
		(start 4.65 -2.2)
		(end 4.65 2.2)
		(stroke
			(width 0.12)
			(type default)
		)
		(layer "F.SilkS")
		(uuid "8b11258c-1d5b-4d65-861d-2d90e27533f0")
	)
	(fp_arc
		(start -1.1 -2.199999)
		(mid 0 -2.459674)
		(end 1.1 -2.199999)
		(stroke
			(width 0.12)
			(type default)
		)
		(layer "F.SilkS")
		(uuid "183a6d2d-e0dc-4e54-b927-920d7f83c0cb")
	)
	(fp_arc
		(start 1.1 2.199999)
		(mid 0 2.459674)
		(end -1.1 2.199999)
		(stroke
			(width 0.12)
			(type default)
		)
		(layer "F.SilkS")
		(uuid "120237ad-967b-4470-9b36-3b2f7e31de88")
	)
	(fp_line
		(start -5.15 -2.7)
		(end -1.2 -2.7)
		(stroke
			(width 0.01)
			(type default)
		)
		(layer "F.CrtYd")
		(uuid "2bb0a61b-eabe-456c-b050-f919259da2e5")
	)
	(fp_line
		(start -5.15 2.7)
		(end -5.15 -2.7)
		(stroke
			(width 0.01)
			(type default)
		)
		(layer "F.CrtYd")
		(uuid "2dd7766e-75e9-4253-a402-52848f36127f")
	)
	(fp_line
		(start -5.15 2.7)
		(end -1.2 2.7)
		(stroke
			(width 0.01)
			(type default)
		)
		(layer "F.CrtYd")
		(uuid "fb1f240c-862a-4467-b1a1-285bc4e172ed")
	)
	(fp_line
		(start 5.15 -2.7)
		(end 1.2 -2.7)
		(stroke
			(width 0.01)
			(type default)
		)
		(layer "F.CrtYd")
		(uuid "2c644c96-30a5-4072-82ce-c5dd9c18699d")
	)
	(fp_line
		(start 5.15 -2.7)
		(end 5.15 2.7)
		(stroke
			(width 0.01)
			(type default)
		)
		(layer "F.CrtYd")
		(uuid "f28d43e5-f144-44f7-9a60-3879d997e830")
	)
	(fp_line
		(start 5.15 2.7)
		(end 1.2 2.7)
		(stroke
			(width 0.01)
			(type default)
		)
		(layer "F.CrtYd")
		(uuid "9b11e275-c06e-45fc-afc4-48f3096604c5")
	)
	(fp_arc
		(start -1.2 -2.7)
		(mid 0 -2.954657)
		(end 1.2 -2.7)
		(stroke
			(width 0.01)
			(type default)
		)
		(layer "F.CrtYd")
		(uuid "a103c36c-b4b9-4cae-be94-f12781877ecf")
	)
	(fp_arc
		(start 1.2 2.7)
		(mid 0 2.954657)
		(end -1.2 2.7)
		(stroke
			(width 0.01)
			(type default)
		)
		(layer "F.CrtYd")
		(uuid "29f27f08-66ed-4a46-b464-b003d181d0bf")
	)
	(fp_line
		(start -4.65 -2.2)
		(end -4.65 2.2)
		(stroke
			(width 0.1)
			(type default)
		)
		(layer "F.Fab")
		(uuid "f3fb7457-edbb-459e-bc69-19340ae91fce")
	)
	(fp_line
		(start -4.65 2.2)
		(end -1.1 2.199999)
		(stroke
			(width 0.1)
			(type default)
		)
		(layer "F.Fab")
		(uuid "593f226b-5165-4a02-ac9e-d311f811ae0c")
	)
	(fp_line
		(start -1.1 -2.199999)
		(end -4.65 -2.2)
		(stroke
			(width 0.1)
			(type default)
		)
		(layer "F.Fab")
		(uuid "64134be5-a7b1-4982-9e0d-fb7a5fb9d8f7")
	)
	(fp_line
		(start 1.1 2.199999)
		(end 4.65 2.2)
		(stroke
			(width 0.1)
			(type default)
		)
		(layer "F.Fab")
		(uuid "871eaeb5-9e11-4693-a18b-566758e2a19e")
	)
	(fp_line
		(start 4.65 -2.2)
		(end 1.1 -2.199999)
		(stroke
			(width 0.1)
			(type default)
		)
		(layer "F.Fab")
		(uuid "823ed310-9194-4190-a204-fc200133b70d")
	)
	(fp_line
		(start 4.65 -2.2)
		(end 4.65 2.2)
		(stroke
			(width 0.1)
			(type default)
		)
		(layer "F.Fab")
		(uuid "59a4f888-d9f8-4641-aeef-db92dab40124")
	)
	(fp_arc
		(start -1.1 -2.199999)
		(mid 0 -2.459674)
		(end 1.1 -2.199999)
		(stroke
			(width 0.1)
			(type default)
		)
		(layer "F.Fab")
		(uuid "a52be286-27d0-4de8-9f38-90cf5b02b5dc")
	)
	(fp_arc
		(start 1.1 2.199999)
		(mid 0 2.459674)
		(end -1.1 2.199999)
		(stroke
			(width 0.1)
			(type default)
		)
		(layer "F.Fab")
		(uuid "815ba330-99ec-4b07-b0ee-a41618dc26dd")
	)
	(pad "" np_thru_hole circle
		(at 0 0)
		(size 3.2 3.2)
		(drill 3.2)
		(layers "F&B.Cu" "*.Mask")
		(uuid "32f54452-2889-4da1-b807-8ad00d09d384")
	)
)
