(footprint "Wakefield-537-24"
	(version 20240108)
	(generator "pcbnew")
	(generator_version "8.0")
	(layer "F.Cu")
	(descr "Quarter brick DC/DC converter heat sink")
	(property "Reference" "537-24"
		(at 0 0 0)
		(unlocked yes)
		(layer "F.Fab")
		(uuid "e50360e8-44e4-4261-9ed7-9c3d0d6a069f")
		(effects
			(font
				(size 1.2 1.2)
				(thickness 0.12)
			)
		)
	)
	(property "Value" "537-24"
		(at 0 0 0)
		(unlocked yes)
		(layer "F.Fab")
		(hide yes)
		(uuid "1e9704fa-27b1-4176-9bc2-6c54e3721bab")
		(effects
			(font
				(size 1.2 1.2)
				(thickness 0.12)
			)
		)
	)
	(property "Footprint" ""
		(at 0 0 0)
		(unlocked yes)
		(layer "F.Fab")
		(hide yes)
		(uuid "bb97fa84-6632-45c5-a97a-e6d3bddbd730")
		(effects
			(font
				(size 1.27 1.27)
				(thickness 0.15)
			)
		)
	)
	(property "Datasheet" ""
		(at 0 0 0)
		(unlocked yes)
		(layer "F.Fab")
		(hide yes)
		(uuid "b0254dcf-596a-4c8f-9e78-e26231d0e47c")
		(effects
			(font
				(size 1.27 1.27)
				(thickness 0.15)
			)
		)
	)
	(property "Description" ""
		(at 0 0 0)
		(unlocked yes)
		(layer "F.Fab")
		(hide yes)
		(uuid "f4dbaf1a-ad8b-4395-97b2-61fac76e20e1")
		(effects
			(font
				(size 1.27 1.27)
				(thickness 0.15)
			)
		)
	)
	(fp_rect
		(start -29 -18.5)
		(end 29 18.5)
		(stroke
			(width 0.12)
			(type solid)
		)
		(fill none)
		(layer "F.SilkS")
		(uuid "9ecbf284-4b9a-40fb-aba6-7775297518c7")
	)
	(fp_line
		(start -26.5 -13.1)
		(end -20.7 -13.1)
		(stroke
			(width 0.1)
			(type default)
		)
		(layer "Dwgs.User")
		(uuid "dfc75397-4c54-4152-96e7-8117469f82d8")
	)
	(fp_line
		(start -26.5 13.1)
		(end -20.7 13.1)
		(stroke
			(width 0.1)
			(type default)
		)
		(layer "Dwgs.User")
		(uuid "ab34e902-61fb-49e7-af19-e6b8622854f5")
	)
	(fp_line
		(start -23.6 -16)
		(end -23.6 -10.2)
		(stroke
			(width 0.1)
			(type default)
		)
		(layer "Dwgs.User")
		(uuid "ec0b26b6-4d2b-4b3a-a618-8e6dea42fed9")
	)
	(fp_line
		(start -23.6 10.2)
		(end -23.6 16)
		(stroke
			(width 0.1)
			(type default)
		)
		(layer "Dwgs.User")
		(uuid "6772650b-2df3-4fad-a6ed-a6d2ccfe302e")
	)
	(fp_line
		(start 20.7 -13.1)
		(end 26.5 -13.1)
		(stroke
			(width 0.1)
			(type default)
		)
		(layer "Dwgs.User")
		(uuid "0fcd4cf8-ec1f-41c4-b2c3-0a3243442bf9")
	)
	(fp_line
		(start 20.7 13.1)
		(end 26.5 13.1)
		(stroke
			(width 0.1)
			(type default)
		)
		(layer "Dwgs.User")
		(uuid "c416b76d-5503-4325-b2d7-1bf5ada3f977")
	)
	(fp_line
		(start 23.6 -16)
		(end 23.6 -10.2)
		(stroke
			(width 0.1)
			(type default)
		)
		(layer "Dwgs.User")
		(uuid "48c1b495-ecab-42f0-93ec-d9f8e9553c21")
	)
	(fp_line
		(start 23.6 10.2)
		(end 23.6 16)
		(stroke
			(width 0.1)
			(type default)
		)
		(layer "Dwgs.User")
		(uuid "572f7049-7920-46e8-a7bf-20f0dca1077e")
	)
	(fp_circle
		(center -23.6 -13.1)
		(end -21.95 -13.1)
		(stroke
			(width 0.1)
			(type default)
		)
		(fill none)
		(layer "Dwgs.User")
		(uuid "db40ae63-ed71-4a65-805c-f3c842e70da8")
	)
	(fp_circle
		(center -23.6 13.1)
		(end -21.95 13.1)
		(stroke
			(width 0.1)
			(type default)
		)
		(fill none)
		(layer "Dwgs.User")
		(uuid "3d913af4-d143-444a-941f-ed3e92c422e7")
	)
	(fp_circle
		(center 23.6 -13.1)
		(end 25.25 -13.1)
		(stroke
			(width 0.1)
			(type default)
		)
		(fill none)
		(layer "Dwgs.User")
		(uuid "d0f0945a-74d4-4c90-bb2c-9b990a6fe535")
	)
	(fp_circle
		(center 23.6 13.1)
		(end 25.25 13.1)
		(stroke
			(width 0.1)
			(type default)
		)
		(fill none)
		(layer "Dwgs.User")
		(uuid "053cac6f-b0c2-43ff-a4f6-80dadca71491")
	)
	(fp_rect
		(start -29 -18.5)
		(end 29 18.5)
		(stroke
			(width 0.1)
			(type solid)
		)
		(fill none)
		(layer "F.Fab")
		(uuid "1af69d8d-a024-4a99-abca-593ee3a68ba2")
	)
	(model "Wakefield/537-24.wrl"
		(offset
			(xyz 0 0 0)
		)
		(scale
			(xyz 1 1 1)
		)
		(rotate
			(xyz 0 0 0)
		)
	)
)
