(footprint "Keystone-5000"
	(version 20240108)
	(generator "pcbnew")
	(generator_version "8.0")
	(layer "F.Cu")
	(descr "Miniature Testpoint (Red)")
	(property "Reference" "5000"
		(at 0 0 0)
		(layer "F.Fab")
		(uuid "9ac4120d-fde5-4b85-ae55-af0840b10641")
		(effects
			(font
				(size 0.6 0.6)
				(thickness 0.06)
			)
		)
	)
	(property "Value" "5000"
		(at 0 0 0)
		(layer "F.Fab")
		(hide yes)
		(uuid "fb58fba8-eeff-4e12-8fee-d49f91db6ed7")
		(effects
			(font
				(size 0.6 0.6)
				(thickness 0.06)
			)
		)
	)
	(property "Footprint" ""
		(at 0 0 0)
		(unlocked yes)
		(layer "F.Fab")
		(hide yes)
		(uuid "8a352778-d958-4135-a9ba-5c3bb6cf3178")
		(effects
			(font
				(size 1.27 1.27)
				(thickness 0.15)
			)
		)
	)
	(property "Datasheet" ""
		(at 0 0 0)
		(unlocked yes)
		(layer "F.Fab")
		(hide yes)
		(uuid "284eb3cd-6b55-471e-b453-8e92d2321856")
		(effects
			(font
				(size 1.27 1.27)
				(thickness 0.15)
			)
		)
	)
	(property "Description" ""
		(at 0 0 0)
		(unlocked yes)
		(layer "F.Fab")
		(hide yes)
		(uuid "e28e3a21-21f8-44ec-a095-633531d41b6d")
		(effects
			(font
				(size 1.27 1.27)
				(thickness 0.15)
			)
		)
	)
	(attr through_hole exclude_from_pos_files)
	(fp_circle
		(center 0 0)
		(end 1.3 0)
		(stroke
			(width 0.12)
			(type solid)
		)
		(fill none)
		(layer "F.SilkS")
		(uuid "a80f7df8-4b32-45eb-98e0-39f30e52c8b9")
	)
	(fp_circle
		(center 0 0)
		(end 0 1.55)
		(stroke
			(width 0.01)
			(type solid)
		)
		(fill none)
		(layer "F.CrtYd")
		(uuid "c5db2275-d8ae-401a-9120-0f55af80771e")
	)
	(fp_circle
		(center 0 0)
		(end 1.3 0)
		(stroke
			(width 0.1)
			(type solid)
		)
		(fill none)
		(layer "F.Fab")
		(uuid "73a36638-3ad7-4ae3-89b6-bde329c7fbb1")
	)
	(fp_text user "${REFERENCE}"
		(at 0 -1.95 0)
		(unlocked yes)
		(layer "F.SilkS")
		(uuid "b7ee1811-8542-4004-bee1-c4caa2c9b1fe")
		(effects
			(font
				(size 0.8 0.8)
				(thickness 0.15)
			)
		)
	)
	(pad "1" thru_hole circle
		(at 0 0)
		(size 1.8 1.8)
		(drill 1.2)
		(layers "*.Cu" "*.Mask")
		(remove_unused_layers no)
		(uuid "fc4b1536-e452-44a4-b8f1-f467316be0af")
	)
	(model "${KISYS3DMOD}/Keystone/5000.wrl"
		(offset
			(xyz 0 0 0)
		)
		(scale
			(xyz 1 1 1)
		)
		(rotate
			(xyz 0 0 0)
		)
	)
)
