(footprint "Amphenol-112536"
	(version 20240108)
	(generator "pcbnew")
	(generator_version "8.0")
	(layer "F.Cu")
	(descr "BNC Vertical Receptacle Jack")
	(property "Reference" "112536"
		(at 0 0 0)
		(layer "F.Fab")
		(uuid "83df1893-145c-4b32-a2e7-feb5c34d094c")
		(effects
			(font
				(size 1.2 1.2)
				(thickness 0.12)
			)
		)
	)
	(property "Value" "112536"
		(at 0 0 0)
		(layer "F.Fab")
		(hide yes)
		(uuid "1407e4f1-ddd5-4d39-8a99-af1e5021d79c")
		(effects
			(font
				(size 1.2 1.2)
				(thickness 0.12)
			)
		)
	)
	(property "Footprint" ""
		(at 0 0 0)
		(unlocked yes)
		(layer "F.Fab")
		(hide yes)
		(uuid "6137e957-527f-41ff-9b43-3bb757cf5f13")
		(effects
			(font
				(size 1.27 1.27)
				(thickness 0.15)
			)
		)
	)
	(property "Datasheet" ""
		(at 0 0 0)
		(unlocked yes)
		(layer "F.Fab")
		(hide yes)
		(uuid "bd4da35a-cb7a-481b-a1cb-7b2a3a9947c8")
		(effects
			(font
				(size 1.27 1.27)
				(thickness 0.15)
			)
		)
	)
	(property "Description" ""
		(at 0 0 0)
		(unlocked yes)
		(layer "F.Fab")
		(hide yes)
		(uuid "9bfcaf58-3cf2-4d15-9e43-02b28f882eae")
		(effects
			(font
				(size 1.27 1.27)
				(thickness 0.15)
			)
		)
	)
	(attr through_hole)
	(fp_line
		(start -8.75 -7.45)
		(end -8.75 7.45)
		(stroke
			(width 0.12)
			(type solid)
		)
		(layer "F.SilkS")
		(uuid "70452dd7-0af1-47c1-99c9-48bc5f2820f7")
	)
	(fp_line
		(start -7.45 -8.75)
		(end 7.45 -8.75)
		(stroke
			(width 0.12)
			(type solid)
		)
		(layer "F.SilkS")
		(uuid "4bb8f3bc-aab1-4717-bb5e-14a2b8a7b2c2")
	)
	(fp_line
		(start -7.45 8.75)
		(end 7.45 8.75)
		(stroke
			(width 0.12)
			(type solid)
		)
		(layer "F.SilkS")
		(uuid "21b593e5-5333-4d8f-8edc-a4b4897a4cb5")
	)
	(fp_line
		(start 8.75 -7.45)
		(end 8.75 7.45)
		(stroke
			(width 0.12)
			(type solid)
		)
		(layer "F.SilkS")
		(uuid "287d3e4b-1b8e-4685-99fa-aa3e6fef044e")
	)
	(fp_arc
		(start -8.75 -7.45)
		(mid -8.369239 -8.369239)
		(end -7.45 -8.75)
		(stroke
			(width 0.12)
			(type solid)
		)
		(layer "F.SilkS")
		(uuid "1fce7118-54d1-48f7-979f-bd8bb5f2204e")
	)
	(fp_arc
		(start -7.45 8.75)
		(mid -8.369239 8.369239)
		(end -8.75 7.45)
		(stroke
			(width 0.12)
			(type solid)
		)
		(layer "F.SilkS")
		(uuid "623c62f5-76df-486f-88e6-306799b685c9")
	)
	(fp_arc
		(start 7.45 -8.75)
		(mid 8.369239 -8.369239)
		(end 8.75 -7.45)
		(stroke
			(width 0.12)
			(type solid)
		)
		(layer "F.SilkS")
		(uuid "bf695fb6-5467-4d22-9fd8-97ef38a74582")
	)
	(fp_arc
		(start 8.75 7.45)
		(mid 8.369239 8.369239)
		(end 7.45 8.75)
		(stroke
			(width 0.12)
			(type solid)
		)
		(layer "F.SilkS")
		(uuid "b90097d5-d109-4a1a-8c56-a835437aaab2")
	)
	(fp_circle
		(center 0 0)
		(end 4.75 0)
		(stroke
			(width 0.12)
			(type solid)
		)
		(fill none)
		(layer "F.SilkS")
		(uuid "d96d646f-8916-4e61-b0e5-5951c467c423")
	)
	(fp_rect
		(start -9.25 -9.25)
		(end 9.25 9.25)
		(stroke
			(width 0.01)
			(type solid)
		)
		(fill none)
		(layer "F.CrtYd")
		(uuid "25d7c040-bf1a-42f4-a011-e0d0ccfddcfd")
	)
	(fp_line
		(start -8.75 -7.45)
		(end -8.75 7.45)
		(stroke
			(width 0.1)
			(type solid)
		)
		(layer "F.Fab")
		(uuid "0c5f483f-6377-42b0-9588-43aa767852e8")
	)
	(fp_line
		(start -7.45 8.75)
		(end 7.45 8.75)
		(stroke
			(width 0.1)
			(type solid)
		)
		(layer "F.Fab")
		(uuid "d568a4fd-2506-4f67-942d-20e2723b22ba")
	)
	(fp_line
		(start 7.45 -8.75)
		(end -7.45 -8.75)
		(stroke
			(width 0.1)
			(type solid)
		)
		(layer "F.Fab")
		(uuid "2cb661b2-f833-4784-8085-676d60e87add")
	)
	(fp_line
		(start 8.75 7.45)
		(end 8.75 -7.45)
		(stroke
			(width 0.1)
			(type solid)
		)
		(layer "F.Fab")
		(uuid "6fde4034-51ff-4798-ab31-71c4caefad9e")
	)
	(fp_arc
		(start -8.75 -7.45)
		(mid -8.369239 -8.369239)
		(end -7.45 -8.75)
		(stroke
			(width 0.1)
			(type solid)
		)
		(layer "F.Fab")
		(uuid "f626ba75-73e8-4349-a366-b10f921a8ac2")
	)
	(fp_arc
		(start -7.45 8.75)
		(mid -8.369239 8.369239)
		(end -8.75 7.45)
		(stroke
			(width 0.1)
			(type solid)
		)
		(layer "F.Fab")
		(uuid "14d4c802-30e6-43f8-95d6-15b8db88daef")
	)
	(fp_arc
		(start 7.45 -8.75)
		(mid 8.369239 -8.369239)
		(end 8.75 -7.45)
		(stroke
			(width 0.1)
			(type solid)
		)
		(layer "F.Fab")
		(uuid "89abefa9-4287-4df6-943b-a9c516529551")
	)
	(fp_arc
		(start 8.75 7.45)
		(mid 8.369239 8.369239)
		(end 7.45 8.75)
		(stroke
			(width 0.1)
			(type solid)
		)
		(layer "F.Fab")
		(uuid "496257a9-ac35-4fc8-a306-be573e7c33ec")
	)
	(fp_circle
		(center 0 0)
		(end 4.75 0)
		(stroke
			(width 0.1)
			(type solid)
		)
		(fill none)
		(layer "F.Fab")
		(uuid "d7356ba7-9a97-4e0e-982f-f26c346fd6a9")
	)
	(fp_text user "${REFERENCE}"
		(at 0 -9.4 0)
		(unlocked yes)
		(layer "F.SilkS")
		(uuid "674d066f-46d0-4c05-8cf3-6ab0b2c86051")
		(effects
			(font
				(size 0.8 0.8)
				(thickness 0.15)
			)
		)
	)
	(pad "C" thru_hole circle
		(at 0 0)
		(size 2 2)
		(drill 1.3)
		(layers "*.Cu" "*.Mask")
		(remove_unused_layers no)
		(uuid "93eb5ed3-2814-4a3d-88ce-c0f36dc43a07")
	)
	(pad "S" thru_hole circle
		(at -6.35 -6.35)
		(size 2.7 2.7)
		(drill 1.8)
		(layers "*.Cu" "*.Mask")
		(remove_unused_layers no)
		(uuid "7886f1ed-4bde-432d-ae2f-8f08daf5cd64")
	)
	(pad "S" thru_hole circle
		(at -6.35 6.35)
		(size 2.7 2.7)
		(drill 1.8)
		(layers "*.Cu" "*.Mask")
		(remove_unused_layers no)
		(uuid "f2c5ed0a-e7fd-4757-b227-f70f00bf4e20")
	)
	(pad "S" thru_hole circle
		(at 6.35 -6.35)
		(size 2.7 2.7)
		(drill 1.8)
		(layers "*.Cu" "*.Mask")
		(remove_unused_layers no)
		(uuid "af65ed95-ee94-4d0a-81c6-3e74fb89b716")
	)
	(pad "S" thru_hole circle
		(at 6.35 6.35)
		(size 2.7 2.7)
		(drill 1.8)
		(layers "*.Cu" "*.Mask")
		(remove_unused_layers no)
		(uuid "a2f99506-8c75-4639-a37b-a2c8f9c6975a")
	)
)
