#VRML V2.0 utf8
#kicad StepUp wrl exported

Shape {
    appearance Appearance {material DEF PIN-01 Material {
        ambientIntensity 0.271
        diffuseColor 0.824 0.820 0.781
        specularColor 0.328 0.258 0.172
        emissiveColor 0.0 0.0 0.0
        shininess 0.70
        transparency 0.0
        }
    }
}
Shape {
    appearance Appearance {material DEF MET-01 Material {
        ambientIntensity 0.249999
        diffuseColor 0.298 0.298 0.298
        specularColor 0.398 0.398 0.398
        emissiveColor 0.0 0.0 0.0
        shininess 0.056122
        transparency 0.0
        }
    }
}
Shape {
    appearance Appearance {material DEF PIN-02 Material {
        ambientIntensity 0.379
        diffuseColor 0.859 0.738 0.496
        specularColor 0.137 0.145 0.184
        emissiveColor 0.0 0.0 0.0
        shininess 0.40
        transparency 0.0
        }
    }
}
Shape {
    appearance Appearance {material DEF IC-BODY-EPOXY-04 Material {
        ambientIntensity 0.293
        diffuseColor 0.148 0.145 0.145
        specularColor 0.180 0.168 0.160
        emissiveColor 0.0 0.0 0.0
        shininess 0.35
        transparency 0.0
        }
    }
}
Shape {
    appearance Appearance {material DEF RES-SMD-01 Material {
        diffuseColor 0.082 0.086 0.094
        emissiveColor 0.000 0.000 0.000
        specularColor 0.066 0.063 0.063
        ambientIntensity 0.638
        transparency 0.0
        shininess 0.3
        }
    }
}
Shape {
    appearance Appearance {material DEF IC-BODY-EPOXY-01 Material {
        ambientIntensity 0.117
        diffuseColor 0.250 0.262 0.281
        specularColor 0.316 0.281 0.176
        emissiveColor 0.0 0.0 0.0
        shininess 0.25
        transparency 0.0
        }
    }
}
Shape {
    appearance Appearance {material DEF CAP-CERAMIC-05 Material {
        ambientIntensity 0.179
        diffuseColor 0.273 0.273 0.273
        specularColor 0.203 0.188 0.176
        emissiveColor 0.0 0.0 0.0
        shininess 0.15
        transparency 0.0
        }
    }
}
Shape {
    appearance Appearance {material DEF CAP-CERAMIC-06 Material {
        ambientIntensity 0.453
        diffuseColor 0.379 0.270 0.215
        specularColor 0.223 0.223 0.223
        emissiveColor 0.0 0.0 0.0
        shininess 0.15
        transparency 0.0
        }
    }
}
Shape {
    appearance Appearance {material DEF RES-THT-01 Material {
        ambientIntensity 0.149
        diffuseColor 0.883 0.711 0.492
        specularColor 0.043 0.121 0.281
        emissiveColor 0.0 0.0 0.0
        shininess 0.40
        transparency 0.0
        }
    }
}
Shape {
    appearance Appearance {material DEF PLASTIC-BLUE-01 Material {
        ambientIntensity 0.565
        diffuseColor 0.137 0.402 0.727
        specularColor 0.359 0.379 0.270
        emissiveColor 0.0 0.0 0.0
        shininess 0.25
        transparency 0.0
        }
    }
}
Shape {
    appearance Appearance {material DEF PLASTIC-GREEN-01 Material {
        ambientIntensity 0.315
        diffuseColor 0.340 0.680 0.445
        specularColor 0.176 0.105 0.195
        emissiveColor 0.0 0.0 0.0
        shininess 0.25
        transparency 0.0
        }
    }
}
Shape {
    appearance Appearance {material DEF PLASTIC-ORANGE-01 Material {
        ambientIntensity 0.284
        diffuseColor 0.809 0.426 0.148
        specularColor 0.039 0.102 0.145
        emissiveColor 0.0 0.0 0.0
        shininess 0.25
        transparency 0.0
        }
    }
}
Shape {
    appearance Appearance {material DEF RED-BODY Material {
        ambientIntensity 0.683
        diffuseColor 0.700 0.100 0.050
        emissiveColor 0.000 0.000 0.000
        specularColor 0.300 0.400 0.150
        shininess 0.25
        transparency 0.0
        }
    }
}
Shape {
    appearance Appearance {material DEF CAP-CERAMIC-02 Material {
        ambientIntensity 0.683
        diffuseColor 0.578 0.336 0.352
        specularColor 0.105 0.273 0.270
        emissiveColor 0.0 0.0 0.0
        shininess 0.25
        transparency 0.0
        }
    }
}
Shape {
    appearance Appearance {material DEF PLASTIC-YELLOW-01 Material {
        ambientIntensity 0.522
        diffuseColor 0.832 0.680 0.066
        specularColor 0.160 0.203 0.320
        emissiveColor 0.0 0.0 0.0
        shininess 0.25
        transparency 0.0
        }
    }
}
Shape {
    appearance Appearance {material DEF PLASTIC-WHITE-01 Material {
        ambientIntensity 0.494
        diffuseColor 0.895 0.891 0.813
        specularColor 0.047 0.055 0.109
        emissiveColor 0.0 0.0 0.0
        shininess 0.25
        transparency 0.0
        }
    }
}
Shape {
    appearance Appearance {material DEF IC-LABEL-01 Material {
        ambientIntensity 0.082
        diffuseColor 0.691 0.664 0.598
        specularColor 0.000 0.000 0.000
        emissiveColor 0.0 0.0 0.0
        shininess 0.01
        transparency 0.0
        }
    }
}
Shape {
    appearance Appearance {material DEF LED-RED Material {
        ambientIntensity 0.789
        diffuseColor 0.700 0.100 0.050
        emissiveColor 0.000 0.000 0.000
        specularColor 0.300 0.400 0.150
        shininess 0.125
        transparency 0.10
        }
    }
}
Shape {
    appearance Appearance {material DEF LED-GREEN Material {
        ambientIntensity 0.789
        diffuseColor 0.400 0.700 0.150
        emissiveColor 0.000 0.000 0.000
        specularColor 0.600 0.300 0.100
        shininess 0.05
        transparency 0.10
        }
    }
}
Shape {
    appearance Appearance {material DEF LED-BLUE Material {
        ambientIntensity 0.789
        diffuseColor 0.100 0.250 0.700
        emissiveColor 0.000 0.000 0.000
        specularColor 0.500 0.600 0.300
        shininess 0.125
        transparency 0.10
        }
    }
}
Shape {
    appearance Appearance {material DEF LED-YELLOW Material {
        ambientIntensity 0.522
        diffuseColor 0.98 0.840 0.066
        specularColor 0.160 0.203 0.320
        emissiveColor 0.0 0.0 0.0
        shininess 0.125
        transparency 0.10
        }
    }
}
Shape {
    appearance Appearance {material DEF LED-WHITE Material {
        ambientIntensity 0.494
        diffuseColor 0.895 0.891 0.813
        specularColor 0.047 0.055 0.109
        emissiveColor 0.0 0.0 0.0
        shininess 0.125
        transparency 0.10
        }
    }
}
Shape {
    appearance Appearance {material DEF LED-GREY Material {
        ambientIntensity 0.494
        diffuseColor 0.27 0.25 0.27
        specularColor 0.5 0.5 0.6
        emissiveColor 0.0 0.0 0.0
        shininess 0.35
        transparency 0.10
        }
    }
}
Shape {
    appearance Appearance {material DEF LED-BLACK Material {
        ambientIntensity 0.494
        diffuseColor 0.1 0.05 0.1
        specularColor 0.6 0.5 0.6
        emissiveColor 0.0 0.0 0.0
        shininess 0.5
        transparency 0.0
        }
    }
}
Shape {
    appearance Appearance {material DEF GLASS-19 Material {
        ambientIntensity 2.018212
        diffuseColor 0.400769 0.441922 0.459091
        specularColor 0.573887 0.649271 0.810811
        emissiveColor 0.000000 0.000000 0.000000
        shininess 0.127273
        transparency 0.37
        }
    }
}
Shape {
    appearance Appearance {material DEF GLASS-29 Material {
        ambientIntensity 0.234375
        diffuseColor 0.566681 0.580872 0.580874
        specularColor 0.617761 0.429816 0.400140
        emissiveColor 0.000000 0.000000 0.000000
        shininess 0.072727
        transparency 0.38
        }
    }
}
Shape {
    appearance Appearance {material DEF GLASS-13 Material {
        ambientIntensity 0.250000
        diffuseColor 0.000000 0.631244 0.748016
        specularColor 0.915152 0.915152 0.915152
        emissiveColor 0.000000 0.000000 0.000000
        shininess 0.642424
        transparency 0.39
        }
    }
}
Shape {
    appearance Appearance {material DEF GLASS-GREEN Material {
        ambientIntensity 0.250000
        diffuseColor 0.000000 0.75 0.44
        specularColor 0.915152 0.915152 0.915152
        emissiveColor 0.000000 0.000000 0.000000
        shininess 0.642424
        transparency 0.39
        }
    }
}
Shape {
    appearance Appearance {material DEF GLASS-ORANGE Material {
        ambientIntensity 0.250000
        diffuseColor 0.75 0.44 0.000000
        specularColor 0.915152 0.915152 0.915152
        emissiveColor 0.000000 0.000000 0.000000
        shininess 0.642424
        transparency 0.39
        }
    }
}
Shape {
    appearance Appearance {material DEF BOARD-GREEN-02 Material {
        ambientIntensity 1
        diffuseColor 0.07 0.3 0.12
        specularColor 0.07 0.3 0.12
        emissiveColor 0.0 0.0 0.0
        shininess 0.40
        transparency 0.0
        }
    }
}
Shape {
    appearance Appearance {material DEF BOARD-BLUE-01 Material {
        ambientIntensity 1
        diffuseColor 0.07 0.12 0.3
        specularColor 0.07 0.12 0.3
        emissiveColor 0.0 0.0 0.0
        shininess 0.40
        transparency 0.0
        }
    }
}
Shape {
    appearance Appearance {material DEF BOARD-BLACK-03 Material {
        ambientIntensity 1
        diffuseColor 0.16 0.16 0.16
        specularColor 0.16 0.16 0.16
        emissiveColor 0.0 0.0 0.0
        shininess 0.40
        transparency 0.0
        }
    }
}
Shape {
    appearance Appearance {material DEF MET-ALUMINUM Material {
        ambientIntensity 0.256000
        diffuseColor 0.372322 0.371574 0.373173
        specularColor 0.556122 0.554201 0.556122
        emissiveColor 0.0 0.0 0.0
        shininess 0.127551
        transparency 0.0
        }
    }
}
Shape {
    appearance Appearance {material DEF MET-BRONZE Material {
        ambientIntensity 0.022727
        diffuseColor 0.714 0.4284 0.18144
        specularColor 0.393548 0.271906 0.166721
        emissiveColor 0.000000 0.000000 0.000000
        shininess 0.2
        transparency 0.0
        }
    }
}
Shape {
    appearance Appearance {material DEF MET-SILVER Material {
        ambientIntensity 0.022727
        diffuseColor 0.50754 0.50754 0.50754
        specularColor 0.508273 0.508273 0.508273
        emissiveColor 0.000000 0.000000 0.000000
        shininess 0.4
        transparency 0.0
        }
    }
}
Shape {
    appearance Appearance {material DEF MET-COPPER Material {
        ambientIntensity 0.022727
        diffuseColor 0.7038 0.27048 0.0828
        specularColor 0.780612 0.37 0.000000
        emissiveColor 0.000000 0.000000 0.000000
        shininess 0.2
        transparency 0.0
        }
    }
}
Shape { geometry IndexedFaceSet 
{ creaseAngle 0.50 coordIndex [0,1,2,-1,3,4,5,-1,0,6,1,-1,4,7,5,-1,5,7,8,-1,0,9,6,-1,7,10,8,-1,0,11,9,-1,10,12,8,-1,0,13,11,-1,12,14,8,-1,0,15,13,-1,14,16,8,-1,0,17,15,-1,8,17,0,-1,16,17,8,-1,18,19,20,-1,21,19,18,-1,22,19,21,-1,23,24,25,-1,26,24,23,-1,20,24,26,-1,19,24,20,-1,27,28,29,-1,30,28,22,-1,31,28,30,-1,32,28,31,-1,29,28,32,-1,22,28,19,-1,27,33,28,-1,33,34,28,-1,35,36,37,-1,25,36,35,-1,24,36,25,-1,28,38,5,-1,34,38,28,-1,37,39,40,-1,36,39,37,-1,5,8,24,-1,24,8,36,-1,39,41,40,-1,38,42,5,-1,39,43,41,-1,0,43,39,-1,42,44,5,-1,0,45,43,-1,44,46,5,-1,0,2,45,-1,46,3,5,-1]
coord Coordinate { point [-0.698817 -0.561022 0,-0.414562 -1.68194 1.1359e-18,-0.678996 -1.59366 -1.39934e-16,1.66389 0.481951 3.09763e-16,1.71965 0.208803 4.1078e-16,-0.698817 0.423227 0,-0.139391 -1.72666 1.34733e-16,1.73088 -0.0697519 4.93715e-16,-0.698817 -0.423227 0,0.139391 -1.72666 2.57396e-16,1.69727 -0.346501 5.56419e-16,0.414562 -1.68194 3.6595e-16,1.61971 -0.614275 5.97268e-16,0.678996 -1.59366 4.57583e-16,1.5002 -0.86614 6.15206e-16,0.925844 -1.46411 5.2992e-16,1.34183 -1.09557 6.09766e-16,1.14871 -1.29663 5.8109e-16,-1.42564 0.984047 -1.19022e-15,-0.875982 0.561022 0,-1.56503 0.742616 -1.18395e-15,-1.24932 1.19999 -1.1731e-15,-1.04065 1.38486 -1.13305e-15,-1.71965 0.208803 -1.10251e-15,-0.875982 0.423227 0,-1.73088 -0.0697519 -1.02946e-15,-1.66389 0.481951 -1.15446e-15,0.277877 1.70985 -6.43892e-16,-0.698817 0.561022 0,3.937e-16 1.73228 -7.874e-16,-0.805031 1.53386 -1.07109e-15,-0.548558 1.64313 -9.88843e-16,-0.277877 1.70985 -8.88424e-16,0.548558 1.64313 -5.06112e-16,0.805031 1.53386 -3.62668e-16,-1.69727 -0.346501 -9.3718e-16,-0.875982 -0.423227 0,-1.61971 -0.614275 -8.28076e-16,1.04065 1.38486 -2.17274e-16,-0.875982 -0.561022 0,-1.5002 -0.86614 -7.04969e-16,-1.34183 -1.09557 -5.71047e-16,1.24932 1.19999 -7.36961e-17,-1.14871 -1.29663 -4.29779e-16,1.42564 0.984047 6.43467e-17,-0.925844 -1.46411 -2.84823e-16,1.56503 0.742616 1.93279e-16]
}}
appearance Appearance{material USE MET-ALUMINUM }}
Shape { geometry IndexedFaceSet 
{ creaseAngle 0.50 coordIndex [0,1,2,-1,3,4,5,-1,2,1,6,-1,7,8,9,-1,10,11,12,-1,13,14,15,-1,16,11,17,-1,18,11,16,-1,17,11,10,-1,19,14,13,-1,20,21,22,-1,15,14,23,-1,24,25,26,-1,27,21,20,-1,22,28,0,-1,29,25,24,-1,0,28,1,-1,3,30,4,-1,6,31,32,-1,23,30,3,-1,32,31,33,-1,7,34,8,-1,26,34,7,-1,12,35,27,-1,27,35,21,-1,29,36,25,-1,4,36,29,-1,22,37,28,-1,8,38,9,-1,9,38,39,-1,21,37,22,-1,14,40,23,-1,6,41,31,-1,19,40,14,-1,1,41,6,-1,23,40,30,-1,42,40,19,-1,26,43,34,-1,31,44,33,-1,25,43,26,-1,30,45,4,-1,18,46,11,-1,4,45,36,-1,12,46,35,-1,11,46,12,-1,35,47,21,-1,21,47,37,-1,34,48,8,-1,8,48,38,-1,1,49,41,-1,28,49,1,-1,36,50,25,-1,25,50,43,-1,41,51,31,-1,31,51,44,-1,38,52,39,-1,30,53,45,-1,18,54,46,-1,42,53,40,-1,46,54,35,-1,35,54,47,-1,55,54,18,-1,40,53,30,-1,37,56,28,-1,28,56,49,-1,43,57,34,-1,34,57,48,-1,36,58,50,-1,45,58,36,-1,33,59,60,-1,44,59,33,-1,41,61,51,-1,48,62,38,-1,49,61,41,-1,38,62,52,-1,47,63,37,-1,43,64,57,-1,37,63,56,-1,50,64,43,-1,39,65,66,-1,52,65,39,-1,51,67,44,-1,53,68,45,-1,44,67,59,-1,45,68,58,-1,69,68,42,-1,42,68,53,-1,56,70,49,-1,49,70,61,-1,57,71,48,-1,48,71,62,-1,59,72,60,-1,54,73,47,-1,58,74,50,-1,55,73,54,-1,50,74,64,-1,47,73,63,-1,61,75,51,-1,52,76,65,-1,62,76,52,-1,51,75,67,-1,63,77,56,-1,64,78,57,-1,57,78,71,-1,56,77,70,-1,67,79,59,-1,65,80,66,-1,59,79,72,-1,68,81,58,-1,58,81,74,-1,61,82,75,-1,69,81,68,-1,70,82,61,-1,71,83,62,-1,62,83,76,-1,60,84,85,-1,72,84,60,-1,86,87,55,-1,64,88,78,-1,55,87,73,-1,74,88,64,-1,63,87,77,-1,73,87,63,-1,75,89,67,-1,67,89,79,-1,76,90,65,-1,65,90,80,-1,70,91,82,-1,71,92,83,-1,78,92,71,-1,77,91,70,-1,79,93,72,-1,66,94,95,-1,80,94,66,-1,96,97,69,-1,72,93,84,-1,69,97,81,-1,75,98,89,-1,81,97,74,-1,74,97,88,-1,82,98,75,-1,84,99,85,-1,83,100,76,-1,76,100,90,-1,86,101,87,-1,78,102,92,-1,87,101,77,-1,77,101,91,-1,88,102,78,-1,79,103,93,-1,80,104,94,-1,89,103,79,-1,90,104,80,-1,91,105,82,-1,82,105,98,-1,83,106,100,-1,92,106,83,-1,84,107,99,-1,97,108,88,-1,93,107,84,-1,96,108,97,-1,88,108,102,-1,98,109,89,-1,90,110,104,-1,89,109,103,-1,99,111,85,-1,100,110,90,-1,85,111,112,-1,94,113,95,-1,91,114,105,-1,101,114,91,-1,92,115,106,-1,116,114,86,-1,86,114,101,-1,103,117,93,-1,93,117,107,-1,102,115,92,-1,106,118,100,-1,98,119,109,-1,105,119,98,-1,100,118,110,-1,104,120,94,-1,94,120,113,-1,107,121,99,-1,95,122,123,-1,99,121,111,-1,113,122,95,-1,109,124,103,-1,103,124,117,-1,108,125,102,-1,96,125,108,-1,102,125,115,-1,126,125,96,-1,111,127,112,-1,115,128,106,-1,106,128,118,-1,114,129,105,-1,105,129,119,-1,116,129,114,-1,104,130,120,-1,117,131,107,-1,107,131,121,-1,110,130,104,-1,120,132,113,-1,119,133,109,-1,113,132,122,-1,109,133,124,-1,115,134,128,-1,121,135,111,-1,125,134,115,-1,126,134,125,-1,111,135,127,-1,118,136,110,-1,110,136,130,-1,124,137,117,-1,117,137,131,-1,130,138,120,-1,112,139,140,-1,120,138,132,-1,127,139,112,-1,129,141,119,-1,116,141,129,-1,142,141,116,-1,119,141,133,-1,122,143,123,-1,128,144,118,-1,131,145,121,-1,118,144,136,-1,121,145,135,-1,133,146,124,-1,136,147,130,-1,124,146,137,-1,130,147,138,-1,123,148,149,-1,143,148,123,-1,135,150,127,-1,127,150,139,-1,132,151,122,-1,137,152,131,-1,131,152,145,-1,122,151,143,-1,134,153,128,-1,139,154,140,-1,155,153,126,-1,126,153,134,-1,128,153,144,-1,142,156,141,-1,141,156,133,-1,144,157,136,-1,133,156,146,-1,136,157,147,-1,145,158,135,-1,135,158,150,-1,143,159,148,-1,151,159,143,-1,138,160,132,-1,137,161,152,-1,146,161,137,-1,139,162,154,-1,132,160,151,-1,144,163,157,-1,150,162,139,-1,155,163,153,-1,153,163,144,-1,145,164,158,-1,151,165,159,-1,160,165,151,-1,152,164,145,-1,138,166,160,-1,147,166,138,-1,140,167,168,-1,154,167,140,-1,142,169,156,-1,146,169,161,-1,148,170,149,-1,171,169,142,-1,156,169,146,-1,150,172,162,-1,166,173,160,-1,158,172,150,-1,160,173,165,-1,152,174,164,-1,157,175,147,-1,147,175,166,-1,161,174,152,-1,162,176,154,-1,154,176,167,-1,159,177,148,-1,148,177,170,-1,164,178,158,-1,175,179,166,-1,166,179,173,-1,158,178,172,-1,155,180,163,-1,167,181,168,-1,182,180,155,-1,163,180,157,-1,157,180,175,-1,169,183,161,-1,171,183,169,-1,159,184,177,-1,161,183,174,-1,172,185,162,-1,186,187,188,-1,165,184,159,-1,162,185,176,-1,182,189,180,-1,190,191,192,-1,180,189,175,-1,175,189,179,-1,173,193,165,-1,194,191,190,-1,174,195,164,-1,164,195,178,-1,165,193,184,-1,176,196,167,-1,194,197,191,-1,149,198,199,-1,200,197,194,-1,167,196,181,-1,178,201,172,-1,170,198,149,-1,172,201,185,-1,173,202,193,-1,200,203,197,-1,204,203,200,-1,168,205,206,-1,179,202,173,-1,181,205,168,-1,177,207,170,-1,204,208,203,-1,171,209,183,-1,183,209,174,-1,170,207,198,-1,210,208,204,-1,174,209,195,-1,191,211,192,-1,212,209,171,-1,189,213,179,-1,192,211,214,-1,185,215,176,-1,179,213,202,-1,176,215,196,-1,216,213,182,-1,182,213,189,-1,184,217,177,-1,177,217,207,-1,195,218,178,-1,178,218,201,-1,210,219,208,-1,220,219,210,-1,184,221,217,-1,196,222,181,-1,181,222,205,-1,193,221,184,-1,197,223,191,-1,199,224,225,-1,191,223,211,-1,185,226,215,-1,201,226,185,-1,227,228,187,-1,220,228,219,-1,198,224,199,-1,188,228,220,-1,187,228,188,-1,202,229,193,-1,203,230,197,-1,195,231,218,-1,193,229,221,-1,209,231,195,-1,212,231,209,-1,197,230,223,-1,215,232,196,-1,196,232,222,-1,207,233,198,-1,203,234,230,-1,198,233,224,-1,208,234,203,-1,205,235,206,-1,213,236,202,-1,216,236,213,-1,214,237,238,-1,202,236,229,-1,239,236,216,-1,201,240,226,-1,218,240,201,-1,211,237,214,-1,217,241,207,-1,215,242,232,-1,207,241,233,-1,226,242,215,-1,219,243,208,-1,208,243,234,-1,221,244,217,-1,217,244,241,-1,206,245,246,-1,223,247,211,-1,235,245,206,-1,211,247,237,-1,225,248,249,-1,224,248,225,-1,228,250,219,-1,205,251,235,-1,227,250,228,-1,222,251,205,-1,219,250,243,-1,252,250,227,-1,229,253,221,-1,221,253,244,-1,230,254,223,-1,218,255,240,-1,231,255,218,-1,256,255,212,-1,212,255,231,-1,223,254,247,-1,224,257,248,-1,226,258,242,-1,240,258,226,-1,230,259,254,-1,234,259,230,-1,233,257,224,-1,238,260,261,-1,236,262,229,-1,239,262,236,-1,235,263,245,-1,264,262,239,-1,237,260,238,-1,251,263,235,-1,229,262,253,-1,232,265,222,-1,241,266,233,-1,234,267,259,-1,233,266,257,-1,222,265,251,-1,243,267,234,-1,255,268,240,-1,244,269,241,-1,256,268,255,-1,247,270,237,-1,240,268,258,-1,241,269,266,-1,251,271,263,-1,249,272,273,-1,265,271,251,-1,237,270,260,-1,248,272,249,-1,250,274,243,-1,252,274,250,-1,242,275,232,-1,276,274,252,-1,232,275,265,-1,243,274,267,-1,253,277,244,-1,247,278,270,-1,245,279,246,-1,244,277,269,-1,248,280,272,-1,254,278,247,-1,254,281,278,-1,265,282,271,-1,257,280,248,-1,275,282,265,-1,259,281,254,-1,283,284,264,-1,242,285,275,-1,261,286,287,-1,258,285,242,-1,264,284,262,-1,262,284,253,-1,245,288,279,-1,253,284,277,-1,260,286,261,-1,266,289,257,-1,259,290,281,-1,263,288,245,-1,275,291,282,-1,257,289,280,-1,267,290,259,-1,285,291,275,-1,269,292,266,-1,268,293,258,-1,258,293,285,-1,266,292,289,-1,260,294,286,-1,295,293,256,-1,273,296,297,-1,256,293,268,-1,270,294,260,-1,272,296,273,-1,267,298,290,-1,274,298,267,-1,263,299,288,-1,300,298,276,-1,271,299,263,-1,276,298,274,-1,285,301,291,-1,277,302,269,-1,295,301,293,-1,269,302,292,-1,293,301,285,-1,270,303,294,-1,272,304,296,-1,278,303,270,-1,282,305,271,-1,281,306,278,-1,271,305,299,-1,280,304,272,-1,278,306,303,-1,246,307,308,-1,309,310,283,-1,287,311,312,-1,283,310,284,-1,286,311,287,-1,279,307,246,-1,284,310,277,-1,277,310,302,-1,280,313,304,-1,291,314,282,-1,282,314,305,-1,289,313,280,-1,311,315,312,-1,290,316,281,-1,279,317,307,-1,281,316,306,-1,289,318,313,-1,292,318,289,-1,288,317,279,-1,294,319,286,-1,301,320,291,-1,297,321,322,-1,295,320,301,-1,291,320,314,-1,286,319,311,-1,323,320,295,-1,296,321,297,-1,311,324,315,-1,319,324,311,-1,302,325,292,-1,288,326,317,-1,292,325,318,-1,299,326,288,-1,290,327,316,-1,298,327,290,-1,305,328,299,-1,296,329,321,-1,330,327,300,-1,299,328,326,-1,300,327,298,-1,308,331,332,-1,304,329,296,-1,294,333,319,-1,307,331,308,-1,310,334,302,-1,303,333,294,-1,302,334,325,-1,335,334,309,-1,309,334,310,-1,305,336,328,-1,333,337,319,-1,314,336,305,-1,319,337,324,-1,304,338,329,-1,303,339,333,-1,317,340,307,-1,313,338,304,-1,306,339,303,-1,307,340,331,-1,313,341,338,-1,312,342,343,-1,315,342,312,-1,318,341,313,-1,323,344,320,-1,320,344,314,-1,314,344,336,-1,345,344,323,-1,333,346,337,-1,322,347,348,-1,339,346,333,-1,317,349,340,-1,326,349,317,-1,321,347,322,-1,325,350,318,-1,318,350,341,-1,328,351,326,-1,316,352,306,-1,326,351,349,-1,321,353,347,-1,306,352,339,-1,315,354,342,-1,329,353,321,-1,324,354,315,-1,332,355,356,-1,331,355,332,-1,335,357,334,-1,325,357,350,-1,358,357,335,-1,334,357,325,-1,342,359,343,-1,336,360,328,-1,328,360,351,-1,338,361,329,-1,339,362,346,-1,329,361,353,-1,352,362,339,-1,340,363,331,-1,327,364,316,-1,341,365,338,-1,366,364,330,-1,331,363,355,-1,330,364,327,-1,338,365,361,-1,316,364,352,-1,344,367,336,-1,324,368,354,-1,345,367,344,-1,336,367,360,-1,348,369,370,-1,337,368,324,-1,371,367,345,-1,347,369,348,-1,349,372,340,-1,342,373,359,-1,350,374,341,-1,354,373,342,-1,341,374,365,-1,352,375,362,-1,340,372,363,-1,366,375,364,-1,376,375,366,-1,364,375,352,-1,353,377,347,-1,351,378,349,-1,337,379,368,-1,347,377,369,-1,349,378,372,-1,346,379,337,-1,357,380,350,-1,358,380,357,-1,343,381,382,-1,356,383,384,-1,350,380,374,-1,384,383,190,-1,385,380,358,-1,355,383,356,-1,361,386,353,-1,359,381,343,-1,368,387,354,-1,354,387,373,-1,190,383,194,-1,353,386,377,-1,360,388,351,-1,362,389,346,-1,346,389,379,-1,365,390,361,-1,361,390,386,-1,351,388,378,-1,363,391,355,-1,373,392,359,-1,355,391,383,-1,359,392,381,-1,370,393,394,-1,369,393,370,-1,194,391,200,-1,383,391,194,-1,368,395,387,-1,379,395,368,-1,374,396,365,-1,397,398,371,-1,365,396,390,-1,367,398,360,-1,371,398,367,-1,360,398,388,-1,381,399,382,-1,391,400,200,-1,369,401,393,-1,372,400,363,-1,375,402,362,-1,376,402,375,-1,362,402,389,-1,200,400,204,-1,377,401,369,-1,363,400,391,-1,373,403,392,-1,387,403,373,-1,380,404,374,-1,385,404,380,-1,400,405,204,-1,406,404,385,-1,372,405,400,-1,378,405,372,-1,374,404,396,-1,389,407,379,-1,379,407,395,-1,204,405,210,-1,386,408,377,-1,405,409,210,-1,392,410,381,-1,377,408,401,-1,210,409,220,-1,381,410,399,-1,390,411,386,-1,378,409,405,-1,388,409,378,-1,387,412,403,-1,398,413,388,-1,386,411,408,-1,395,412,387,-1,388,413,409,-1,409,413,220,-1,186,413,397,-1,188,413,186,-1,397,413,398,-1,394,414,415,-1,220,413,188,-1,382,416,417,-1,399,416,382,-1,393,414,394,-1,414,418,415,-1,389,419,407,-1,376,419,402,-1,402,419,389,-1,420,419,376,-1,396,421,390,-1,403,422,392,-1,390,421,411,-1,392,422,410,-1,401,423,393,-1,407,424,395,-1,393,423,414,-1,395,424,412,-1,423,425,414,-1,410,426,399,-1,414,425,418,-1,399,426,416,-1,427,428,406,-1,412,429,403,-1,406,428,404,-1,403,429,422,-1,404,428,396,-1,396,428,421,-1,408,430,401,-1,416,431,417,-1,401,430,423,-1,407,432,424,-1,430,20,423,-1,419,432,407,-1,420,432,419,-1,423,20,425,-1,410,5,426,-1,422,5,410,-1,411,433,408,-1,408,433,430,-1,412,15,429,-1,424,15,412,-1,415,2,32,-1,418,2,415,-1,426,24,416,-1,430,27,20,-1,416,24,431,-1,429,3,422,-1,433,27,430,-1,422,3,5,-1,411,10,433,-1,417,7,9,-1,421,10,411,-1,431,7,417,-1,418,0,2,-1,420,13,432,-1,19,13,420,-1,432,13,424,-1,424,13,15,-1,425,0,418,-1,2,6,32,-1,426,29,24,-1,5,29,426,-1,433,12,27,-1,10,12,433,-1,429,23,3,-1,428,17,421,-1,421,17,10,-1,15,23,429,-1,16,17,427,-1,427,17,428,-1,20,22,425,-1,24,26,431,-1,431,26,7,-1,5,4,29,-1,425,22,0,-1]
coord Coordinate { point [-1.52571 -0.988037 0.0194943,-1.57417 -0.908845 0.0194943,-1.49078 -0.965421 0.00493544,1.85168 0.359113 0.074116,1.87243 0.227354 0.074116,1.82108 0.353178 0.0429465,-1.53813 -0.888042 0.00493544,1.77478 0.0680288 0.00493544,1.77464 -0.0715157 0.00493544,1.73088 -0.0697519 4.93715e-16,-1.42564 -1.27053 0.11144,-1.49049 -1.21695 0.153047,-1.47921 -1.20774 0.11144,1.84822 0.535345 0.153047,1.889 0.36635 0.153047,1.83424 0.531294 0.11144,-1.4402 -1.2835 0.19685,-1.43651 -1.28022 0.153047,-1.61925 -1.04861 0.19685,1.89384 0.367289 0.19685,-1.4369 -1.1732 0.0429465,-1.5832 -1.02527 0.074116,-1.55703 -1.00833 0.0429465,1.87471 0.363578 0.11144,1.80444 0.219098 0.0194943,1.85365 0.0710521 0.0429465,1.81636 0.0696225 0.0194943,-1.46105 -1.19291 0.074116,-1.60649 -0.927507 0.0429465,1.84149 0.223597 0.0429465,1.89571 0.230181 0.11144,-1.62068 -0.72654 0.00493544,-1.5002 -0.86614 -7.04969e-16,-1.61971 -0.614275 -8.28076e-16,1.81622 -0.073191 0.0194943,-1.60288 -1.03802 0.11144,1.8848 0.072246 0.074116,-1.63348 -0.943092 0.074116,1.76436 -0.203687 0.00493544,1.69727 -0.346501 5.56419e-16,1.91017 0.231936 0.153047,-1.65865 -0.74356 0.0194943,1.92771 0.073891 0.19685,1.85351 -0.0746939 0.0429465,-1.66067 -0.629808 0.00493544,1.90823 0.0731443 0.11144,-1.6151 -1.04593 0.153047,-1.65379 -0.954818 0.11144,1.8057 -0.208459 0.0194943,-1.69271 -0.758828 0.0429465,1.88465 -0.075949 0.074116,-1.69957 -0.644562 0.0194943,1.74019 -0.355262 0.00493544,1.92278 0.0737019 0.153047,-1.6664 -0.962097 0.153047,-1.76034 -0.789147 0.19685,-1.72115 -0.771579 0.074116,1.84277 -0.212739 0.0429465,1.90809 -0.0768933 0.11144,-1.71259 -0.470629 0.00493544,-1.69727 -0.346501 -9.3718e-16,-1.73447 -0.657797 0.0429465,1.78096 -0.363585 0.0194943,-1.74255 -0.781172 0.11144,1.87374 -0.216314 0.074116,1.71259 -0.470629 0.00493544,1.61971 -0.614275 5.97268e-16,-1.75271 -0.481654 0.0194943,1.92263 -0.0774795 0.153047,1.9164 -0.221239 0.19685,-1.76361 -0.66885 0.074116,1.81753 -0.37105 0.0429465,-1.74019 -0.355262 0.00493544,-1.75583 -0.787128 0.153047,1.89704 -0.219004 0.11144,-1.7887 -0.491544 0.0429465,1.75271 -0.481654 0.0194943,-1.78554 -0.677166 0.11144,1.84806 -0.377285 0.074116,-1.78096 -0.363585 0.0194943,1.66067 -0.629808 0.00493544,1.9115 -0.220673 0.153047,-1.81876 -0.499804 0.074116,1.7887 -0.491544 0.0429465,-1.76436 -0.203687 0.00493544,-1.73088 -0.0697519 -1.02946e-15,-1.86017 -0.511184 0.19685,-1.79915 -0.682329 0.153047,1.87104 -0.381976 0.11144,-1.81753 -0.37105 0.0429465,1.69957 -0.644562 0.0194943,-1.84137 -0.506018 0.11144,1.81876 -0.499804 0.074116,-1.8057 -0.208459 0.0194943,1.62068 -0.72654 0.00493544,1.5002 -0.86614 6.15206e-16,1.86017 -0.511184 0.19685,1.88531 -0.384888 0.153047,-1.84806 -0.377285 0.074116,-1.77464 -0.0715157 0.00493544,1.73447 -0.657797 0.0429465,-1.85541 -0.509876 0.153047,1.84137 -0.506018 0.11144,-1.84277 -0.212739 0.0429465,1.65865 -0.74356 0.0194943,-1.87104 -0.381976 0.11144,1.76361 -0.66885 0.074116,-1.81622 -0.073191 0.0194943,1.85541 -0.509876 0.153047,-1.87374 -0.216314 0.074116,1.69271 -0.758828 0.0429465,-1.77478 0.0680288 0.00493544,-1.71965 0.208803 -1.10251e-15,1.53813 -0.888042 0.00493544,-1.88531 -0.384888 0.153047,1.78554 -0.677166 0.11144,-1.9164 -0.221239 0.19685,-1.85351 -0.0746939 0.0429465,1.72115 -0.771579 0.074116,-1.89704 -0.219004 0.11144,1.57417 -0.908845 0.0194943,-1.81636 0.0696225 0.0194943,1.49078 -0.965421 0.00493544,1.34183 -1.09557 6.09766e-16,-1.88465 -0.075949 0.074116,1.79915 -0.682329 0.153047,1.76034 -0.789147 0.19685,-1.76313 0.214083 0.00493544,1.74255 -0.781172 0.11144,-1.9115 -0.220673 0.153047,1.60649 -0.927507 0.0429465,-1.85365 0.0710521 0.0429465,1.52571 -0.988037 0.0194943,-1.90809 -0.0768933 0.11144,1.75583 -0.787128 0.153047,-1.80444 0.219098 0.0194943,1.63348 -0.943092 0.074116,-1.8848 0.072246 0.074116,1.55703 -1.00833 0.0429465,-1.7436 0.33815 0.00493544,-1.66389 0.481951 -1.15446e-15,-1.92263 -0.0774795 0.153047,-1.92771 0.073891 0.19685,1.37576 -1.12328 0.00493544,1.65379 -0.954818 0.11144,-1.84149 0.223597 0.0429465,-1.90823 0.0731443 0.11144,1.5832 -1.02527 0.074116,1.32594 -1.18167 0.00493544,1.14871 -1.29663 5.8109e-16,-1.78444 0.346072 0.0194943,1.40799 -1.14959 0.0194943,-1.87243 0.227354 0.074116,1.6664 -0.962097 0.153047,-1.70596 0.494137 0.00493544,1.61925 -1.04861 0.19685,-1.92278 0.0737019 0.153047,1.60288 -1.03802 0.11144,-1.82108 0.353178 0.0429465,1.357 -1.20936 0.0194943,1.4369 -1.1732 0.0429465,-1.89571 0.230181 0.11144,-1.74592 0.505713 0.0194943,1.6151 -1.04593 0.153047,-1.85168 0.359113 0.074116,1.38487 -1.23419 0.0429465,1.46105 -1.19291 0.074116,-1.67154 0.600346 0.00493544,-1.56503 0.742616 -1.18395e-15,-1.91017 0.231936 0.153047,1.17776 -1.32942 0.00493544,-1.89384 0.367289 0.19685,-1.78177 0.516097 0.0429465,1.40814 -1.25493 0.074116,-1.87471 0.363578 0.11144,1.47921 -1.20774 0.11144,-1.7107 0.61441 0.0194943,1.20535 -1.36056 0.0194943,-1.81171 0.524769 0.074116,1.42564 -1.27053 0.11144,1.49049 -1.21695 0.153047,-1.6046 0.761394 0.00493544,1.4402 -1.2835 0.19685,-1.889 0.36635 0.153047,1.2301 -1.3885 0.0429465,-1.74583 0.627026 0.0429465,-0.29448 1.90652 0.19685,3.937e-16 1.92913 0.19685,0 1.92419 0.153047,1.43651 -1.28022 0.153047,3.937e-16 1.73228 -7.874e-16,0.271118 1.75527 0.00493544,0.277877 1.70985 -6.43892e-16,1.25077 -1.41183 0.074116,0 1.77608 0.00493544,-1.83424 0.531294 0.11144,-1.64219 0.77923 0.0194943,0.277469 1.79639 0.0194943,0.949256 -1.50113 0.00493544,0.925844 -1.46411 5.2992e-16,0 1.81769 0.0194943,-1.77516 0.637562 0.074116,1.26632 -1.42938 0.11144,0.283167 1.83327 0.0429465,0 1.85501 0.0429465,-1.56031 0.84847 0.00493544,-1.42564 0.984047 -1.19022e-15,0.971493 -1.53629 0.0194943,0.287925 1.86408 0.074116,-1.84822 0.535345 0.153047,0 1.88618 0.074116,0.535881 1.69331 0.00493544,-1.81558 0.652079 0.19685,1.27598 -1.44028 0.153047,0.548558 1.64313 -5.06112e-16,-1.67591 0.795231 0.0429465,1.22739 -1.4883 0.19685,0.991442 -1.56784 0.0429465,-1.79723 0.645489 0.11144,0.291505 1.88726 0.11144,0 1.90964 0.11144,1.0081 -1.59418 0.074116,-1.59686 0.868347 0.0194943,0.548435 1.73298 0.0194943,0.696165 -1.63396 0.00493544,0.678996 -1.59366 4.57583e-16,-1.70407 0.808593 0.074116,0.29448 1.90652 0.19685,0.293727 1.90164 0.153047,1.02064 -1.61401 0.11144,0.559696 1.76856 0.0429465,-1.81094 0.65041 0.153047,-1.62965 0.886177 0.0429465,0.712474 -1.67224 0.0194943,0.5691 1.79828 0.074116,-1.46169 1.00893 0.00493544,1.02842 -1.62631 0.153047,0.788083 1.59166 0.00493544,0.805031 1.53386 -3.62668e-16,0.985821 -1.65822 0.19685,-1.72526 0.818647 0.11144,0.727104 -1.70657 0.0429465,-1.65704 0.901067 0.074116,0.576176 1.82064 0.11144,0.739321 -1.73525 0.074116,-1.41251 1.07671 0.00493544,-1.24932 1.19999 -1.1731e-15,0.806545 1.62895 0.0194943,0.425045 -1.72447 0.00493544,0.414562 -1.68194 3.6595e-16,0.580569 1.83452 0.153047,-1.49593 1.03257 0.0194943,0.582058 1.83923 0.19685,0.748513 -1.75683 0.11144,0.823106 1.6624 0.0429465,-1.73841 0.824888 0.153047,-1.69476 0.921584 0.19685,0.435002 -1.76487 0.0194943,-1.67764 0.912271 0.11144,0.836937 1.69033 0.074116,1.02181 1.45271 0.00493544,1.04065 1.38486 -2.17274e-16,0.75422 -1.77022 0.153047,-1.4456 1.10193 0.0194943,0.721142 -1.78927 0.19685,-1.52665 1.05377 0.0429465,0.443934 -1.80111 0.0429465,0.847343 1.71135 0.11144,-1.69043 0.919226 0.153047,0.451393 -1.83137 0.074116,1.04575 1.48674 0.0194943,-1.47528 1.12456 0.0429465,0.142915 -1.77032 0.00493544,0.139391 -1.72666 2.57396e-16,0.853803 1.7244 0.153047,-1.5523 1.07147 0.074116,0.855993 1.72882 0.19685,0.457006 -1.85415 0.11144,1.06722 1.51727 0.0429465,-1.28092 1.23034 0.00493544,0.146263 -1.8118 0.0194943,1.08516 1.54276 0.074116,-1.50007 1.14345 0.074116,0.439559 -1.87839 0.19685,0.46049 -1.86828 0.153047,-1.5716 1.0848 0.11144,1.23159 1.27971 0.00493544,1.24932 1.19999 -7.36961e-17,-1.31092 1.25916 0.0194943,0.149267 -1.849 0.0429465,1.09865 1.56195 0.11144,-1.51872 1.15767 0.11144,0.151775 -1.88007 0.074116,-1.58358 1.09307 0.153047,1.26045 1.30968 0.0194943,-1.53422 1.16949 0.19685,-0.135958 -1.77087 0.00493544,-0.139391 -1.72666 1.34733e-16,1.10703 1.57386 0.153047,-1.33784 1.28501 0.0429465,1.10986 1.57789 0.19685,-1.5303 1.1665 0.153047,0.153662 -1.90344 0.11144,1.28633 1.33658 0.0429465,-0.139143 -1.81236 0.0194943,-1.36032 1.30661 0.074116,1.30794 1.35904 0.074116,-1.06697 1.41988 0.00493544,-1.04065 1.38486 -1.13305e-15,0.147673 -1.92347 0.19685,0.154833 -1.91795 0.153047,1.41251 1.07671 0.00493544,1.42564 0.984047 6.43467e-17,-0.142 -1.84957 0.0429465,-1.37723 1.32285 0.11144,1.46169 1.00893 0.00493544,1.3242 1.37593 0.11144,-1.09196 1.45314 0.0194943,-0.144386 -1.88065 0.074116,1.4456 1.10193 0.0194943,-1.38773 1.33294 0.153047,-0.404687 -1.72936 0.00493544,-0.414562 -1.68194 1.1359e-18,-1.33772 1.38998 0.19685,1.49593 1.03257 0.0194943,-0.146181 -1.90403 0.11144,-1.11439 1.48298 0.0429465,1.3343 1.38642 0.153047,-1.13311 1.5079 0.074116,-0.414167 -1.76988 0.0194943,1.33772 1.38998 0.19685,-0.825387 1.57264 0.00493544,-0.805031 1.53386 -1.07109e-15,1.47528 1.12456 0.0429465,-0.147296 -1.91855 0.153047,-0.147673 -1.92347 0.19685,-1.1472 1.52664 0.11144,1.52665 1.05377 0.0429465,-0.422671 -1.80622 0.0429465,1.50007 1.14345 0.074116,-0.844723 1.60948 0.0194943,-0.429774 -1.83657 0.074116,1.56031 0.84847 0.00493544,1.56503 0.742616 1.93279e-16,-1.15594 1.53828 0.153047,-1.10986 1.57789 0.19685,1.5523 1.07147 0.074116,-0.66393 -1.64732 0.00493544,-0.678996 -1.59366 -1.39934e-16,-0.862068 1.64253 0.0429465,-0.435117 -1.8594 0.11144,-0.876553 1.67013 0.074116,1.51872 1.15767 0.11144,-0.679484 -1.68591 0.0194943,1.59686 0.868347 0.0194943,-0.562429 1.68468 0.00493544,-0.548558 1.64313 -9.88843e-16,-0.438434 -1.87358 0.153047,-0.439559 -1.87839 0.19685,1.6046 0.761394 0.00493544,-0.887452 1.6909 0.11144,-0.693436 -1.72053 0.0429465,1.5716 1.0848 0.11144,-0.575604 1.72415 0.0194943,1.5303 1.1665 0.153047,-0.705088 -1.74944 0.074116,1.53422 1.16949 0.19685,-0.894218 1.70379 0.153047,1.62965 0.886177 0.0429465,-0.907612 -1.52667 0.00493544,-0.925844 -1.46411 -2.84823e-16,-0.855993 1.72882 0.19685,-0.587424 1.75955 0.0429465,1.64219 0.77923 0.0194943,-0.713854 -1.77119 0.11144,1.58358 1.09307 0.153047,1.69476 0.921584 0.19685,-0.928874 -1.56243 0.0194943,-0.597294 1.78911 0.074116,1.65704 0.901067 0.074116,-0.719297 -1.7847 0.153047,1.67154 0.600346 0.00493544,1.66389 0.481951 3.09763e-16,-0.284904 1.75308 0.00493544,-0.277877 1.70985 -8.88424e-16,-0.721142 -1.78927 0.19685,-0.947947 -1.59451 0.0429465,1.67591 0.795231 0.0429465,-0.604721 1.81136 0.11144,1.67764 0.912271 0.11144,-0.963875 -1.62131 0.074116,-0.291578 1.79415 0.0194943,1.7107 0.61441 0.0194943,-1.13002 -1.37023 0.00493544,-1.14871 -1.29663 -4.29779e-16,1.70407 0.808593 0.074116,-0.97586 -1.64146 0.11144,-0.582058 1.83923 0.19685,-0.609331 1.82517 0.153047,1.70596 0.494137 0.00493544,-0.297565 1.83099 0.0429465,-1.15649 -1.40233 0.0194943,1.69043 0.919226 0.153047,1.74583 0.627026 0.0429465,-0.983299 -1.65398 0.153047,-0.302565 1.86176 0.074116,-0.985821 -1.65822 0.19685,1.72526 0.818647 0.11144,-1.18024 -1.43112 0.0429465,-0.306327 1.88491 0.11144,1.74592 0.505713 0.0194943,-1.20007 -1.45517 0.074116,1.77516 0.637562 0.074116,-0.308663 1.89928 0.153047,-1.32594 -1.18167 0.00493544,-1.34183 -1.09557 -5.71047e-16,1.7436 0.33815 0.00493544,1.71965 0.208803 4.1078e-16,-1.37576 -1.12328 0.00493544,1.73841 0.824888 0.153047,1.81558 0.652079 0.19685,-1.21499 -1.47326 0.11144,1.78177 0.516097 0.0429465,-1.357 -1.20936 0.0194943,1.79723 0.645489 0.11144,-1.40799 -1.14959 0.0194943,1.78444 0.346072 0.0194943,-1.22739 -1.4883 0.19685,-1.22425 -1.4845 0.153047,1.81171 0.524769 0.074116,-1.38487 -1.23419 0.0429465,1.76313 0.214083 0.00493544,1.81094 0.65041 0.153047,-1.40814 -1.25493 0.074116]
}}
appearance Appearance{material USE MET-ALUMINUM }}
Shape { geometry IndexedFaceSet 
{ creaseAngle 0.50 coordIndex [0,1,2,-1,2,1,3,-1]
coord Coordinate { point [-0.875982 -0.561022 0,-0.875982 -0.423227 0,-0.875982 -0.561022 -1.77165,-0.875982 -0.423227 -1.77165]
}}
appearance Appearance{material USE PIN-01 }}
Shape { geometry IndexedFaceSet 
{ creaseAngle 0.50 coordIndex [0,1,2,-1,2,1,3,-1]
coord Coordinate { point [-0.698817 -0.561022 0,-0.875982 -0.561022 0,-0.698817 -0.561022 -1.77165,-0.875982 -0.561022 -1.77165]
}}
appearance Appearance{material USE PIN-01 }}
Shape { geometry IndexedFaceSet 
{ creaseAngle 0.50 coordIndex [0,1,2,-1,2,1,3,-1]
coord Coordinate { point [-0.698817 -0.423227 0,-0.698817 -0.561022 0,-0.698817 -0.423227 -1.77165,-0.698817 -0.561022 -1.77165]
}}
appearance Appearance{material USE PIN-01 }}
Shape { geometry IndexedFaceSet 
{ creaseAngle 0.50 coordIndex [0,1,2,-1,2,1,3,-1]
coord Coordinate { point [-0.875982 -0.423227 0,-0.698817 -0.423227 0,-0.875982 -0.423227 -1.77165,-0.698817 -0.423227 -1.77165]
}}
appearance Appearance{material USE PIN-01 }}
Shape { geometry IndexedFaceSet 
{ creaseAngle 0.50 coordIndex [0,1,2,-1,2,1,3,-1]
coord Coordinate { point [-0.875982 0.423227 0,-0.875982 0.561022 0,-0.875982 0.423227 -1.77165,-0.875982 0.561022 -1.77165]
}}
appearance Appearance{material USE PIN-01 }}
Shape { geometry IndexedFaceSet 
{ creaseAngle 0.50 coordIndex [0,1,2,-1,2,1,3,-1]
coord Coordinate { point [-0.698817 0.423227 0,-0.875982 0.423227 0,-0.698817 0.423227 -1.77165,-0.875982 0.423227 -1.77165]
}}
appearance Appearance{material USE PIN-01 }}
Shape { geometry IndexedFaceSet 
{ creaseAngle 0.50 coordIndex [0,1,2,-1,2,1,3,-1]
coord Coordinate { point [-0.698817 0.561022 0,-0.698817 0.423227 0,-0.698817 0.561022 -1.77165,-0.698817 0.423227 -1.77165]
}}
appearance Appearance{material USE PIN-01 }}
Shape { geometry IndexedFaceSet 
{ creaseAngle 0.50 coordIndex [0,1,2,-1,2,1,3,-1]
coord Coordinate { point [-0.875982 0.561022 0,-0.698817 0.561022 0,-0.875982 0.561022 -1.77165,-0.698817 0.561022 -1.77165]
}}
appearance Appearance{material USE PIN-01 }}
Shape { geometry IndexedFaceSet 
{ creaseAngle 0.50 coordIndex [0,1,2,-1,3,4,5,-1,6,4,3,-1,7,8,9,-1,5,10,11,-1,4,10,5,-1,1,8,7,-1,9,12,13,-1,11,14,15,-1,8,12,9,-1,10,14,11,-1,13,16,17,-1,12,16,13,-1,15,18,19,-1,14,18,15,-1,17,20,21,-1,16,20,17,-1,19,22,23,-1,18,22,19,-1,21,24,25,-1,20,24,21,-1,23,26,27,-1,22,26,23,-1,25,28,29,-1,24,28,25,-1,27,30,31,-1,26,30,27,-1,29,32,33,-1,31,34,35,-1,28,32,29,-1,30,34,31,-1,33,36,37,-1,35,38,39,-1,32,36,33,-1,34,38,35,-1,37,40,41,-1,39,42,43,-1,38,42,39,-1,36,40,37,-1,40,44,41,-1,41,44,45,-1,43,46,47,-1,42,46,43,-1,44,48,45,-1,47,49,50,-1,45,48,51,-1,46,49,47,-1,48,52,51,-1,50,53,54,-1,51,52,55,-1,49,53,50,-1,52,56,55,-1,54,57,58,-1,55,56,59,-1,53,57,54,-1,56,60,59,-1,58,61,62,-1,59,60,63,-1,57,61,58,-1,60,64,63,-1,62,65,66,-1,63,64,67,-1,61,65,62,-1,64,68,67,-1,66,69,70,-1,67,68,71,-1,65,69,66,-1,68,72,71,-1,70,73,74,-1,71,72,75,-1,69,73,70,-1,72,76,75,-1,75,76,77,-1,74,78,79,-1,73,78,74,-1,76,80,77,-1,77,80,81,-1,79,0,2,-1,78,0,79,-1,81,6,3,-1,80,6,81,-1,2,1,7,-1]
coord Coordinate { point [0.721142 -1.78927 1.5748,0.439559 -1.87839 1.5748,0.721142 -1.78927 0.19685,-0.582058 1.83923 0.19685,-0.29448 1.90652 1.5748,-0.29448 1.90652 0.19685,-0.582058 1.83923 1.5748,0.439559 -1.87839 0.19685,0.147673 -1.92347 1.5748,0.147673 -1.92347 0.19685,-3.937e-16 1.92913 1.5748,3.937e-16 1.92913 0.19685,-0.147673 -1.92347 1.5748,-0.147673 -1.92347 0.19685,0.29448 1.90652 1.5748,0.29448 1.90652 0.19685,-0.439559 -1.87839 1.5748,-0.439559 -1.87839 0.19685,0.582058 1.83923 1.5748,0.582058 1.83923 0.19685,-0.721142 -1.78927 1.5748,-0.721142 -1.78927 0.19685,0.855993 1.72882 1.5748,0.855993 1.72882 0.19685,-0.985821 -1.65822 1.5748,-0.985821 -1.65822 0.19685,1.10986 1.57789 1.5748,1.10986 1.57789 0.19685,-1.22739 -1.4883 1.5748,-1.22739 -1.4883 0.19685,1.33772 1.38998 1.5748,1.33772 1.38998 0.19685,-1.4402 -1.2835 1.5748,-1.4402 -1.2835 0.19685,1.53422 1.16949 1.5748,1.53422 1.16949 0.19685,-1.61925 -1.04861 1.5748,-1.61925 -1.04861 0.19685,1.69476 0.921584 1.5748,1.69476 0.921584 0.19685,-1.76034 -0.789147 1.5748,-1.76034 -0.789147 0.19685,1.81558 0.652079 1.5748,1.81558 0.652079 0.19685,-1.86017 -0.511184 1.5748,-1.86017 -0.511184 0.19685,1.89384 0.367289 1.5748,1.89384 0.367289 0.19685,-1.9164 -0.221239 1.5748,1.92771 0.073891 1.5748,1.92771 0.073891 0.19685,-1.9164 -0.221239 0.19685,-1.92771 0.073891 1.5748,1.9164 -0.221239 1.5748,1.9164 -0.221239 0.19685,-1.92771 0.073891 0.19685,-1.89384 0.367289 1.5748,1.86017 -0.511184 1.5748,1.86017 -0.511184 0.19685,-1.89384 0.367289 0.19685,-1.81558 0.652079 1.5748,1.76034 -0.789147 1.5748,1.76034 -0.789147 0.19685,-1.81558 0.652079 0.19685,-1.69476 0.921584 1.5748,1.61925 -1.04861 1.5748,1.61925 -1.04861 0.19685,-1.69476 0.921584 0.19685,-1.53422 1.16949 1.5748,1.4402 -1.2835 1.5748,1.4402 -1.2835 0.19685,-1.53422 1.16949 0.19685,-1.33772 1.38998 1.5748,1.22739 -1.4883 1.5748,1.22739 -1.4883 0.19685,-1.33772 1.38998 0.19685,-1.10986 1.57789 1.5748,-1.10986 1.57789 0.19685,0.985821 -1.65822 1.5748,0.985821 -1.65822 0.19685,-0.855993 1.72882 1.5748,-0.855993 1.72882 0.19685]
}}
appearance Appearance{material USE MET-ALUMINUM }}
Shape { geometry IndexedFaceSet 
{ creaseAngle 0.50 coordIndex [0,1,2,-1,0,2,3,-1]
coord Coordinate { point [-0.875982 -0.423227 -1.77165,-0.698817 -0.423227 -1.77165,-0.698817 -0.561022 -1.77165,-0.875982 -0.561022 -1.77165]
}}
appearance Appearance{material USE PIN-01 }}
Shape { geometry IndexedFaceSet 
{ creaseAngle 0.50 coordIndex [0,1,2,-1,0,2,3,-1]
coord Coordinate { point [-0.875982 0.561022 -1.77165,-0.698817 0.561022 -1.77165,-0.698817 0.423227 -1.77165,-0.875982 0.423227 -1.77165]
}}
appearance Appearance{material USE PIN-01 }}
Shape { geometry IndexedFaceSet 
{ creaseAngle 0.50 coordIndex [0,1,2,-1,2,1,3,-1,4,5,6,-1,7,8,9,-1,3,10,11,-1,12,8,7,-1,13,14,15,-1,16,14,17,-1,17,14,13,-1,11,10,18,-1,15,14,19,-1,20,21,22,-1,23,24,25,-1,22,21,26,-1,0,27,1,-1,19,28,4,-1,29,27,0,-1,4,28,5,-1,1,30,3,-1,3,30,10,-1,26,31,12,-1,18,32,23,-1,12,31,8,-1,23,32,24,-1,5,33,20,-1,20,33,21,-1,24,34,25,-1,8,35,9,-1,25,34,36,-1,16,37,14,-1,14,37,19,-1,38,39,29,-1,40,39,38,-1,29,39,27,-1,19,37,28,-1,21,41,26,-1,42,39,40,-1,26,41,31,-1,27,43,1,-1,1,43,30,-1,5,44,33,-1,10,45,18,-1,28,44,5,-1,18,45,32,-1,31,46,8,-1,24,47,34,-1,8,46,35,-1,32,47,24,-1,21,48,41,-1,27,49,43,-1,39,49,27,-1,33,48,21,-1,42,49,39,-1,9,50,51,-1,30,52,10,-1,35,50,9,-1,10,52,45,-1,16,53,37,-1,37,53,28,-1,28,53,44,-1,54,53,16,-1,41,55,31,-1,34,56,36,-1,31,55,46,-1,45,57,32,-1,44,58,33,-1,32,57,47,-1,33,58,48,-1,43,59,30,-1,30,59,52,-1,46,60,35,-1,35,60,50,-1,47,61,34,-1,48,62,41,-1,41,62,55,-1,34,61,56,-1,45,63,57,-1,50,64,51,-1,52,63,45,-1,44,65,58,-1,36,66,67,-1,54,65,53,-1,53,65,44,-1,56,66,36,-1,49,68,43,-1,55,69,46,-1,43,68,59,-1,70,68,42,-1,46,69,60,-1,42,68,49,-1,47,71,61,-1,57,71,47,-1,48,72,62,-1,58,72,48,-1,50,73,64,-1,60,73,50,-1,59,74,52,-1,52,74,63,-1,62,75,55,-1,55,75,69,-1,61,76,56,-1,56,76,66,-1,51,77,78,-1,57,79,71,-1,64,77,51,-1,63,79,57,-1,54,80,65,-1,65,80,58,-1,81,80,54,-1,58,80,72,-1,66,82,67,-1,59,83,74,-1,60,84,73,-1,69,84,60,-1,68,83,59,-1,70,83,68,-1,61,85,76,-1,62,86,75,-1,72,86,62,-1,71,85,61,-1,63,87,79,-1,64,88,77,-1,74,87,63,-1,73,88,64,-1,76,89,66,-1,66,89,82,-1,69,90,84,-1,75,90,69,-1,77,91,78,-1,71,92,85,-1,79,92,71,-1,81,93,80,-1,82,94,67,-1,80,93,72,-1,67,94,95,-1,72,93,86,-1,70,96,83,-1,74,96,87,-1,84,97,73,-1,73,97,88,-1,98,96,70,-1,83,96,74,-1,76,99,89,-1,86,100,75,-1,75,100,90,-1,85,99,76,-1,77,101,91,-1,87,102,79,-1,79,102,92,-1,88,101,77,-1,84,103,97,-1,82,104,94,-1,90,103,84,-1,93,105,86,-1,89,104,82,-1,106,105,81,-1,92,107,85,-1,81,105,93,-1,85,107,99,-1,86,105,100,-1,97,108,88,-1,88,108,101,-1,94,109,95,-1,96,110,87,-1,78,111,112,-1,87,110,102,-1,98,110,96,-1,89,113,104,-1,91,111,78,-1,99,113,89,-1,100,114,90,-1,90,114,103,-1,102,115,92,-1,103,116,97,-1,92,115,107,-1,97,116,108,-1,104,117,94,-1,101,118,91,-1,94,117,109,-1,91,118,111,-1,99,119,113,-1,107,119,99,-1,111,120,112,-1,95,121,122,-1,106,123,105,-1,109,121,95,-1,105,123,100,-1,100,123,114,-1,114,124,103,-1,102,125,115,-1,98,125,110,-1,103,124,116,-1,126,125,98,-1,110,125,102,-1,113,127,104,-1,104,127,117,-1,101,128,118,-1,115,129,107,-1,108,128,101,-1,107,129,119,-1,111,130,120,-1,118,130,111,-1,106,131,123,-1,109,132,121,-1,123,131,114,-1,117,132,109,-1,114,131,124,-1,133,131,106,-1,119,134,113,-1,108,135,128,-1,113,134,127,-1,116,135,108,-1,128,136,118,-1,118,136,130,-1,121,137,122,-1,115,138,129,-1,125,138,115,-1,112,139,140,-1,126,138,125,-1,120,139,112,-1,127,141,117,-1,117,141,132,-1,116,142,135,-1,124,142,116,-1,129,143,119,-1,119,143,134,-1,128,144,136,-1,135,144,128,-1,132,145,121,-1,139,146,140,-1,121,145,137,-1,134,147,127,-1,127,147,141,-1,130,148,120,-1,122,149,150,-1,120,148,139,-1,131,151,124,-1,137,149,122,-1,133,151,131,-1,124,151,142,-1,152,153,126,-1,138,153,129,-1,129,153,143,-1,142,154,135,-1,126,153,138,-1,135,154,144,-1,132,155,145,-1,139,156,146,-1,141,155,132,-1,148,156,139,-1,134,157,147,-1,143,157,134,-1,136,158,130,-1,137,159,149,-1,130,158,148,-1,133,160,151,-1,145,159,137,-1,161,160,133,-1,142,160,154,-1,141,162,155,-1,151,160,142,-1,147,162,141,-1,148,163,156,-1,158,163,148,-1,144,164,136,-1,149,165,150,-1,136,164,158,-1,143,166,157,-1,153,166,143,-1,140,167,168,-1,152,166,153,-1,146,167,140,-1,145,169,159,-1,155,169,145,-1,147,170,162,-1,158,171,163,-1,164,171,158,-1,157,170,147,-1,144,172,164,-1,159,173,149,-1,154,172,144,-1,149,173,165,-1,162,174,155,-1,175,176,177,-1,155,174,169,-1,156,178,146,-1,165,179,150,-1,146,178,167,-1,150,179,180,-1,172,181,164,-1,164,181,171,-1,152,182,166,-1,154,183,172,-1,157,182,170,-1,161,183,160,-1,184,182,152,-1,160,183,154,-1,166,182,157,-1,169,185,159,-1,156,186,178,-1,159,185,173,-1,163,186,156,-1,170,187,162,-1,162,187,174,-1,172,188,181,-1,161,188,183,-1,189,188,161,-1,183,188,172,-1,173,190,165,-1,171,191,163,-1,165,190,179,-1,177,192,193,-1,163,191,186,-1,176,192,177,-1,174,194,169,-1,169,194,185,-1,168,195,196,-1,176,197,192,-1,179,198,180,-1,199,197,176,-1,167,195,168,-1,170,200,187,-1,182,200,170,-1,184,200,182,-1,181,201,171,-1,171,201,191,-1,199,202,197,-1,203,202,199,-1,178,204,167,-1,185,205,173,-1,173,205,190,-1,203,206,202,-1,167,204,195,-1,207,206,203,-1,187,208,174,-1,188,209,181,-1,174,208,194,-1,181,209,201,-1,189,209,188,-1,193,210,211,-1,192,210,193,-1,186,212,178,-1,190,213,179,-1,178,212,204,-1,179,213,198,-1,194,214,185,-1,191,215,186,-1,207,216,206,-1,185,214,205,-1,217,216,207,-1,186,215,212,-1,200,218,187,-1,197,219,192,-1,187,218,208,-1,196,220,221,-1,184,218,200,-1,192,219,210,-1,222,218,184,-1,223,224,225,-1,205,226,190,-1,190,226,213,-1,195,220,196,-1,217,224,216,-1,201,227,191,-1,228,224,217,-1,225,224,228,-1,180,229,230,-1,191,227,215,-1,198,229,180,-1,204,231,195,-1,197,232,219,-1,202,232,197,-1,208,233,194,-1,202,234,232,-1,194,233,214,-1,206,234,202,-1,195,231,220,-1,209,235,201,-1,189,235,209,-1,201,235,227,-1,211,236,237,-1,214,238,205,-1,205,238,226,-1,239,235,189,-1,212,240,204,-1,204,240,231,-1,210,236,211,-1,229,241,230,-1,216,242,206,-1,215,243,212,-1,198,244,229,-1,206,242,234,-1,213,244,198,-1,212,243,240,-1,218,245,208,-1,221,246,247,-1,208,245,233,-1,210,248,236,-1,222,245,218,-1,220,246,221,-1,219,248,210,-1,249,250,223,-1,233,251,214,-1,214,251,238,-1,216,250,242,-1,223,250,224,-1,227,252,215,-1,224,250,216,-1,219,253,248,-1,215,252,243,-1,232,253,219,-1,244,254,229,-1,229,254,241,-1,231,255,220,-1,226,256,213,-1,213,256,244,-1,232,257,253,-1,220,255,246,-1,234,257,232,-1,235,258,227,-1,239,258,235,-1,237,259,260,-1,227,258,252,-1,245,261,233,-1,262,258,239,-1,263,261,222,-1,222,261,245,-1,233,261,251,-1,240,264,231,-1,244,265,254,-1,256,265,244,-1,236,259,237,-1,231,264,255,-1,242,266,234,-1,243,267,240,-1,234,266,257,-1,238,268,226,-1,240,267,264,-1,236,269,259,-1,226,268,256,-1,247,270,271,-1,230,272,273,-1,248,269,236,-1,241,272,230,-1,250,274,242,-1,246,270,247,-1,275,274,249,-1,242,274,266,-1,249,274,250,-1,268,276,256,-1,252,277,243,-1,253,278,248,-1,256,276,265,-1,243,277,267,-1,255,279,246,-1,248,278,269,-1,238,280,268,-1,251,280,238,-1,241,281,272,-1,246,279,270,-1,253,282,278,-1,283,284,262,-1,257,282,253,-1,252,284,277,-1,260,285,286,-1,258,284,252,-1,262,284,258,-1,259,285,260,-1,254,281,241,-1,268,287,276,-1,280,287,268,-1,255,288,279,-1,257,289,282,-1,263,290,261,-1,264,288,255,-1,261,290,251,-1,266,289,257,-1,251,290,280,-1,264,291,288,-1,267,291,264,-1,254,292,281,-1,271,293,294,-1,265,292,254,-1,259,295,285,-1,270,293,271,-1,269,295,259,-1,280,296,287,-1,290,296,280,-1,297,296,263,-1,266,298,289,-1,263,296,290,-1,275,298,274,-1,276,299,265,-1,300,298,275,-1,274,298,266,-1,277,301,267,-1,278,302,269,-1,267,301,291,-1,265,299,292,-1,269,302,295,-1,273,303,304,-1,279,305,270,-1,272,303,273,-1,270,305,293,-1,306,307,283,-1,276,308,299,-1,287,308,276,-1,283,307,284,-1,282,309,278,-1,284,307,277,-1,278,309,302,-1,277,307,301,-1,286,310,311,-1,281,312,272,-1,285,310,286,-1,272,312,303,-1,288,313,279,-1,279,313,305,-1,311,314,315,-1,288,316,313,-1,287,317,308,-1,310,314,311,-1,296,317,287,-1,297,317,296,-1,291,316,288,-1,289,318,282,-1,292,319,281,-1,282,318,309,-1,281,319,312,-1,294,320,321,-1,285,322,310,-1,293,320,294,-1,295,322,285,-1,301,323,291,-1,299,324,292,-1,292,324,319,-1,322,325,310,-1,291,323,316,-1,305,326,293,-1,304,327,328,-1,310,325,314,-1,289,329,318,-1,298,329,289,-1,303,327,304,-1,300,329,298,-1,293,326,320,-1,330,329,300,-1,307,331,301,-1,301,331,323,-1,308,332,299,-1,333,331,306,-1,295,334,322,-1,299,332,324,-1,306,331,307,-1,313,335,305,-1,302,334,295,-1,312,336,303,-1,305,335,326,-1,322,337,325,-1,303,336,327,-1,334,337,322,-1,316,338,313,-1,309,339,302,-1,317,340,308,-1,302,339,334,-1,297,340,317,-1,308,340,332,-1,313,338,335,-1,341,340,297,-1,320,342,321,-1,319,343,312,-1,321,342,344,-1,314,345,315,-1,312,343,336,-1,339,346,334,-1,323,347,316,-1,324,348,319,-1,334,346,337,-1,316,347,338,-1,319,348,343,-1,318,349,309,-1,327,350,328,-1,326,351,320,-1,309,349,339,-1,328,350,352,-1,325,353,314,-1,320,351,342,-1,333,354,331,-1,323,354,347,-1,314,353,345,-1,332,355,324,-1,356,354,333,-1,331,354,323,-1,324,355,348,-1,315,357,358,-1,345,357,315,-1,326,359,351,-1,335,359,326,-1,349,360,339,-1,336,361,327,-1,327,361,350,-1,335,362,359,-1,338,362,335,-1,339,360,346,-1,363,364,330,-1,329,364,318,-1,340,365,332,-1,330,364,329,-1,341,365,340,-1,318,364,349,-1,332,365,355,-1,344,366,367,-1,368,365,341,-1,342,366,344,-1,337,369,325,-1,343,370,336,-1,336,370,361,-1,325,369,353,-1,338,371,362,-1,347,371,338,-1,353,372,345,-1,348,373,343,-1,345,372,357,-1,342,374,366,-1,363,375,364,-1,349,375,360,-1,351,374,342,-1,343,373,370,-1,364,375,349,-1,337,376,369,-1,175,377,176,-1,352,377,175,-1,347,378,371,-1,350,377,352,-1,354,378,347,-1,356,378,354,-1,346,376,337,-1,379,378,356,-1,357,380,358,-1,351,381,374,-1,359,381,351,-1,353,382,372,-1,355,383,348,-1,369,382,353,-1,348,383,373,-1,362,384,359,-1,361,385,350,-1,359,384,381,-1,360,386,346,-1,377,385,176,-1,350,385,377,-1,176,385,199,-1,346,386,376,-1,366,387,367,-1,367,387,388,-1,372,389,357,-1,357,389,380,-1,390,391,368,-1,365,391,355,-1,371,392,362,-1,369,393,382,-1,368,391,365,-1,376,393,369,-1,355,391,383,-1,362,392,384,-1,385,394,199,-1,370,394,361,-1,358,395,396,-1,199,394,203,-1,366,397,387,-1,374,397,366,-1,380,395,358,-1,361,394,385,-1,375,398,360,-1,394,399,203,-1,363,398,375,-1,378,400,371,-1,379,400,378,-1,401,398,363,-1,373,399,370,-1,402,400,379,-1,360,398,386,-1,203,399,207,-1,371,400,392,-1,382,403,372,-1,374,404,397,-1,370,399,394,-1,372,403,389,-1,381,404,374,-1,399,405,207,-1,373,405,399,-1,386,406,376,-1,376,406,393,-1,207,405,217,-1,384,407,381,-1,383,405,373,-1,391,408,383,-1,383,408,405,-1,381,407,404,-1,405,408,217,-1,389,409,380,-1,410,408,390,-1,225,408,410,-1,217,408,228,-1,387,411,388,-1,380,409,395,-1,228,408,225,-1,390,408,391,-1,388,411,412,-1,393,413,382,-1,382,413,403,-1,411,414,412,-1,412,414,415,-1,395,416,396,-1,392,417,384,-1,386,418,406,-1,398,418,386,-1,401,418,398,-1,384,417,407,-1,387,419,411,-1,403,420,389,-1,389,420,409,-1,397,419,387,-1,406,421,393,-1,393,421,413,-1,411,422,414,-1,419,422,411,-1,423,424,402,-1,409,425,395,-1,392,424,417,-1,402,424,400,-1,400,424,392,-1,395,425,416,-1,404,426,397,-1,413,427,403,-1,397,426,419,-1,403,427,420,-1,426,2,419,-1,396,428,7,-1,416,428,396,-1,419,2,422,-1,17,429,401,-1,407,430,404,-1,418,429,406,-1,406,429,421,-1,401,429,418,-1,404,430,426,-1,420,6,409,-1,409,6,425,-1,414,431,415,-1,430,0,426,-1,413,15,427,-1,426,0,2,-1,421,15,413,-1,407,432,430,-1,416,22,428,-1,417,432,407,-1,425,22,416,-1,414,11,431,-1,427,4,420,-1,420,4,6,-1,422,11,414,-1,431,23,415,-1,415,23,25,-1,428,12,7,-1,430,29,0,-1,432,29,430,-1,17,13,429,-1,429,13,421,-1,421,13,15,-1,424,433,417,-1,417,433,432,-1,6,20,425,-1,40,433,423,-1,425,20,22,-1,423,433,424,-1,2,3,422,-1,422,3,11,-1,427,19,4,-1,15,19,427,-1,431,18,23,-1,22,26,428,-1,11,18,431,-1,433,38,432,-1,428,26,12,-1,432,38,29,-1,40,38,433,-1,6,5,20,-1]
coord Coordinate { point [-1.4369 -1.1732 1.7287,-1.55703 -1.00833 1.7287,-1.46105 -1.19291 1.69753,-1.5832 -1.02527 1.69753,1.82108 0.353178 1.7287,1.84149 0.223597 1.7287,1.85168 0.359113 1.69753,1.92771 0.073891 1.5748,1.92263 -0.0774795 1.6186,1.9164 -0.221239 1.5748,-1.63348 -0.943092 1.69753,-1.60288 -1.03802 1.66021,1.92278 0.0737019 1.6186,1.70596 0.494137 1.76671,1.7436 0.33815 1.76671,1.74592 0.505713 1.75216,1.71965 0.208803 1.77165,1.66389 0.481951 1.77165,-1.65379 -0.954818 1.66021,1.78444 0.346072 1.75216,1.87243 0.227354 1.69753,1.8848 0.072246 1.69753,1.89571 0.230181 1.66021,-1.6664 -0.962097 1.6186,-1.75583 -0.787128 1.6186,-1.76034 -0.789147 1.5748,1.90823 0.0731443 1.66021,-1.52571 -0.988037 1.75216,1.80444 0.219098 1.75216,-1.40799 -1.14959 1.75216,-1.60649 -0.927507 1.7287,1.90809 -0.0768933 1.66021,-1.74255 -0.781172 1.66021,1.85365 0.0710521 1.7287,-1.79915 -0.682329 1.6186,1.9115 -0.220673 1.6186,-1.86017 -0.511184 1.5748,1.76313 0.214083 1.76671,-1.37576 -1.12328 1.76671,-1.49078 -0.965421 1.76671,-1.34183 -1.09557 1.77165,1.88465 -0.075949 1.69753,-1.5002 -0.86614 1.77165,-1.57417 -0.908845 1.75216,1.81636 0.0696225 1.75216,-1.72115 -0.771579 1.69753,1.89704 -0.219004 1.66021,-1.78554 -0.677166 1.66021,1.85351 -0.0746939 1.7287,-1.53813 -0.888042 1.76671,1.88531 -0.384888 1.6186,1.86017 -0.511184 1.5748,-1.69271 -0.758828 1.7287,1.77478 0.0680288 1.76671,1.73088 -0.0697519 1.77165,1.87374 -0.216314 1.69753,-1.85541 -0.509876 1.6186,-1.76361 -0.66885 1.69753,1.81622 -0.073191 1.75216,-1.65865 -0.74356 1.75216,1.87104 -0.381976 1.66021,-1.84137 -0.506018 1.66021,1.84277 -0.212739 1.7287,-1.73447 -0.657797 1.7287,1.85541 -0.509876 1.6186,1.77464 -0.0715157 1.76671,-1.88531 -0.384888 1.6186,-1.9164 -0.221239 1.5748,-1.62068 -0.72654 1.76671,1.84806 -0.377285 1.69753,-1.61971 -0.614275 1.77165,-1.81876 -0.499804 1.69753,1.8057 -0.208459 1.75216,1.84137 -0.506018 1.66021,-1.69957 -0.644562 1.75216,1.81753 -0.37105 1.7287,-1.87104 -0.381976 1.66021,1.79915 -0.682329 1.6186,1.76034 -0.789147 1.5748,-1.7887 -0.491544 1.7287,1.76436 -0.203687 1.76671,1.69727 -0.346501 1.77165,-1.9115 -0.220673 1.6186,-1.66067 -0.629808 1.76671,1.81876 -0.499804 1.69753,-1.84806 -0.377285 1.69753,1.78096 -0.363585 1.75216,-1.75271 -0.481654 1.75216,1.78554 -0.677166 1.66021,-1.89704 -0.219004 1.66021,1.7887 -0.491544 1.7287,1.75583 -0.787128 1.6186,-1.81753 -0.37105 1.7287,1.74019 -0.355262 1.76671,-1.92263 -0.0774795 1.6186,-1.92771 0.073891 1.5748,-1.71259 -0.470629 1.76671,1.76361 -0.66885 1.69753,-1.69727 -0.346501 1.77165,-1.87374 -0.216314 1.69753,1.75271 -0.481654 1.75216,1.74255 -0.781172 1.66021,-1.78096 -0.363585 1.75216,1.73447 -0.657797 1.7287,-1.90809 -0.0768933 1.66021,1.71259 -0.470629 1.76671,1.61971 -0.614275 1.77165,-1.84277 -0.212739 1.7287,1.72115 -0.771579 1.69753,-1.92278 0.0737019 1.6186,-1.74019 -0.355262 1.76671,1.6664 -0.962097 1.6186,1.61925 -1.04861 1.5748,-1.88465 -0.075949 1.69753,1.69957 -0.644562 1.75216,-1.8057 -0.208459 1.75216,1.69271 -0.758828 1.7287,-1.90823 0.0731443 1.66021,1.65379 -0.954818 1.66021,-1.85351 -0.0746939 1.7287,1.6151 -1.04593 1.6186,-1.91017 0.231936 1.6186,-1.89384 0.367289 1.5748,1.66067 -0.629808 1.76671,1.65865 -0.74356 1.75216,-1.76436 -0.203687 1.76671,-1.73088 -0.0697519 1.77165,-1.8848 0.072246 1.69753,1.63348 -0.943092 1.69753,-1.81622 -0.073191 1.75216,1.60288 -1.03802 1.66021,1.62068 -0.72654 1.76671,-1.89571 0.230181 1.66021,1.5002 -0.86614 1.77165,-1.85365 0.0710521 1.7287,1.60649 -0.927507 1.7287,1.5832 -1.02527 1.69753,-1.889 0.36635 1.6186,-1.77464 -0.0715157 1.76671,1.49049 -1.21695 1.6186,1.4402 -1.2835 1.5748,-1.87243 0.227354 1.69753,1.57417 -0.908845 1.75216,-1.81636 0.0696225 1.75216,1.55703 -1.00833 1.7287,-1.87471 0.363578 1.66021,1.43651 -1.28022 1.6186,-1.84149 0.223597 1.7287,1.47921 -1.20774 1.66021,-1.84822 0.535345 1.6186,-1.81558 0.652079 1.5748,1.53813 -0.888042 1.76671,-1.71965 0.208803 1.77165,-1.77478 0.0680288 1.76671,1.52571 -0.988037 1.75216,-1.85168 0.359113 1.69753,1.42564 -1.27053 1.66021,-1.80444 0.219098 1.75216,1.46105 -1.19291 1.69753,-1.83424 0.531294 1.66021,1.49078 -0.965421 1.76671,1.34183 -1.09557 1.77165,-1.82108 0.353178 1.7287,1.40814 -1.25493 1.69753,1.4369 -1.1732 1.7287,-1.81094 0.65041 1.6186,-1.76313 0.214083 1.76671,1.27598 -1.44028 1.6186,1.22739 -1.4883 1.5748,-1.81171 0.524769 1.69753,-1.78444 0.346072 1.75216,1.38487 -1.23419 1.7287,1.40799 -1.14959 1.75216,-1.79723 0.645489 1.66021,-1.78177 0.516097 1.7287,-0.29448 1.90652 1.5748,0 1.92419 1.6186,-3.937e-16 1.92913 1.5748,1.26632 -1.42938 1.66021,-1.73841 0.824888 1.6186,-1.69476 0.921584 1.5748,1.357 -1.20936 1.75216,-1.7436 0.33815 1.76671,1.37576 -1.12328 1.76671,-1.66389 0.481951 1.77165,-1.77516 0.637562 1.69753,1.25077 -1.41183 1.69753,-1.74592 0.505713 1.75216,1.32594 -1.18167 1.76671,1.14871 -1.29663 1.77165,-1.72526 0.818647 1.66021,1.2301 -1.3885 1.7287,0.293727 1.90164 1.6186,0.29448 1.90652 1.5748,-1.74583 0.627026 1.7287,1.02842 -1.62631 1.6186,0.985821 -1.65822 1.5748,0.291505 1.88726 1.66021,-1.69043 0.919226 1.6186,0 1.90964 1.66021,-1.70596 0.494137 1.76671,1.20535 -1.36056 1.75216,0.287925 1.86408 1.69753,0 1.88618 1.69753,1.02064 -1.61401 1.66021,-1.70407 0.808593 1.69753,0.283167 1.83327 1.7287,0 1.85501 1.7287,-1.7107 0.61441 1.75216,1.17776 -1.32942 1.76671,0.580569 1.83452 1.6186,0.582058 1.83923 1.5748,1.0081 -1.59418 1.69753,-1.67764 0.912271 1.66021,-1.67591 0.795231 1.7287,0.991442 -1.56784 1.7287,0.277469 1.79639 1.75216,0 1.81769 1.75216,-1.67154 0.600346 1.76671,0.576176 1.82064 1.66021,0.75422 -1.77022 1.6186,0.721142 -1.78927 1.5748,-1.56503 0.742616 1.77165,0.277877 1.70985 1.77165,0.271118 1.75527 1.76671,-7.874e-16 1.73228 1.77165,-1.65704 0.901067 1.69753,0.971493 -1.53629 1.75216,0 1.77608 1.76671,-1.58358 1.09307 1.6186,-1.53422 1.16949 1.5748,0.748513 -1.75683 1.66021,0.5691 1.79828 1.69753,-1.64219 0.77923 1.75216,0.559696 1.76856 1.7287,0.949256 -1.50113 1.76671,0.853803 1.7244 1.6186,0.855993 1.72882 1.5748,-1.62965 0.886177 1.7287,0.925844 -1.46411 1.77165,0.739321 -1.73525 1.69753,-1.5303 1.1665 1.6186,0.548435 1.73298 1.75216,0.727104 -1.70657 1.7287,-1.5716 1.0848 1.66021,-1.6046 0.761394 1.76671,0.46049 -1.86828 1.6186,0.439559 -1.87839 1.5748,0.847343 1.71135 1.66021,0.548558 1.64313 1.77165,0.535881 1.69331 1.76671,-1.59686 0.868347 1.75216,0.712474 -1.67224 1.75216,0.836937 1.69033 1.69753,-1.51872 1.15767 1.66021,0.457006 -1.85415 1.66021,-1.5523 1.07147 1.69753,0.823106 1.6624 1.7287,0.696165 -1.63396 1.76671,1.10703 1.57386 1.6186,1.10986 1.57789 1.5748,-1.56031 0.84847 1.76671,0.678996 -1.59366 1.77165,-1.42564 0.984047 1.77165,0.451393 -1.83137 1.69753,-1.50007 1.14345 1.69753,0.806545 1.62895 1.75216,0.443934 -1.80111 1.7287,-1.52665 1.05377 1.7287,1.09865 1.56195 1.66021,0.154833 -1.91795 1.6186,0.147673 -1.92347 1.5748,-1.38773 1.33294 1.6186,-1.33772 1.38998 1.5748,0.788083 1.59166 1.76671,0.805031 1.53386 1.77165,-1.47528 1.12456 1.7287,0.435002 -1.76487 1.75216,1.08516 1.54276 1.69753,0.153662 -1.90344 1.66021,-1.49593 1.03257 1.75216,-1.37723 1.32285 1.66021,1.06722 1.51727 1.7287,0.414562 -1.68194 1.77165,0.425045 -1.72447 1.76671,1.3343 1.38642 1.6186,1.33772 1.38998 1.5748,-1.4456 1.10193 1.75216,0.151775 -1.88007 1.69753,1.04575 1.48674 1.75216,-1.46169 1.00893 1.76671,0.149267 -1.849 1.7287,-1.36032 1.30661 1.69753,-0.147296 -1.91855 1.6186,-0.147673 -1.92347 1.5748,1.3242 1.37593 1.66021,-1.41251 1.07671 1.76671,-1.24932 1.19999 1.77165,1.02181 1.45271 1.76671,-1.33784 1.28501 1.7287,1.04065 1.38486 1.77165,0.146263 -1.8118 1.75216,1.30794 1.35904 1.69753,-1.15594 1.53828 1.6186,-1.10986 1.57789 1.5748,-0.146181 -1.90403 1.66021,0.139391 -1.72666 1.77165,0.142915 -1.77032 1.76671,-1.31092 1.25916 1.75216,1.28633 1.33658 1.7287,1.5303 1.1665 1.6186,1.53422 1.16949 1.5748,-1.1472 1.52664 1.66021,-0.144386 -1.88065 1.69753,1.58358 1.09307 1.6186,1.69476 0.921584 1.5748,-0.142 -1.84957 1.7287,-1.28092 1.23034 1.76671,1.26045 1.30968 1.75216,-1.13311 1.5079 1.69753,-0.438434 -1.87358 1.6186,-0.439559 -1.87839 1.5748,1.51872 1.15767 1.66021,-0.139143 -1.81236 1.75216,-1.11439 1.48298 1.7287,1.5716 1.0848 1.66021,-0.435117 -1.8594 1.66021,-0.894218 1.70379 1.6186,-0.855993 1.72882 1.5748,1.23159 1.27971 1.76671,1.24932 1.19999 1.77165,-0.135958 -1.77087 1.76671,-1.09196 1.45314 1.75216,-0.139391 -1.72666 1.77165,1.50007 1.14345 1.69753,-0.429774 -1.83657 1.69753,-0.887452 1.6909 1.66021,1.5523 1.07147 1.69753,-0.422671 -1.80622 1.7287,1.47528 1.12456 1.7287,-1.06697 1.41988 1.76671,-1.04065 1.38486 1.77165,-0.719297 -1.7847 1.6186,-0.876553 1.67013 1.69753,-0.721142 -1.78927 1.5748,1.69043 0.919226 1.6186,1.52665 1.05377 1.7287,-0.414167 -1.76988 1.75216,-0.862068 1.64253 1.7287,1.4456 1.10193 1.75216,-0.609331 1.82517 1.6186,-0.713854 -1.77119 1.66021,-0.582058 1.83923 1.5748,1.67764 0.912271 1.66021,-0.404687 -1.72936 1.76671,-0.844723 1.60948 1.75216,-0.414562 -1.68194 1.77165,1.73841 0.824888 1.6186,1.81558 0.652079 1.5748,-0.705088 -1.74944 1.69753,1.49593 1.03257 1.75216,-0.604721 1.81136 1.66021,-0.693436 -1.72053 1.7287,1.42564 0.984047 1.77165,1.41251 1.07671 1.76671,-0.825387 1.57264 1.76671,-0.983299 -1.65398 1.6186,-0.985821 -1.65822 1.5748,-0.805031 1.53386 1.77165,1.65704 0.901067 1.69753,-0.597294 1.78911 1.69753,-0.679484 -1.68591 1.75216,1.72526 0.818647 1.66021,-0.587424 1.75955 1.7287,-0.97586 -1.64146 1.66021,1.46169 1.00893 1.76671,1.62965 0.886177 1.7287,-0.308663 1.89928 1.6186,-0.66393 -1.64732 1.76671,-0.678996 -1.59366 1.77165,1.81094 0.65041 1.6186,-0.963875 -1.62131 1.69753,1.70407 0.808593 1.69753,-0.575604 1.72415 1.75216,-0.947947 -1.59451 1.7287,-0.306327 1.88491 1.66021,1.59686 0.868347 1.75216,-1.22425 -1.4845 1.6186,-1.22739 -1.4883 1.5748,1.79723 0.645489 1.66021,-0.548558 1.64313 1.77165,-0.562429 1.68468 1.76671,-0.928874 -1.56243 1.75216,1.67591 0.795231 1.7287,-0.302565 1.86176 1.69753,1.84822 0.535345 1.6186,1.89384 0.367289 1.5748,-1.21499 -1.47326 1.66021,1.56031 0.84847 1.76671,-0.297565 1.83099 1.7287,-0.907612 -1.52667 1.76671,1.56503 0.742616 1.77165,-0.925844 -1.46411 1.77165,1.77516 0.637562 1.69753,-1.20007 -1.45517 1.69753,-0.291578 1.79415 1.75216,1.64219 0.77923 1.75216,-1.18024 -1.43112 1.7287,-0.284904 1.75308 1.76671,1.83424 0.531294 1.66021,-0.277877 1.70985 1.77165,-1.43651 -1.28022 1.6186,-1.4402 -1.2835 1.5748,1.74583 0.627026 1.7287,-1.49049 -1.21695 1.6186,-1.61925 -1.04861 1.5748,1.889 0.36635 1.6186,-1.15649 -1.40233 1.75216,1.6046 0.761394 1.76671,-1.42564 -1.27053 1.66021,1.81171 0.524769 1.69753,1.7107 0.61441 1.75216,-1.47921 -1.20774 1.66021,-1.14871 -1.29663 1.77165,-1.13002 -1.37023 1.76671,1.87471 0.363578 1.66021,-1.40814 -1.25493 1.69753,1.78177 0.516097 1.7287,1.91017 0.231936 1.6186,1.67154 0.600346 1.76671,-1.38487 -1.23419 1.7287,-1.6151 -1.04593 1.6186,-1.357 -1.20936 1.75216,-1.32594 -1.18167 1.76671]
}}
appearance Appearance{material USE MET-ALUMINUM }}
Shape { geometry IndexedFaceSet 
{ creaseAngle 0.50 coordIndex [0,1,2,-1,3,4,5,-1,4,6,5,-1,0,7,1,-1,8,9,10,-1,11,12,13,-1,14,15,16,-1,13,12,17,-1,18,19,14,-1,14,19,15,-1,9,20,10,-1,16,21,22,-1,15,21,16,-1,7,23,1,-1,4,24,6,-1,6,24,25,-1,26,27,18,-1,18,27,19,-1,7,28,23,-1,9,29,20,-1,22,30,31,-1,21,30,22,-1,32,33,11,-1,26,34,27,-1,29,35,20,-1,11,33,12,-1,24,36,25,-1,26,37,34,-1,28,38,23,-1,25,36,39,-1,32,40,33,-1,30,41,31,-1,42,40,32,-1,31,41,43,-1,36,44,39,-1,42,44,40,-1,39,44,42,-1,37,45,34,-1,28,46,38,-1,29,47,35,-1,37,48,45,-1,47,49,35,-1,43,50,51,-1,41,50,43,-1,46,52,38,-1,48,53,45,-1,46,54,52,-1,47,55,49,-1,48,56,53,-1,50,57,51,-1,55,58,49,-1,57,59,51,-1,54,60,52,-1,56,61,53,-1,54,62,60,-1,56,63,61,-1,55,64,58,-1,57,65,59,-1,64,66,58,-1,65,67,59,-1,63,68,61,-1,62,69,60,-1,63,70,68,-1,64,71,66,-1,62,72,69,-1,65,73,67,-1,71,74,66,-1,73,75,67,-1,72,76,69,-1,70,2,68,-1,70,0,2,-1,72,3,76,-1,73,8,75,-1,13,17,71,-1,71,17,74,-1,8,10,75,-1,3,5,76,-1]
coord Coordinate { point [0.925844 -1.46411 1.77165,1.01563 -1.30488 1.77165,0.786998 -1.45425 1.77165,1.71965 0.208803 1.77165,1.66389 0.481951 1.77165,1.60294 0.40592 1.77165,1.51427 0.664219 1.77165,1.14871 -1.29663 1.77165,-1.38429 0.904401 1.77165,-1.21655 1.11991 1.77165,-1.42564 0.984047 1.77165,0.536904 1.56395 1.77165,0.548558 1.64313 1.77165,0.272164 1.63099 1.77165,-1.14871 -1.29663 1.77165,-1.21655 -1.11991 1.77165,-1.34183 -1.09557 1.77165,0.277877 1.70985 1.77165,-0.925844 -1.46411 1.77165,-1.01563 -1.30488 1.77165,-1.24932 1.19999 1.77165,-1.38429 -0.904401 1.77165,-1.5002 -0.86614 1.77165,1.21655 -1.11991 1.77165,1.56503 0.742616 1.77165,1.38429 0.904401 1.77165,-0.678996 -1.59366 1.77165,-0.786998 -1.45425 1.77165,1.34183 -1.09557 1.77165,-1.01563 1.30488 1.77165,-1.51427 -0.664219 1.77165,-1.61971 -0.614275 1.77165,0.786998 1.45425 1.77165,0.805031 1.53386 1.77165,-0.536904 -1.56395 1.77165,-1.04065 1.38486 1.77165,1.42564 0.984047 1.77165,-0.414562 -1.68194 1.77165,1.38429 -0.904401 1.77165,1.21655 1.11991 1.77165,1.04065 1.38486 1.77165,-1.60294 -0.40592 1.77165,1.01563 1.30488 1.77165,-1.69727 -0.346501 1.77165,1.24932 1.19999 1.77165,-0.272164 -1.63099 1.77165,1.5002 -0.86614 1.77165,-0.786998 1.45425 1.77165,-0.139391 -1.72666 1.77165,-0.805031 1.53386 1.77165,-1.64789 -0.136548 1.77165,-1.73088 -0.0697519 1.77165,1.51427 -0.664219 1.77165,-9.48679e-16 -1.65354 1.77165,1.61971 -0.614275 1.77165,-0.536904 1.56395 1.77165,0.139391 -1.72666 1.77165,-1.64789 0.136548 1.77165,-0.548558 1.64313 1.77165,-1.71965 0.208803 1.77165,1.60294 -0.40592 1.77165,0.272164 -1.63099 1.77165,1.69727 -0.346501 1.77165,0.414562 -1.68194 1.77165,-0.272164 1.63099 1.77165,-1.60294 0.40592 1.77165,-0.277877 1.70985 1.77165,-1.66389 0.481951 1.77165,0.536904 -1.56395 1.77165,1.64789 -0.136548 1.77165,0.678996 -1.59366 1.77165,-7.874e-16 1.65354 1.77165,1.73088 -0.0697519 1.77165,-1.51427 0.664219 1.77165,-7.874e-16 1.73228 1.77165,-1.56503 0.742616 1.77165,1.64789 0.136548 1.77165]
}}
appearance Appearance{material USE MET-ALUMINUM }}
Shape { geometry IndexedFaceSet 
{ creaseAngle 0.50 coordIndex [0,1,2,-1,3,4,5,-1,1,4,3,-1,5,6,7,-1,4,6,5,-1,8,9,10,-1,11,9,8,-1,7,12,13,-1,6,12,7,-1,10,14,15,-1,9,14,10,-1,13,16,17,-1,12,16,13,-1,15,18,19,-1,14,18,15,-1,17,20,21,-1,16,20,17,-1,19,22,23,-1,18,22,19,-1,21,24,25,-1,20,24,21,-1,22,26,23,-1,23,26,27,-1,25,28,29,-1,26,30,27,-1,24,28,25,-1,27,30,31,-1,29,32,33,-1,31,34,35,-1,28,32,29,-1,30,34,31,-1,33,36,37,-1,34,38,35,-1,32,36,33,-1,35,38,39,-1,37,40,41,-1,39,42,43,-1,36,40,37,-1,38,42,39,-1,41,44,45,-1,43,46,47,-1,42,46,43,-1,40,44,41,-1,44,48,45,-1,47,49,50,-1,45,48,51,-1,46,49,47,-1,48,52,51,-1,51,52,53,-1,50,54,55,-1,49,54,50,-1,52,56,53,-1,55,57,58,-1,53,56,59,-1,54,57,55,-1,56,60,59,-1,58,61,62,-1,59,60,63,-1,57,61,58,-1,60,64,63,-1,63,64,65,-1,62,66,67,-1,61,66,62,-1,64,68,65,-1,65,68,69,-1,67,70,71,-1,66,70,67,-1,68,72,69,-1,69,72,73,-1,71,74,75,-1,70,74,71,-1,72,11,73,-1,73,11,8,-1,75,0,2,-1,74,0,75,-1,2,1,3,-1]
coord Coordinate { point [0.272164 -1.63099 1.85039,-9.84112e-16 -1.65354 1.85039,0.272164 -1.63099 1.77165,-9.48679e-16 -1.65354 1.77165,-0.272164 -1.63099 1.85039,-0.272164 -1.63099 1.77165,-0.536904 -1.56395 1.85039,-0.536904 -1.56395 1.77165,-7.874e-16 1.65354 1.77165,0.272164 1.63099 1.85039,0.272164 1.63099 1.77165,-7.874e-16 1.65354 1.85039,-0.786998 -1.45425 1.85039,-0.786998 -1.45425 1.77165,0.536904 1.56395 1.85039,0.536904 1.56395 1.77165,-1.01563 -1.30488 1.85039,-1.01563 -1.30488 1.77165,0.786998 1.45425 1.85039,0.786998 1.45425 1.77165,-1.21655 -1.11991 1.85039,-1.21655 -1.11991 1.77165,1.01563 1.30488 1.85039,1.01563 1.30488 1.77165,-1.38429 -0.904401 1.85039,-1.38429 -0.904401 1.77165,1.21655 1.11991 1.85039,1.21655 1.11991 1.77165,-1.51427 -0.664219 1.85039,-1.51427 -0.664219 1.77165,1.38429 0.904401 1.85039,1.38429 0.904401 1.77165,-1.60294 -0.40592 1.85039,-1.60294 -0.40592 1.77165,1.51427 0.664219 1.85039,1.51427 0.664219 1.77165,-1.64789 -0.136548 1.85039,-1.64789 -0.136548 1.77165,1.60294 0.40592 1.85039,1.60294 0.40592 1.77165,-1.64789 0.136548 1.85039,-1.64789 0.136548 1.77165,1.64789 0.136548 1.85039,1.64789 0.136548 1.77165,-1.60294 0.40592 1.85039,-1.60294 0.40592 1.77165,1.64789 -0.136548 1.85039,1.64789 -0.136548 1.77165,-1.51427 0.664219 1.85039,1.60294 -0.40592 1.85039,1.60294 -0.40592 1.77165,-1.51427 0.664219 1.77165,-1.38429 0.904401 1.85039,-1.38429 0.904401 1.77165,1.51427 -0.664219 1.85039,1.51427 -0.664219 1.77165,-1.21655 1.11991 1.85039,1.38429 -0.904401 1.85039,1.38429 -0.904401 1.77165,-1.21655 1.11991 1.77165,-1.01563 1.30488 1.85039,1.21655 -1.11991 1.85039,1.21655 -1.11991 1.77165,-1.01563 1.30488 1.77165,-0.786998 1.45425 1.85039,-0.786998 1.45425 1.77165,1.01563 -1.30488 1.85039,1.01563 -1.30488 1.77165,-0.536904 1.56395 1.85039,-0.536904 1.56395 1.77165,0.786998 -1.45425 1.85039,0.786998 -1.45425 1.77165,-0.272164 1.63099 1.85039,-0.272164 1.63099 1.77165,0.536904 -1.56395 1.85039,0.536904 -1.56395 1.77165]
}}
appearance Appearance{material USE IC-BODY-EPOXY-04 }}
Shape { geometry IndexedFaceSet 
{ creaseAngle 0.50 coordIndex [0,1,2,-1,3,4,5,-1,3,6,4,-1,4,7,8,-1,9,10,11,-1,11,10,12,-1,1,13,14,-1,10,13,12,-1,12,13,15,-1,15,13,16,-1,16,13,17,-1,17,13,18,-1,18,13,19,-1,0,13,1,-1,20,21,22,-1,19,13,0,-1,10,23,13,-1,22,24,6,-1,7,24,25,-1,4,24,7,-1,6,24,4,-1,24,26,27,-1,27,26,28,-1,21,26,22,-1,22,26,24,-1,29,19,30,-1,30,19,31,-1,32,18,19,-1,31,0,21,-1,26,0,33,-1,33,0,34,-1,34,0,35,-1,35,0,36,-1,36,0,37,-1,19,0,31,-1,21,0,26,-1]
coord Coordinate { point [-7.874e-16 1.65354 1.85039,0.536904 1.56395 1.85039,0.272164 1.63099 1.85039,-1.01563 -1.30488 1.85039,-1.38429 -0.904401 1.85039,-1.21655 -1.11991 1.85039,-0.786998 -1.45425 1.85039,-1.60294 -0.40592 1.85039,-1.51427 -0.664219 1.85039,1.51427 0.664219 1.85039,1.38429 0.904401 1.85039,1.60294 0.40592 1.85039,1.64789 0.136548 1.85039,1.01563 1.30488 1.85039,0.786998 1.45425 1.85039,1.64789 -0.136548 1.85039,1.60294 -0.40592 1.85039,1.51427 -0.664219 1.85039,1.38429 -0.904401 1.85039,1.01563 -1.30488 1.85039,-0.272164 -1.63099 1.85039,-9.84112e-16 -1.65354 1.85039,-0.536904 -1.56395 1.85039,1.21655 1.11991 1.85039,-1.64789 0.136548 1.85039,-1.64789 -0.136548 1.85039,-1.38429 0.904401 1.85039,-1.60294 0.40592 1.85039,-1.51427 0.664219 1.85039,0.786998 -1.45425 1.85039,0.536904 -1.56395 1.85039,0.272164 -1.63099 1.85039,1.21655 -1.11991 1.85039,-1.21655 1.11991 1.85039,-1.01563 1.30488 1.85039,-0.786998 1.45425 1.85039,-0.536904 1.56395 1.85039,-0.272164 1.63099 1.85039]
}}
appearance Appearance{material USE IC-BODY-EPOXY-04 }}
