(footprint "34.51"
	(version 20240108)
	(generator "pcbnew")
	(generator_version "8.0")
	(layer "F.Cu")
	(descr "Ultra-slim Relay, 1 CO, 6A")
	(property "Reference" "34.51"
		(at 0 0 0)
		(layer "F.Fab")
		(uuid "19938d2a-02b5-483a-860e-e81cab190323")
		(effects
			(font
				(size 1.2 1.2)
				(thickness 0.12)
			)
		)
	)
	(property "Value" "34.51"
		(at 0 0 0)
		(layer "F.Fab")
		(hide yes)
		(uuid "82645b55-77eb-468c-a8ff-5fefa128d18c")
		(effects
			(font
				(size 1.2 1.2)
				(thickness 0.12)
			)
		)
	)
	(property "Footprint" ""
		(at 0 0 0)
		(unlocked yes)
		(layer "F.Fab")
		(hide yes)
		(uuid "cb4abcbb-5632-454f-bcc2-64e53b6653fd")
		(effects
			(font
				(size 1.27 1.27)
				(thickness 0.15)
			)
		)
	)
	(property "Datasheet" ""
		(at 0 0 0)
		(unlocked yes)
		(layer "F.Fab")
		(hide yes)
		(uuid "636db1b8-3759-4d6d-aa15-581692f89236")
		(effects
			(font
				(size 1.27 1.27)
				(thickness 0.15)
			)
		)
	)
	(property "Description" ""
		(at 0 0 0)
		(unlocked yes)
		(layer "F.Fab")
		(hide yes)
		(uuid "2c41c1d5-b6ee-46ad-8a48-2e6ff3ad1c3b")
		(effects
			(font
				(size 1.27 1.27)
				(thickness 0.15)
			)
		)
	)
	(attr through_hole)
	(fp_rect
		(start -14 -2.5)
		(end 14 2.5)
		(stroke
			(width 0.12)
			(type solid)
		)
		(fill none)
		(layer "F.SilkS")
		(uuid "df198da2-101f-4a0f-8960-0346537a6947")
	)
	(fp_rect
		(start -14.5 -3)
		(end 14.5 3)
		(stroke
			(width 0.01)
			(type solid)
		)
		(fill none)
		(layer "F.CrtYd")
		(uuid "7ad1b6e1-3082-4604-8a72-1c71c6302354")
	)
	(fp_rect
		(start -14 -2.5)
		(end 14 2.5)
		(stroke
			(width 0.1)
			(type solid)
		)
		(fill none)
		(layer "F.Fab")
		(uuid "7ab34a24-df99-4d85-8a00-689dcd9af075")
	)
	(pad "11" thru_hole circle
		(at 7.1 -1.2)
		(size 2 2)
		(drill 1.3)
		(layers "*.Cu" "*.Mask")
		(remove_unused_layers no)
		(uuid "28f6b6c4-24fa-4f41-bd03-85bada17b2a9")
	)
	(pad "12" thru_hole circle
		(at 2.1 -1.2)
		(size 2 2)
		(drill 1.3)
		(layers "*.Cu" "*.Mask")
		(remove_unused_layers no)
		(uuid "c3a76d28-001a-45ec-84a3-460a9cc129ec")
	)
	(pad "14" thru_hole circle
		(at 12.1 -1.2)
		(size 2 2)
		(drill 1.3)
		(layers "*.Cu" "*.Mask")
		(remove_unused_layers no)
		(uuid "cc76b968-92ef-42e4-bad9-561fef4d4726")
	)
	(pad "A1" thru_hole circle
		(at -8.15 -1.2)
		(size 1.5 1.5)
		(drill 1)
		(layers "*.Cu" "*.Mask")
		(remove_unused_layers no)
		(uuid "bfa27569-8e37-4b3e-bf29-acb59eaeb413")
	)
	(pad "A2" thru_hole circle
		(at -11.9 -1.2)
		(size 1.5 1.5)
		(drill 1)
		(layers "*.Cu" "*.Mask")
		(remove_unused_layers no)
		(uuid "794e130a-c375-442b-ac4b-4f15d6260463")
	)
)
