(footprint "55.14"
	(version 20240108)
	(generator "pcbnew")
	(generator_version "8.0")
	(layer "F.Cu")
	(descr "General Purpose Relay, 4 CO, 7A")
	(property "Reference" "55.14"
		(at 0 0 0)
		(layer "F.Fab")
		(uuid "e7892141-f4ad-4a8e-9448-dbac570afc1f")
		(effects
			(font
				(size 1.2 1.2)
				(thickness 0.12)
			)
		)
	)
	(property "Value" "55.14"
		(at 0 0 0)
		(layer "F.Fab")
		(hide yes)
		(uuid "7111fe28-f8eb-45fa-9962-4ee4dbba825a")
		(effects
			(font
				(size 1.2 1.2)
				(thickness 0.12)
			)
		)
	)
	(property "Footprint" ""
		(at 0 0 -90)
		(unlocked yes)
		(layer "F.Fab")
		(hide yes)
		(uuid "9be97fae-a18a-4b59-9209-386f9b36fab4")
		(effects
			(font
				(size 1.27 1.27)
				(thickness 0.15)
			)
		)
	)
	(property "Datasheet" ""
		(at 0 0 -90)
		(unlocked yes)
		(layer "F.Fab")
		(hide yes)
		(uuid "ebdbca94-e39f-4fbb-9d54-55fceae80db2")
		(effects
			(font
				(size 1.27 1.27)
				(thickness 0.15)
			)
		)
	)
	(property "Description" ""
		(at 0 0 -90)
		(unlocked yes)
		(layer "F.Fab")
		(hide yes)
		(uuid "9d1cbf75-4b57-48bd-a541-77c8f3c40e73")
		(effects
			(font
				(size 1.27 1.27)
				(thickness 0.15)
			)
		)
	)
	(attr through_hole)
	(fp_rect
		(start -13.85 -10.35)
		(end 13.85 10.35)
		(stroke
			(width 0.12)
			(type solid)
		)
		(fill none)
		(layer "F.SilkS")
		(uuid "38a5fd9a-217a-479c-8aab-268034d03989")
	)
	(fp_rect
		(start -14.35 -10.85)
		(end 14.35 10.85)
		(stroke
			(width 0.01)
			(type solid)
		)
		(fill none)
		(layer "F.CrtYd")
		(uuid "54b58258-24d0-4e9d-8ca1-96b02aec11dc")
	)
	(fp_rect
		(start -13.85 -10.35)
		(end 13.85 10.35)
		(stroke
			(width 0.1)
			(type solid)
		)
		(fill none)
		(layer "F.Fab")
		(uuid "ed2bc484-720e-4856-97c8-301f683eaacb")
	)
	(pad "11" thru_hole circle
		(at -0.8 6.6 270)
		(size 2.3 2.3)
		(drill 1.5)
		(layers "*.Cu" "*.Mask")
		(remove_unused_layers no)
		(uuid "54f7f123-98b4-4b60-92d5-d9b04d661afa")
	)
	(pad "12" thru_hole circle
		(at 9.65 6.6 270)
		(size 2.3 2.3)
		(drill 1.5)
		(layers "*.Cu" "*.Mask")
		(remove_unused_layers no)
		(uuid "a07e164d-e69a-4e5b-9144-957d8ba65913")
	)
	(pad "14" thru_hole circle
		(at 5.55 6.6 270)
		(size 2.3 2.3)
		(drill 1.5)
		(layers "*.Cu" "*.Mask")
		(remove_unused_layers no)
		(uuid "881e8b37-914b-498b-b352-57998c831d9e")
	)
	(pad "21" thru_hole circle
		(at -0.8 2.2 270)
		(size 2.3 2.3)
		(drill 1.5)
		(layers "*.Cu" "*.Mask")
		(remove_unused_layers no)
		(uuid "698a484b-3369-4362-abf6-34b4b7c07d2f")
	)
	(pad "22" thru_hole circle
		(at 9.65 2.2 270)
		(size 2.3 2.3)
		(drill 1.5)
		(layers "*.Cu" "*.Mask")
		(remove_unused_layers no)
		(uuid "bd294314-784c-4b42-bc9b-6e437fd6ebb3")
	)
	(pad "24" thru_hole circle
		(at 5.55 2.2 270)
		(size 2.3 2.3)
		(drill 1.5)
		(layers "*.Cu" "*.Mask")
		(remove_unused_layers no)
		(uuid "132bc89a-b21c-4aa6-b409-84b26ec6de17")
	)
	(pad "31" thru_hole circle
		(at -0.8 -2.2 270)
		(size 2.3 2.3)
		(drill 1.5)
		(layers "*.Cu" "*.Mask")
		(remove_unused_layers no)
		(uuid "89646ec4-ba43-4e3d-934c-89de354397b5")
	)
	(pad "32" thru_hole circle
		(at 9.65 -2.2 270)
		(size 2.3 2.3)
		(drill 1.5)
		(layers "*.Cu" "*.Mask")
		(remove_unused_layers no)
		(uuid "44e7a824-18cb-4b4b-bd14-77193866bcd0")
	)
	(pad "34" thru_hole circle
		(at 5.55 -2.2 270)
		(size 2.3 2.3)
		(drill 1.5)
		(layers "*.Cu" "*.Mask")
		(remove_unused_layers no)
		(uuid "025c2259-c96c-478f-9900-6ea18d30a93b")
	)
	(pad "41" thru_hole circle
		(at -0.8 -6.6 270)
		(size 2.3 2.3)
		(drill 1.5)
		(layers "*.Cu" "*.Mask")
		(remove_unused_layers no)
		(uuid "2041af00-91e8-445d-b3d3-60acf66f6d37")
	)
	(pad "42" thru_hole circle
		(at 9.65 -6.6 270)
		(size 2.3 2.3)
		(drill 1.5)
		(layers "*.Cu" "*.Mask")
		(remove_unused_layers no)
		(uuid "43c5af25-5ff2-42a1-aeff-57d7cdb10da6")
	)
	(pad "44" thru_hole circle
		(at 5.55 -6.6 270)
		(size 2.3 2.3)
		(drill 1.5)
		(layers "*.Cu" "*.Mask")
		(remove_unused_layers no)
		(uuid "b9460fee-f2cc-4136-a965-31c9e9a4969c")
	)
	(pad "A1" thru_hole circle
		(at -7.15 6.6 270)
		(size 2.3 2.3)
		(drill 1.5)
		(layers "*.Cu" "*.Mask")
		(remove_unused_layers no)
		(uuid "ca1fadd2-1ab3-4ad2-b775-e3deaf8d3194")
	)
	(pad "A2" thru_hole circle
		(at -7.17 -6.6 270)
		(size 2.3 2.3)
		(drill 1.5)
		(layers "*.Cu" "*.Mask")
		(remove_unused_layers no)
		(uuid "92ad3ef3-9a73-4fa9-ad0c-4f2b88b3bd1c")
	)
)
