(footprint "55.13"
	(version 20240108)
	(generator "pcbnew")
	(generator_version "8.0")
	(layer "F.Cu")
	(descr "General Purpose Relay, 3 CO, 10A")
	(property "Reference" "55.13"
		(at 0 0 0)
		(layer "F.Fab")
		(uuid "223b7d6e-5353-490a-9480-d9334ad08432")
		(effects
			(font
				(size 1.2 1.2)
				(thickness 0.12)
			)
		)
	)
	(property "Value" "55.13"
		(at 0 0 0)
		(layer "F.Fab")
		(hide yes)
		(uuid "6e35d5e0-0626-4082-b494-84fe406f164d")
		(effects
			(font
				(size 1.2 1.2)
				(thickness 0.12)
			)
		)
	)
	(property "Footprint" ""
		(at 0 0 -90)
		(unlocked yes)
		(layer "F.Fab")
		(hide yes)
		(uuid "fb25c2f3-ba12-4fe1-9e1e-1642552bb1bd")
		(effects
			(font
				(size 1.27 1.27)
				(thickness 0.15)
			)
		)
	)
	(property "Datasheet" ""
		(at 0 0 -90)
		(unlocked yes)
		(layer "F.Fab")
		(hide yes)
		(uuid "b26b41da-2471-44a6-ac0b-167c93132d5d")
		(effects
			(font
				(size 1.27 1.27)
				(thickness 0.15)
			)
		)
	)
	(property "Description" ""
		(at 0 0 -90)
		(unlocked yes)
		(layer "F.Fab")
		(hide yes)
		(uuid "a4c7ef76-74a1-4572-9a3f-ec21f44d4ad5")
		(effects
			(font
				(size 1.27 1.27)
				(thickness 0.15)
			)
		)
	)
	(attr through_hole)
	(fp_rect
		(start -13.85 -10.35)
		(end 13.85 10.35)
		(stroke
			(width 0.12)
			(type solid)
		)
		(fill none)
		(layer "F.SilkS")
		(uuid "c0917d6c-dd95-4f00-a455-e50e9cd7fd23")
	)
	(fp_rect
		(start -14.35 -10.85)
		(end 14.35 10.85)
		(stroke
			(width 0.01)
			(type solid)
		)
		(fill none)
		(layer "F.CrtYd")
		(uuid "d08d0a97-cfe8-4d0b-aafb-33da7384df76")
	)
	(fp_rect
		(start -13.85 -10.35)
		(end 13.85 10.35)
		(stroke
			(width 0.1)
			(type solid)
		)
		(fill none)
		(layer "F.Fab")
		(uuid "0cd914fd-da72-49a4-9142-a2dab7b320a6")
	)
	(pad "11" thru_hole circle
		(at -0.8 6.6 270)
		(size 2.3 2.3)
		(drill 1.5)
		(layers "*.Cu" "*.Mask")
		(remove_unused_layers no)
		(uuid "b42e8a4a-9e6e-4cfb-b9e8-14680065f61d")
	)
	(pad "12" thru_hole circle
		(at 9.65 6.6 270)
		(size 2.3 2.3)
		(drill 1.5)
		(layers "*.Cu" "*.Mask")
		(remove_unused_layers no)
		(uuid "6470e4d9-0ac8-4006-ad9c-b091c7fb3880")
	)
	(pad "14" thru_hole circle
		(at 5.55 6.6 270)
		(size 2.3 2.3)
		(drill 1.5)
		(layers "*.Cu" "*.Mask")
		(remove_unused_layers no)
		(uuid "c96126da-eec8-4fe8-b524-e524a76b3e3a")
	)
	(pad "21" thru_hole circle
		(at -0.8 0 270)
		(size 2.3 2.3)
		(drill 1.5)
		(layers "*.Cu" "*.Mask")
		(remove_unused_layers no)
		(uuid "ecf6bfe8-93ef-470a-88de-6a8e524c1cad")
	)
	(pad "22" thru_hole circle
		(at 9.65 0 270)
		(size 2.3 2.3)
		(drill 1.5)
		(layers "*.Cu" "*.Mask")
		(remove_unused_layers no)
		(uuid "52eed442-7173-4509-a9bf-37331c079736")
	)
	(pad "24" thru_hole circle
		(at 5.55 0 270)
		(size 2.3 2.3)
		(drill 1.5)
		(layers "*.Cu" "*.Mask")
		(remove_unused_layers no)
		(uuid "70e2ff51-b19d-4ed6-a6a3-dd674c62c50e")
	)
	(pad "31" thru_hole circle
		(at -0.8 -6.6 270)
		(size 2.3 2.3)
		(drill 1.5)
		(layers "*.Cu" "*.Mask")
		(remove_unused_layers no)
		(uuid "2bb3d9f9-6aec-4ebf-b71b-cd1cbfa40c41")
	)
	(pad "32" thru_hole circle
		(at 9.65 -6.6 270)
		(size 2.3 2.3)
		(drill 1.5)
		(layers "*.Cu" "*.Mask")
		(remove_unused_layers no)
		(uuid "710f9110-617e-4d61-929b-1aedab7464e8")
	)
	(pad "34" thru_hole circle
		(at 5.55 -6.6 270)
		(size 2.3 2.3)
		(drill 1.5)
		(layers "*.Cu" "*.Mask")
		(remove_unused_layers no)
		(uuid "a75a27e5-2123-489a-9a3a-1a83dd70ebcd")
	)
	(pad "A1" thru_hole circle
		(at -7.15 6.6 270)
		(size 2.3 2.3)
		(drill 1.5)
		(layers "*.Cu" "*.Mask")
		(remove_unused_layers no)
		(uuid "ce7735c3-ca18-4abc-bb1c-191014e3acfd")
	)
	(pad "A2" thru_hole circle
		(at -7.17 -6.6 270)
		(size 2.3 2.3)
		(drill 1.5)
		(layers "*.Cu" "*.Mask")
		(remove_unused_layers no)
		(uuid "a4ce0bae-e12e-4c02-8440-dd4e44cb5bb8")
	)
)
