(footprint "62.23-0300"
	(version 20240108)
	(generator "pcbnew")
	(generator_version "8.0")
	(layer "F.Cu")
	(descr "Power Relay, 3 NO, 16A")
	(property "Reference" "62.23-0300"
		(at 0 0 0)
		(layer "F.Fab")
		(uuid "f6b208c8-9366-42c5-a520-faddad7d1347")
		(effects
			(font
				(size 1.2 1.2)
				(thickness 0.12)
			)
		)
	)
	(property "Value" "62.23-0300"
		(at 0 0 0)
		(layer "F.Fab")
		(hide yes)
		(uuid "43ba4e5d-6047-476e-a1bb-44d92afbb421")
		(effects
			(font
				(size 1.2 1.2)
				(thickness 0.12)
			)
		)
	)
	(property "Footprint" ""
		(at 0 0 -90)
		(unlocked yes)
		(layer "F.Fab")
		(hide yes)
		(uuid "524e84b4-9aef-489b-8eeb-14978c5e12d3")
		(effects
			(font
				(size 1.27 1.27)
				(thickness 0.15)
			)
		)
	)
	(property "Datasheet" ""
		(at 0 0 -90)
		(unlocked yes)
		(layer "F.Fab")
		(hide yes)
		(uuid "dfe5df0c-61c5-487a-8056-69e512b73d7d")
		(effects
			(font
				(size 1.27 1.27)
				(thickness 0.15)
			)
		)
	)
	(property "Description" ""
		(at 0 0 -90)
		(unlocked yes)
		(layer "F.Fab")
		(hide yes)
		(uuid "658474f1-0398-475c-b5c8-52dcf2cca009")
		(effects
			(font
				(size 1.27 1.27)
				(thickness 0.15)
			)
		)
	)
	(attr through_hole)
	(fp_rect
		(start -17.9 -19.1)
		(end 17.9 19.1)
		(stroke
			(width 0.12)
			(type solid)
		)
		(fill none)
		(layer "F.SilkS")
		(uuid "6e25b612-a8bb-4dc0-aad2-dc4b624586ac")
	)
	(fp_rect
		(start -18.4 -19.6)
		(end 18.4 19.6)
		(stroke
			(width 0.01)
			(type solid)
		)
		(fill none)
		(layer "F.CrtYd")
		(uuid "147f7be2-6f4d-417e-829e-4c451a1987b2")
	)
	(fp_line
		(start -17.9 -19.1)
		(end -17.9 19.1)
		(stroke
			(width 0.1)
			(type solid)
		)
		(layer "F.Fab")
		(uuid "28304a17-7625-40c8-a58d-53acba015fc5")
	)
	(fp_line
		(start 17.9 -19.1)
		(end -17.9 -19.1)
		(stroke
			(width 0.1)
			(type solid)
		)
		(layer "F.Fab")
		(uuid "20b0345e-f9d5-4d4e-888b-ddd2b181b83d")
	)
	(fp_line
		(start 17.9 -19.1)
		(end 17.9 19.1)
		(stroke
			(width 0.1)
			(type solid)
		)
		(layer "F.Fab")
		(uuid "22b5b1bf-e653-4a09-b401-05a4f2b98492")
	)
	(fp_line
		(start 17.9 19.1)
		(end -17.9 19.1)
		(stroke
			(width 0.1)
			(type solid)
		)
		(layer "F.Fab")
		(uuid "bbfc80e5-3d98-404a-a558-e7fc841712c2")
	)
	(pad "11" thru_hole circle
		(at -1.5 11.1 270)
		(size 3 3)
		(drill 2)
		(layers "*.Cu" "*.Mask")
		(remove_unused_layers no)
		(uuid "e6c70765-e4c5-4b08-bef1-819e62cc63bc")
	)
	(pad "14" thru_hole circle
		(at 6.5 11.1 270)
		(size 3 3)
		(drill 2)
		(layers "*.Cu" "*.Mask")
		(remove_unused_layers no)
		(uuid "e0e08613-0f8a-4fcf-979c-62fd29762e02")
	)
	(pad "21" thru_hole circle
		(at -1.5 0 270)
		(size 3 3)
		(drill 2)
		(layers "*.Cu" "*.Mask")
		(remove_unused_layers no)
		(uuid "d8351d75-5628-4aca-bfb2-49a4a56faff5")
	)
	(pad "24" thru_hole circle
		(at 6.5 0 270)
		(size 3 3)
		(drill 2)
		(layers "*.Cu" "*.Mask")
		(remove_unused_layers no)
		(uuid "70846315-ff60-4b09-a097-6ca7672b0432")
	)
	(pad "31" thru_hole circle
		(at -1.5 -11.1 270)
		(size 3 3)
		(drill 2)
		(layers "*.Cu" "*.Mask")
		(remove_unused_layers no)
		(uuid "d702100b-6c0c-4084-816e-3eb83c6c7b82")
	)
	(pad "34" thru_hole circle
		(at 6.5 -11.1 270)
		(size 3 3)
		(drill 2)
		(layers "*.Cu" "*.Mask")
		(remove_unused_layers no)
		(uuid "6cead638-27ac-43ec-bc8f-bb01917bcc8e")
	)
	(pad "A1" thru_hole circle
		(at -9.1 11.1 270)
		(size 3 3)
		(drill 2)
		(layers "*.Cu" "*.Mask")
		(remove_unused_layers no)
		(uuid "51c26d74-753d-4039-bddb-31feb450ffb8")
	)
	(pad "A2" thru_hole circle
		(at -9.1 -11.1 270)
		(size 3 3)
		(drill 2)
		(layers "*.Cu" "*.Mask")
		(remove_unused_layers no)
		(uuid "d657db73-eee2-42bc-8ec9-a893a1925195")
	)
)
