(footprint "67.23"
	(version 20240108)
	(generator "pcbnew")
	(generator_version "8.0")
	(layer "F.Cu")
	(descr "Solar Relay, 3 NO, 50A")
	(property "Reference" "67.23"
		(at 0 0 0)
		(layer "F.Fab")
		(uuid "19d182ac-4398-4851-86d4-4b7f4e443905")
		(effects
			(font
				(size 1.2 1.2)
				(thickness 0.12)
			)
		)
	)
	(property "Value" "67.23"
		(at 0 0 0)
		(layer "F.Fab")
		(hide yes)
		(uuid "4d23e8d3-e666-4089-bda1-8fcc5ebbe5de")
		(effects
			(font
				(size 1.2 1.2)
				(thickness 0.12)
			)
		)
	)
	(property "Footprint" ""
		(at 0 0 0)
		(unlocked yes)
		(layer "F.Fab")
		(hide yes)
		(uuid "bf8d84b3-7008-4b0c-9b78-8f9470c77bd1")
		(effects
			(font
				(size 1.27 1.27)
				(thickness 0.15)
			)
		)
	)
	(property "Datasheet" ""
		(at 0 0 0)
		(unlocked yes)
		(layer "F.Fab")
		(hide yes)
		(uuid "9ed143ae-b549-452c-a675-74a29e531b07")
		(effects
			(font
				(size 1.27 1.27)
				(thickness 0.15)
			)
		)
	)
	(property "Description" ""
		(at 0 0 0)
		(unlocked yes)
		(layer "F.Fab")
		(hide yes)
		(uuid "1651f4fd-ebfa-4ea4-9b8d-c52f5570fa60")
		(effects
			(font
				(size 1.27 1.27)
				(thickness 0.15)
			)
		)
	)
	(attr through_hole)
	(fp_line
		(start -25.75 -16)
		(end 0.45 -16)
		(stroke
			(width 0.12)
			(type default)
		)
		(layer "F.SilkS")
		(uuid "48335e83-2b59-4cd6-be45-35a10bc9df50")
	)
	(fp_line
		(start -25.75 16)
		(end -25.75 -16)
		(stroke
			(width 0.12)
			(type default)
		)
		(layer "F.SilkS")
		(uuid "11f273ab-5291-4098-ad3e-7cb243c438b2")
	)
	(fp_line
		(start 0.4 16)
		(end -25.75 16)
		(stroke
			(width 0.12)
			(type default)
		)
		(layer "F.SilkS")
		(uuid "bc94aa14-f297-47e1-a63e-44cc7407deb5")
	)
	(fp_line
		(start 5.75 -16)
		(end 19.35 -16)
		(stroke
			(width 0.12)
			(type default)
		)
		(layer "F.SilkS")
		(uuid "f4e5e0d9-1466-42be-af74-bd7c4808988e")
	)
	(fp_line
		(start 5.75 16)
		(end 19.35 16)
		(stroke
			(width 0.12)
			(type default)
		)
		(layer "F.SilkS")
		(uuid "280e1ae3-377e-485b-a770-0c9ca011fad0")
	)
	(fp_line
		(start 24.65 -16)
		(end 25.75 -16)
		(stroke
			(width 0.12)
			(type default)
		)
		(layer "F.SilkS")
		(uuid "560eaeaf-b0c5-4e6d-af24-95dda6c6255f")
	)
	(fp_line
		(start 24.65 16)
		(end 25.75 16)
		(stroke
			(width 0.12)
			(type default)
		)
		(layer "F.SilkS")
		(uuid "dc0ad566-f945-40ab-9e67-92cbed8e8a0b")
	)
	(fp_line
		(start 25.75 -16)
		(end 25.75 -13.65)
		(stroke
			(width 0.12)
			(type default)
		)
		(layer "F.SilkS")
		(uuid "bee19cae-66a6-4e66-a345-acd3c2095efa")
	)
	(fp_line
		(start 25.75 10.35)
		(end 25.75 -10.35)
		(stroke
			(width 0.12)
			(type default)
		)
		(layer "F.SilkS")
		(uuid "1fa6b529-697e-4c8f-b0da-505cc7440050")
	)
	(fp_line
		(start 25.75 16)
		(end 25.75 13.65)
		(stroke
			(width 0.12)
			(type default)
		)
		(layer "F.SilkS")
		(uuid "74973168-3504-492e-8478-6eb015308d4f")
	)
	(fp_rect
		(start -26.25 -16.5)
		(end 26.25 16.5)
		(stroke
			(width 0.01)
			(type solid)
		)
		(fill none)
		(layer "F.CrtYd")
		(uuid "e2bdc307-7d90-4cdf-9b9b-d002cc69e1a9")
	)
	(fp_rect
		(start -25.75 -16)
		(end 25.75 16)
		(stroke
			(width 0.1)
			(type solid)
		)
		(fill none)
		(layer "F.Fab")
		(uuid "95a1b03c-3b97-4af0-b959-fda7638bdf24")
	)
	(pad "11" thru_hole oval
		(at 3.1 12)
		(size 7.1 9.8)
		(drill oval 2.2 4.9)
		(layers "*.Cu" "*.Mask")
		(remove_unused_layers no)
		(uuid "26048fe3-8d89-4edb-b19e-7f89113f652b")
	)
	(pad "14" thru_hole oval
		(at 22 12)
		(size 7.1 9.8)
		(drill oval 2.2 4.9)
		(layers "*.Cu" "*.Mask")
		(remove_unused_layers no)
		(uuid "d489518f-70f6-4b77-aa62-1660d6754c13")
	)
	(pad "31" thru_hole oval
		(at 3.1 -12)
		(size 7.1 9.8)
		(drill oval 2.2 4.9)
		(layers "*.Cu" "*.Mask")
		(remove_unused_layers no)
		(uuid "7f8fe616-fbc6-4ad4-ae69-93a2fcf8dccf")
	)
	(pad "32" thru_hole oval
		(at 22 0)
		(size 7.1 9.8)
		(drill oval 2.2 4.9)
		(layers "*.Cu" "*.Mask")
		(remove_unused_layers no)
		(uuid "31d21b0f-2b71-411e-8cf4-d5ad4330b977")
	)
	(pad "33" thru_hole oval
		(at 3.1 0)
		(size 7.1 9.8)
		(drill oval 2.2 4.9)
		(layers "*.Cu" "*.Mask")
		(remove_unused_layers no)
		(uuid "88983951-08c7-4e6b-a310-fcba6ecf9a47")
	)
	(pad "34" thru_hole oval
		(at 22 -12)
		(size 7.1 9.8)
		(drill oval 2.2 4.9)
		(layers "*.Cu" "*.Mask")
		(remove_unused_layers no)
		(uuid "9094fe2a-887c-4aae-b269-0c68be1863eb")
	)
	(pad "A1" thru_hole circle
		(at -22.55 12)
		(size 3 3)
		(drill 2)
		(layers "*.Cu" "*.Mask")
		(remove_unused_layers no)
		(uuid "e3454a7c-f5bd-4f74-93d4-87e2180032f0")
	)
	(pad "A2" thru_hole circle
		(at -22.55 -12)
		(size 3 3)
		(drill 2)
		(layers "*.Cu" "*.Mask")
		(remove_unused_layers no)
		(uuid "b8407a8b-7311-4dda-86d9-1d5cbe8523ec")
	)
)
