(footprint "2x3"
	(version 20240108)
	(generator "pcbnew")
	(generator_version "8.0")
	(layer "F.Cu")
	(descr "Low Profile Male Box Header, 2x3 pins, 2.54mm pitch")
	(property "Reference" "2x3"
		(at 0 0 0)
		(layer "F.Fab")
		(uuid "77d14363-0387-4616-a4a8-497521fc5067")
		(effects
			(font
				(size 1.2 1.2)
				(thickness 0.12)
			)
		)
	)
	(property "Value" "2x3"
		(at 0 0 0)
		(layer "F.Fab")
		(hide yes)
		(uuid "ae331e45-8894-4eb5-8b92-685db3f8238a")
		(effects
			(font
				(size 1.2 1.2)
				(thickness 0.12)
			)
		)
	)
	(property "Footprint" ""
		(at 0 0 0)
		(unlocked yes)
		(layer "F.Fab")
		(hide yes)
		(uuid "1452ed87-530f-4d66-957d-61b587a489c9")
		(effects
			(font
				(size 1.27 1.27)
				(thickness 0.15)
			)
		)
	)
	(property "Datasheet" ""
		(at 0 0 0)
		(unlocked yes)
		(layer "F.Fab")
		(hide yes)
		(uuid "be9d6c83-166d-4ea0-bba5-3e6883f8a51f")
		(effects
			(font
				(size 1.27 1.27)
				(thickness 0.15)
			)
		)
	)
	(property "Description" ""
		(at 0 0 0)
		(unlocked yes)
		(layer "F.Fab")
		(hide yes)
		(uuid "efd0c392-d62a-45d7-9d2d-5e8048519d3c")
		(effects
			(font
				(size 1.27 1.27)
				(thickness 0.15)
			)
		)
	)
	(attr through_hole)
	(fp_line
		(start -7.7 -4.6)
		(end 7.7 -4.6)
		(stroke
			(width 0.12)
			(type solid)
		)
		(layer "F.SilkS")
		(uuid "996b2e68-2e4e-49ae-a958-a2f7b4f6781a")
	)
	(fp_line
		(start -7.7 4.6)
		(end -7.7 -4.6)
		(stroke
			(width 0.12)
			(type solid)
		)
		(layer "F.SilkS")
		(uuid "e899719d-f3c7-4dcc-82b1-90f4e207acdf")
	)
	(fp_line
		(start -3.15 4.6)
		(end -7.7 4.6)
		(stroke
			(width 0.12)
			(type solid)
		)
		(layer "F.SilkS")
		(uuid "afc1ee6f-b967-4bc5-82f9-c076722e9575")
	)
	(fp_line
		(start -2.25 3.6)
		(end 2.25 3.6)
		(stroke
			(width 0.12)
			(type solid)
		)
		(layer "F.SilkS")
		(uuid "b5d282c2-187a-4daf-acfd-1f52905a850c")
	)
	(fp_line
		(start -2.25 4.6)
		(end -2.25 3.6)
		(stroke
			(width 0.12)
			(type solid)
		)
		(layer "F.SilkS")
		(uuid "23ad8bb0-c597-47f2-9c8e-95d19064058e")
	)
	(fp_line
		(start -1.95 4.6)
		(end 7.7 4.6)
		(stroke
			(width 0.12)
			(type solid)
		)
		(layer "F.SilkS")
		(uuid "cb8b9578-af1d-4718-8d8d-b596aee8b5e9")
	)
	(fp_line
		(start 2.25 3.6)
		(end 2.25 4.6)
		(stroke
			(width 0.12)
			(type solid)
		)
		(layer "F.SilkS")
		(uuid "ce1cdd07-eaf7-40f7-a33e-a22ddc74b819")
	)
	(fp_line
		(start 7.7 -4.6)
		(end 7.7 4.6)
		(stroke
			(width 0.12)
			(type solid)
		)
		(layer "F.SilkS")
		(uuid "ed80f3a5-e550-446b-afdd-21f32314b998")
	)
	(fp_circle
		(center -2.55 5)
		(end -2.15 5)
		(stroke
			(width 0.12)
			(type solid)
		)
		(fill solid)
		(layer "F.SilkS")
		(uuid "e12c44a7-0e44-4b29-a11c-3b7caf6607e6")
	)
	(fp_rect
		(start -8.2 -5.1)
		(end 8.2 5.1)
		(stroke
			(width 0.01)
			(type solid)
		)
		(fill none)
		(layer "F.CrtYd")
		(uuid "bbd3497f-8e05-47c2-97c5-60c200479938")
	)
	(fp_line
		(start -6.7 4.6)
		(end -7.7 3.6)
		(stroke
			(width 0.1)
			(type solid)
		)
		(layer "F.Fab")
		(uuid "0658acfe-2811-4416-bc92-2de86886e6e9")
	)
	(fp_line
		(start -2.25 3.6)
		(end -2.25 4.6)
		(stroke
			(width 0.1)
			(type solid)
		)
		(layer "F.Fab")
		(uuid "b85c797f-c4b9-4068-beab-069c7bdcffe2")
	)
	(fp_line
		(start 2.25 3.6)
		(end -2.25 3.6)
		(stroke
			(width 0.1)
			(type solid)
		)
		(layer "F.Fab")
		(uuid "a644ae11-0327-495f-88ec-5137f6801061")
	)
	(fp_line
		(start 2.25 4.6)
		(end 2.25 3.6)
		(stroke
			(width 0.1)
			(type solid)
		)
		(layer "F.Fab")
		(uuid "0e6f3b02-ce01-430f-b1a3-f1d2d6fbafc6")
	)
	(fp_rect
		(start -7.7 -4.6)
		(end 7.7 4.6)
		(stroke
			(width 0.1)
			(type solid)
		)
		(fill none)
		(layer "F.Fab")
		(uuid "d1055699-7227-4f8a-b074-1c6835993cf2")
	)
	(fp_text user "${REFERENCE}"
		(at 0 -5.25 0)
		(unlocked yes)
		(layer "F.SilkS")
		(uuid "23f7d897-d266-488f-8124-9e14365ec0a0")
		(effects
			(font
				(size 0.8 0.8)
				(thickness 0.15)
			)
		)
	)
	(pad "1" thru_hole circle
		(at -2.54 1.27)
		(size 1.7 1.7)
		(drill 1.1)
		(layers "*.Cu" "*.Mask")
		(remove_unused_layers no)
		(uuid "97d6abc9-59f5-42c8-b34d-a28539b89ef2")
	)
	(pad "2" thru_hole circle
		(at -2.54 -1.27)
		(size 1.7 1.7)
		(drill 1.1)
		(layers "*.Cu" "*.Mask")
		(remove_unused_layers no)
		(uuid "967febc4-673e-4e36-a2df-ca630188626b")
	)
	(pad "3" thru_hole circle
		(at 0 1.27)
		(size 1.7 1.7)
		(drill 1.1)
		(layers "*.Cu" "*.Mask")
		(remove_unused_layers no)
		(uuid "3f415783-e1c4-4a9d-a54d-7c92706c7441")
	)
	(pad "4" thru_hole circle
		(at 0 -1.27)
		(size 1.7 1.7)
		(drill 1.1)
		(layers "*.Cu" "*.Mask")
		(remove_unused_layers no)
		(uuid "0996822f-6e3f-489c-8239-75f16661f5d4")
	)
	(pad "5" thru_hole circle
		(at 2.54 1.27)
		(size 1.7 1.7)
		(drill 1.1)
		(layers "*.Cu" "*.Mask")
		(remove_unused_layers no)
		(uuid "bae6db8d-1e93-442a-9cb9-e9844d455036")
	)
	(pad "6" thru_hole circle
		(at 2.54 -1.27)
		(size 1.7 1.7)
		(drill 1.1)
		(layers "*.Cu" "*.Mask")
		(remove_unused_layers no)
		(uuid "8c9ff567-a7d5-43e5-a811-7b61ceef364f")
	)
)
