(footprint "2x4"
	(version 20240108)
	(generator "pcbnew")
	(generator_version "8.0")
	(layer "F.Cu")
	(descr "Low Profile Male Box Header, 2x4 pins, 2.54mm Pitch")
	(property "Reference" "2x4"
		(at 0 0 0)
		(layer "F.Fab")
		(uuid "c1d3a032-cbab-48b9-bee0-7d428d4925bf")
		(effects
			(font
				(size 1.2 1.2)
				(thickness 0.12)
			)
		)
	)
	(property "Value" "2x4"
		(at 0 0 0)
		(layer "F.Fab")
		(hide yes)
		(uuid "dfc76cdc-2243-4b50-8016-b3275ee2c319")
		(effects
			(font
				(size 1.2 1.2)
				(thickness 0.12)
			)
		)
	)
	(property "Footprint" ""
		(at 0 0 0)
		(unlocked yes)
		(layer "F.Fab")
		(hide yes)
		(uuid "0f0ebd63-3277-42a1-816b-e83dff445b5d")
		(effects
			(font
				(size 1.27 1.27)
				(thickness 0.15)
			)
		)
	)
	(property "Datasheet" ""
		(at 0 0 0)
		(unlocked yes)
		(layer "F.Fab")
		(hide yes)
		(uuid "8a9ffa62-be06-4a8e-be4d-728cddedf4ee")
		(effects
			(font
				(size 1.27 1.27)
				(thickness 0.15)
			)
		)
	)
	(property "Description" ""
		(at 0 0 0)
		(unlocked yes)
		(layer "F.Fab")
		(hide yes)
		(uuid "396e7161-8ace-4df9-92dd-26af11ece935")
		(effects
			(font
				(size 1.27 1.27)
				(thickness 0.15)
			)
		)
	)
	(attr through_hole)
	(fp_line
		(start -9 -4.6)
		(end 9 -4.6)
		(stroke
			(width 0.12)
			(type solid)
		)
		(layer "F.SilkS")
		(uuid "91a93588-66ee-4df2-80c0-c68d95d103ec")
	)
	(fp_line
		(start -9 4.6)
		(end -9 -4.6)
		(stroke
			(width 0.12)
			(type solid)
		)
		(layer "F.SilkS")
		(uuid "1f4972f9-726e-48b8-8e92-e31f9efaf0b5")
	)
	(fp_line
		(start -4.4 4.6)
		(end -9 4.6)
		(stroke
			(width 0.12)
			(type solid)
		)
		(layer "F.SilkS")
		(uuid "9c030a71-ad7e-4be7-b614-be9189514365")
	)
	(fp_line
		(start -3.2 4.6)
		(end 9 4.6)
		(stroke
			(width 0.12)
			(type solid)
		)
		(layer "F.SilkS")
		(uuid "b696ecc7-e403-44e3-a7b9-f524b804cca8")
	)
	(fp_line
		(start -2.25 3.6)
		(end 2.25 3.6)
		(stroke
			(width 0.12)
			(type solid)
		)
		(layer "F.SilkS")
		(uuid "b3b40f1a-0aa7-4523-ad29-699a4e712d63")
	)
	(fp_line
		(start -2.25 4.6)
		(end -2.25 3.6)
		(stroke
			(width 0.12)
			(type solid)
		)
		(layer "F.SilkS")
		(uuid "9390f8a8-c6d6-492d-ad00-3b7be6d573d1")
	)
	(fp_line
		(start 2.25 3.6)
		(end 2.25 4.6)
		(stroke
			(width 0.12)
			(type solid)
		)
		(layer "F.SilkS")
		(uuid "8cf01354-2636-4c52-8787-12deb4d30674")
	)
	(fp_line
		(start 9 -4.6)
		(end 9 4.6)
		(stroke
			(width 0.12)
			(type solid)
		)
		(layer "F.SilkS")
		(uuid "869b2419-dbf7-4b4f-a2e7-9c82234b88e4")
	)
	(fp_circle
		(center -3.8 5)
		(end -3.4 5)
		(stroke
			(width 0.12)
			(type solid)
		)
		(fill solid)
		(layer "F.SilkS")
		(uuid "73efcbb1-c2d8-499a-affe-2f855caeb1dc")
	)
	(fp_rect
		(start -9.5 -5.1)
		(end 9.5 5.1)
		(stroke
			(width 0.01)
			(type solid)
		)
		(fill none)
		(layer "F.CrtYd")
		(uuid "79968442-a3b2-4b38-8ab7-6ad319ecf24f")
	)
	(fp_line
		(start -8 4.6)
		(end -9 3.6)
		(stroke
			(width 0.1)
			(type solid)
		)
		(layer "F.Fab")
		(uuid "977bbe9c-25c9-4d6e-b610-d15ea32efb56")
	)
	(fp_line
		(start -2.25 3.6)
		(end -2.25 4.6)
		(stroke
			(width 0.1)
			(type solid)
		)
		(layer "F.Fab")
		(uuid "8c257325-26b6-4c5f-bc7d-d95b4e30052c")
	)
	(fp_line
		(start 2.25 3.6)
		(end -2.25 3.6)
		(stroke
			(width 0.1)
			(type solid)
		)
		(layer "F.Fab")
		(uuid "0340ae89-30a1-4d81-a331-df9d3fdbc482")
	)
	(fp_line
		(start 2.25 4.6)
		(end 2.25 3.6)
		(stroke
			(width 0.1)
			(type solid)
		)
		(layer "F.Fab")
		(uuid "2e3018f1-e496-49c8-bc96-838574b6aec4")
	)
	(fp_rect
		(start -9 -4.6)
		(end 9 4.6)
		(stroke
			(width 0.1)
			(type solid)
		)
		(fill none)
		(layer "F.Fab")
		(uuid "e9068f67-970e-40dc-9f45-344958b08869")
	)
	(fp_text user "${REFERENCE}"
		(at 0 -5.25 0)
		(unlocked yes)
		(layer "F.SilkS")
		(uuid "dbc115c5-4e64-40d0-bbb7-1cc80c7c255e")
		(effects
			(font
				(size 0.8 0.8)
				(thickness 0.15)
			)
		)
	)
	(pad "1" thru_hole circle
		(at -3.81 1.27)
		(size 1.7 1.7)
		(drill 1.1)
		(layers "*.Cu" "*.Mask")
		(remove_unused_layers no)
		(uuid "96ebd680-7466-4a08-a15c-c00243ed3171")
	)
	(pad "2" thru_hole circle
		(at -3.81 -1.27)
		(size 1.7 1.7)
		(drill 1.1)
		(layers "*.Cu" "*.Mask")
		(remove_unused_layers no)
		(uuid "18a6231f-95f7-4feb-b130-7dc004c4ec4a")
	)
	(pad "3" thru_hole circle
		(at -1.27 1.27)
		(size 1.7 1.7)
		(drill 1.1)
		(layers "*.Cu" "*.Mask")
		(remove_unused_layers no)
		(uuid "6b2a0f3a-a5ab-43b7-96ba-f72a64edc47f")
	)
	(pad "4" thru_hole circle
		(at -1.27 -1.27)
		(size 1.7 1.7)
		(drill 1.1)
		(layers "*.Cu" "*.Mask")
		(remove_unused_layers no)
		(uuid "17a31a24-4687-4c26-9d96-7577dae5a61e")
	)
	(pad "5" thru_hole circle
		(at 1.27 1.27)
		(size 1.7 1.7)
		(drill 1.1)
		(layers "*.Cu" "*.Mask")
		(remove_unused_layers no)
		(uuid "0bfbbec3-2dd2-4e6b-a1b6-0ef555ce9e16")
	)
	(pad "6" thru_hole circle
		(at 1.27 -1.27)
		(size 1.7 1.7)
		(drill 1.1)
		(layers "*.Cu" "*.Mask")
		(remove_unused_layers no)
		(uuid "621608c7-5816-4acb-a650-c1b036a41c68")
	)
	(pad "7" thru_hole circle
		(at 3.81 1.27)
		(size 1.7 1.7)
		(drill 1.1)
		(layers "*.Cu" "*.Mask")
		(remove_unused_layers no)
		(uuid "781dfbbe-c452-495d-85f1-8d2f334d82cc")
	)
	(pad "8" thru_hole circle
		(at 3.81 -1.27)
		(size 1.7 1.7)
		(drill 1.1)
		(layers "*.Cu" "*.Mask")
		(remove_unused_layers no)
		(uuid "d6725021-6a46-41cd-af21-5da4d95f4b06")
	)
)
