(footprint "MF-NSML"
	(version 20240108)
	(generator "pcbnew")
	(generator_version "8.0")
	(layer "F.Cu")
	(property "Reference" "MF-NSML"
		(at 0 0 0)
		(layer "F.Fab")
		(uuid "76dc7ed1-434c-46e7-8109-ab040b38118e")
		(effects
			(font
				(size 0.8 0.8)
				(thickness 0.08)
			)
		)
	)
	(property "Value" "MF-NSML"
		(at 0 0 0)
		(layer "F.Fab")
		(hide yes)
		(uuid "b92657c4-7071-4fe2-af29-8d4259237a45")
		(effects
			(font
				(size 0.8 0.8)
				(thickness 0.08)
			)
		)
	)
	(property "Footprint" ""
		(at 0 0 0)
		(unlocked yes)
		(layer "F.Fab")
		(hide yes)
		(uuid "39226401-34d1-4417-9b0f-c0f9d3dc90dd")
		(effects
			(font
				(size 1.27 1.27)
				(thickness 0.15)
			)
		)
	)
	(property "Datasheet" ""
		(at 0 0 0)
		(unlocked yes)
		(layer "F.Fab")
		(hide yes)
		(uuid "e05b3785-8a8c-477f-b5da-527488573278")
		(effects
			(font
				(size 1.27 1.27)
				(thickness 0.15)
			)
		)
	)
	(property "Description" ""
		(at 0 0 0)
		(unlocked yes)
		(layer "F.Fab")
		(hide yes)
		(uuid "79f98b01-64ce-45c1-960b-a6dbe3ca9094")
		(effects
			(font
				(size 1.27 1.27)
				(thickness 0.15)
			)
		)
	)
	(attr smd)
	(fp_line
		(start -0.7 -0.9)
		(end 0.7 -0.9)
		(stroke
			(width 0.12)
			(type default)
		)
		(layer "F.SilkS")
		(uuid "4bfd4a47-f438-45ba-a58c-9ed819d1a263")
	)
	(fp_line
		(start -0.7 0.9)
		(end 0.7 0.9)
		(stroke
			(width 0.12)
			(type default)
		)
		(layer "F.SilkS")
		(uuid "4bbc4657-db48-4a85-8496-24bf08b045e6")
	)
	(fp_rect
		(start -2.2 -1.1)
		(end 2.2 1.1)
		(stroke
			(width 0.01)
			(type solid)
		)
		(fill none)
		(layer "F.CrtYd")
		(uuid "61703682-ea30-46e0-bd14-eefd0970c014")
	)
	(fp_rect
		(start -1.75 -0.9)
		(end 1.75 0.9)
		(stroke
			(width 0.1)
			(type solid)
		)
		(fill none)
		(layer "F.Fab")
		(uuid "19d4e4cc-d280-410c-8bfa-60462881d408")
	)
	(pad "1" smd rect
		(at -1.5 0)
		(size 1 1.6)
		(layers "F.Cu" "F.Paste" "F.Mask")
		(uuid "f68bc8a3-3f7f-4870-a32e-3796b5330549")
	)
	(pad "2" smd rect
		(at 1.5 0)
		(size 1 1.6)
		(layers "F.Cu" "F.Paste" "F.Mask")
		(uuid "ae7df133-2b05-4bc3-b17e-bc26ccb3771a")
	)
)
