(module "MF-R300" (layer "F.Cu") (tedit 5510178F)
  (fp_text reference "MF-R300" (at 0 0) (layer "F.Fab")  (effects (font (size 1.2 1.2) (thickness 0.12)))
  )
  (fp_text value "MF-R300" (at 0 0) (layer "F.Fab") hide  (effects (font (size 1.2 1.2) (thickness 0.12)))
  )
  (fp_line (start 9.65 -2) (end 9.65 2) (layer "F.CrtYd") (width 0.01))
  (fp_line (start 9.65 2) (end -9.65 2) (layer "F.CrtYd") (width 0.01))
  (fp_line (start -9.65 2) (end -9.65 -2) (layer "F.CrtYd") (width 0.01))
  (fp_line (start -9.65 -2) (end 9.65 -2) (layer "F.CrtYd") (width 0.01))
  (fp_arc (start -7.65 0) (end -7.65 1.5) (angle 180) (layer "F.Fab") (width 0.10))
  (fp_arc (start 7.65 0) (end 7.65 -1.5) (angle 180) (layer "F.Fab") (width 0.10))
  (fp_line (start -7.65 1.5) (end 7.65 1.5) (layer "F.Fab") (width 0.10))
  (fp_line (start 7.65 -1.5) (end -7.65 -1.5) (layer "F.Fab") (width 0.10))
  (fp_line (start -7.65 -1.5) (end 7.65 -1.5) (layer "F.SilkS") (width 0.12))
  (fp_line (start 7.65 1.5) (end -7.65 1.5) (layer "F.SilkS") (width 0.12))
  (fp_arc (start -7.65 0) (end -7.65 1.5) (angle 180) (layer "F.SilkS") (width 0.12))
  (fp_arc (start 7.65 0) (end 7.65 -1.5) (angle 180) (layer "F.SilkS") (width 0.12))
  (pad "1" thru_hole circle (at -2.55 0) (size 1.5 1.5) (drill 1) (layers "*.Cu" "*.Mask"))
  (pad "2" thru_hole circle (at 2.55 0) (size 1.5 1.5) (drill 1) (layers "*.Cu" "*.Mask"))
)
