(module "MF-RX025" (layer "F.Cu") (tedit 5510178F)
  (fp_text reference "MF-RX025" (at 0 0) (layer "F.Fab")  (effects (font (size 1.2 1.2) (thickness 0.12)))
  )
  (fp_text value "MF-RX025" (at 0 0) (layer "F.Fab") hide  (effects (font (size 1.2 1.2) (thickness 0.12)))
  )
  (fp_line (start 6.85 -2.05) (end 6.85 2.05) (layer "F.CrtYd") (width 0.01))
  (fp_line (start 6.85 2.05) (end -6.85 2.05) (layer "F.CrtYd") (width 0.01))
  (fp_line (start -6.85 2.05) (end -6.85 -2.05) (layer "F.CrtYd") (width 0.01))
  (fp_line (start -6.85 -2.05) (end 6.85 -2.05) (layer "F.CrtYd") (width 0.01))
  (fp_arc (start -4.8 0) (end -4.8 1.55) (angle 180) (layer "F.Fab") (width 0.10))
  (fp_arc (start 4.8 0) (end 4.8 -1.55) (angle 180) (layer "F.Fab") (width 0.10))
  (fp_line (start -4.8 1.55) (end 4.8 1.55) (layer "F.Fab") (width 0.10))
  (fp_line (start 4.8 -1.55) (end -4.8 -1.55) (layer "F.Fab") (width 0.10))
  (fp_line (start -4.8 -1.55) (end 4.8 -1.55) (layer "F.SilkS") (width 0.12))
  (fp_line (start 4.8 1.55) (end -4.8 1.55) (layer "F.SilkS") (width 0.12))
  (fp_arc (start -4.8 0) (end -4.8 1.55) (angle 180) (layer "F.SilkS") (width 0.12))
  (fp_arc (start 4.8 0) (end 4.8 -1.55) (angle 180) (layer "F.SilkS") (width 0.12))
  (pad "1" thru_hole circle (at -2.55 0) (size 1.1 1.1) (drill 0.7) (layers "*.Cu" "*.Mask"))
  (pad "2" thru_hole circle (at 2.55 0) (size 1.1 1.1) (drill 0.7) (layers "*.Cu" "*.Mask"))
)
