(footprint "MF-USML"
	(version 20240108)
	(generator "pcbnew")
	(generator_version "8.0")
	(layer "F.Cu")
	(property "Reference" "MF-USML"
		(at 0 0 0)
		(layer "F.Fab")
		(uuid "fbad7988-d400-47aa-b83a-a95ab9490603")
		(effects
			(font
				(size 0.8 0.8)
				(thickness 0.08)
			)
		)
	)
	(property "Value" "MF-USML"
		(at 0 0 0)
		(layer "F.Fab")
		(hide yes)
		(uuid "f680315d-ac71-47fa-a039-8f47b6eb45ed")
		(effects
			(font
				(size 0.8 0.8)
				(thickness 0.08)
			)
		)
	)
	(property "Footprint" ""
		(at 0 0 0)
		(unlocked yes)
		(layer "F.Fab")
		(hide yes)
		(uuid "f2aa6efb-038e-4b6c-9dd6-a22087da5bd0")
		(effects
			(font
				(size 1.27 1.27)
				(thickness 0.15)
			)
		)
	)
	(property "Datasheet" ""
		(at 0 0 0)
		(unlocked yes)
		(layer "F.Fab")
		(hide yes)
		(uuid "1be35156-d9d5-4981-a406-1f394b3177f0")
		(effects
			(font
				(size 1.27 1.27)
				(thickness 0.15)
			)
		)
	)
	(property "Description" ""
		(at 0 0 0)
		(unlocked yes)
		(layer "F.Fab")
		(hide yes)
		(uuid "8474f4e6-9625-42c5-8ae6-09e9295d8927")
		(effects
			(font
				(size 1.27 1.27)
				(thickness 0.15)
			)
		)
	)
	(attr smd)
	(fp_line
		(start -0.7 -1.4)
		(end 0.7 -1.4)
		(stroke
			(width 0.12)
			(type default)
		)
		(layer "F.SilkS")
		(uuid "ea092460-cbae-4891-ac27-60f3d2e9db1d")
	)
	(fp_line
		(start -0.7 1.4)
		(end 0.7 1.4)
		(stroke
			(width 0.12)
			(type default)
		)
		(layer "F.SilkS")
		(uuid "3a0cdee9-d56b-4d7b-a5a2-e27357adee97")
	)
	(fp_rect
		(start -2.2 -1.6)
		(end 2.2 1.6)
		(stroke
			(width 0.01)
			(type solid)
		)
		(fill none)
		(layer "F.CrtYd")
		(uuid "7d181c51-6778-40fb-9636-ae2dc65d958f")
	)
	(fp_rect
		(start -1.75 -1.4)
		(end 1.75 1.4)
		(stroke
			(width 0.1)
			(type solid)
		)
		(fill none)
		(layer "F.Fab")
		(uuid "2a4b285d-7949-4f73-9983-200f0074b900")
	)
	(pad "1" smd rect
		(at -1.5 0)
		(size 1 2.5)
		(layers "F.Cu" "F.Paste" "F.Mask")
		(uuid "043042f2-2294-42b0-be02-3cfbc9327958")
	)
	(pad "2" smd rect
		(at 1.5 0)
		(size 1 2.5)
		(layers "F.Cu" "F.Paste" "F.Mask")
		(uuid "b697cb36-5d25-405a-9364-05d769d18be1")
	)
)
