(module "LVR125" (layer F.Cu) (tedit 5510178F)
  (descr "Radial Lead Polyswitch 21.2x5.1")
  (fp_text reference "LVR125" (at 0 0) (layer F.Fab)
    (effects (font (size 1.2 1.2) (thickness 0.12)))
  )
  (fp_text value "LVR125" (at 0 0) (layer F.Fab) hide
    (effects (font (size 1.2 1.2) (thickness 0.12)))
  )
  (fp_line (start 11.1 -3.05) (end 11.1 3.05) (layer F.CrtYd) (width 0.01))
  (fp_line (start 11.1 3.05) (end -11.1 3.05) (layer F.CrtYd) (width 0.01))
  (fp_line (start -11.1 3.05) (end -11.1 -3.05) (layer F.CrtYd) (width 0.01))
  (fp_line (start -11.1 -3.05) (end 11.1 -3.05) (layer F.CrtYd) (width 0.01))
  (fp_arc (start -8.05 0) (end -8.05 2.55) (angle 180) (layer F.Fab) (width 0.12))
  (fp_arc (start 8.05 0) (end 8.05 -2.55) (angle 180) (layer F.Fab) (width 0.12))
  (fp_line (start -8.05 2.55) (end 8.05 2.55) (layer F.Fab) (width 0.12))
  (fp_line (start 8.05 -2.55) (end -8.05 -2.55) (layer F.Fab) (width 0.12))
  (fp_line (start -8.05 -2.55) (end 8.05 -2.55) (layer F.SilkS) (width 0.12))
  (fp_line (start 8.05 2.55) (end -8.05 2.55) (layer F.SilkS) (width 0.12))
  (fp_arc (start -8.05 0) (end -8.05 2.55) (angle 180) (layer F.SilkS) (width 0.12))
  (fp_arc (start 8.05 0) (end 8.05 -2.55) (angle 180) (layer F.SilkS) (width 0.12))
  (pad "1" thru_hole circle (at -5 0) (size 1.5 1.5) (drill 1) (layers *.Cu *.Mask))
  (pad "2" thru_hole circle (at 5 0) (size 1.5 1.5) (drill 1) (layers *.Cu *.Mask))
)
