(footprint "miniSMDC"
	(version 20240108)
	(generator "pcbnew")
	(generator_version "8.0")
	(layer "F.Cu")
	(descr "SMD Polyswitch 1812 size")
	(tags "1812")
	(property "Reference" "miniSMDC"
		(at 0 0 0)
		(layer "F.Fab")
		(uuid "d14c4a6c-89cb-4f91-ba91-3f31525af9c9")
		(effects
			(font
				(size 0.8 0.8)
				(thickness 0.08)
			)
		)
	)
	(property "Value" "miniSMDC"
		(at 0 0 0)
		(layer "F.Fab")
		(hide yes)
		(uuid "243d43a3-67bd-4782-b239-ed566e6f96cc")
		(effects
			(font
				(size 0.8 0.8)
				(thickness 0.08)
			)
		)
	)
	(property "Footprint" ""
		(at 0 0 0)
		(layer "F.Fab")
		(hide yes)
		(uuid "da86a6bc-589d-4186-8444-af7e0709cc25")
		(effects
			(font
				(size 1.27 1.27)
				(thickness 0.15)
			)
		)
	)
	(property "Datasheet" ""
		(at 0 0 0)
		(layer "F.Fab")
		(hide yes)
		(uuid "d23f756b-2c0f-4b7a-ac4b-5ac750d7386d")
		(effects
			(font
				(size 1.27 1.27)
				(thickness 0.15)
			)
		)
	)
	(property "Description" ""
		(at 0 0 0)
		(layer "F.Fab")
		(hide yes)
		(uuid "a0666c73-c699-423d-9adf-3371963cf6e7")
		(effects
			(font
				(size 1.27 1.27)
				(thickness 0.15)
			)
		)
	)
	(attr smd)
	(fp_line
		(start -1.25 1.55)
		(end 1.25 1.55)
		(stroke
			(width 0.12)
			(type default)
		)
		(layer "F.SilkS")
		(uuid "5de73b6c-cf49-4194-8c21-d84c9e7d75d2")
	)
	(fp_line
		(start 1.25 -1.55)
		(end -1.25 -1.55)
		(stroke
			(width 0.12)
			(type default)
		)
		(layer "F.SilkS")
		(uuid "057add9c-d4bf-4c2a-a489-d42e92d0939c")
	)
	(fp_rect
		(start -3.45 -1.8)
		(end 3.45 1.8)
		(stroke
			(width 0.01)
			(type solid)
		)
		(fill none)
		(layer "F.CrtYd")
		(uuid "3e88e0c5-de24-4df6-9718-a6a33c8243a2")
	)
	(fp_rect
		(start -2.45 -1.55)
		(end 2.45 1.55)
		(stroke
			(width 0.12)
			(type solid)
		)
		(fill none)
		(layer "F.Fab")
		(uuid "53448ad5-978e-4d05-a064-212b3791d2d6")
	)
	(pad "1" smd rect
		(at -2.4 0)
		(size 1.7 3.2)
		(layers "F.Cu" "F.Paste" "F.Mask")
		(uuid "05d357c7-2f98-4516-bc8f-bdf95529c200")
	)
	(pad "2" smd rect
		(at 2.4 0)
		(size 1.7 3.2)
		(layers "F.Cu" "F.Paste" "F.Mask")
		(uuid "b347a0cc-3ed0-4dc2-824d-6176c1d1bf30")
	)
	(model ":KICAD6_3DMODEL_DIR:Littelfuse/miniSMDC050F.wrl"
		(offset
			(xyz 0 0 0)
		)
		(scale
			(xyz 1 1 1)
		)
		(rotate
			(xyz 0 0 0)
		)
	)
)
