(module "RUEF160" (layer F.Cu) (tedit 5E0B03E1)
  (descr "Radial Lead Polyswitch 8.9x3.0")
  (fp_text reference "RUEF160" (at 0 0) (layer F.Fab)
    (effects (font (size 1.2 1.2) (thickness 0.12)))
  )
  (fp_text value "RUEF160" (at 0 0) (layer F.Fab) hide
    (effects (font (size 1.2 1.2) (thickness 0.12)))
  )
  (fp_line (start 4.95 -2) (end 4.95 2) (layer F.CrtYd) (width 0.01))
  (fp_line (start 4.95 2) (end -4.95 2) (layer F.CrtYd) (width 0.01))
  (fp_line (start -4.95 2) (end -4.95 -2) (layer F.CrtYd) (width 0.01))
  (fp_line (start -4.95 -2) (end 4.95 -2) (layer F.CrtYd) (width 0.01))
  (fp_arc (start -2.95 0) (end -2.95 1.5) (angle 180) (layer F.Fab) (width 0.12))
  (fp_arc (start 2.95 0) (end 2.95 -1.5) (angle 180) (layer F.Fab) (width 0.12))
  (fp_line (start -2.95 1.5) (end 2.95 1.5) (layer F.Fab) (width 0.12))
  (fp_line (start 2.95 -1.5) (end -2.95 -1.5) (layer F.Fab) (width 0.12))
  (fp_line (start -2.95 -1.5) (end 2.95 -1.5) (layer F.SilkS) (width 0.12))
  (fp_line (start 2.95 1.5) (end -2.95 1.5) (layer F.SilkS) (width 0.12))
  (fp_arc (start -2.95 0) (end -2.95 1.5) (angle 180) (layer F.SilkS) (width 0.12))
  (fp_arc (start 2.95 0) (end 2.95 -1.5) (angle 180) (layer F.SilkS) (width 0.12))
  (pad "1" thru_hole circle (at -2.5 0) (size 1.1 1.1) (drill 0.7) (layers *.Cu *.Mask))
  (pad "2" thru_hole circle (at 2.5 0) (size 1.1 1.1) (drill 0.7) (layers *.Cu *.Mask))
  (model "${KISYS3DMOD}/Polyswitch/RUEF160.wrl"
    (at (xyz 0 0 0))
    (scale (xyz 1 1 1))
    (rotate (xyz 0 0 0))
  )
)
