(module "RXEF375" (layer F.Cu) (tedit 5510178F)
  (descr "Radial Lead Polyswitch 27.2x3.4")
  (fp_text reference "RXEF375" (at 0 0) (layer F.Fab)
    (effects (font (size 1.2 1.2) (thickness 0.12)))
  )
  (fp_text value "RXEF375" (at 0 0) (layer F.Fab) hide
    (effects (font (size 1.2 1.2) (thickness 0.12)))
  )
  (fp_line (start 14.1 -2.2) (end 14.1 2.2) (layer F.CrtYd) (width 0.01))
  (fp_line (start 14.1 2.2) (end -14.1 2.2) (layer F.CrtYd) (width 0.01))
  (fp_line (start -14.1 2.2) (end -14.1 -2.2) (layer F.CrtYd) (width 0.01))
  (fp_line (start -14.1 -2.2) (end 14.1 -2.2) (layer F.CrtYd) (width 0.01))
  (fp_arc (start -11.9 0) (end -11.9 1.7) (angle 180) (layer F.Fab) (width 0.12))
  (fp_arc (start 11.9 0) (end 11.9 -1.7) (angle 180) (layer F.Fab) (width 0.12))
  (fp_line (start -11.9 1.7) (end 11.9 1.7) (layer F.Fab) (width 0.12))
  (fp_line (start 11.9 -1.7) (end -11.9 -1.7) (layer F.Fab) (width 0.12))
  (fp_line (start -11.9 -1.7) (end 11.9 -1.7) (layer F.SilkS) (width 0.12))
  (fp_line (start 11.9 1.7) (end -11.9 1.7) (layer F.SilkS) (width 0.12))
  (fp_arc (start -11.9 0) (end -11.9 1.7) (angle 180) (layer F.SilkS) (width 0.12))
  (fp_arc (start 11.9 0) (end 11.9 -1.7) (angle 180) (layer F.SilkS) (width 0.12))
  (pad "1" thru_hole circle (at -5 0) (size 1.5 1.5) (drill 1) (layers *.Cu *.Mask))
  (pad "2" thru_hole circle (at 5 0) (size 1.5 1.5) (drill 1) (layers *.Cu *.Mask))
)
