(module "RXEF135" (layer F.Cu) (tedit 5510178F)
  (descr "Radial Lead Polyswitch 14.5x3.0")
  (fp_text reference "RXEF135" (at 0 0) (layer F.Fab)
    (effects (font (size 1.2 1.2) (thickness 0.12)))
  )
  (fp_text value "RXEF135" (at 0 0) (layer F.Fab) hide
    (effects (font (size 1.2 1.2) (thickness 0.12)))
  )
  (fp_line (start 7.75 -2) (end 7.75 2) (layer F.CrtYd) (width 0.01))
  (fp_line (start 7.75 2) (end -7.75 2) (layer F.CrtYd) (width 0.01))
  (fp_line (start -7.75 2) (end -7.75 -2) (layer F.CrtYd) (width 0.01))
  (fp_line (start -7.75 -2) (end 7.75 -2) (layer F.CrtYd) (width 0.01))
  (fp_arc (start -5.75 0) (end -5.75 1.5) (angle 180) (layer F.Fab) (width 0.12))
  (fp_arc (start 5.75 0) (end 5.75 -1.5) (angle 180) (layer F.Fab) (width 0.12))
  (fp_line (start -5.75 1.5) (end 5.75 1.5) (layer F.Fab) (width 0.12))
  (fp_line (start 5.75 -1.5) (end -5.75 -1.5) (layer F.Fab) (width 0.12))
  (fp_line (start -5.75 -1.5) (end 5.75 -1.5) (layer F.SilkS) (width 0.12))
  (fp_line (start 5.75 1.5) (end -5.75 1.5) (layer F.SilkS) (width 0.12))
  (fp_arc (start -5.75 0) (end -5.75 1.5) (angle 180) (layer F.SilkS) (width 0.12))
  (fp_arc (start 5.75 0) (end 5.75 -1.5) (angle 180) (layer F.SilkS) (width 0.12))
  (pad "1" thru_hole circle (at -2.5 0) (size 1.5 1.5) (drill 1) (layers *.Cu *.Mask))
  (pad "2" thru_hole circle (at 2.5 0) (size 1.5 1.5) (drill 1) (layers *.Cu *.Mask))
)
