(module "RXEF300" (layer F.Cu) (tedit 5510178F)
  (descr "Radial Lead Polyswitch 23.9x3.4")
  (fp_text reference "RXEF300" (at 0 0) (layer F.Fab)
    (effects (font (size 1.2 1.2) (thickness 0.12)))
  )
  (fp_text value "RXEF300" (at 0 0) (layer F.Fab) hide
    (effects (font (size 1.2 1.2) (thickness 0.12)))
  )
  (fp_line (start 12.45 -2.2) (end 12.45 2.2) (layer F.CrtYd) (width 0.01))
  (fp_line (start 12.45 2.2) (end -12.45 2.2) (layer F.CrtYd) (width 0.01))
  (fp_line (start -12.45 2.2) (end -12.45 -2.2) (layer F.CrtYd) (width 0.01))
  (fp_line (start -12.45 -2.2) (end 12.45 -2.2) (layer F.CrtYd) (width 0.01))
  (fp_arc (start -10.25 0) (end -10.25 1.7) (angle 180) (layer F.Fab) (width 0.12))
  (fp_arc (start 10.25 0) (end 10.25 -1.7) (angle 180) (layer F.Fab) (width 0.12))
  (fp_line (start -10.25 1.7) (end 10.25 1.7) (layer F.Fab) (width 0.12))
  (fp_line (start 10.25 -1.7) (end -10.25 -1.7) (layer F.Fab) (width 0.12))
  (fp_line (start -10.25 -1.7) (end 10.25 -1.7) (layer F.SilkS) (width 0.12))
  (fp_line (start 10.25 1.7) (end -10.25 1.7) (layer F.SilkS) (width 0.12))
  (fp_arc (start -10.25 0) (end -10.25 1.7) (angle 180) (layer F.SilkS) (width 0.12))
  (fp_arc (start 10.25 0) (end 10.25 -1.7) (angle 180) (layer F.SilkS) (width 0.12))
  (pad "1" thru_hole circle (at -5 0) (size 1.5 1.5) (drill 1) (layers *.Cu *.Mask))
  (pad "2" thru_hole circle (at 5 0) (size 1.5 1.5) (drill 1) (layers *.Cu *.Mask))
)
