(footprint "SMDC" (version 20221018) (generator pcbnew)
  (layer "F.Cu")
  (descr "SMD Polyswitch 2920 size")
  (tags "NoIPC")
  (attr smd)
  (fp_text reference "SMDC" (at 0 0) (layer "F.Fab")
      (effects (font (size 1.2 1.2) (thickness 0.12)))
    (tstamp d14c4a6c-89cb-4f91-ba91-3f31525af9c9)
  )
  (fp_text value "SMDC" (at 0 0) (layer "F.Fab") hide
      (effects (font (size 1.2 1.2) (thickness 0.12)))
    (tstamp 243d43a3-67bd-4782-b239-ed566e6f96cc)
  )
  (fp_line (start -2 2.65) (end 2 2.65)
    (stroke (width 0.12) (type solid)) (layer "F.SilkS") (tstamp 5a40d5bc-7ce5-4d10-b13e-d1866e737edb))
  (fp_line (start 2 -2.65) (end -2 -2.65)
    (stroke (width 0.12) (type solid)) (layer "F.SilkS") (tstamp 7a3ec74d-5eaa-4ff0-bcbe-35488d16fe0f))
  (fp_rect (start -4.5 -2.85) (end 4.5 2.85)
    (stroke (width 0.01) (type default)) (fill none) (layer "F.CrtYd") (tstamp 5b3363df-99f8-4fa6-a051-ce179d0baa54))
  (fp_rect (start -3.85 -2.65) (end 3.85 2.65)
    (stroke (width 0.12) (type default)) (fill none) (layer "F.Fab") (tstamp 970604e1-e3af-403e-8d4a-19c9dbd6bf38))
  (pad "1" smd rect (at -3.3 0) (size 2 5.3) (layers "F.Cu" "F.Paste" "F.Mask") (tstamp 05d357c7-2f98-4516-bc8f-bdf95529c200))
  (pad "2" smd rect (at 3.3 0) (size 2 5.3) (layers "F.Cu" "F.Paste" "F.Mask") (tstamp b347a0cc-3ed0-4dc2-824d-6176c1d1bf30))
  (model "Littelfuse/SMDC.wrl"
    (offset (xyz 0 0 0))
    (scale (xyz 1 1 1))
    (rotate (xyz 0 0 0))
  )
)
