(footprint "Bourns-PQ2614B"
	(version 20240108)
	(generator "pcbnew")
	(generator_version "8.0")
	(layer "F.Cu")
	(descr "Shielded Power Inductor")
	(property "Reference" "PQ2614B"
		(at 0 0 0)
		(unlocked yes)
		(layer "F.Fab")
		(uuid "528f3340-7a1a-4ac4-a020-239d3602a003")
		(effects
			(font
				(size 1.2 1.2)
				(thickness 0.12)
			)
		)
	)
	(property "Value" "PQ2614B"
		(at 0 0 0)
		(unlocked yes)
		(layer "F.Fab")
		(hide yes)
		(uuid "1b5f7a63-1ac0-467a-847a-f2414baa25a0")
		(effects
			(font
				(size 1.2 1.2)
				(thickness 0.12)
			)
		)
	)
	(property "Footprint" ""
		(at 0 0 -90)
		(layer "F.Fab")
		(hide yes)
		(uuid "9d429d61-9b14-4c38-bb7d-e332aa7c78a9")
		(effects
			(font
				(size 1.27 1.27)
				(thickness 0.15)
			)
		)
	)
	(property "Datasheet" ""
		(at 0 0 -90)
		(layer "F.Fab")
		(hide yes)
		(uuid "acbcf75b-ba93-47e0-89b0-72b4bb9dfb50")
		(effects
			(font
				(size 1.27 1.27)
				(thickness 0.15)
			)
		)
	)
	(property "Description" ""
		(at 0 0 -90)
		(layer "F.Fab")
		(hide yes)
		(uuid "828aed97-841d-4d1e-bd2d-dd66b9e51ccf")
		(effects
			(font
				(size 1.27 1.27)
				(thickness 0.15)
			)
		)
	)
	(attr smd)
	(fp_line
		(start -9.4 -13.95)
		(end -9.4 13.95)
		(stroke
			(width 0.12)
			(type solid)
		)
		(layer "F.SilkS")
		(uuid "18d30fb2-be25-42db-b021-1fd9e8c2b785")
	)
	(fp_line
		(start -9.4 13.95)
		(end 10.4 13.95)
		(stroke
			(width 0.12)
			(type solid)
		)
		(layer "F.SilkS")
		(uuid "73a09dc1-39d7-4100-95ac-1320a530ad32")
	)
	(fp_line
		(start 10.4 -13.95)
		(end -9.4 -13.95)
		(stroke
			(width 0.12)
			(type solid)
		)
		(layer "F.SilkS")
		(uuid "b87bc3c6-0df4-4685-8b59-3b58150819d1")
	)
	(fp_line
		(start 10.4 -3.5)
		(end 10.4 -13.95)
		(stroke
			(width 0.12)
			(type solid)
		)
		(layer "F.SilkS")
		(uuid "1ac271bf-e1ba-4431-a09b-2b8efcbffa4d")
	)
	(fp_line
		(start 10.4 13.95)
		(end 10.4 3.5)
		(stroke
			(width 0.12)
			(type solid)
		)
		(layer "F.SilkS")
		(uuid "1657bea9-3d25-4e79-baaa-48bba0907c0f")
	)
	(fp_line
		(start -17.35 -8)
		(end -17.35 8)
		(stroke
			(width 0.01)
			(type solid)
		)
		(layer "F.CrtYd")
		(uuid "8f2b33b8-a96b-4344-b93e-5334fe3efad5")
	)
	(fp_line
		(start -17.35 8)
		(end -9.6 8)
		(stroke
			(width 0.01)
			(type solid)
		)
		(layer "F.CrtYd")
		(uuid "f88ea810-c3fb-4782-88e9-39bf940b9219")
	)
	(fp_line
		(start -9.7 14.15)
		(end 10.6 14.15)
		(stroke
			(width 0.01)
			(type solid)
		)
		(layer "F.CrtYd")
		(uuid "ef273704-a008-44cd-95a4-e5d444eed613")
	)
	(fp_line
		(start -9.65 -14.15)
		(end -9.65 -8.05)
		(stroke
			(width 0.01)
			(type solid)
		)
		(layer "F.CrtYd")
		(uuid "c8ef2b39-d09c-4b6c-905f-6012a1fa17ab")
	)
	(fp_line
		(start -9.6 -8)
		(end -17.35 -8)
		(stroke
			(width 0.01)
			(type solid)
		)
		(layer "F.CrtYd")
		(uuid "1849aaae-3ed9-4f1b-9132-a34855705224")
	)
	(fp_line
		(start -9.6 8)
		(end -9.6 14.15)
		(stroke
			(width 0.01)
			(type solid)
		)
		(layer "F.CrtYd")
		(uuid "e6a8e8fc-9cbf-4437-905a-4aa4933d8c4f")
	)
	(fp_line
		(start 10.6 -14.15)
		(end -9.65 -14.15)
		(stroke
			(width 0.01)
			(type solid)
		)
		(layer "F.CrtYd")
		(uuid "e6a6f1db-a6f6-4aae-bb7f-2a37cd1b4d86")
	)
	(fp_line
		(start 10.6 14.15)
		(end 10.6 -14.15)
		(stroke
			(width 0.01)
			(type solid)
		)
		(layer "F.CrtYd")
		(uuid "82f95182-a261-4ff4-9572-6c1e531e8bb0")
	)
	(fp_rect
		(start -9.4 -13.95)
		(end 10.4 13.95)
		(stroke
			(width 0.1)
			(type solid)
		)
		(fill none)
		(layer "F.Fab")
		(uuid "db35f854-b12d-4c6a-ab1e-87109448e484")
	)
	(pad "" smd rect
		(at 7.75 0 270)
		(size 6.4 5.3)
		(layers "F.Cu" "F.Paste" "F.Mask")
		(uuid "e62996c8-39c8-48a5-93ea-d599ef60a5d1")
	)
	(pad "1" smd rect
		(at -14.35 -5.1 270)
		(size 5.4 5.6)
		(layers "F.Cu" "F.Paste" "F.Mask")
		(uuid "cb525ac0-b7a4-4c6e-a23b-eaa707b9b0ba")
	)
	(pad "2" smd rect
		(at -14.35 5.1 270)
		(size 5.4 5.6)
		(layers "F.Cu" "F.Paste" "F.Mask")
		(uuid "e8c7555b-b387-4153-a1d3-93acf6f51fdd")
	)
	(model "${KISYS3DMOD}/Bourns/PQ2614B.wrl"
		(offset
			(xyz 0 0 0)
		)
		(scale
			(xyz 1 1 1)
		)
		(rotate
			(xyz 0 0 90)
		)
	)
)
