(footprint "Bourns-SRF0905"
	(version 20240108)
	(generator "pcbnew")
	(generator_version "8.0")
	(layer "F.Cu")
	(descr "9.2×6×5mm Line Filter")
	(property "Reference" "SRF0905"
		(at 0 0 0)
		(layer "F.Fab")
		(uuid "7cb97966-cd8e-4fbd-a82b-e1c5526014c3")
		(effects
			(font
				(size 1.2 1.2)
				(thickness 0.12)
			)
		)
	)
	(property "Value" "SRF0905"
		(at 0 0 0)
		(layer "F.Fab")
		(hide yes)
		(uuid "835647c5-1345-4777-8059-f63dcc82759b")
		(effects
			(font
				(size 1.2 1.2)
				(thickness 0.12)
			)
		)
	)
	(property "Footprint" ""
		(at 0 0 0)
		(layer "F.Fab")
		(hide yes)
		(uuid "49bc8589-b0c4-4cbe-98c0-fcf09df44153")
		(effects
			(font
				(size 1.27 1.27)
				(thickness 0.15)
			)
		)
	)
	(property "Datasheet" ""
		(at 0 0 0)
		(layer "F.Fab")
		(hide yes)
		(uuid "a5f3ba00-d280-4d0c-b08c-4f228b26254f")
		(effects
			(font
				(size 1.27 1.27)
				(thickness 0.15)
			)
		)
	)
	(property "Description" ""
		(at 0 0 0)
		(layer "F.Fab")
		(hide yes)
		(uuid "658f60f1-c0e3-4919-ac66-2406e456f48d")
		(effects
			(font
				(size 1.27 1.27)
				(thickness 0.15)
			)
		)
	)
	(attr smd)
	(fp_line
		(start -4.75 -3.15)
		(end 4.75 -3.15)
		(stroke
			(width 0.12)
			(type solid)
		)
		(layer "F.SilkS")
		(uuid "99434c63-777c-432f-8299-7b90796ab6a1")
	)
	(fp_line
		(start -4.75 -2.15)
		(end -4.75 -3.15)
		(stroke
			(width 0.12)
			(type solid)
		)
		(layer "F.SilkS")
		(uuid "1605a231-3d9a-4dc3-8252-469c20a5155b")
	)
	(fp_line
		(start -4.75 0.4)
		(end -4.75 -0.4)
		(stroke
			(width 0.12)
			(type solid)
		)
		(layer "F.SilkS")
		(uuid "5078d781-9958-450f-9227-733b96d250d0")
	)
	(fp_line
		(start -4.75 3.15)
		(end -4.75 2.15)
		(stroke
			(width 0.12)
			(type solid)
		)
		(layer "F.SilkS")
		(uuid "2d1c7fd9-04d8-4ae3-bcf1-f25eb02e15e4")
	)
	(fp_line
		(start 4.75 -3.15)
		(end 4.75 -2.15)
		(stroke
			(width 0.12)
			(type solid)
		)
		(layer "F.SilkS")
		(uuid "fca19c30-00f7-45b8-bd58-14995db63dc4")
	)
	(fp_line
		(start 4.75 0.4)
		(end 4.75 -0.4)
		(stroke
			(width 0.12)
			(type solid)
		)
		(layer "F.SilkS")
		(uuid "6df9e7f2-d311-4ab6-a46a-ae01a3fd702e")
	)
	(fp_line
		(start 4.75 2.15)
		(end 4.75 3.15)
		(stroke
			(width 0.12)
			(type solid)
		)
		(layer "F.SilkS")
		(uuid "4aae5063-5584-485f-91aa-5150a33cfc74")
	)
	(fp_line
		(start 4.75 3.15)
		(end -4.75 3.15)
		(stroke
			(width 0.12)
			(type solid)
		)
		(layer "F.SilkS")
		(uuid "b35e92b9-9262-42ed-8042-4f2ee4a48e41")
	)
	(fp_rect
		(start -4.95 -3.35)
		(end 4.95 3.35)
		(stroke
			(width 0.01)
			(type solid)
		)
		(fill none)
		(layer "F.CrtYd")
		(uuid "d8a8dd77-be98-4c1c-9a86-d73ba8c2dbd8")
	)
	(fp_rect
		(start -4.75 -3.15)
		(end 4.75 3.15)
		(stroke
			(width 0.1)
			(type solid)
		)
		(fill none)
		(layer "F.Fab")
		(uuid "35dce86f-a21e-4a7c-8308-8fb7eaf9d0e6")
	)
	(pad "1" smd rect
		(at -3.75 -1.27)
		(size 2 1.2)
		(layers "F.Cu" "F.Paste" "F.Mask")
		(uuid "2e101107-6521-42c7-b02c-230f4b80eabf")
	)
	(pad "2" smd rect
		(at -3.75 1.27)
		(size 2 1.2)
		(layers "F.Cu" "F.Paste" "F.Mask")
		(uuid "0914890a-a639-4e3b-823a-c61260713f29")
	)
	(pad "3" smd rect
		(at 3.75 1.27)
		(size 2 1.2)
		(layers "F.Cu" "F.Paste" "F.Mask")
		(uuid "632b2480-f079-4ce5-b2a5-6b2b2514fa68")
	)
	(pad "4" smd rect
		(at 3.75 -1.27)
		(size 2 1.2)
		(layers "F.Cu" "F.Paste" "F.Mask")
		(uuid "6a484262-2bc0-4035-ac56-45b5a1656fb4")
	)
	(model "${KISYS3DMOD}/WE/WE-SL2.wrl"
		(offset
			(xyz 0 0 0)
		)
		(scale
			(xyz 1 1 1)
		)
		(rotate
			(xyz 0 0 0)
		)
	)
)
