(footprint "Bourns-P40-G"
	(version 20240108)
	(generator "pcbnew")
	(generator_version "8.0")
	(layer "F.Cu")
	(descr "TBU High Speed Protector")
	(property "Reference" "P40-G"
		(at 0 0 0)
		(layer "F.Fab")
		(uuid "09da5b7c-16a3-4b77-9cc8-3eb6ba56369f")
		(effects
			(font
				(size 0.8 0.8)
				(thickness 0.08)
			)
		)
	)
	(property "Value" "P40-G"
		(at 0 0 0)
		(layer "F.Fab")
		(hide yes)
		(uuid "b7df4da5-ddfb-4a7d-82ae-55ad7e70f303")
		(effects
			(font
				(size 0.8 0.8)
				(thickness 0.08)
			)
		)
	)
	(property "Footprint" ""
		(at 0 0 0)
		(layer "F.Fab")
		(hide yes)
		(uuid "5cc3c4ea-22f3-4a18-81b2-15579ca93f87")
		(effects
			(font
				(size 1.27 1.27)
				(thickness 0.15)
			)
		)
	)
	(property "Datasheet" ""
		(at 0 0 0)
		(layer "F.Fab")
		(hide yes)
		(uuid "21da374b-754d-4e30-b7ca-737f7e85ed58")
		(effects
			(font
				(size 1.27 1.27)
				(thickness 0.15)
			)
		)
	)
	(property "Description" ""
		(at 0 0 0)
		(layer "F.Fab")
		(hide yes)
		(uuid "01aac4c1-88da-4f63-a5ea-6f651a87ee27")
		(effects
			(font
				(size 1.27 1.27)
				(thickness 0.15)
			)
		)
	)
	(attr smd)
	(fp_line
		(start -2.05 -1.75)
		(end -2.05 -2.05)
		(stroke
			(width 0.12)
			(type default)
		)
		(layer "F.SilkS")
		(uuid "10b4af04-d390-48f0-967c-0bfe61f89f2a")
	)
	(fp_line
		(start -2.05 0.25)
		(end -2.05 -0.25)
		(stroke
			(width 0.12)
			(type default)
		)
		(layer "F.SilkS")
		(uuid "cdcb9586-2c09-4b0f-9bd2-a08608622746")
	)
	(fp_line
		(start -2.05 2.05)
		(end 2.05 2.05)
		(stroke
			(width 0.12)
			(type default)
		)
		(layer "F.SilkS")
		(uuid "55d1977c-f6ff-4549-83fa-44a04f28b201")
	)
	(fp_line
		(start 2.05 -2.05)
		(end -2.05 -2.05)
		(stroke
			(width 0.12)
			(type default)
		)
		(layer "F.SilkS")
		(uuid "98b770b1-a279-479e-9f0b-b3b384ce37b7")
	)
	(fp_line
		(start 2.05 -1.75)
		(end 2.05 -2.05)
		(stroke
			(width 0.12)
			(type default)
		)
		(layer "F.SilkS")
		(uuid "ad0c88ac-ffa7-450b-9cfa-4b744bca15f7")
	)
	(fp_line
		(start 2.05 -0.25)
		(end 2.05 0.25)
		(stroke
			(width 0.12)
			(type default)
		)
		(layer "F.SilkS")
		(uuid "57a3250a-1966-4b3c-ba27-81cf93c68937")
	)
	(fp_line
		(start 2.05 2.05)
		(end 2.05 1.75)
		(stroke
			(width 0.12)
			(type default)
		)
		(layer "F.SilkS")
		(uuid "ba9fb036-8c30-4d88-b8e4-8f1df1f29433")
	)
	(fp_circle
		(center -2.55 1.75)
		(end -2.45 1.75)
		(stroke
			(width 0.12)
			(type solid)
		)
		(fill solid)
		(layer "F.SilkS")
		(uuid "3c7dac27-2349-4ce3-b549-357eff70db19")
	)
	(fp_rect
		(start -2.25 -2.25)
		(end 2.25 2.25)
		(stroke
			(width 0.01)
			(type solid)
		)
		(fill none)
		(layer "F.CrtYd")
		(uuid "100995cf-da14-44ab-92cb-aeb10a5cf0ed")
	)
	(fp_line
		(start -1.05 2.05)
		(end -2.05 1.05)
		(stroke
			(width 0.1)
			(type solid)
		)
		(layer "F.Fab")
		(uuid "05525d98-1630-48af-bb57-f884b85f2db5")
	)
	(fp_rect
		(start -2.05 -2.05)
		(end 2.05 2.05)
		(stroke
			(width 0.1)
			(type solid)
		)
		(fill none)
		(layer "F.Fab")
		(uuid "b49889bb-c0ae-4c5a-b568-ece377dd9e23")
	)
	(pad "1" smd rect
		(at -1.8 1)
		(size 0.35 0.9)
		(layers "F.Cu" "F.Paste" "F.Mask")
		(uuid "a7cf68c0-5f5d-4688-ae78-ff828b9f726c")
	)
	(pad "2" smd rect
		(at 0 1)
		(size 2.6 1.45)
		(layers "F.Cu" "F.Paste" "F.Mask")
		(uuid "db806953-186e-4ff3-9260-0d6e95da91fc")
	)
	(pad "3" smd rect
		(at 1.8 1)
		(size 0.35 0.9)
		(layers "F.Cu" "F.Paste" "F.Mask")
		(uuid "25d33009-1a09-46c4-9e58-ef5ca4115a69")
	)
	(pad "4" smd rect
		(at 1.8 -1)
		(size 0.35 0.9)
		(layers "F.Cu" "F.Paste" "F.Mask")
		(uuid "0286c2fd-e6d7-4d37-a19d-5147193da243")
	)
	(pad "5" smd rect
		(at 0 -1)
		(size 2.6 1.45)
		(layers "F.Cu" "F.Paste" "F.Mask")
		(uuid "cf268547-2d77-4370-a811-96b69d457a9e")
	)
	(pad "6" smd rect
		(at -1.8 -1)
		(size 0.35 0.9)
		(layers "F.Cu" "F.Paste" "F.Mask")
		(uuid "7c7ca09d-f1bd-43a6-99a8-0e240218eb9c")
	)
)
