(footprint "C0805"
	(version 20240108)
	(generator "pcbnew")
	(generator_version "8.0")
	(layer "F.Cu")
	(descr "EIA0805 Ceramic Capacitor")
	(tags "IPC7352")
	(property "Reference" "C0805"
		(at 0 0 0)
		(layer "F.Fab")
		(uuid "c0cdf9e0-8cb5-4880-b38f-bb815339ca11")
		(effects
			(font
				(size 0.4 0.4)
				(thickness 0.04)
			)
		)
	)
	(property "Value" "C0805"
		(at 0 0 0)
		(layer "F.Fab")
		(hide yes)
		(uuid "0085c0d0-fe9d-4227-9c3a-7dadb285c9b3")
		(effects
			(font
				(size 0.4 0.4)
				(thickness 0.04)
			)
		)
	)
	(property "Footprint" ""
		(at 0 0 0)
		(layer "F.Fab")
		(hide yes)
		(uuid "65fda9cb-74ce-4d9d-b225-38679e22e74f")
		(effects
			(font
				(size 1.27 1.27)
				(thickness 0.15)
			)
		)
	)
	(property "Datasheet" ""
		(at 0 0 0)
		(layer "F.Fab")
		(hide yes)
		(uuid "5df71416-8645-480a-ae3a-d4e7d9bbff55")
		(effects
			(font
				(size 1.27 1.27)
				(thickness 0.15)
			)
		)
	)
	(property "Description" ""
		(at 0 0 0)
		(layer "F.Fab")
		(hide yes)
		(uuid "ccaff3c5-68df-4d14-95e3-976a1f320093")
		(effects
			(font
				(size 1.27 1.27)
				(thickness 0.15)
			)
		)
	)
	(attr smd)
	(fp_line
		(start 0 -0.7)
		(end 0 0.7)
		(stroke
			(width 0.12)
			(type default)
		)
		(layer "F.SilkS")
		(uuid "4dfdc73a-970d-45d9-bc37-29017017970e")
	)
	(fp_rect
		(start -1.6 -0.95)
		(end 1.6 0.95)
		(stroke
			(width 0.01)
			(type solid)
		)
		(fill none)
		(layer "F.CrtYd")
		(uuid "b7384f1a-b9e5-4f04-99e3-066106a46ac5")
	)
	(fp_rect
		(start -1.1 -0.7)
		(end 1.1 0.7)
		(stroke
			(width 0.1)
			(type solid)
		)
		(fill none)
		(layer "F.Fab")
		(uuid "522e7512-af16-46be-a707-b60246503700")
	)
	(pad "1" smd rect
		(at -0.85 0)
		(size 1.1 1.5)
		(layers "F.Cu" "F.Paste" "F.Mask")
		(uuid "d19cb1df-de7b-4db0-9bc4-c0a45f0d4941")
	)
	(pad "2" smd rect
		(at 0.85 0)
		(size 1.1 1.5)
		(layers "F.Cu" "F.Paste" "F.Mask")
		(uuid "c6f3ecb0-e54a-4db8-9c1a-330367e8c6df")
	)
	(model "C/0805.wrl"
		(offset
			(xyz 0 0 0)
		)
		(scale
			(xyz 1 1 1)
		)
		(rotate
			(xyz 0 0 0)
		)
	)
)
