(footprint "CPV-6.3x5.5"
	(version 20240108)
	(generator "pcbnew")
	(generator_version "8.0")
	(layer "F.Cu")
	(descr "⌀6.3×5.5mm V-chip Capacitor (Case D)")
	(tags "IPC7352")
	(property "Reference" "CPV-6.3x5.5"
		(at 0 0 0)
		(layer "F.Fab")
		(uuid "a15ca8b9-bf59-4ee1-bce7-ddf255d5b94c")
		(effects
			(font
				(size 1.2 1.2)
				(thickness 0.12)
			)
		)
	)
	(property "Value" "CPV-6.3x5.5"
		(at 0 0 0)
		(layer "F.Fab")
		(hide yes)
		(uuid "5163da76-4a3b-4473-865e-3cec5a65dea3")
		(effects
			(font
				(size 1.2 1.2)
				(thickness 0.12)
			)
		)
	)
	(property "Footprint" ""
		(at 0 0 0)
		(layer "F.Fab")
		(hide yes)
		(uuid "bda36c52-d066-431a-b2a1-32f4a7f0cb7f")
		(effects
			(font
				(size 1.27 1.27)
				(thickness 0.15)
			)
		)
	)
	(property "Datasheet" ""
		(at 0 0 0)
		(layer "F.Fab")
		(hide yes)
		(uuid "96e00e96-1105-419b-8371-45989e793ecb")
		(effects
			(font
				(size 1.27 1.27)
				(thickness 0.15)
			)
		)
	)
	(property "Description" ""
		(at 0 0 0)
		(layer "F.Fab")
		(hide yes)
		(uuid "14e0980a-d22b-4cc3-818a-de5d2063ef77")
		(effects
			(font
				(size 1.27 1.27)
				(thickness 0.15)
			)
		)
	)
	(attr smd)
	(fp_line
		(start -4.35 1.2)
		(end -3.4 1.2)
		(stroke
			(width 0.12)
			(type solid)
		)
		(layer "F.SilkS")
		(uuid "6a204e65-a403-4f83-a4f7-d581ddcd4b8b")
	)
	(fp_line
		(start -3.4 -1.8)
		(end -1.8 -3.4)
		(stroke
			(width 0.12)
			(type solid)
		)
		(layer "F.SilkS")
		(uuid "20b36ba0-4f38-4cdf-bb9e-8540429c84a4")
	)
	(fp_line
		(start -3.4 -1.2)
		(end -4.35 -1.2)
		(stroke
			(width 0.12)
			(type solid)
		)
		(layer "F.SilkS")
		(uuid "ad9e9197-c68e-4ad1-8e40-f16e8777f7bd")
	)
	(fp_line
		(start -3.4 -1.2)
		(end -3.4 -1.8)
		(stroke
			(width 0.12)
			(type solid)
		)
		(layer "F.SilkS")
		(uuid "aa8aa470-cac5-48c5-922b-9138a150ddb7")
	)
	(fp_line
		(start -3.4 1.8)
		(end -3.4 1.2)
		(stroke
			(width 0.12)
			(type solid)
		)
		(layer "F.SilkS")
		(uuid "37b228e7-da26-4708-9f69-8b0f92d4c446")
	)
	(fp_line
		(start -3.4 1.8)
		(end -1.8 3.4)
		(stroke
			(width 0.12)
			(type solid)
		)
		(layer "F.SilkS")
		(uuid "3d32f034-fc5f-4a30-bd3e-024ee696b7ab")
	)
	(fp_line
		(start -1.8 3.4)
		(end 3.4 3.4)
		(stroke
			(width 0.12)
			(type solid)
		)
		(layer "F.SilkS")
		(uuid "9c8b44ec-4afc-4838-939a-2cc471ef25e4")
	)
	(fp_line
		(start 3.4 -3.4)
		(end -1.8 -3.4)
		(stroke
			(width 0.12)
			(type solid)
		)
		(layer "F.SilkS")
		(uuid "9a71a91e-20a4-4941-9020-3c22893e79a6")
	)
	(fp_line
		(start 3.4 -3.4)
		(end 3.4 -1.2)
		(stroke
			(width 0.12)
			(type solid)
		)
		(layer "F.SilkS")
		(uuid "d08e36e2-2116-4b15-89aa-fd6e3dcb88e0")
	)
	(fp_line
		(start 3.4 1.2)
		(end 3.4 3.4)
		(stroke
			(width 0.12)
			(type solid)
		)
		(layer "F.SilkS")
		(uuid "e9f4fb3e-270b-4a54-a9bc-93551151eb2c")
	)
	(fp_line
		(start -4.55 -1.1)
		(end -3.9 -1.1)
		(stroke
			(width 0.01)
			(type solid)
		)
		(layer "F.CrtYd")
		(uuid "611bcaaf-c37b-469c-ab51-1b0cd0a6db19")
	)
	(fp_line
		(start -4.55 1.1)
		(end -4.55 -1.1)
		(stroke
			(width 0.01)
			(type solid)
		)
		(layer "F.CrtYd")
		(uuid "b31bb9b8-2ed4-4458-871d-c4cf49c18f3f")
	)
	(fp_line
		(start -3.9 -3.9)
		(end 3.9 -3.9)
		(stroke
			(width 0.01)
			(type solid)
		)
		(layer "F.CrtYd")
		(uuid "37436353-c054-4383-8319-8411e2839725")
	)
	(fp_line
		(start -3.9 -1.1)
		(end -3.9 -3.9)
		(stroke
			(width 0.01)
			(type solid)
		)
		(layer "F.CrtYd")
		(uuid "b71030b3-4c73-4e1c-80dc-00aa6d0a0fb7")
	)
	(fp_line
		(start -3.6 1.1)
		(end -4.55 1.1)
		(stroke
			(width 0.01)
			(type solid)
		)
		(layer "F.CrtYd")
		(uuid "399f841f-51f3-4e41-95fb-f88e444e91b5")
	)
	(fp_line
		(start -3.6 3.9)
		(end -3.6 1.1)
		(stroke
			(width 0.01)
			(type solid)
		)
		(layer "F.CrtYd")
		(uuid "259c241d-aae4-4666-a5b3-9e0e70c5fcd7")
	)
	(fp_line
		(start 3.9 -3.9)
		(end 3.9 -1.1)
		(stroke
			(width 0.01)
			(type solid)
		)
		(layer "F.CrtYd")
		(uuid "235a56b2-6c44-4910-92c3-5782194d0faa")
	)
	(fp_line
		(start 3.9 -1.1)
		(end 4.55 -1.1)
		(stroke
			(width 0.01)
			(type solid)
		)
		(layer "F.CrtYd")
		(uuid "d64601cf-8310-4000-8e13-46e03bd6e62a")
	)
	(fp_line
		(start 3.9 1.1)
		(end 3.9 3.9)
		(stroke
			(width 0.01)
			(type solid)
		)
		(layer "F.CrtYd")
		(uuid "142ca976-2789-43ca-b291-8ab31cfac12d")
	)
	(fp_line
		(start 3.9 3.9)
		(end -3.6 3.9)
		(stroke
			(width 0.01)
			(type solid)
		)
		(layer "F.CrtYd")
		(uuid "d332736f-1338-498d-ba50-a33ecf770aa5")
	)
	(fp_line
		(start 4.55 -1.1)
		(end 4.55 1.1)
		(stroke
			(width 0.01)
			(type solid)
		)
		(layer "F.CrtYd")
		(uuid "124006f4-dd2f-4a96-b45b-8451390bd067")
	)
	(fp_line
		(start 4.55 1.1)
		(end 3.9 1.1)
		(stroke
			(width 0.01)
			(type solid)
		)
		(layer "F.CrtYd")
		(uuid "4a711068-a8e1-4e6b-a86d-5e6a0e1204d9")
	)
	(fp_line
		(start -3.4 1.8)
		(end -3.4 -1.8)
		(stroke
			(width 0.1)
			(type solid)
		)
		(layer "F.Fab")
		(uuid "bbce1f34-fbe6-46b2-b797-ca7ce3311393")
	)
	(fp_line
		(start -1.8 -3.4)
		(end -3.4 -1.8)
		(stroke
			(width 0.1)
			(type default)
		)
		(layer "F.Fab")
		(uuid "60851ee0-6a0c-4950-a4d8-362c973bf2b5")
	)
	(fp_line
		(start -1.8 3.4)
		(end -3.4 1.8)
		(stroke
			(width 0.1)
			(type solid)
		)
		(layer "F.Fab")
		(uuid "00326213-8dbe-454e-b8f5-9f74c158f057")
	)
	(fp_line
		(start 3.4 -3.4)
		(end -1.8 -3.4)
		(stroke
			(width 0.1)
			(type solid)
		)
		(layer "F.Fab")
		(uuid "ab23e545-3722-4b3a-b131-4380eabe67f4")
	)
	(fp_line
		(start 3.4 -3.4)
		(end 3.4 3.4)
		(stroke
			(width 0.1)
			(type solid)
		)
		(layer "F.Fab")
		(uuid "a37b32f4-7150-417e-8086-839faeb0f67f")
	)
	(fp_line
		(start 3.4 3.4)
		(end -1.8 3.4)
		(stroke
			(width 0.1)
			(type solid)
		)
		(layer "F.Fab")
		(uuid "4da014f0-f01f-42c2-a80c-29b1966e1994")
	)
	(pad "+" smd rect
		(at -2.6 0 180)
		(size 3.5 1.8)
		(layers "F.Cu" "F.Paste" "F.Mask")
		(uuid "a2387f52-a2d0-451d-995c-38b73458b673")
	)
	(pad "-" smd rect
		(at 2.6 0 180)
		(size 3.5 1.8)
		(layers "F.Cu" "F.Paste" "F.Mask")
		(uuid "206cf77e-9615-45a1-84e2-dd89660f9255")
	)
	(model "CPV/6.3x5.5.wrl"
		(offset
			(xyz 0 0 0)
		)
		(scale
			(xyz 1 1 1)
		)
		(rotate
			(xyz 0 0 0)
		)
	)
)
