(footprint "CPV-12.5x17"
	(version 20240108)
	(generator "pcbnew")
	(generator_version "8.0")
	(layer "F.Cu")
	(descr "ø12.5×17mm V-chip Capacitor (Case H17)")
	(property "Reference" "CPV-12.5x17"
		(at 0 0 0)
		(layer "F.Fab")
		(uuid "bf52167d-7d93-4c47-8963-98a7f54296ad")
		(effects
			(font
				(size 1.2 1.2)
				(thickness 0.12)
			)
		)
	)
	(property "Value" "CPV-12.5x17"
		(at 0 0 0)
		(layer "F.Fab")
		(hide yes)
		(uuid "da13202f-180c-4b2e-83bd-41ab66e86575")
		(effects
			(font
				(size 1.2 1.2)
				(thickness 0.12)
			)
		)
	)
	(property "Footprint" ""
		(at 0 0 0)
		(layer "F.Fab")
		(hide yes)
		(uuid "8afad8b3-733c-4bc2-857a-37d3db095ed8")
		(effects
			(font
				(size 1.27 1.27)
				(thickness 0.15)
			)
		)
	)
	(property "Datasheet" ""
		(at 0 0 0)
		(layer "F.Fab")
		(hide yes)
		(uuid "a25972bc-7aaa-42ac-a7f4-13bfdb65197b")
		(effects
			(font
				(size 1.27 1.27)
				(thickness 0.15)
			)
		)
	)
	(property "Description" ""
		(at 0 0 0)
		(layer "F.Fab")
		(hide yes)
		(uuid "6ffcabbb-cf5f-4565-8f64-851b72765ae2")
		(effects
			(font
				(size 1.27 1.27)
				(thickness 0.15)
			)
		)
	)
	(attr smd)
	(fp_line
		(start -7.75 -1.35)
		(end -6.5 -1.35)
		(stroke
			(width 0.12)
			(type solid)
		)
		(layer "F.SilkS")
		(uuid "8f029b1e-786e-487a-a57d-3a4b837c6a4d")
	)
	(fp_line
		(start -6.5 -5.5)
		(end -5.5 -6.5)
		(stroke
			(width 0.12)
			(type solid)
		)
		(layer "F.SilkS")
		(uuid "af7c6c56-50f0-44a6-8928-fa20a9630a64")
	)
	(fp_line
		(start -6.5 -1.35)
		(end -6.5 -5.5)
		(stroke
			(width 0.12)
			(type solid)
		)
		(layer "F.SilkS")
		(uuid "d1c97f2e-9daf-4b38-a4c0-a4f3e44687f1")
	)
	(fp_line
		(start -6.5 1.35)
		(end -7.75 1.35)
		(stroke
			(width 0.12)
			(type solid)
		)
		(layer "F.SilkS")
		(uuid "3cbf7f28-f739-4520-8949-726dee74bd63")
	)
	(fp_line
		(start -6.5 5.5)
		(end -6.5 1.35)
		(stroke
			(width 0.12)
			(type solid)
		)
		(layer "F.SilkS")
		(uuid "e57de78c-7e39-4ed0-8d63-78f27c869ef2")
	)
	(fp_line
		(start -5.5 6.5)
		(end -6.5 5.5)
		(stroke
			(width 0.12)
			(type solid)
		)
		(layer "F.SilkS")
		(uuid "f68ca348-aa18-4e19-9e5b-df2a399910aa")
	)
	(fp_line
		(start 6.5 -6.5)
		(end -5.5 -6.5)
		(stroke
			(width 0.12)
			(type solid)
		)
		(layer "F.SilkS")
		(uuid "b83dc142-6d5d-4c7c-83f4-7cbf1e5c6943")
	)
	(fp_line
		(start 6.5 -1.35)
		(end 6.5 -6.5)
		(stroke
			(width 0.12)
			(type solid)
		)
		(layer "F.SilkS")
		(uuid "16ca570b-5852-401a-aa51-7d200e1003ed")
	)
	(fp_line
		(start 6.5 1.35)
		(end 6.5 6.5)
		(stroke
			(width 0.12)
			(type solid)
		)
		(layer "F.SilkS")
		(uuid "022b8394-a321-4c04-bca7-c94ccc45198c")
	)
	(fp_line
		(start 6.5 6.5)
		(end -5.5 6.5)
		(stroke
			(width 0.12)
			(type solid)
		)
		(layer "F.SilkS")
		(uuid "51323447-4f34-4b9f-aa44-adb7668a0a40")
	)
	(fp_line
		(start -7.95 -1.25)
		(end -7 -1.25)
		(stroke
			(width 0.01)
			(type solid)
		)
		(layer "F.CrtYd")
		(uuid "2b67f73a-f276-4ae3-81b3-1d4b7b031f91")
	)
	(fp_line
		(start -7.95 1.25)
		(end -7.95 -1.25)
		(stroke
			(width 0.01)
			(type solid)
		)
		(layer "F.CrtYd")
		(uuid "3b358499-9982-4b57-a30d-c3b96f0c8607")
	)
	(fp_line
		(start -7 -7)
		(end 7 -7)
		(stroke
			(width 0.01)
			(type solid)
		)
		(layer "F.CrtYd")
		(uuid "2b289e32-80c3-40b3-9a4c-85978ccee83f")
	)
	(fp_line
		(start -7 -1.25)
		(end -7 -7)
		(stroke
			(width 0.01)
			(type solid)
		)
		(layer "F.CrtYd")
		(uuid "0633952b-520c-4b32-abc9-2f64f3516d29")
	)
	(fp_line
		(start -7 1.25)
		(end -7.95 1.25)
		(stroke
			(width 0.01)
			(type solid)
		)
		(layer "F.CrtYd")
		(uuid "a66e5b18-1287-4ff0-8abb-0273cc2f91a9")
	)
	(fp_line
		(start -7 7)
		(end -7 1.25)
		(stroke
			(width 0.01)
			(type solid)
		)
		(layer "F.CrtYd")
		(uuid "6f4b178c-e125-4ef6-b990-de9431866bf0")
	)
	(fp_line
		(start 7 -7)
		(end 7 -1.25)
		(stroke
			(width 0.01)
			(type solid)
		)
		(layer "F.CrtYd")
		(uuid "d51cd782-3638-4763-8760-d1b4dc43745a")
	)
	(fp_line
		(start 7 -1.25)
		(end 7.95 -1.25)
		(stroke
			(width 0.01)
			(type solid)
		)
		(layer "F.CrtYd")
		(uuid "bade991c-fcde-476f-bfa8-8ab6047e9456")
	)
	(fp_line
		(start 7 1.25)
		(end 7 7)
		(stroke
			(width 0.01)
			(type solid)
		)
		(layer "F.CrtYd")
		(uuid "9210f46c-0251-4a5a-b025-6fbe6bfff8ff")
	)
	(fp_line
		(start 7 7)
		(end -7 7)
		(stroke
			(width 0.01)
			(type solid)
		)
		(layer "F.CrtYd")
		(uuid "7c492f11-7821-47d4-8087-e9c618991282")
	)
	(fp_line
		(start 7.95 -1.25)
		(end 7.95 1.25)
		(stroke
			(width 0.01)
			(type solid)
		)
		(layer "F.CrtYd")
		(uuid "026adb31-a5c4-4a32-a7ea-f078f48ce6e8")
	)
	(fp_line
		(start 7.95 1.25)
		(end 7 1.25)
		(stroke
			(width 0.01)
			(type solid)
		)
		(layer "F.CrtYd")
		(uuid "b7b05908-4629-47ff-abc0-3284a1227386")
	)
	(fp_line
		(start -6.5 -5.5)
		(end -6.5 5.5)
		(stroke
			(width 0.1)
			(type solid)
		)
		(layer "F.Fab")
		(uuid "5cf47b65-8a9c-4129-970b-2d6898c5b84f")
	)
	(fp_line
		(start -6.5 5.5)
		(end -5.5 6.5)
		(stroke
			(width 0.1)
			(type solid)
		)
		(layer "F.Fab")
		(uuid "08f3bbb9-bdd2-4f69-b41b-8281156791b1")
	)
	(fp_line
		(start -5.5 -6.5)
		(end -6.5 -5.5)
		(stroke
			(width 0.1)
			(type solid)
		)
		(layer "F.Fab")
		(uuid "4422f8c4-af45-44ce-98d5-233a25524443")
	)
	(fp_line
		(start -5.5 6.5)
		(end 6.5 6.5)
		(stroke
			(width 0.1)
			(type solid)
		)
		(layer "F.Fab")
		(uuid "6f71a028-50d6-41e6-a48b-a13b21ddebc6")
	)
	(fp_line
		(start 6.5 -6.5)
		(end -5.5 -6.5)
		(stroke
			(width 0.1)
			(type solid)
		)
		(layer "F.Fab")
		(uuid "8243ab3c-9895-4c75-9d12-8f7109c3c061")
	)
	(fp_line
		(start 6.5 6.5)
		(end 6.5 -6.5)
		(stroke
			(width 0.1)
			(type solid)
		)
		(layer "F.Fab")
		(uuid "8443e4cd-9e5c-4989-a729-4590f5cc9d67")
	)
	(pad "+" smd rect
		(at -4.9 0 180)
		(size 5.7 2.1)
		(layers "F.Cu" "F.Paste" "F.Mask")
		(uuid "b2bbb2a9-5185-4dd5-a870-a228512cc5e9")
	)
	(pad "-" smd rect
		(at 4.9 0 180)
		(size 5.7 2.1)
		(layers "F.Cu" "F.Paste" "F.Mask")
		(uuid "18139579-4af1-4a01-9c96-1ba234a11185")
	)
)
