(footprint "CPV-8x10.5"
	(version 20240108)
	(generator "pcbnew")
	(generator_version "8.0")
	(layer "F.Cu")
	(descr "⌀8×10.5mm V-chip Capacitor (Case F)")
	(tags "IPC7352")
	(property "Reference" "CPV-8x10.5"
		(at 0 0 0)
		(layer "F.Fab")
		(uuid "b7737067-fc4f-46f1-8a6d-721aed2a858d")
		(effects
			(font
				(size 1.2 1.2)
				(thickness 0.12)
			)
		)
	)
	(property "Value" "CPV-8x10.5"
		(at 0 0 0)
		(layer "F.Fab")
		(hide yes)
		(uuid "acc8d654-e86b-4ae3-986c-69d999252a78")
		(effects
			(font
				(size 1.2 1.2)
				(thickness 0.12)
			)
		)
	)
	(property "Footprint" ""
		(at 0 0 0)
		(layer "F.Fab")
		(hide yes)
		(uuid "f641a509-6a16-48cc-868f-c84c380166da")
		(effects
			(font
				(size 1.27 1.27)
				(thickness 0.15)
			)
		)
	)
	(property "Datasheet" ""
		(at 0 0 0)
		(layer "F.Fab")
		(hide yes)
		(uuid "87621931-969c-42df-86a0-e936ce417633")
		(effects
			(font
				(size 1.27 1.27)
				(thickness 0.15)
			)
		)
	)
	(property "Description" ""
		(at 0 0 0)
		(layer "F.Fab")
		(hide yes)
		(uuid "7b847de6-ed3a-4bc9-8174-8ac6d08c17c8")
		(effects
			(font
				(size 1.27 1.27)
				(thickness 0.15)
			)
		)
	)
	(attr smd)
	(fp_line
		(start -5.3 1.35)
		(end -4.25 1.35)
		(stroke
			(width 0.12)
			(type solid)
		)
		(layer "F.SilkS")
		(uuid "4836936d-592e-446a-bf67-ab1f61f51194")
	)
	(fp_line
		(start -4.25 -2.4)
		(end -4.25 -1.35)
		(stroke
			(width 0.12)
			(type solid)
		)
		(layer "F.SilkS")
		(uuid "6b2c09f7-02a0-4b1c-a39c-8aad822c160c")
	)
	(fp_line
		(start -4.25 -1.35)
		(end -5.3 -1.35)
		(stroke
			(width 0.12)
			(type solid)
		)
		(layer "F.SilkS")
		(uuid "ac840afe-d15e-467d-989f-4976feb81df1")
	)
	(fp_line
		(start -4.25 1.35)
		(end -4.25 2.4)
		(stroke
			(width 0.12)
			(type solid)
		)
		(layer "F.SilkS")
		(uuid "3ca2186e-a66c-4ea1-abce-927469068760")
	)
	(fp_line
		(start -4.25 2.4)
		(end -2.4 4.25)
		(stroke
			(width 0.12)
			(type solid)
		)
		(layer "F.SilkS")
		(uuid "d1bb071b-234b-4bcc-905c-6f02086752b4")
	)
	(fp_line
		(start -2.4 -4.25)
		(end -4.25 -2.4)
		(stroke
			(width 0.12)
			(type solid)
		)
		(layer "F.SilkS")
		(uuid "e17f77be-1752-4182-8ed8-9c3df51381d7")
	)
	(fp_line
		(start -2.4 4.25)
		(end 4.25 4.25)
		(stroke
			(width 0.12)
			(type solid)
		)
		(layer "F.SilkS")
		(uuid "e93a96e6-f3a6-48e8-a561-00366372dd1b")
	)
	(fp_line
		(start 4.25 -4.25)
		(end -2.4 -4.25)
		(stroke
			(width 0.12)
			(type solid)
		)
		(layer "F.SilkS")
		(uuid "ca3e6bc3-5d99-4e5f-9cd1-81cd5d5efb4f")
	)
	(fp_line
		(start 4.25 -1.35)
		(end 4.25 -4.25)
		(stroke
			(width 0.12)
			(type solid)
		)
		(layer "F.SilkS")
		(uuid "b4764ed6-38b5-447b-9fab-3253b30c0fec")
	)
	(fp_line
		(start 4.25 4.25)
		(end 4.25 1.35)
		(stroke
			(width 0.12)
			(type solid)
		)
		(layer "F.SilkS")
		(uuid "c18c8b1d-68e9-4c7b-b412-a84558f96eef")
	)
	(fp_line
		(start -5.5 -1.25)
		(end -4.75 -1.25)
		(stroke
			(width 0.01)
			(type solid)
		)
		(layer "F.CrtYd")
		(uuid "199765f2-9ab2-4b1c-99cb-bfeb42258e37")
	)
	(fp_line
		(start -5.5 1.25)
		(end -5.5 -1.25)
		(stroke
			(width 0.01)
			(type solid)
		)
		(layer "F.CrtYd")
		(uuid "8bdcfbe5-8179-4815-8f19-8964cf5107c3")
	)
	(fp_line
		(start -4.75 -4.75)
		(end 4.75 -4.75)
		(stroke
			(width 0.01)
			(type default)
		)
		(layer "F.CrtYd")
		(uuid "60a27577-cde0-463a-8766-fa41da3ac2f9")
	)
	(fp_line
		(start -4.75 -1.25)
		(end -4.75 -4.75)
		(stroke
			(width 0.01)
			(type default)
		)
		(layer "F.CrtYd")
		(uuid "754d40f1-b79e-42f7-8502-050a9495315c")
	)
	(fp_line
		(start -4.75 1.25)
		(end -5.5 1.25)
		(stroke
			(width 0.01)
			(type solid)
		)
		(layer "F.CrtYd")
		(uuid "8cdff46d-99bf-4b02-8407-0ca0dd68651d")
	)
	(fp_line
		(start -4.75 4.75)
		(end -4.75 1.25)
		(stroke
			(width 0.01)
			(type default)
		)
		(layer "F.CrtYd")
		(uuid "5e688bd3-3f2e-41ec-85ff-1a79d77e4101")
	)
	(fp_line
		(start 4.75 -4.75)
		(end 4.75 -1.25)
		(stroke
			(width 0.01)
			(type default)
		)
		(layer "F.CrtYd")
		(uuid "f6fbd5ea-0dc2-4deb-a138-0ccbb64283d7")
	)
	(fp_line
		(start 4.75 -1.25)
		(end 5.5 -1.25)
		(stroke
			(width 0.01)
			(type solid)
		)
		(layer "F.CrtYd")
		(uuid "bad47b9e-4c6b-4c38-86c6-249eec49f538")
	)
	(fp_line
		(start 4.75 1.25)
		(end 4.75 4.75)
		(stroke
			(width 0.01)
			(type default)
		)
		(layer "F.CrtYd")
		(uuid "77e9dce7-46d0-4508-8b64-968961dcc4a1")
	)
	(fp_line
		(start 4.75 4.75)
		(end -4.75 4.75)
		(stroke
			(width 0.01)
			(type default)
		)
		(layer "F.CrtYd")
		(uuid "9e48eee6-8beb-41ac-b395-650eb30ed2a3")
	)
	(fp_line
		(start 5.5 -1.25)
		(end 5.5 1.25)
		(stroke
			(width 0.01)
			(type solid)
		)
		(layer "F.CrtYd")
		(uuid "75e72bbd-57a6-4e6d-83e2-73387860fc95")
	)
	(fp_line
		(start 5.5 1.25)
		(end 4.75 1.25)
		(stroke
			(width 0.01)
			(type solid)
		)
		(layer "F.CrtYd")
		(uuid "b04aa0f5-cab0-4f82-8406-535181dcdec0")
	)
	(fp_line
		(start -4.25 2.4)
		(end -4.25 -2.4)
		(stroke
			(width 0.1)
			(type solid)
		)
		(layer "F.Fab")
		(uuid "6727f504-98cc-4d92-84da-1e65b74c7c40")
	)
	(fp_line
		(start -2.4 -4.25)
		(end -4.25 -2.4)
		(stroke
			(width 0.1)
			(type solid)
		)
		(layer "F.Fab")
		(uuid "016112b9-43a8-464b-952d-10af02a194f9")
	)
	(fp_line
		(start -2.4 4.25)
		(end -4.25 2.4)
		(stroke
			(width 0.1)
			(type solid)
		)
		(layer "F.Fab")
		(uuid "bbae09ff-5534-40b5-a9f5-76bb5060a54b")
	)
	(fp_line
		(start 4.25 -4.25)
		(end -2.4 -4.25)
		(stroke
			(width 0.1)
			(type solid)
		)
		(layer "F.Fab")
		(uuid "c8cd4f47-d554-4244-903c-400037c197b3")
	)
	(fp_line
		(start 4.25 -4.25)
		(end 4.25 4.25)
		(stroke
			(width 0.1)
			(type solid)
		)
		(layer "F.Fab")
		(uuid "2ccdd458-6654-4cca-b6cc-88ba8ac8aae3")
	)
	(fp_line
		(start 4.25 4.25)
		(end -2.4 4.25)
		(stroke
			(width 0.1)
			(type solid)
		)
		(layer "F.Fab")
		(uuid "86cf4d02-48b5-44f5-9a1f-1aae97a18b01")
	)
	(pad "+" smd rect
		(at -3.3 0 180)
		(size 4 2.1)
		(layers "F.Cu" "F.Paste" "F.Mask")
		(uuid "03f100e0-0857-4d25-9b9f-ed059f4b72f8")
	)
	(pad "-" smd rect
		(at 3.3 0 180)
		(size 4 2.1)
		(layers "F.Cu" "F.Paste" "F.Mask")
		(uuid "f5401e9d-72b5-4df0-9168-c1a6aa23a756")
	)
	(model "${KISYS3DMOD}/WE/WCAP-8x10.5.wrl"
		(offset
			(xyz 0 0 0)
		)
		(scale
			(xyz 1 1 1)
		)
		(rotate
			(xyz 0 0 0)
		)
	)
)
