(footprint "DO214BA-NPOL"
	(version 20240108)
	(generator "pcbnew")
	(generator_version "8.0")
	(layer "F.Cu")
	(descr "4.45×2.6mm Small Outline C-bend Diode - AK form")
	(property "Reference" "DO214BA"
		(at 0 0 0)
		(layer "F.Fab")
		(uuid "195271a6-f370-4675-859b-66f085b35e6f")
		(effects
			(font
				(size 1.2 1.2)
				(thickness 0.12)
			)
		)
	)
	(property "Value" "DO214BA"
		(at 0 0 0)
		(layer "F.Fab")
		(hide yes)
		(uuid "a9ddd708-14ed-45cf-9ebf-bac4a252367c")
		(effects
			(font
				(size 1.2 1.2)
				(thickness 0.12)
			)
		)
	)
	(property "Footprint" ""
		(at 0 0 0)
		(layer "F.Fab")
		(hide yes)
		(uuid "f807c6a4-bbe9-49c2-832b-1c1f67a7d4ca")
		(effects
			(font
				(size 1.27 1.27)
				(thickness 0.15)
			)
		)
	)
	(property "Datasheet" ""
		(at 0 0 0)
		(layer "F.Fab")
		(hide yes)
		(uuid "6a990fa8-4694-45fa-b215-364e08e07f69")
		(effects
			(font
				(size 1.27 1.27)
				(thickness 0.15)
			)
		)
	)
	(property "Description" ""
		(at 0 0 0)
		(layer "F.Fab")
		(hide yes)
		(uuid "05446f57-268e-468a-bb14-c42a08ca378d")
		(effects
			(font
				(size 1.27 1.27)
				(thickness 0.15)
			)
		)
	)
	(attr smd)
	(fp_line
		(start -2.4 -1.65)
		(end 2.4 -1.65)
		(stroke
			(width 0.12)
			(type solid)
		)
		(layer "F.SilkS")
		(uuid "b597e383-3645-433a-827c-c3ef0190e0fb")
	)
	(fp_line
		(start -2.4 -1.1)
		(end -2.4 -1.65)
		(stroke
			(width 0.12)
			(type solid)
		)
		(layer "F.SilkS")
		(uuid "1a51b952-dfc7-47a2-a85c-02902db077f0")
	)
	(fp_line
		(start -2.4 1.1)
		(end -2.4 1.65)
		(stroke
			(width 0.12)
			(type solid)
		)
		(layer "F.SilkS")
		(uuid "5e09aa22-9744-49dc-a583-033d88ea81b7")
	)
	(fp_line
		(start 2.4 -1.65)
		(end 2.4 -1.1)
		(stroke
			(width 0.12)
			(type solid)
		)
		(layer "F.SilkS")
		(uuid "7ddc0345-a41b-405a-80cf-da5bfca88124")
	)
	(fp_line
		(start 2.4 1.65)
		(end -2.4 1.65)
		(stroke
			(width 0.12)
			(type solid)
		)
		(layer "F.SilkS")
		(uuid "f94cb47d-c4ea-46c2-adda-a36e92c5eade")
	)
	(fp_line
		(start 2.4 1.65)
		(end 2.4 1.1)
		(stroke
			(width 0.12)
			(type solid)
		)
		(layer "F.SilkS")
		(uuid "ed7ffc13-0532-4109-9380-4094865e3149")
	)
	(fp_line
		(start -3.6 -1)
		(end -2.6 -1)
		(stroke
			(width 0.01)
			(type default)
		)
		(layer "F.CrtYd")
		(uuid "80d6e931-b349-4705-bd4b-bd786580f3cd")
	)
	(fp_line
		(start -3.6 1)
		(end -3.6 -1)
		(stroke
			(width 0.01)
			(type default)
		)
		(layer "F.CrtYd")
		(uuid "0bd29514-eb54-41a4-a33f-7d4c6c4ab187")
	)
	(fp_line
		(start -2.6 -1.85)
		(end 2.6 -1.85)
		(stroke
			(width 0.01)
			(type default)
		)
		(layer "F.CrtYd")
		(uuid "89092eda-a8dc-4c05-a323-898540c603be")
	)
	(fp_line
		(start -2.6 -1)
		(end -2.6 -1.85)
		(stroke
			(width 0.01)
			(type default)
		)
		(layer "F.CrtYd")
		(uuid "7c272b28-b6db-4424-a2fe-34f85b4d8d59")
	)
	(fp_line
		(start -2.6 1)
		(end -3.6 1)
		(stroke
			(width 0.01)
			(type default)
		)
		(layer "F.CrtYd")
		(uuid "9079ea95-7577-4850-b1f4-abc3698b1931")
	)
	(fp_line
		(start -2.6 1.85)
		(end -2.6 1)
		(stroke
			(width 0.01)
			(type default)
		)
		(layer "F.CrtYd")
		(uuid "9b0381d6-2563-4444-8430-d7eb52b6dfdc")
	)
	(fp_line
		(start 2.6 -1.85)
		(end 2.6 -1)
		(stroke
			(width 0.01)
			(type default)
		)
		(layer "F.CrtYd")
		(uuid "2bc27f57-3b89-491b-a9c6-647ddeba7d62")
	)
	(fp_line
		(start 2.6 -1)
		(end 3.6 -1)
		(stroke
			(width 0.01)
			(type default)
		)
		(layer "F.CrtYd")
		(uuid "a2f2e2d8-df21-4dce-b779-b0ed3bdad11f")
	)
	(fp_line
		(start 2.6 1)
		(end 2.6 1.85)
		(stroke
			(width 0.01)
			(type default)
		)
		(layer "F.CrtYd")
		(uuid "0217b1b4-dc0c-4de6-9e94-1edc3be045de")
	)
	(fp_line
		(start 2.6 1.85)
		(end -2.6 1.85)
		(stroke
			(width 0.01)
			(type default)
		)
		(layer "F.CrtYd")
		(uuid "e1e2de4f-a6e5-48f4-9334-92c84c39fd07")
	)
	(fp_line
		(start 3.6 -1)
		(end 3.6 1)
		(stroke
			(width 0.01)
			(type default)
		)
		(layer "F.CrtYd")
		(uuid "76321477-729f-4a7e-a63c-229ab12a0c63")
	)
	(fp_line
		(start 3.6 1)
		(end 2.6 1)
		(stroke
			(width 0.01)
			(type default)
		)
		(layer "F.CrtYd")
		(uuid "adf5fa04-4921-4f22-8cb0-ff0b466b2f51")
	)
	(fp_line
		(start -2.4 -1.65)
		(end 2.4 -1.65)
		(stroke
			(width 0.12)
			(type solid)
		)
		(layer "F.Fab")
		(uuid "a53fea0b-a1fb-452b-851c-452add701b7c")
	)
	(fp_line
		(start -2.4 1.65)
		(end -2.4 -1.65)
		(stroke
			(width 0.1)
			(type solid)
		)
		(layer "F.Fab")
		(uuid "3fea77c4-830b-4864-8fc0-b6c8c3297f77")
	)
	(fp_line
		(start 2.4 -1.65)
		(end 2.4 1.65)
		(stroke
			(width 0.12)
			(type solid)
		)
		(layer "F.Fab")
		(uuid "02a435de-ef88-4891-8c8f-dc9858123b13")
	)
	(fp_line
		(start 2.4 1.65)
		(end -2.4 1.65)
		(stroke
			(width 0.12)
			(type solid)
		)
		(layer "F.Fab")
		(uuid "58d95539-cd2f-47bc-9972-740d14b28482")
	)
	(pad "1" smd rect
		(at -2.2 0)
		(size 2.4 1.6)
		(layers "F.Cu" "F.Paste" "F.Mask")
		(uuid "3a4e8368-512f-4f3d-a4b8-2314301805da")
	)
	(pad "2" smd rect
		(at 2.2 0)
		(size 2.4 1.6)
		(layers "F.Cu" "F.Paste" "F.Mask")
		(uuid "5397d24d-861e-4333-b479-04bccfc12236")
	)
)
