(footprint "Keystone-5110"
	(version 20240108)
	(generator "pcbnew")
	(generator_version "8.0")
	(layer "F.Cu")
	(descr "EIA0603 High Current SMD Jumper")
	(property "Reference" "5110"
		(at 0 0 0)
		(layer "F.Fab")
		(uuid "609dd666-10a2-47d3-9219-28902feef6f9")
		(effects
			(font
				(size 0.4 0.4)
				(thickness 0.04)
			)
		)
	)
	(property "Value" "5110"
		(at 0 0 0)
		(layer "F.Fab")
		(hide yes)
		(uuid "fe52e4cb-65ce-46d3-a6d6-147c3c9519d2")
		(effects
			(font
				(size 0.4 0.4)
				(thickness 0.04)
			)
		)
	)
	(property "Footprint" ""
		(at 0 0 0)
		(layer "F.Fab")
		(hide yes)
		(uuid "5bdc65df-5471-497f-9364-c75af4520864")
		(effects
			(font
				(size 1.27 1.27)
				(thickness 0.15)
			)
		)
	)
	(property "Datasheet" ""
		(at 0 0 0)
		(layer "F.Fab")
		(hide yes)
		(uuid "c3500b0a-c112-424e-a0b7-ccf4bf1f257e")
		(effects
			(font
				(size 1.27 1.27)
				(thickness 0.15)
			)
		)
	)
	(property "Description" ""
		(at 0 0 0)
		(layer "F.Fab")
		(hide yes)
		(uuid "fb8c1b3b-5580-4634-9eb0-3dc14630f165")
		(effects
			(font
				(size 1.27 1.27)
				(thickness 0.15)
			)
		)
	)
	(attr smd)
	(fp_line
		(start 0 -0.45)
		(end 0 0.45)
		(stroke
			(width 0.12)
			(type default)
		)
		(layer "F.SilkS")
		(uuid "7a56e9fa-dd1d-4a2f-a023-9f4268bf8768")
	)
	(fp_rect
		(start 1.35 -0.7)
		(end -1.35 0.7)
		(stroke
			(width 0.01)
			(type solid)
		)
		(fill none)
		(layer "F.CrtYd")
		(uuid "786e458e-d9ce-4c49-904a-a7692e6f5f91")
	)
	(fp_rect
		(start -0.8 -0.45)
		(end 0.8 0.45)
		(stroke
			(width 0.1)
			(type solid)
		)
		(fill none)
		(layer "F.Fab")
		(uuid "b4e563bd-148a-4797-96e5-0abdb0c87cd3")
	)
	(pad "1" smd rect
		(at -0.75 0)
		(size 0.8 1)
		(layers "F.Cu" "F.Paste" "F.Mask")
		(uuid "bdd3758e-f2fe-4823-93e6-35e27a5cf0a0")
	)
	(pad "2" smd rect
		(at 0.75 0)
		(size 0.8 1)
		(layers "F.Cu" "F.Paste" "F.Mask")
		(uuid "67731a60-d3e7-47bb-8072-bdc895be1347")
	)
	(model "${KISYS3DMOD}/Keystone/5110.wrl"
		(offset
			(xyz 0 0 0)
		)
		(scale
			(xyz 1 1 1)
		)
		(rotate
			(xyz 0 0 0)
		)
	)
)
