(footprint "Murata-LQH32M"
	(version 20240108)
	(generator "pcbnew")
	(generator_version "8.0")
	(layer "F.Cu")
	(descr "EIA1210/IEC3225 Wire Wound Inductor for General Circuits")
	(property "Reference" "LQH32M"
		(at 0 0 0)
		(layer "F.Fab")
		(uuid "134847aa-d3a5-4d56-8267-0f17e913e65b")
		(effects
			(font
				(size 0.8 0.8)
				(thickness 0.08)
			)
		)
	)
	(property "Value" "LQH32M"
		(at 0 0 0)
		(layer "F.Fab")
		(hide yes)
		(uuid "ce5cfec6-b6f6-4834-bfa9-c41c45d8d3f0")
		(effects
			(font
				(size 0.8 0.8)
				(thickness 0.08)
			)
		)
	)
	(property "Footprint" ""
		(at 0 0 0)
		(layer "F.Fab")
		(hide yes)
		(uuid "2e9af1aa-ff3d-44e1-9f89-a897a6bd0085")
		(effects
			(font
				(size 1.27 1.27)
				(thickness 0.15)
			)
		)
	)
	(property "Datasheet" ""
		(at 0 0 0)
		(layer "F.Fab")
		(hide yes)
		(uuid "c50f9db5-75b4-49fd-96d3-4144c1e026cb")
		(effects
			(font
				(size 1.27 1.27)
				(thickness 0.15)
			)
		)
	)
	(property "Description" ""
		(at 0 0 0)
		(layer "F.Fab")
		(hide yes)
		(uuid "951a8e35-7e81-4210-ad99-108932f68293")
		(effects
			(font
				(size 1.27 1.27)
				(thickness 0.15)
			)
		)
	)
	(attr smd)
	(fp_line
		(start -1.75 -1.55)
		(end 1.75 -1.55)
		(stroke
			(width 0.12)
			(type solid)
		)
		(layer "F.SilkS")
		(uuid "2e777ebb-a8f0-4506-b6ad-5525bfde84d6")
	)
	(fp_line
		(start 1.75 1.55)
		(end -1.75 1.55)
		(stroke
			(width 0.12)
			(type solid)
		)
		(layer "F.SilkS")
		(uuid "f2eff15f-d185-4445-9264-b32bb9f97ed7")
	)
	(fp_rect
		(start -2.5 -1.55)
		(end 2.5 1.55)
		(stroke
			(width 0.01)
			(type solid)
		)
		(fill none)
		(layer "F.CrtYd")
		(uuid "cab9097b-3827-4026-89cd-c3646844981b")
	)
	(fp_rect
		(start -1.75 -1.35)
		(end 1.75 1.35)
		(stroke
			(width 0.1)
			(type solid)
		)
		(fill none)
		(layer "F.Fab")
		(uuid "0113e4a2-4664-42e1-96b7-3bb451aafd8c")
	)
	(pad "1" smd rect
		(at -1.3 0)
		(size 2 2.5)
		(layers "F.Cu" "F.Paste" "F.Mask")
		(uuid "99a6426e-e9c1-4a93-8eef-51a2226214d6")
	)
	(pad "2" smd rect
		(at 1.3 0)
		(size 2 2.5)
		(layers "F.Cu" "F.Paste" "F.Mask")
		(uuid "295ec89a-1897-48aa-acc0-1584e4b4b607")
	)
)
