(footprint "Murata-NFM18CC"
	(version 20240108)
	(generator "pcbnew")
	(generator_version "8.0")
	(layer "F.Cu")
	(descr "EIA0603 NFM18CC/18PC 3-terminal Filter Capacitor")
	(tags "NoIPC")
	(property "Reference" "NFM18CC"
		(at 0 0 0)
		(layer "F.Fab")
		(uuid "d073e095-1a54-4986-bb38-dd3f073d7249")
		(effects
			(font
				(size 0.2 0.2)
				(thickness 0.02)
			)
		)
	)
	(property "Value" "NFM18CC"
		(at 0 0 0)
		(layer "F.Fab")
		(hide yes)
		(uuid "0b4d37a6-808c-42f8-b2c3-9429e33d3a23")
		(effects
			(font
				(size 0.2 0.2)
				(thickness 0.02)
			)
		)
	)
	(property "Footprint" ""
		(at 0 0 0)
		(layer "F.Fab")
		(hide yes)
		(uuid "7b546e71-6fc5-4fdb-a282-03e4a7255ea7")
		(effects
			(font
				(size 1.27 1.27)
				(thickness 0.15)
			)
		)
	)
	(property "Datasheet" ""
		(at 0 0 0)
		(layer "F.Fab")
		(hide yes)
		(uuid "d56ca5cd-1e6a-405c-bad2-68e72813abb9")
		(effects
			(font
				(size 1.27 1.27)
				(thickness 0.15)
			)
		)
	)
	(property "Description" ""
		(at 0 0 0)
		(layer "F.Fab")
		(hide yes)
		(uuid "f709b100-2f88-4342-bdd5-45a078eba91c")
		(effects
			(font
				(size 1.27 1.27)
				(thickness 0.15)
			)
		)
	)
	(attr smd)
	(fp_line
		(start -0.85 -0.6)
		(end -0.5 -0.6)
		(stroke
			(width 0.12)
			(type solid)
		)
		(layer "F.SilkS")
		(uuid "e475776d-45ce-46ec-a196-d932dedbfd94")
	)
	(fp_line
		(start -0.85 0.6)
		(end -0.5 0.6)
		(stroke
			(width 0.12)
			(type solid)
		)
		(layer "F.SilkS")
		(uuid "50e003fd-d216-4abf-97b5-35830e44902c")
	)
	(fp_line
		(start 0.85 -0.6)
		(end 0.5 -0.6)
		(stroke
			(width 0.12)
			(type solid)
		)
		(layer "F.SilkS")
		(uuid "c4867e57-69de-4ae4-b86a-23b86002c7f7")
	)
	(fp_line
		(start 0.85 0.6)
		(end 0.5 0.6)
		(stroke
			(width 0.12)
			(type solid)
		)
		(layer "F.SilkS")
		(uuid "e1722f43-75e8-4938-be29-1e26ac4cf7e3")
	)
	(fp_circle
		(center 0 -0.75)
		(end 0.15 -0.75)
		(stroke
			(width 0.1)
			(type default)
		)
		(fill none)
		(layer "Cmts.User")
		(uuid "88e25a73-986f-433c-a513-2f4a2d92321b")
	)
	(fp_circle
		(center 0 0)
		(end 0.15 0)
		(stroke
			(width 0.1)
			(type default)
		)
		(fill none)
		(layer "Cmts.User")
		(uuid "2b01db4b-e854-4b9b-8ca0-33d523cdb56f")
	)
	(fp_circle
		(center 0 0.75)
		(end 0.15 0.75)
		(stroke
			(width 0.1)
			(type default)
		)
		(fill none)
		(layer "Cmts.User")
		(uuid "27c602e2-5e2e-492f-96d5-2291282ccc78")
	)
	(fp_rect
		(start -1.3 -0.75)
		(end 1.3 0.75)
		(stroke
			(width 0.01)
			(type solid)
		)
		(fill none)
		(layer "F.CrtYd")
		(uuid "36f5727e-7762-4ce4-9f89-a22958f5aaba")
	)
	(fp_rect
		(start -0.85 -0.45)
		(end 0.85 0.45)
		(stroke
			(width 0.1)
			(type solid)
		)
		(fill none)
		(layer "F.Fab")
		(uuid "a49c15b1-0021-4759-9e46-ee7c51231a70")
	)
	(pad "" smd rect
		(at 0 -0.4)
		(size 0.4 0.4)
		(layers "F.Paste")
		(uuid "b6110914-ebc1-46dc-9eed-f65003bb2213")
	)
	(pad "" smd rect
		(at 0 0.4)
		(size 0.4 0.4)
		(layers "F.Paste")
		(uuid "15223e90-c67d-43de-b5ac-0cad678bc835")
	)
	(pad "1" smd rect
		(at -0.8 0)
		(size 0.6 0.6)
		(layers "F.Cu" "F.Paste" "F.Mask")
		(uuid "3d2b0f07-b9e8-4b67-afef-e5cd8767a29c")
	)
	(pad "2" smd rect
		(at 0.8 0)
		(size 0.6 0.6)
		(layers "F.Cu" "F.Paste" "F.Mask")
		(uuid "b97c414b-5bfd-4532-8aaf-20830afd15c5")
	)
	(pad "3" smd custom
		(at 0 0)
		(size 0.4 0.4)
		(layers "F.Cu" "F.Mask")
		(thermal_bridge_angle 45)
		(options
			(clearance outline)
			(anchor rect)
		)
		(primitives
			(gr_poly
				(pts
					(xy 0.2 0.6) (xy 0.2 0.2) (xy 0.3 0.2) (xy 0.3 -0.2) (xy 0.2 -0.2) (xy 0.2 -0.6) (xy -0.2 -0.6)
					(xy -0.2 -0.2) (xy -0.3 -0.2) (xy -0.3 0.2) (xy -0.2 0.2) (xy -0.2 0.6)
				)
				(width 0)
				(fill yes)
			)
		)
		(uuid "df1344c7-bbaf-48af-91d7-80a459ed473e")
	)
	(model "C/0603.wrl"
		(offset
			(xyz 0 0 0)
		)
		(scale
			(xyz 1 1 1)
		)
		(rotate
			(xyz 0 0 0)
		)
	)
)
