(footprint "NXP-SOD128"
	(version 20240108)
	(generator "pcbnew")
	(generator_version "8.0")
	(layer "F.Cu")
	(descr "3.8×2.6×1mm Small Outline Diode - AK form")
	(property "Reference" "SOD128"
		(at 0 0 0)
		(layer "F.Fab")
		(uuid "f8010907-1984-4b16-a090-4f08262d4567")
		(effects
			(font
				(size 0.8 0.8)
				(thickness 0.08)
			)
		)
	)
	(property "Value" "SOD128"
		(at 0 0 0)
		(layer "F.Fab")
		(hide yes)
		(uuid "7cc897ef-9c2e-4e22-ac45-dd44924fe50a")
		(effects
			(font
				(size 0.8 0.8)
				(thickness 0.08)
			)
		)
	)
	(property "Footprint" ""
		(at 0 0 0)
		(layer "F.Fab")
		(hide yes)
		(uuid "986a15f3-4902-443c-be35-221a7dd3ed53")
		(effects
			(font
				(size 1.27 1.27)
				(thickness 0.15)
			)
		)
	)
	(property "Datasheet" ""
		(at 0 0 0)
		(layer "F.Fab")
		(hide yes)
		(uuid "50608c2e-e010-47ce-80b6-a36364166811")
		(effects
			(font
				(size 1.27 1.27)
				(thickness 0.15)
			)
		)
	)
	(property "Description" ""
		(at 0 0 0)
		(layer "F.Fab")
		(hide yes)
		(uuid "80dfdf82-7b72-4660-b8b7-2cce7d32b8b9")
		(effects
			(font
				(size 1.27 1.27)
				(thickness 0.15)
			)
		)
	)
	(attr smd)
	(fp_line
		(start -2.9 -1.35)
		(end 2 -1.35)
		(stroke
			(width 0.12)
			(type solid)
		)
		(layer "F.SilkS")
		(uuid "12ecce70-0310-4fa0-919e-50d971f403d1")
	)
	(fp_line
		(start -2.9 1.35)
		(end 2 1.35)
		(stroke
			(width 0.12)
			(type solid)
		)
		(layer "F.SilkS")
		(uuid "37ca08b5-2947-4a9d-abc7-58cbd10669e0")
	)
	(fp_line
		(start -3.1 -1.25)
		(end -3.1 1.25)
		(stroke
			(width 0.01)
			(type default)
		)
		(layer "F.CrtYd")
		(uuid "36efa6cf-ed69-45b2-b20d-708b5cd3157e")
	)
	(fp_line
		(start -3.1 1.25)
		(end -2.2 1.25)
		(stroke
			(width 0.01)
			(type default)
		)
		(layer "F.CrtYd")
		(uuid "b12f8df7-fa70-4c0d-8d3f-9e4791f02633")
	)
	(fp_line
		(start -2.2 -1.55)
		(end -2.2 -1.25)
		(stroke
			(width 0.01)
			(type default)
		)
		(layer "F.CrtYd")
		(uuid "90c9a9ce-0ffd-4cd9-bc0f-fdb757229617")
	)
	(fp_line
		(start -2.2 -1.25)
		(end -3.1 -1.25)
		(stroke
			(width 0.01)
			(type default)
		)
		(layer "F.CrtYd")
		(uuid "39b14d18-6ee7-4ac2-9da7-aef2e6c332fc")
	)
	(fp_line
		(start -2.2 1.25)
		(end -2.2 1.55)
		(stroke
			(width 0.01)
			(type default)
		)
		(layer "F.CrtYd")
		(uuid "85bc0ee6-f781-4fe1-a30d-455887133724")
	)
	(fp_line
		(start -2.2 1.55)
		(end 2.2 1.55)
		(stroke
			(width 0.01)
			(type default)
		)
		(layer "F.CrtYd")
		(uuid "2eb87626-7b42-4844-8494-1a989618a3ca")
	)
	(fp_line
		(start 2.2 -1.55)
		(end -2.2 -1.55)
		(stroke
			(width 0.01)
			(type default)
		)
		(layer "F.CrtYd")
		(uuid "285acc85-898b-4cf3-a9d3-a06e5a6418d3")
	)
	(fp_line
		(start 2.2 -1.25)
		(end 2.2 -1.55)
		(stroke
			(width 0.01)
			(type default)
		)
		(layer "F.CrtYd")
		(uuid "7a05407e-e3b5-41ef-8135-39af9a43647a")
	)
	(fp_line
		(start 2.2 1.25)
		(end 3.1 1.25)
		(stroke
			(width 0.01)
			(type default)
		)
		(layer "F.CrtYd")
		(uuid "f603f44f-8ca3-4f23-8d33-731b37f3f7dd")
	)
	(fp_line
		(start 2.2 1.55)
		(end 2.2 1.25)
		(stroke
			(width 0.01)
			(type default)
		)
		(layer "F.CrtYd")
		(uuid "840fb414-53f8-41a3-8bdc-ec1377327147")
	)
	(fp_line
		(start 3.1 -1.25)
		(end 2.2 -1.25)
		(stroke
			(width 0.01)
			(type default)
		)
		(layer "F.CrtYd")
		(uuid "676e0892-4c3a-42da-8a8e-2708f30d7cdc")
	)
	(fp_line
		(start 3.1 1.25)
		(end 3.1 -1.25)
		(stroke
			(width 0.01)
			(type default)
		)
		(layer "F.CrtYd")
		(uuid "75f1d010-6e41-4470-b90a-b3d441a85c8d")
	)
	(fp_line
		(start -1 1.35)
		(end -2 0.35)
		(stroke
			(width 0.12)
			(type solid)
		)
		(layer "F.Fab")
		(uuid "b884595b-e78f-4b54-ad02-f555cc154e5c")
	)
	(fp_rect
		(start -2 -1.35)
		(end 2 1.35)
		(stroke
			(width 0.12)
			(type solid)
		)
		(fill none)
		(layer "F.Fab")
		(uuid "de4d5182-62de-4992-9383-81a417a84a5b")
	)
	(pad "A" smd rect
		(at 2.2 0)
		(size 1.4 2.1)
		(layers "F.Cu" "F.Paste" "F.Mask")
		(uuid "a4a4e44c-cd3d-4b14-9699-a138af83c1c8")
	)
	(pad "K" smd rect
		(at -2.2 0)
		(size 1.4 2.1)
		(layers "F.Cu" "F.Paste" "F.Mask")
		(uuid "1fe8795e-ed2a-40bd-96d2-039e3d92c91f")
	)
	(model "${KISYS3DMOD}/NXP/SOD128.wrl"
		(offset
			(xyz 0 0 0)
		)
		(scale
			(xyz 1 1 1)
		)
		(rotate
			(xyz 0 0 0)
		)
	)
)
