(footprint "SOD323"
	(version 20240108)
	(generator "pcbnew")
	(generator_version "8.0")
	(layer "F.Cu")
	(descr "1.7×1.25mm Small Outline Diode (SC76) - AK form")
	(tags "IPC7352")
	(property "Reference" "SOD323"
		(at 0 0 0)
		(layer "F.Fab")
		(uuid "73872e39-ae4d-44e4-b9c1-d79891d9d4d4")
		(effects
			(font
				(size 0.2 0.2)
				(thickness 0.02)
			)
		)
	)
	(property "Value" "SOD323"
		(at 0 0 0)
		(layer "F.Fab")
		(hide yes)
		(uuid "6311912c-38c9-4819-91b4-41931ccb7cc5")
		(effects
			(font
				(size 0.2 0.2)
				(thickness 0.02)
			)
		)
	)
	(property "Footprint" ""
		(at 0 0 0)
		(layer "F.Fab")
		(hide yes)
		(uuid "f8761fc3-9910-4512-b751-2a8493f76ffd")
		(effects
			(font
				(size 1.27 1.27)
				(thickness 0.15)
			)
		)
	)
	(property "Datasheet" ""
		(at 0 0 0)
		(layer "F.Fab")
		(hide yes)
		(uuid "4fd27c89-b991-409a-a34a-87dc6f2e739f")
		(effects
			(font
				(size 1.27 1.27)
				(thickness 0.15)
			)
		)
	)
	(property "Description" ""
		(at 0 0 0)
		(layer "F.Fab")
		(hide yes)
		(uuid "d713d60c-a342-49b8-9717-86929bcc645e")
		(effects
			(font
				(size 1.27 1.27)
				(thickness 0.15)
			)
		)
	)
	(attr smd)
	(fp_line
		(start -1.6 0.55)
		(end -0.9 0.55)
		(stroke
			(width 0.12)
			(type solid)
		)
		(layer "F.SilkS")
		(uuid "cd37445d-7e69-43c7-a246-3c19a9e80192")
	)
	(fp_line
		(start -0.9 -0.55)
		(end -1.6 -0.55)
		(stroke
			(width 0.12)
			(type solid)
		)
		(layer "F.SilkS")
		(uuid "eb1f5f67-1647-4e1c-ab18-120e742c63a6")
	)
	(fp_line
		(start -0.9 -0.55)
		(end -0.9 -0.65)
		(stroke
			(width 0.12)
			(type solid)
		)
		(layer "F.SilkS")
		(uuid "9354e3c1-baf3-4fb1-ad89-26708e92f2f3")
	)
	(fp_line
		(start -0.9 0.55)
		(end -0.9 0.65)
		(stroke
			(width 0.12)
			(type solid)
		)
		(layer "F.SilkS")
		(uuid "13dfcd3b-0f2c-4213-9f4e-8f701fa294b3")
	)
	(fp_line
		(start -0.9 0.65)
		(end 0.9 0.65)
		(stroke
			(width 0.12)
			(type solid)
		)
		(layer "F.SilkS")
		(uuid "2ceb269c-002a-4d1d-8fcc-3039e49371b1")
	)
	(fp_line
		(start 0.9 -0.65)
		(end -0.9 -0.65)
		(stroke
			(width 0.12)
			(type solid)
		)
		(layer "F.SilkS")
		(uuid "f474eb24-c3d2-44ec-9cc5-fc85f895cc59")
	)
	(fp_line
		(start -1.8 -0.45)
		(end -1.1 -0.45)
		(stroke
			(width 0.01)
			(type default)
		)
		(layer "F.CrtYd")
		(uuid "c6370e75-e17f-441e-b4be-558e73c39c98")
	)
	(fp_line
		(start -1.8 0.45)
		(end -1.8 -0.45)
		(stroke
			(width 0.01)
			(type default)
		)
		(layer "F.CrtYd")
		(uuid "c8266a65-98cf-4f2e-a2ff-0487bb5c71da")
	)
	(fp_line
		(start -1.1 -0.85)
		(end 1.1 -0.85)
		(stroke
			(width 0.01)
			(type default)
		)
		(layer "F.CrtYd")
		(uuid "e4d0cc33-ad12-4a2e-8685-4ae5c52b3b02")
	)
	(fp_line
		(start -1.1 -0.45)
		(end -1.1 -0.85)
		(stroke
			(width 0.01)
			(type default)
		)
		(layer "F.CrtYd")
		(uuid "123b2ae6-e056-45cc-ab47-79e77d5836f1")
	)
	(fp_line
		(start -1.1 0.45)
		(end -1.8 0.45)
		(stroke
			(width 0.01)
			(type default)
		)
		(layer "F.CrtYd")
		(uuid "e184b638-509c-4132-8faf-4b779c64ed1d")
	)
	(fp_line
		(start -1.1 0.85)
		(end -1.1 0.45)
		(stroke
			(width 0.01)
			(type default)
		)
		(layer "F.CrtYd")
		(uuid "78e82814-28aa-4f92-aae1-8d79013d36c7")
	)
	(fp_line
		(start 1.1 -0.85)
		(end 1.1 -0.45)
		(stroke
			(width 0.01)
			(type default)
		)
		(layer "F.CrtYd")
		(uuid "ec3d3ecc-c767-46de-ad79-8df8a5eb7799")
	)
	(fp_line
		(start 1.1 -0.45)
		(end 1.8 -0.45)
		(stroke
			(width 0.01)
			(type default)
		)
		(layer "F.CrtYd")
		(uuid "3d7b15fa-7873-4b72-b59e-f3a4b6dbe9c8")
	)
	(fp_line
		(start 1.1 0.45)
		(end 1.1 0.85)
		(stroke
			(width 0.01)
			(type default)
		)
		(layer "F.CrtYd")
		(uuid "5fdfdef6-0850-4cee-9006-aba0afbb8af6")
	)
	(fp_line
		(start 1.1 0.85)
		(end -1.1 0.85)
		(stroke
			(width 0.01)
			(type default)
		)
		(layer "F.CrtYd")
		(uuid "04c59382-bceb-42b6-8209-b56da225d8ce")
	)
	(fp_line
		(start 1.8 -0.45)
		(end 1.8 0.45)
		(stroke
			(width 0.01)
			(type default)
		)
		(layer "F.CrtYd")
		(uuid "75a5b52b-7752-4979-b11a-dc5c87ec0b7b")
	)
	(fp_line
		(start 1.8 0.45)
		(end 1.1 0.45)
		(stroke
			(width 0.01)
			(type default)
		)
		(layer "F.CrtYd")
		(uuid "4b3b0370-0178-4e03-a725-c1698e6b2c14")
	)
	(fp_line
		(start -0.9 0)
		(end -0.25 0.65)
		(stroke
			(width 0.1)
			(type solid)
		)
		(layer "F.Fab")
		(uuid "8f769b74-1b51-4a11-b217-f7821e4b85b4")
	)
	(fp_rect
		(start -0.9 -0.65)
		(end 0.9 0.65)
		(stroke
			(width 0.1)
			(type solid)
		)
		(fill none)
		(layer "F.Fab")
		(uuid "0c6e474c-0ffe-4291-90eb-60461683289e")
	)
	(pad "A" smd rect
		(at 1.25 0)
		(size 0.7 0.5)
		(layers "F.Cu" "F.Paste" "F.Mask")
		(uuid "053c8083-a9af-4404-9cbb-5f2f2c004e29")
	)
	(pad "K" smd rect
		(at -1.25 0)
		(size 0.7 0.5)
		(layers "F.Cu" "F.Paste" "F.Mask")
		(uuid "a5c7abb9-628b-4db0-9244-e209be576760")
	)
	(model "SOD/SOD323.wrl"
		(offset
			(xyz 0 0 0)
		)
		(scale
			(xyz 1 1 1)
		)
		(rotate
			(xyz 0 0 0)
		)
	)
)
