(footprint "SOT323"
	(version 20240108)
	(generator "pcbnew")
	(generator_version "8.0")
	(layer "F.Cu")
	(descr "2×1.25mm Small Outline Transistor (SC70) - 123 form")
	(property "Reference" "SOT323"
		(at 0 0 -90)
		(layer "F.Fab")
		(uuid "414845b9-facc-41f0-b064-fa6f50fa7f71")
		(effects
			(font
				(size 0.4 0.4)
				(thickness 0.04)
			)
		)
	)
	(property "Value" "SOT323"
		(at 0 0 -90)
		(layer "F.Fab")
		(hide yes)
		(uuid "f3e33cd6-82f3-473b-8412-e0edf141b8ac")
		(effects
			(font
				(size 0.4 0.4)
				(thickness 0.04)
			)
		)
	)
	(property "Footprint" ""
		(at 0 0 -90)
		(layer "F.Fab")
		(hide yes)
		(uuid "dbcee3cf-1173-447d-9611-6a14a96d38ea")
		(effects
			(font
				(size 1.27 1.27)
				(thickness 0.15)
			)
		)
	)
	(property "Datasheet" ""
		(at 0 0 -90)
		(layer "F.Fab")
		(hide yes)
		(uuid "da086578-5adb-43d4-867b-f494cf026a62")
		(effects
			(font
				(size 1.27 1.27)
				(thickness 0.15)
			)
		)
	)
	(property "Description" ""
		(at 0 0 -90)
		(layer "F.Fab")
		(hide yes)
		(uuid "79182a81-706a-4431-a797-a68a82a8d929")
		(effects
			(font
				(size 1.27 1.27)
				(thickness 0.15)
			)
		)
	)
	(attr smd)
	(fp_line
		(start -0.7 0.05)
		(end -0.7 -0.05)
		(stroke
			(width 0.12)
			(type solid)
		)
		(layer "F.SilkS")
		(uuid "9c38c65e-ffb6-4394-830e-fd0fa2812161")
	)
	(fp_line
		(start -0.3 -1.1)
		(end 0.7 -1.1)
		(stroke
			(width 0.12)
			(type solid)
		)
		(layer "F.SilkS")
		(uuid "08787045-f8bd-4e9d-9484-630a1c80d06b")
	)
	(fp_line
		(start 0.7 -1.1)
		(end 0.7 -0.6)
		(stroke
			(width 0.12)
			(type solid)
		)
		(layer "F.SilkS")
		(uuid "25d9be7c-e1ad-4384-9c45-6ce7de032a61")
	)
	(fp_line
		(start 0.7 0.6)
		(end 0.7 1.1)
		(stroke
			(width 0.12)
			(type solid)
		)
		(layer "F.SilkS")
		(uuid "42e9529c-1867-4b27-8fbb-3b9bf4f13931")
	)
	(fp_line
		(start 0.7 1.1)
		(end -0.3 1.1)
		(stroke
			(width 0.12)
			(type solid)
		)
		(layer "F.SilkS")
		(uuid "987c81ea-1271-409e-badc-305d11b740c0")
	)
	(fp_line
		(start -1.7 -1.15)
		(end -0.9 -1.15)
		(stroke
			(width 0.01)
			(type default)
		)
		(layer "F.CrtYd")
		(uuid "f2089062-6497-48d1-8d4f-e8d5fe909983")
	)
	(fp_line
		(start -1.7 1.15)
		(end -1.7 -1.15)
		(stroke
			(width 0.01)
			(type default)
		)
		(layer "F.CrtYd")
		(uuid "a39ba6ca-1416-43e1-86f1-fb80ac971a3b")
	)
	(fp_line
		(start -0.9 -1.3)
		(end 0.9 -1.3)
		(stroke
			(width 0.01)
			(type default)
		)
		(layer "F.CrtYd")
		(uuid "294f3469-6952-4d55-bee7-74be642463e7")
	)
	(fp_line
		(start -0.9 -1.15)
		(end -0.9 -1.3)
		(stroke
			(width 0.01)
			(type default)
		)
		(layer "F.CrtYd")
		(uuid "e920636a-0e6a-464a-841d-86533a2f765b")
	)
	(fp_line
		(start -0.9 1.15)
		(end -1.7 1.15)
		(stroke
			(width 0.01)
			(type default)
		)
		(layer "F.CrtYd")
		(uuid "334ee885-0deb-4f23-bf50-e4de28fe1a39")
	)
	(fp_line
		(start -0.9 1.3)
		(end -0.9 1.15)
		(stroke
			(width 0.01)
			(type default)
		)
		(layer "F.CrtYd")
		(uuid "b85be4cc-ad58-4374-ba2d-874a46592823")
	)
	(fp_line
		(start 0.9 -1.3)
		(end 0.9 -0.5)
		(stroke
			(width 0.01)
			(type default)
		)
		(layer "F.CrtYd")
		(uuid "35ba09a3-8907-48b8-9c0e-668b5dd9d673")
	)
	(fp_line
		(start 0.9 -0.5)
		(end 1.7 -0.5)
		(stroke
			(width 0.01)
			(type default)
		)
		(layer "F.CrtYd")
		(uuid "2c2f2607-774d-42cb-a820-3b5f87f56226")
	)
	(fp_line
		(start 0.9 0.5)
		(end 0.9 1.3)
		(stroke
			(width 0.01)
			(type default)
		)
		(layer "F.CrtYd")
		(uuid "d0a458cf-541b-4333-bcdf-7e76fbda2caf")
	)
	(fp_line
		(start 0.9 1.3)
		(end -0.9 1.3)
		(stroke
			(width 0.01)
			(type default)
		)
		(layer "F.CrtYd")
		(uuid "d04d6535-1973-40e9-bcd7-9cae3ade7f0e")
	)
	(fp_line
		(start 1.7 -0.5)
		(end 1.7 0.5)
		(stroke
			(width 0.01)
			(type default)
		)
		(layer "F.CrtYd")
		(uuid "97002c58-1ea5-4594-8d9e-89d8ebebc8fa")
	)
	(fp_line
		(start 1.7 0.5)
		(end 0.9 0.5)
		(stroke
			(width 0.01)
			(type default)
		)
		(layer "F.CrtYd")
		(uuid "bfaa5128-5e1d-4092-ba46-279a1838ad13")
	)
	(fp_line
		(start 0 -1.1)
		(end -0.7 -0.4)
		(stroke
			(width 0.1)
			(type solid)
		)
		(layer "F.Fab")
		(uuid "1bdd4d61-95e6-4a9d-8381-03065a0cd1e9")
	)
	(fp_rect
		(start -0.7 -1.1)
		(end 0.7 1.1)
		(stroke
			(width 0.1)
			(type solid)
		)
		(fill none)
		(layer "F.Fab")
		(uuid "0cdca032-0fbb-419a-8331-f2d626a1df02")
	)
	(pad "1" smd rect
		(at -1.05 -0.65 270)
		(size 0.6 0.9)
		(layers "F.Cu" "F.Paste" "F.Mask")
		(uuid "4156bebc-a037-4f08-8f92-f7c3d5d6c565")
	)
	(pad "2" smd rect
		(at -1.05 0.65 270)
		(size 0.6 0.9)
		(layers "F.Cu" "F.Paste" "F.Mask")
		(uuid "4447f9eb-bcec-49a3-abd5-6c660ffcc189")
	)
	(pad "3" smd rect
		(at 1.05 0 270)
		(size 0.6 0.9)
		(layers "F.Cu" "F.Paste" "F.Mask")
		(uuid "d0ef9ce1-f006-477a-b684-2852c16efcd0")
	)
	(model "${KISYS3DMOD}/SOT/SOT323.wrl"
		(offset
			(xyz 0 0 0)
		)
		(scale
			(xyz 1 1 1)
		)
		(rotate
			(xyz 0 0 90)
		)
	)
)
