(footprint "TO236-AKC"
	(version 20240108)
	(generator "pcbnew")
	(generator_version "8.0")
	(layer "F.Cu")
	(descr "2.9×2.5mm Small Outline Package (SOT23) - AKC form")
	(tags "IPC7352")
	(property "Reference" "TO236"
		(at 0 0 -90)
		(layer "F.Fab")
		(uuid "821b1592-cfea-419c-8c80-9e2bbfe9b345")
		(effects
			(font
				(size 0.6 0.6)
				(thickness 0.06)
			)
		)
	)
	(property "Value" "TO236"
		(at 0 0 -90)
		(layer "F.Fab")
		(hide yes)
		(uuid "f5f34ee9-365c-4f6c-a20c-428c9a45191e")
		(effects
			(font
				(size 0.6 0.6)
				(thickness 0.06)
			)
		)
	)
	(property "Footprint" ""
		(at 0 0 -90)
		(layer "F.Fab")
		(hide yes)
		(uuid "87efba7e-04b4-4e52-8a62-74830cce356e")
		(effects
			(font
				(size 1.27 1.27)
				(thickness 0.15)
			)
		)
	)
	(property "Datasheet" ""
		(at 0 0 -90)
		(layer "F.Fab")
		(hide yes)
		(uuid "48be494d-2980-433e-96ee-4661a50f60bd")
		(effects
			(font
				(size 1.27 1.27)
				(thickness 0.15)
			)
		)
	)
	(property "Description" ""
		(at 0 0 -90)
		(layer "F.Fab")
		(hide yes)
		(uuid "7e4c938e-5fd8-4767-9765-b5fac5b622a8")
		(effects
			(font
				(size 1.27 1.27)
				(thickness 0.15)
			)
		)
	)
	(attr smd)
	(fp_line
		(start -0.7 -0.35)
		(end -0.7 0.35)
		(stroke
			(width 0.12)
			(type solid)
		)
		(layer "F.SilkS")
		(uuid "5ca4f40f-6686-48c0-98f2-844893c7480c")
	)
	(fp_line
		(start 0.7 -1.5)
		(end -0.6 -1.5)
		(stroke
			(width 0.12)
			(type solid)
		)
		(layer "F.SilkS")
		(uuid "cb61be28-165e-444e-97c2-4da8ac9316ff")
	)
	(fp_line
		(start 0.7 -0.6)
		(end 0.7 -1.5)
		(stroke
			(width 0.12)
			(type solid)
		)
		(layer "F.SilkS")
		(uuid "d65902c0-9cce-4430-ae52-9567c95b34d5")
	)
	(fp_line
		(start 0.7 0.6)
		(end 0.7 1.5)
		(stroke
			(width 0.12)
			(type solid)
		)
		(layer "F.SilkS")
		(uuid "8e77148c-0f63-4f82-9c3f-0c7c67c49ecb")
	)
	(fp_line
		(start 0.7 1.5)
		(end -0.6 1.5)
		(stroke
			(width 0.12)
			(type solid)
		)
		(layer "F.SilkS")
		(uuid "53cf898b-0e3e-44ff-993c-bad6177aa4d0")
	)
	(fp_line
		(start -1.75 -1.45)
		(end -0.9 -1.45)
		(stroke
			(width 0.01)
			(type default)
		)
		(layer "F.CrtYd")
		(uuid "e1be03e3-10ef-406f-aab0-fcd18744189c")
	)
	(fp_line
		(start -1.75 1.45)
		(end -1.75 -1.45)
		(stroke
			(width 0.01)
			(type default)
		)
		(layer "F.CrtYd")
		(uuid "a244dc54-dcc5-4a71-aea8-bb0c85fa450b")
	)
	(fp_line
		(start -0.9 -1.7)
		(end 0.9 -1.7)
		(stroke
			(width 0.01)
			(type default)
		)
		(layer "F.CrtYd")
		(uuid "b4d96b7b-9310-4f38-a19f-dd4c46891ac0")
	)
	(fp_line
		(start -0.9 -1.45)
		(end -0.9 -1.7)
		(stroke
			(width 0.01)
			(type default)
		)
		(layer "F.CrtYd")
		(uuid "776726be-123c-493f-9f21-486967ede313")
	)
	(fp_line
		(start -0.9 1.45)
		(end -1.75 1.45)
		(stroke
			(width 0.01)
			(type default)
		)
		(layer "F.CrtYd")
		(uuid "e6afd2be-bbb9-4045-9e2c-62be720da95e")
	)
	(fp_line
		(start -0.9 1.7)
		(end -0.9 1.45)
		(stroke
			(width 0.01)
			(type default)
		)
		(layer "F.CrtYd")
		(uuid "c4e4a011-41a6-4d3d-8dd8-e58ded6d3ba7")
	)
	(fp_line
		(start 0.9 -1.7)
		(end 0.9 -0.5)
		(stroke
			(width 0.01)
			(type default)
		)
		(layer "F.CrtYd")
		(uuid "e18724ec-df55-4227-a348-39ece4d3d601")
	)
	(fp_line
		(start 0.9 -0.5)
		(end 1.75 -0.5)
		(stroke
			(width 0.01)
			(type default)
		)
		(layer "F.CrtYd")
		(uuid "72490e84-70da-483c-9084-f2a4deb8ac79")
	)
	(fp_line
		(start 0.9 0.5)
		(end 0.9 1.7)
		(stroke
			(width 0.01)
			(type default)
		)
		(layer "F.CrtYd")
		(uuid "5423e6d9-9192-474d-b004-b46a2fc71a43")
	)
	(fp_line
		(start 0.9 1.7)
		(end -0.9 1.7)
		(stroke
			(width 0.01)
			(type default)
		)
		(layer "F.CrtYd")
		(uuid "35c781f3-4547-47b7-a26e-65430e376968")
	)
	(fp_line
		(start 1.75 -0.5)
		(end 1.75 0.5)
		(stroke
			(width 0.01)
			(type default)
		)
		(layer "F.CrtYd")
		(uuid "9ecc290e-d6cd-4e7f-9677-5b35339b4130")
	)
	(fp_line
		(start 1.75 0.5)
		(end 0.9 0.5)
		(stroke
			(width 0.01)
			(type default)
		)
		(layer "F.CrtYd")
		(uuid "30138e26-e4b1-49ee-9676-978a26f47793")
	)
	(fp_rect
		(start -0.7 -1.5)
		(end 0.7 1.5)
		(stroke
			(width 0.1)
			(type solid)
		)
		(fill none)
		(layer "F.Fab")
		(uuid "1b1c8ad4-c86a-4d47-80ac-5a03d909e3a4")
	)
	(pad "A" smd rect
		(at -1.1 -0.95 270)
		(size 0.6 0.9)
		(layers "F.Cu" "F.Paste" "F.Mask")
		(uuid "6b0d57d3-a861-4dea-8cb0-ea7cedd1fbe1")
	)
	(pad "C" smd rect
		(at 1.1 0 270)
		(size 0.6 0.9)
		(layers "F.Cu" "F.Paste" "F.Mask")
		(uuid "fab80f85-eaa0-4c14-9c00-0d9d9a0298f7")
	)
	(pad "K" smd rect
		(at -1.1 0.95 270)
		(size 0.6 0.9)
		(layers "F.Cu" "F.Paste" "F.Mask")
		(uuid "7969b203-de19-432e-ae07-4df4f9c64dc9")
	)
	(model "TO/TO236.wrl"
		(offset
			(xyz 0 0 0)
		)
		(scale
			(xyz 1 1 1)
		)
		(rotate
			(xyz 0 0 90)
		)
	)
)
