(footprint "TO243AA-BCE"
	(version 20240108)
	(generator "pcbnew")
	(generator_version "8.0")
	(layer "F.Cu")
	(descr "4.5×2.5mm Header Family (SC62, SOT89, UPAK, MPT3) - BCE form")
	(property "Reference" "TO243AA"
		(at 0 0 -90)
		(layer "F.Fab")
		(uuid "7447a6e7-8205-46ba-afca-d0fa8f90c95a")
		(effects
			(font
				(size 0.8 0.8)
				(thickness 0.08)
			)
		)
	)
	(property "Value" "TO243AA"
		(at 0 0 -90)
		(layer "F.Fab")
		(hide yes)
		(uuid "53c85970-3e21-4fae-a84f-721cfc0513b5")
		(effects
			(font
				(size 0.8 0.8)
				(thickness 0.08)
			)
		)
	)
	(property "Footprint" ""
		(at 0 0 -90)
		(layer "F.Fab")
		(hide yes)
		(uuid "29e0595d-86d1-4de9-ae4c-494881a26185")
		(effects
			(font
				(size 1.27 1.27)
				(thickness 0.15)
			)
		)
	)
	(property "Datasheet" ""
		(at 0 0 -90)
		(layer "F.Fab")
		(hide yes)
		(uuid "b3ac4e07-fe28-47e1-a94d-001eb3d2a8da")
		(effects
			(font
				(size 1.27 1.27)
				(thickness 0.15)
			)
		)
	)
	(property "Description" ""
		(at 0 0 -90)
		(layer "F.Fab")
		(hide yes)
		(uuid "d3706b7c-7951-4ca5-805a-3f6495fff0b7")
		(effects
			(font
				(size 1.27 1.27)
				(thickness 0.15)
			)
		)
	)
	(attr smd)
	(fp_line
		(start -1.3 -2.3)
		(end -1.3 -2.15)
		(stroke
			(width 0.12)
			(type solid)
		)
		(layer "F.SilkS")
		(uuid "587a157d-dedf-4558-a037-1a94bbba1848")
	)
	(fp_line
		(start -1.3 -0.85)
		(end -1.3 -0.65)
		(stroke
			(width 0.12)
			(type solid)
		)
		(layer "F.SilkS")
		(uuid "75286985-9fa5-4d30-89c5-493b6e63cd66")
	)
	(fp_line
		(start -1.3 0.65)
		(end -1.3 0.85)
		(stroke
			(width 0.12)
			(type solid)
		)
		(layer "F.SilkS")
		(uuid "0867287d-2e6a-4d69-a366-c29f88198f2b")
	)
	(fp_line
		(start -1.3 2.15)
		(end -1.3 2.3)
		(stroke
			(width 0.12)
			(type solid)
		)
		(layer "F.SilkS")
		(uuid "0f41a909-27c4-4be2-9d5e-9ae2108c8ff5")
	)
	(fp_line
		(start -1.3 2.3)
		(end 1.3 2.3)
		(stroke
			(width 0.12)
			(type solid)
		)
		(layer "F.SilkS")
		(uuid "1b54105e-6590-4d26-a763-ecfcf81eedc4")
	)
	(fp_line
		(start 1.3 -2.3)
		(end -1.3 -2.3)
		(stroke
			(width 0.12)
			(type solid)
		)
		(layer "F.SilkS")
		(uuid "c19dbe3c-ced0-48f7-a91d-777569cfb936")
	)
	(fp_line
		(start 1.3 -1.3)
		(end 1.3 -2.3)
		(stroke
			(width 0.12)
			(type solid)
		)
		(layer "F.SilkS")
		(uuid "78f88cf6-751c-4e9b-ae75-fb8b6d44ff39")
	)
	(fp_line
		(start 1.3 2.3)
		(end 1.3 1.3)
		(stroke
			(width 0.12)
			(type solid)
		)
		(layer "F.SilkS")
		(uuid "afd3dbad-e7a8-4e4c-b77c-4065a69aefa2")
	)
	(fp_line
		(start -2.45 -2.05)
		(end -1.5 -2.05)
		(stroke
			(width 0.01)
			(type default)
		)
		(layer "F.CrtYd")
		(uuid "3a4f0149-ddb3-4b6e-85c0-a2ab52c30d72")
	)
	(fp_line
		(start -2.45 2.05)
		(end -2.45 -2.05)
		(stroke
			(width 0.01)
			(type default)
		)
		(layer "F.CrtYd")
		(uuid "fab6428e-eeab-4a8c-98ed-4c7a8e0e30a6")
	)
	(fp_line
		(start -1.5 -2.5)
		(end 1.5 -2.5)
		(stroke
			(width 0.01)
			(type default)
		)
		(layer "F.CrtYd")
		(uuid "e3b2d796-75b4-45c5-ab8d-28694cc400c5")
	)
	(fp_line
		(start -1.5 -2.05)
		(end -1.5 -2.5)
		(stroke
			(width 0.01)
			(type default)
		)
		(layer "F.CrtYd")
		(uuid "12c7afc3-21ae-4456-adc3-faf2aa5545c5")
	)
	(fp_line
		(start -1.5 2.05)
		(end -2.45 2.05)
		(stroke
			(width 0.01)
			(type default)
		)
		(layer "F.CrtYd")
		(uuid "fa6682fa-4309-4fcc-aad5-1a761553e760")
	)
	(fp_line
		(start -1.5 2.5)
		(end -1.5 2.05)
		(stroke
			(width 0.01)
			(type default)
		)
		(layer "F.CrtYd")
		(uuid "0e0e10fe-ad74-48ea-9594-1f712e516709")
	)
	(fp_line
		(start 1.5 -2.5)
		(end 1.5 -1.2)
		(stroke
			(width 0.01)
			(type default)
		)
		(layer "F.CrtYd")
		(uuid "9fce651a-646f-4338-b6aa-a01d769f6433")
	)
	(fp_line
		(start 1.5 -1.2)
		(end 2.6 -1.2)
		(stroke
			(width 0.01)
			(type default)
		)
		(layer "F.CrtYd")
		(uuid "2d9412fe-550f-4491-9baa-f60565ef22fb")
	)
	(fp_line
		(start 1.5 1.2)
		(end 1.5 2.5)
		(stroke
			(width 0.01)
			(type default)
		)
		(layer "F.CrtYd")
		(uuid "2f6d0aa9-1869-4a31-b451-9580139d6bd8")
	)
	(fp_line
		(start 1.5 2.5)
		(end -1.5 2.5)
		(stroke
			(width 0.01)
			(type default)
		)
		(layer "F.CrtYd")
		(uuid "c6d79c38-32d4-4fd3-8621-2a83bcae6d11")
	)
	(fp_line
		(start 2.6 -1.2)
		(end 2.6 1.2)
		(stroke
			(width 0.01)
			(type default)
		)
		(layer "F.CrtYd")
		(uuid "1ec6631d-4517-4ca6-bd96-bd1b52963613")
	)
	(fp_line
		(start 2.6 1.2)
		(end 1.5 1.2)
		(stroke
			(width 0.01)
			(type default)
		)
		(layer "F.CrtYd")
		(uuid "9df0538e-afba-48d6-9275-a2a93ec91b56")
	)
	(fp_rect
		(start -1.3 -2.3)
		(end 1.3 2.3)
		(stroke
			(width 0.1)
			(type solid)
		)
		(fill none)
		(layer "F.Fab")
		(uuid "44cd722a-8afb-4e7c-8680-43fa7e6c684d")
	)
	(pad "" smd rect
		(at -1.7 0 270)
		(size 0.7 1.1)
		(layers "F.Paste")
		(uuid "f4f99e3d-7269-4f6a-a759-16ad2a258779")
	)
	(pad "" smd rect
		(at 0.6 0 270)
		(size 1.2 1.2)
		(layers "F.Paste")
		(uuid "ef1b4b98-541b-4673-a04f-2043250fc40a")
	)
	(pad "" smd rect
		(at 1.9 0 270)
		(size 1.9 0.8)
		(layers "F.Paste")
		(uuid "34871042-9d5c-4e29-abdd-a168368c3c22")
	)
	(pad "B" smd rect
		(at -1.7 -1.5 270)
		(size 0.7 1.1)
		(layers "F.Cu" "F.Paste" "F.Mask")
		(uuid "c264c438-a475-4ad4-9915-0f1e6ecf3053")
	)
	(pad "C" smd custom
		(at -1.7 0 270)
		(size 0.7 1.1)
		(layers "F.Cu" "F.Mask")
		(zone_connect 0)
		(thermal_bridge_angle 45)
		(options
			(clearance outline)
			(anchor rect)
		)
		(primitives
			(gr_poly
				(pts
					(xy -0.35 0.55) (xy 0.35 0.55) (xy 0.35 -1.3) (xy 1 -1.3) (xy 1 -4.1) (xy -1 -4.1) (xy -1 -1.3)
					(xy -0.35 -1.3)
				)
				(width 0)
				(fill yes)
			)
		)
		(uuid "2bf3f24b-fd30-41a7-a274-9b519491916b")
	)
	(pad "E" smd rect
		(at -1.7 1.5 270)
		(size 0.7 1.1)
		(layers "F.Cu" "F.Paste" "F.Mask")
		(uuid "a9ec539a-d80d-40cc-803c-12b6adefe42a")
	)
	(model "${KICAD6_3DMODEL_DIR}/TO/TO243AA.step"
		(offset
			(xyz 0 0 0)
		)
		(scale
			(xyz 1 1 1)
		)
		(rotate
			(xyz 0 0 90)
		)
	)
)
