(footprint "WE-CBF-0603-HC"
	(version 20240108)
	(generator "pcbnew")
	(generator_version "8.0")
	(layer "F.Cu")
	(descr "EIA0603 EMI Suppression Ferrite Bead (High Current pattern)")
	(property "Reference" "WE-CBF-0603-HC"
		(at 0 0 0)
		(layer "F.Fab")
		(uuid "d6306acc-d6ba-4d7e-90d5-69e322a12c66")
		(effects
			(font
				(size 0.2 0.2)
				(thickness 0.02)
			)
		)
	)
	(property "Value" "WE-CBF-0603-HC"
		(at 0 0 0)
		(layer "F.Fab")
		(hide yes)
		(uuid "85497a6d-edb1-4d50-8e73-87de534de545")
		(effects
			(font
				(size 0.2 0.2)
				(thickness 0.02)
			)
		)
	)
	(property "Footprint" ""
		(at 0 0 0)
		(layer "F.Fab")
		(hide yes)
		(uuid "701055fc-1652-49b0-8236-46aff4f85768")
		(effects
			(font
				(size 1.27 1.27)
				(thickness 0.15)
			)
		)
	)
	(property "Datasheet" ""
		(at 0 0 0)
		(layer "F.Fab")
		(hide yes)
		(uuid "7851f38c-2a63-4ae8-8711-c71d087f36c8")
		(effects
			(font
				(size 1.27 1.27)
				(thickness 0.15)
			)
		)
	)
	(property "Description" ""
		(at 0 0 0)
		(layer "F.Fab")
		(hide yes)
		(uuid "99d589f2-3947-46d1-b576-2a8302094e0f")
		(effects
			(font
				(size 1.27 1.27)
				(thickness 0.15)
			)
		)
	)
	(attr smd)
	(fp_line
		(start -0.05 -0.4)
		(end 0.05 -0.4)
		(stroke
			(width 0.12)
			(type solid)
		)
		(layer "F.SilkS")
		(uuid "14d0a0c0-0627-4bd8-99f9-334f65555f90")
	)
	(fp_line
		(start 0.05 0.4)
		(end -0.05 0.4)
		(stroke
			(width 0.12)
			(type solid)
		)
		(layer "F.SilkS")
		(uuid "d1cea42c-23b5-433c-a90d-b1da7364e469")
	)
	(fp_rect
		(start -1.55 -0.6)
		(end 1.55 0.6)
		(stroke
			(width 0.01)
			(type solid)
		)
		(fill none)
		(layer "F.CrtYd")
		(uuid "1e04959c-00ed-4372-b860-2558e18a5b39")
	)
	(fp_rect
		(start -0.75 -0.4)
		(end 0.75 0.4)
		(stroke
			(width 0.1)
			(type solid)
		)
		(fill none)
		(layer "F.Fab")
		(uuid "7bb458cd-3d35-42fe-ad2d-828a09e1b433")
	)
	(pad "1" smd rect
		(at -0.85 0)
		(size 1 0.7)
		(layers "F.Cu" "F.Paste" "F.Mask")
		(uuid "a5db37f7-2e80-4551-87df-605d6b44f097")
	)
	(pad "2" smd rect
		(at 0.85 0)
		(size 1 0.7)
		(layers "F.Cu" "F.Paste" "F.Mask")
		(uuid "8cc03112-a4e8-4f74-b848-014e087e2aef")
	)
	(model "${KISYS3DMOD}/WE/WE-CBF-0603.wrl"
		(offset
			(xyz 0 0 0)
		)
		(scale
			(xyz 1 1 1)
		)
		(rotate
			(xyz 0 0 0)
		)
	)
)
