(footprint "WE-PD-1050"
	(version 20240108)
	(generator "pcbnew")
	(generator_version "8.0")
	(layer "F.Cu")
	(descr "10×10×5mm SMD Shielded Power Inductor")
	(property "Reference" "WE-PD-1050"
		(at 0 0 0)
		(layer "F.Fab")
		(uuid "f7a38f67-cdce-4427-b320-09502190ab13")
		(effects
			(font
				(size 1.2 1.2)
				(thickness 0.12)
			)
		)
	)
	(property "Value" "WE-PD-1050"
		(at 0 0 0)
		(layer "F.Fab")
		(hide yes)
		(uuid "5b01451c-8e8f-4e59-a38b-dd5844da8aca")
		(effects
			(font
				(size 1.2 1.2)
				(thickness 0.12)
			)
		)
	)
	(property "Footprint" ""
		(at 0 0 0)
		(layer "F.Fab")
		(hide yes)
		(uuid "55f48ca6-83f2-4fb2-bd64-2afe7dd98c59")
		(effects
			(font
				(size 1.27 1.27)
				(thickness 0.15)
			)
		)
	)
	(property "Datasheet" ""
		(at 0 0 0)
		(layer "F.Fab")
		(hide yes)
		(uuid "d6ddd646-a122-42b9-9303-a3ea70479b45")
		(effects
			(font
				(size 1.27 1.27)
				(thickness 0.15)
			)
		)
	)
	(property "Description" ""
		(at 0 0 0)
		(layer "F.Fab")
		(hide yes)
		(uuid "d3ac63d3-3e5c-4e6f-84fe-6fd5499e3d03")
		(effects
			(font
				(size 1.27 1.27)
				(thickness 0.15)
			)
		)
	)
	(attr smd)
	(fp_line
		(start -5.25 -2.75)
		(end -2.75 -5.25)
		(stroke
			(width 0.12)
			(type solid)
		)
		(layer "F.SilkS")
		(uuid "bfa719eb-e0ef-416f-96e6-8c96a9f626a3")
	)
	(fp_line
		(start -5.25 -2.05)
		(end -5.25 -2.75)
		(stroke
			(width 0.12)
			(type solid)
		)
		(layer "F.SilkS")
		(uuid "1081cbaf-1911-46d6-add0-6764027f87a4")
	)
	(fp_line
		(start -5.25 3.25)
		(end -5.25 2.05)
		(stroke
			(width 0.12)
			(type solid)
		)
		(layer "F.SilkS")
		(uuid "21007f72-d688-4391-bbaf-402266aa1855")
	)
	(fp_line
		(start -3.25 5.25)
		(end -5.25 3.25)
		(stroke
			(width 0.12)
			(type solid)
		)
		(layer "F.SilkS")
		(uuid "17af0499-adc7-46b5-a480-68593e17a198")
	)
	(fp_line
		(start -2.75 -5.25)
		(end 3.25 -5.25)
		(stroke
			(width 0.12)
			(type solid)
		)
		(layer "F.SilkS")
		(uuid "2ce7a85c-0f6a-44ef-b5d1-f8d584c4cc90")
	)
	(fp_line
		(start 2.75 5.25)
		(end -3.25 5.25)
		(stroke
			(width 0.12)
			(type solid)
		)
		(layer "F.SilkS")
		(uuid "0208af4a-0845-4d9d-a935-687f8537df93")
	)
	(fp_line
		(start 5.25 -3.25)
		(end 5.25 -2.05)
		(stroke
			(width 0.12)
			(type solid)
		)
		(layer "F.SilkS")
		(uuid "0ade2a0c-aa9d-47ec-bb14-62d7cbec5f2b")
	)
	(fp_line
		(start 5.25 2.05)
		(end 5.25 2.75)
		(stroke
			(width 0.12)
			(type solid)
		)
		(layer "F.SilkS")
		(uuid "f04c6a40-c6e4-4442-bbb4-74df74891696")
	)
	(fp_line
		(start 5.25 2.75)
		(end 2.75 5.25)
		(stroke
			(width 0.12)
			(type solid)
		)
		(layer "F.SilkS")
		(uuid "003f73ba-3128-47de-8c54-a6997cdece6a")
	)
	(fp_arc
		(start 3.25 -5.25)
		(mid 4.664214 -4.664214)
		(end 5.25 -3.25)
		(stroke
			(width 0.12)
			(type solid)
		)
		(layer "F.SilkS")
		(uuid "758c49a8-5e05-4226-9dea-98c0f0431ff3")
	)
	(fp_rect
		(start -5.7 -5.45)
		(end 5.7 5.45)
		(stroke
			(width 0.01)
			(type solid)
		)
		(fill none)
		(layer "F.CrtYd")
		(uuid "8ec2f8e9-f5ed-4678-a88c-989dadc2f221")
	)
	(fp_line
		(start -5.25 -2.75)
		(end -5.25 3.25)
		(stroke
			(width 0.1)
			(type solid)
		)
		(layer "F.Fab")
		(uuid "a60f0829-9a08-4f68-a64e-8bbcc343ad43")
	)
	(fp_line
		(start -5.25 3.25)
		(end -3.25 5.25)
		(stroke
			(width 0.1)
			(type solid)
		)
		(layer "F.Fab")
		(uuid "2eea7052-c46a-4f84-bb1c-3bd3346385cf")
	)
	(fp_line
		(start -3.25 5.25)
		(end 2.75 5.25)
		(stroke
			(width 0.1)
			(type solid)
		)
		(layer "F.Fab")
		(uuid "8060c755-38f1-4ce3-952d-f27d921fb035")
	)
	(fp_line
		(start -2.75 -5.25)
		(end -5.25 -2.75)
		(stroke
			(width 0.1)
			(type solid)
		)
		(layer "F.Fab")
		(uuid "41cd51fe-0f5a-4004-8fc2-3c70c3b156ad")
	)
	(fp_line
		(start 3.25 -5.25)
		(end -2.75 -5.25)
		(stroke
			(width 0.1)
			(type solid)
		)
		(layer "F.Fab")
		(uuid "2a0aa646-a102-4410-9b25-9462e77bd04d")
	)
	(fp_line
		(start 5.25 2.75)
		(end 2.75 5.25)
		(stroke
			(width 0.1)
			(type solid)
		)
		(layer "F.Fab")
		(uuid "a4e0a192-2e22-454c-925a-a0139b284039")
	)
	(fp_line
		(start 5.25 2.75)
		(end 5.25 -3.25)
		(stroke
			(width 0.1)
			(type solid)
		)
		(layer "F.Fab")
		(uuid "1e924089-8ba8-49dd-989a-b4d085afa5fc")
	)
	(fp_arc
		(start 3.25 -5.25)
		(mid 4.664214 -4.664214)
		(end 5.25 -3.25)
		(stroke
			(width 0.1)
			(type solid)
		)
		(layer "F.Fab")
		(uuid "ffcdbc31-e6c1-45bc-b801-2701a1d72301")
	)
	(pad "1" smd rect
		(at -4.5 0)
		(size 2 3.5)
		(layers "F.Cu" "F.Paste" "F.Mask")
		(uuid "bd7bfbd5-0e97-4b24-a527-1150cb361e2c")
	)
	(pad "2" smd rect
		(at 4.5 0)
		(size 2 3.5)
		(layers "F.Cu" "F.Paste" "F.Mask")
		(uuid "0f10c349-11f4-443d-abfa-b3761d08e8ad")
	)
	(model "${KISYS3DMOD}/WE/WE-PD-1050.wrl"
		(offset
			(xyz 0 0 0)
		)
		(scale
			(xyz 1 1 1)
		)
		(rotate
			(xyz 0 0 0)
		)
	)
)
