(footprint "43045-16"
	(version 20240108)
	(generator "pcbnew")
	(generator_version "8.0")
	(layer "F.Cu")
	(descr "MicroFIT 3.0 Vertical Header 2×8 pins")
	(property "Reference" "43045-16"
		(at 0 0 0)
		(layer "F.Fab")
		(uuid "a724b2b5-3ac4-434d-8631-a400b1e8cb94")
		(effects
			(font
				(size 1.2 1.2)
				(thickness 0.12)
			)
		)
	)
	(property "Value" "43045-16"
		(at 0 0 0)
		(layer "F.Fab")
		(hide yes)
		(uuid "886a101b-0d45-485b-97de-29f12fb49138")
		(effects
			(font
				(size 1.2 1.2)
				(thickness 0.12)
			)
		)
	)
	(property "Footprint" ""
		(at 0 0 0)
		(layer "F.Fab")
		(hide yes)
		(uuid "232470a5-2fd7-4cb9-b6ba-2d4545f9adb9")
		(effects
			(font
				(size 1.27 1.27)
				(thickness 0.15)
			)
		)
	)
	(property "Datasheet" ""
		(at 0 0 0)
		(layer "F.Fab")
		(hide yes)
		(uuid "70854a14-c509-4723-b913-0cc93089bd47")
		(effects
			(font
				(size 1.27 1.27)
				(thickness 0.15)
			)
		)
	)
	(property "Description" ""
		(at 0 0 0)
		(layer "F.Fab")
		(hide yes)
		(uuid "f5f3a473-ce19-49f9-acb2-3e019ebf7c78")
		(effects
			(font
				(size 1.27 1.27)
				(thickness 0.15)
			)
		)
	)
	(attr smd)
	(fp_line
		(start -14.2 -4)
		(end -11.45 -4)
		(stroke
			(width 0.12)
			(type solid)
		)
		(layer "F.SilkS")
		(uuid "d0b54067-4701-48cf-8487-2bfd608b9009")
	)
	(fp_line
		(start -14.2 -1.15)
		(end -14.2 -4)
		(stroke
			(width 0.12)
			(type solid)
		)
		(layer "F.SilkS")
		(uuid "d211ad72-5d31-4f94-80a6-420d4853005c")
	)
	(fp_line
		(start -14.2 3.4)
		(end -14.2 2.95)
		(stroke
			(width 0.12)
			(type solid)
		)
		(layer "F.SilkS")
		(uuid "37e6bcf7-dc4e-4753-9cdb-4eaf52b2dd8a")
	)
	(fp_line
		(start -11.45 3.4)
		(end -14.2 3.4)
		(stroke
			(width 0.12)
			(type solid)
		)
		(layer "F.SilkS")
		(uuid "775524ec-85ab-47b6-a34b-ca2cbcd9a83e")
	)
	(fp_line
		(start 11.45 -4)
		(end 14.2 -4)
		(stroke
			(width 0.12)
			(type solid)
		)
		(layer "F.SilkS")
		(uuid "54dc8696-dc92-4c3c-86f0-f1bccb9c5066")
	)
	(fp_line
		(start 14.2 -4)
		(end 14.2 -1.15)
		(stroke
			(width 0.12)
			(type solid)
		)
		(layer "F.SilkS")
		(uuid "54091b50-1042-481f-8efe-de9d00a5adbe")
	)
	(fp_line
		(start 14.2 1.15)
		(end 14.2 3.4)
		(stroke
			(width 0.12)
			(type solid)
		)
		(layer "F.SilkS")
		(uuid "f45d4f53-baeb-404f-8414-c130f0dac39d")
	)
	(fp_line
		(start 14.2 3.4)
		(end 11.45 3.4)
		(stroke
			(width 0.12)
			(type solid)
		)
		(layer "F.SilkS")
		(uuid "12cb2438-d41f-4d82-9125-2f07c623888b")
	)
	(fp_line
		(start -14.2 -3)
		(end -13.2 -4)
		(stroke
			(width 0.12)
			(type solid)
		)
		(layer "F.Fab")
		(uuid "4ba4fdf4-902d-4c65-a37f-2e1dfaff4055")
	)
	(fp_line
		(start -1 3.4)
		(end -1 4.8)
		(stroke
			(width 0.12)
			(type solid)
		)
		(layer "F.Fab")
		(uuid "8c4c494d-4512-417e-9dff-b7b446758517")
	)
	(fp_line
		(start -1 4.8)
		(end 1 4.8)
		(stroke
			(width 0.12)
			(type solid)
		)
		(layer "F.Fab")
		(uuid "6e0d47b3-e579-4013-b91a-28853698867e")
	)
	(fp_line
		(start 1 4.8)
		(end 1 3.4)
		(stroke
			(width 0.12)
			(type solid)
		)
		(layer "F.Fab")
		(uuid "02e705d2-4da7-4a86-94b1-19f83a10355f")
	)
	(fp_rect
		(start -14.2 -4)
		(end 14.2 3.4)
		(stroke
			(width 0.12)
			(type solid)
		)
		(fill none)
		(layer "F.Fab")
		(uuid "2d17d6af-1dd2-453e-8cf2-81daea1a1cb7")
	)
	(fp_text user "${REFERENCE}"
		(at 0 -6.6 0)
		(layer "F.SilkS")
		(uuid "21da7304-a904-4da5-886f-1049e6932ce7")
		(effects
			(font
				(size 0.8 0.8)
				(thickness 0.15)
				(bold yes)
			)
		)
	)
	(pad "" smd rect
		(at -14.4 0)
		(size 3.5 1.7)
		(layers "F.Cu" "F.Paste" "F.Mask")
		(uuid "43bb71f0-e350-49a4-ac52-cbbee2b2b583")
	)
	(pad "" np_thru_hole circle
		(at -13.5 2.4)
		(size 1.1 1.1)
		(drill 1.1)
		(layers "*.Mask")
		(uuid "8dcb84a2-6e39-475e-8ac5-879d5c1fe966")
	)
	(pad "" np_thru_hole circle
		(at 13.5 2.4)
		(size 1.1 1.1)
		(drill 1.1)
		(layers "*.Mask")
		(uuid "caa2baee-09f6-4ddd-b64a-0e4880456f96")
	)
	(pad "" smd rect
		(at 14.4 0)
		(size 3.5 1.7)
		(layers "F.Cu" "F.Paste" "F.Mask")
		(uuid "2f43ffba-9265-43eb-ab3a-661894122ca8")
	)
	(pad "1" smd rect
		(at -10.5 -4.7)
		(size 1.3 2.6)
		(layers "F.Cu" "F.Paste" "F.Mask")
		(uuid "5beba39b-3d27-4b8d-81b8-7cc7b6593f0f")
	)
	(pad "1" thru_hole circle
		(at -10.5 -1.5)
		(size 1.7 1.7)
		(drill 1.1)
		(layers "*.Cu" "*.Mask")
		(remove_unused_layers no)
		(uuid "57cb453d-bde5-441b-a611-a97769519e4e")
	)
	(pad "2" smd rect
		(at -7.5 -4.7)
		(size 1.3 2.6)
		(layers "F.Cu" "F.Paste" "F.Mask")
		(uuid "ce143b27-9364-41ef-960e-34f513de2a72")
	)
	(pad "2" thru_hole circle
		(at -7.5 -1.5)
		(size 1.7 1.7)
		(drill 1.1)
		(layers "*.Cu" "*.Mask")
		(remove_unused_layers no)
		(uuid "6e2d2ee8-1458-4263-ba03-83840d4cb8f6")
	)
	(pad "3" smd rect
		(at -4.5 -4.7)
		(size 1.3 2.6)
		(layers "F.Cu" "F.Paste" "F.Mask")
		(uuid "a602465c-5940-4e1d-8b25-da7c80561bc8")
	)
	(pad "3" thru_hole circle
		(at -4.5 -1.5)
		(size 1.7 1.7)
		(drill 1.1)
		(layers "*.Cu" "*.Mask")
		(remove_unused_layers no)
		(uuid "6f61aedf-8d27-466d-929b-d658f8dede01")
	)
	(pad "4" smd rect
		(at -1.5 -4.7)
		(size 1.3 2.6)
		(layers "F.Cu" "F.Paste" "F.Mask")
		(uuid "eccb44b0-6942-4323-8fe9-fde86520e677")
	)
	(pad "4" thru_hole circle
		(at -1.5 -1.5)
		(size 1.7 1.7)
		(drill 1.1)
		(layers "*.Cu" "*.Mask")
		(remove_unused_layers no)
		(uuid "ef404b12-ad35-44e9-94ac-f4cdfe429381")
	)
	(pad "5" smd rect
		(at 1.5 -4.7)
		(size 1.3 2.6)
		(layers "F.Cu" "F.Paste" "F.Mask")
		(uuid "9040c182-3121-4eb5-a427-5833876592cc")
	)
	(pad "5" thru_hole circle
		(at 1.5 -1.5)
		(size 1.7 1.7)
		(drill 1.1)
		(layers "*.Cu" "*.Mask")
		(remove_unused_layers no)
		(uuid "e1a7da75-791c-4bcb-a61b-7cd8aa8615bd")
	)
	(pad "6" smd rect
		(at 4.5 -4.7)
		(size 1.3 2.6)
		(layers "F.Cu" "F.Paste" "F.Mask")
		(uuid "6e8224d9-571b-4f16-b705-82136d247386")
	)
	(pad "6" thru_hole circle
		(at 4.5 -1.5)
		(size 1.7 1.7)
		(drill 1.1)
		(layers "*.Cu" "*.Mask")
		(remove_unused_layers no)
		(uuid "ea93083b-1165-45f4-b445-a358ed86c41b")
	)
	(pad "7" smd rect
		(at 7.5 -4.7)
		(size 1.3 2.6)
		(layers "F.Cu" "F.Paste" "F.Mask")
		(uuid "713a099a-ccb7-405a-9525-17634d131962")
	)
	(pad "7" thru_hole circle
		(at 7.5 -1.5)
		(size 1.7 1.7)
		(drill 1.1)
		(layers "*.Cu" "*.Mask")
		(remove_unused_layers no)
		(uuid "2eb3f398-fd7b-49e8-9d90-d4de430d0914")
	)
	(pad "8" smd rect
		(at 10.5 -4.7)
		(size 1.3 2.6)
		(layers "F.Cu" "F.Paste" "F.Mask")
		(uuid "b011d4d0-2249-483c-a1a8-1b52f0274d69")
	)
	(pad "8" thru_hole circle
		(at 10.5 -1.5)
		(size 1.7 1.7)
		(drill 1.1)
		(layers "*.Cu" "*.Mask")
		(remove_unused_layers no)
		(uuid "8c98b055-8f37-47b4-a6ba-734dda211da5")
	)
	(pad "9" thru_hole circle
		(at -10.5 1.5)
		(size 1.7 1.7)
		(drill 1.1)
		(layers "*.Cu" "*.Mask")
		(remove_unused_layers no)
		(uuid "616091aa-2f70-48f0-ad91-e8ec167364d5")
	)
	(pad "9" smd rect
		(at -10.5 4.7)
		(size 1.3 2.6)
		(layers "F.Cu" "F.Paste" "F.Mask")
		(uuid "9022adfa-abd5-4721-8540-261cd72efe48")
	)
	(pad "10" thru_hole circle
		(at -7.5 1.5)
		(size 1.7 1.7)
		(drill 1.1)
		(layers "*.Cu" "*.Mask")
		(remove_unused_layers no)
		(uuid "3b55e3c8-cc14-41af-81ad-d67122e90558")
	)
	(pad "10" smd rect
		(at -7.5 4.7)
		(size 1.3 2.6)
		(layers "F.Cu" "F.Paste" "F.Mask")
		(uuid "e4dc8cb1-7486-4e62-9e1c-0bb2df2d62e3")
	)
	(pad "11" thru_hole circle
		(at -4.5 1.5)
		(size 1.7 1.7)
		(drill 1.1)
		(layers "*.Cu" "*.Mask")
		(remove_unused_layers no)
		(uuid "9e1d4dc7-990a-4be3-a87b-46d3e8956920")
	)
	(pad "11" smd rect
		(at -4.5 4.7)
		(size 1.3 2.6)
		(layers "F.Cu" "F.Paste" "F.Mask")
		(uuid "6dcb23ed-8dfd-427e-84f3-e2721d89010d")
	)
	(pad "12" thru_hole circle
		(at -1.5 1.5)
		(size 1.7 1.7)
		(drill 1.1)
		(layers "*.Cu" "*.Mask")
		(remove_unused_layers no)
		(uuid "bc4fcbad-2d18-4039-a5af-8cabb3f5dc85")
	)
	(pad "12" smd rect
		(at -1.5 4.7)
		(size 1.3 2.6)
		(layers "F.Cu" "F.Paste" "F.Mask")
		(uuid "daa053ec-bda4-443a-a443-9a572fa38e3f")
	)
	(pad "13" thru_hole circle
		(at 1.5 1.5)
		(size 1.7 1.7)
		(drill 1.1)
		(layers "*.Cu" "*.Mask")
		(remove_unused_layers no)
		(uuid "1ec79454-f9a5-4db2-9f3a-23b9f7013ce3")
	)
	(pad "13" smd rect
		(at 1.5 4.7)
		(size 1.3 2.6)
		(layers "F.Cu" "F.Paste" "F.Mask")
		(uuid "3d90d8f6-bde0-4570-b9f3-72cf572c2963")
	)
	(pad "14" thru_hole circle
		(at 4.5 1.5)
		(size 1.7 1.7)
		(drill 1.1)
		(layers "*.Cu" "*.Mask")
		(remove_unused_layers no)
		(uuid "80f5f79e-4716-49bf-9210-1576c58fff43")
	)
	(pad "14" smd rect
		(at 4.5 4.7)
		(size 1.3 2.6)
		(layers "F.Cu" "F.Paste" "F.Mask")
		(uuid "286e39bd-f6fa-4429-80f5-15b5c9dc746d")
	)
	(pad "15" thru_hole circle
		(at 7.5 1.5)
		(size 1.7 1.7)
		(drill 1.1)
		(layers "*.Cu" "*.Mask")
		(remove_unused_layers no)
		(uuid "d3ab5f7e-e36e-4c41-bb22-7d79da97cf05")
	)
	(pad "15" smd rect
		(at 7.5 4.7)
		(size 1.3 2.6)
		(layers "F.Cu" "F.Paste" "F.Mask")
		(uuid "26f8eef6-3046-4261-b84d-60380bf86678")
	)
	(pad "16" thru_hole circle
		(at 10.5 1.5)
		(size 1.7 1.7)
		(drill 1.1)
		(layers "*.Cu" "*.Mask")
		(remove_unused_layers no)
		(uuid "a48067f9-dad0-43e2-8577-a64ca58abaee")
	)
	(pad "16" smd rect
		(at 10.5 4.7)
		(size 1.3 2.6)
		(layers "F.Cu" "F.Paste" "F.Mask")
		(uuid "66e42694-86a3-4388-a69e-d6d3ae56515f")
	)
	(model "${KISYS3DMOD}/WE/WR-MPC3-66201621122.wrl"
		(offset
			(xyz 0 0 0)
		)
		(scale
			(xyz 1 1 1)
		)
		(rotate
			(xyz 0 0 0)
		)
	)
)
