(footprint "43045-22"
	(version 20240108)
	(generator "pcbnew")
	(generator_version "8.0")
	(layer "F.Cu")
	(descr "MicroFIT 3.0 Vertical Header 2×22 pins")
	(property "Reference" "43045-22"
		(at 0 0 0)
		(layer "F.Fab")
		(uuid "40cd7759-6aef-40ce-970e-6903a8601810")
		(effects
			(font
				(size 1.2 1.2)
				(thickness 0.12)
			)
		)
	)
	(property "Value" "43045-22"
		(at 0 0 0)
		(layer "F.Fab")
		(hide yes)
		(uuid "7436739d-8efd-4e94-832a-4d6855044844")
		(effects
			(font
				(size 1.2 1.2)
				(thickness 0.12)
			)
		)
	)
	(property "Footprint" ""
		(at 0 0 0)
		(layer "F.Fab")
		(hide yes)
		(uuid "9236a9cf-12ae-4450-8945-8b63ae84060e")
		(effects
			(font
				(size 1.27 1.27)
				(thickness 0.15)
			)
		)
	)
	(property "Datasheet" ""
		(at 0 0 0)
		(layer "F.Fab")
		(hide yes)
		(uuid "8cf0911b-d700-4c90-9df1-3e5a2785df46")
		(effects
			(font
				(size 1.27 1.27)
				(thickness 0.15)
			)
		)
	)
	(property "Description" ""
		(at 0 0 0)
		(layer "F.Fab")
		(hide yes)
		(uuid "678f1fea-2316-4958-b99b-17699b899ede")
		(effects
			(font
				(size 1.27 1.27)
				(thickness 0.15)
			)
		)
	)
	(attr smd)
	(fp_line
		(start -18.7 -4)
		(end -18.7 -1.15)
		(stroke
			(width 0.12)
			(type default)
		)
		(layer "F.SilkS")
		(uuid "1c01dc45-a6a5-435e-807c-ce347f6f276f")
	)
	(fp_line
		(start -18.7 2.95)
		(end -18.7 3.4)
		(stroke
			(width 0.12)
			(type default)
		)
		(layer "F.SilkS")
		(uuid "fb7f6206-fa01-4c57-97ff-551d697fd37c")
	)
	(fp_line
		(start -18.7 3.4)
		(end -15.95 3.4)
		(stroke
			(width 0.12)
			(type default)
		)
		(layer "F.SilkS")
		(uuid "68aa13e2-fb79-4679-b0c7-e0765fd519f4")
	)
	(fp_line
		(start -15.95 -4)
		(end -18.7 -4)
		(stroke
			(width 0.12)
			(type default)
		)
		(layer "F.SilkS")
		(uuid "52dacaf6-b06b-40b9-bd60-5f044a45eb4e")
	)
	(fp_line
		(start 15.95 3.4)
		(end 18.7 3.4)
		(stroke
			(width 0.12)
			(type default)
		)
		(layer "F.SilkS")
		(uuid "6f582ff2-577d-4b8a-96a0-da81ba13e0ac")
	)
	(fp_line
		(start 18.7 -4)
		(end 15.95 -4)
		(stroke
			(width 0.12)
			(type default)
		)
		(layer "F.SilkS")
		(uuid "2605c9df-1aab-40a8-93a9-cd55843756dd")
	)
	(fp_line
		(start 18.7 -1.15)
		(end 18.7 -4)
		(stroke
			(width 0.12)
			(type default)
		)
		(layer "F.SilkS")
		(uuid "81e873c9-10d3-4307-b079-9cf45dc4d9d3")
	)
	(fp_line
		(start 18.7 3.4)
		(end 18.7 1.2)
		(stroke
			(width 0.12)
			(type default)
		)
		(layer "F.SilkS")
		(uuid "bc0ccdda-f6a9-4f60-bef4-9d8319e6afd9")
	)
	(fp_line
		(start -17.7 -4)
		(end -18.7 -3)
		(stroke
			(width 0.1)
			(type default)
		)
		(layer "F.Fab")
		(uuid "6d938120-1430-4436-bd49-0340fbba841b")
	)
	(fp_line
		(start -1 3.4)
		(end -1 4.8)
		(stroke
			(width 0.1)
			(type solid)
		)
		(layer "F.Fab")
		(uuid "08f6487b-2c86-498e-b14b-527a584c3d8d")
	)
	(fp_line
		(start -1 4.8)
		(end 1 4.8)
		(stroke
			(width 0.1)
			(type solid)
		)
		(layer "F.Fab")
		(uuid "5c0a88d1-7c8c-499d-80d8-25fe254e4f8a")
	)
	(fp_line
		(start 1 4.8)
		(end 1 3.4)
		(stroke
			(width 0.1)
			(type solid)
		)
		(layer "F.Fab")
		(uuid "8adf8ee2-ad60-448e-a2a4-d99e7e19f290")
	)
	(fp_rect
		(start -18.7 -4)
		(end 18.7 3.4)
		(stroke
			(width 0.1)
			(type solid)
		)
		(fill none)
		(layer "F.Fab")
		(uuid "d12d083b-87f1-4d15-b92b-70d02cf3808a")
	)
	(fp_text user "${REFERENCE}"
		(at 0 -6.6 0)
		(layer "F.SilkS")
		(uuid "cd68bfde-3fa2-4ab4-be45-3b0b0b0aac17")
		(effects
			(font
				(size 0.8 0.8)
				(thickness 0.15)
				(bold yes)
			)
		)
	)
	(pad "" smd rect
		(at -18.9 0)
		(size 3.5 1.7)
		(layers "F.Cu" "F.Paste" "F.Mask")
		(uuid "854f1971-fbc9-4fb5-aa97-8dc7f56a492a")
	)
	(pad "" np_thru_hole circle
		(at -18 2.4)
		(size 1.1 1.1)
		(drill 1.1)
		(layers "*.Mask")
		(uuid "260260d9-74fd-4a75-b2c0-bc0c6d614a39")
	)
	(pad "" np_thru_hole circle
		(at 18 2.4)
		(size 1.1 1.1)
		(drill 1.1)
		(layers "*.Mask")
		(uuid "a38fe653-887f-42cc-915c-13cfeb23e36b")
	)
	(pad "" smd rect
		(at 18.9 0)
		(size 3.5 1.7)
		(layers "F.Cu" "F.Paste" "F.Mask")
		(uuid "0539ed31-21ed-4fa5-a999-07856a35eb08")
	)
	(pad "1" smd rect
		(at -15 -4.7)
		(size 1.3 2.6)
		(layers "F.Cu" "F.Paste" "F.Mask")
		(uuid "84415674-ccee-4dea-932b-bbc8b6d30312")
	)
	(pad "1" thru_hole circle
		(at -15 -1.5)
		(size 1.7 1.7)
		(drill 1.1)
		(layers "*.Cu" "*.Mask")
		(remove_unused_layers no)
		(uuid "c33bbf2d-2661-45d5-8bbb-05285ab2235c")
	)
	(pad "2" smd rect
		(at -12 -4.7)
		(size 1.3 2.6)
		(layers "F.Cu" "F.Paste" "F.Mask")
		(uuid "4d0075d8-3845-4cc4-a19d-1b4c3665db8c")
	)
	(pad "2" thru_hole circle
		(at -12 -1.5)
		(size 1.7 1.7)
		(drill 1.1)
		(layers "*.Cu" "*.Mask")
		(remove_unused_layers no)
		(uuid "d2b94a90-c753-4631-be6d-11e03bfe968b")
	)
	(pad "3" smd rect
		(at -9 -4.7)
		(size 1.3 2.6)
		(layers "F.Cu" "F.Paste" "F.Mask")
		(uuid "c2aa9350-d984-4e50-805c-f0caf5d2eecc")
	)
	(pad "3" thru_hole circle
		(at -9 -1.5)
		(size 1.7 1.7)
		(drill 1.1)
		(layers "*.Cu" "*.Mask")
		(remove_unused_layers no)
		(uuid "62e155df-d370-4a3a-8acd-96ba8bca076b")
	)
	(pad "4" smd rect
		(at -6 -4.7)
		(size 1.3 2.6)
		(layers "F.Cu" "F.Paste" "F.Mask")
		(uuid "6b0f6952-4f15-427e-9e0f-e6fc670bbcdf")
	)
	(pad "4" thru_hole circle
		(at -6 -1.5)
		(size 1.7 1.7)
		(drill 1.1)
		(layers "*.Cu" "*.Mask")
		(remove_unused_layers no)
		(uuid "f2a66aa4-1a90-4c8e-b87b-4ad68ea63414")
	)
	(pad "5" smd rect
		(at -3 -4.7)
		(size 1.3 2.6)
		(layers "F.Cu" "F.Paste" "F.Mask")
		(uuid "97a72a74-ff4e-47f3-88f4-53df4acc28e8")
	)
	(pad "5" thru_hole circle
		(at -3 -1.5)
		(size 1.7 1.7)
		(drill 1.1)
		(layers "*.Cu" "*.Mask")
		(remove_unused_layers no)
		(uuid "41f7e3ee-fd95-4430-9816-768d848d72e0")
	)
	(pad "6" smd rect
		(at 0 -4.7)
		(size 1.3 2.6)
		(layers "F.Cu" "F.Paste" "F.Mask")
		(uuid "fd5f8bfc-7018-4df0-a5f3-b46ce7c0ba6d")
	)
	(pad "6" thru_hole circle
		(at 0 -1.5)
		(size 1.7 1.7)
		(drill 1.1)
		(layers "*.Cu" "*.Mask")
		(remove_unused_layers no)
		(uuid "7d859fbb-c562-42af-9860-5ef5376f1f39")
	)
	(pad "7" smd rect
		(at 3 -4.7)
		(size 1.3 2.6)
		(layers "F.Cu" "F.Paste" "F.Mask")
		(uuid "9a68e97a-f097-4db3-b468-36a67780c515")
	)
	(pad "7" thru_hole circle
		(at 3 -1.5)
		(size 1.7 1.7)
		(drill 1.1)
		(layers "*.Cu" "*.Mask")
		(remove_unused_layers no)
		(uuid "df902944-fa1e-49a6-a355-a6e34b9d28b2")
	)
	(pad "8" smd rect
		(at 6 -4.7)
		(size 1.3 2.6)
		(layers "F.Cu" "F.Paste" "F.Mask")
		(uuid "2598b55a-ff00-4a18-b23f-235955539f37")
	)
	(pad "8" thru_hole circle
		(at 6 -1.5)
		(size 1.7 1.7)
		(drill 1.1)
		(layers "*.Cu" "*.Mask")
		(remove_unused_layers no)
		(uuid "23c91e2e-eba8-45ef-8054-33373650b3fa")
	)
	(pad "9" smd rect
		(at 9 -4.7)
		(size 1.3 2.6)
		(layers "F.Cu" "F.Paste" "F.Mask")
		(uuid "d8850b1c-807d-44aa-9da8-7bf948470d73")
	)
	(pad "9" thru_hole circle
		(at 9 -1.5)
		(size 1.7 1.7)
		(drill 1.1)
		(layers "*.Cu" "*.Mask")
		(remove_unused_layers no)
		(uuid "4d9d7a53-4b53-4392-a56c-f477cc9ef91f")
	)
	(pad "10" smd rect
		(at 12 -4.7)
		(size 1.3 2.6)
		(layers "F.Cu" "F.Paste" "F.Mask")
		(uuid "9349a89e-08f0-4324-b683-cb039bfb3e54")
	)
	(pad "10" thru_hole circle
		(at 12 -1.5)
		(size 1.7 1.7)
		(drill 1.1)
		(layers "*.Cu" "*.Mask")
		(remove_unused_layers no)
		(uuid "5a340ce8-2d80-4b3d-8040-1f1c4b00e6f0")
	)
	(pad "11" smd rect
		(at 15 -4.7)
		(size 1.3 2.6)
		(layers "F.Cu" "F.Paste" "F.Mask")
		(uuid "b2b6d1cd-3e56-4c65-b23b-8e6c0b98cdb3")
	)
	(pad "11" thru_hole circle
		(at 15 -1.5)
		(size 1.7 1.7)
		(drill 1.1)
		(layers "*.Cu" "*.Mask")
		(remove_unused_layers no)
		(uuid "b709224c-dd68-4972-a458-36475236756a")
	)
	(pad "12" thru_hole circle
		(at -15.01016 1.5)
		(size 1.7 1.7)
		(drill 1.1)
		(layers "*.Cu" "*.Mask")
		(remove_unused_layers no)
		(uuid "1daa1bc9-6363-40eb-b75b-824dea795383")
	)
	(pad "12" smd rect
		(at -15 4.7)
		(size 1.3 2.6)
		(layers "F.Cu" "F.Paste" "F.Mask")
		(uuid "f333fd03-8361-4b68-8298-2dff640616eb")
	)
	(pad "13" thru_hole circle
		(at -12 1.5)
		(size 1.7 1.7)
		(drill 1.1)
		(layers "*.Cu" "*.Mask")
		(remove_unused_layers no)
		(uuid "8668201a-2ed3-4c37-861d-54c080f9b90b")
	)
	(pad "13" smd rect
		(at -12 4.7)
		(size 1.3 2.6)
		(layers "F.Cu" "F.Paste" "F.Mask")
		(uuid "90d98ad4-b553-467d-acb9-265011d6cbab")
	)
	(pad "14" thru_hole circle
		(at -9 1.5)
		(size 1.7 1.7)
		(drill 1.1)
		(layers "*.Cu" "*.Mask")
		(remove_unused_layers no)
		(uuid "0032f14a-5657-479a-ac8d-a54ee2672ec8")
	)
	(pad "14" smd rect
		(at -9 4.7)
		(size 1.3 2.6)
		(layers "F.Cu" "F.Paste" "F.Mask")
		(uuid "a3c05070-a566-466c-9089-8d99a1822ea7")
	)
	(pad "15" thru_hole circle
		(at -6 1.5)
		(size 1.7 1.7)
		(drill 1.1)
		(layers "*.Cu" "*.Mask")
		(remove_unused_layers no)
		(uuid "e114a99a-ab10-4aef-b7ff-d75b6e35379e")
	)
	(pad "15" smd rect
		(at -6 4.7)
		(size 1.3 2.6)
		(layers "F.Cu" "F.Paste" "F.Mask")
		(uuid "e6c99b9a-9c10-4d4e-8786-05e7c2c2a3a2")
	)
	(pad "16" thru_hole circle
		(at -3 1.5)
		(size 1.7 1.7)
		(drill 1.1)
		(layers "*.Cu" "*.Mask")
		(remove_unused_layers no)
		(uuid "eaa282bc-52cd-468c-a730-5d6145d47cb2")
	)
	(pad "16" smd rect
		(at -3 4.7)
		(size 1.3 2.6)
		(layers "F.Cu" "F.Paste" "F.Mask")
		(uuid "aa90f457-a1a6-4091-b23a-e316958a6daf")
	)
	(pad "17" thru_hole circle
		(at 0 1.5)
		(size 1.7 1.7)
		(drill 1.1)
		(layers "*.Cu" "*.Mask")
		(remove_unused_layers no)
		(uuid "32ff3299-f6a5-449d-9630-0404b398acda")
	)
	(pad "17" smd rect
		(at 0 4.7)
		(size 1.3 2.6)
		(layers "F.Cu" "F.Paste" "F.Mask")
		(uuid "0d9bf451-dd8a-4026-a269-2ed700b75c7d")
	)
	(pad "18" thru_hole circle
		(at 3 1.5)
		(size 1.7 1.7)
		(drill 1.1)
		(layers "*.Cu" "*.Mask")
		(remove_unused_layers no)
		(uuid "a6301f1e-6146-4818-a1ae-4e0ed04eea12")
	)
	(pad "18" smd rect
		(at 3 4.7)
		(size 1.3 2.6)
		(layers "F.Cu" "F.Paste" "F.Mask")
		(uuid "d1b288e0-6439-4da1-b541-2c17bc7a716c")
	)
	(pad "19" thru_hole circle
		(at 6 1.5)
		(size 1.7 1.7)
		(drill 1.1)
		(layers "*.Cu" "*.Mask")
		(remove_unused_layers no)
		(uuid "bdce6d4c-b4ed-48f4-8915-5d0f422b73a1")
	)
	(pad "19" smd rect
		(at 6 4.7)
		(size 1.3 2.6)
		(layers "F.Cu" "F.Paste" "F.Mask")
		(uuid "9622db37-69a2-4343-9e30-57d1541a90e9")
	)
	(pad "20" thru_hole circle
		(at 9 1.5)
		(size 1.7 1.7)
		(drill 1.1)
		(layers "*.Cu" "*.Mask")
		(remove_unused_layers no)
		(uuid "afd6fc5e-ee72-40b2-be9b-95d81360144d")
	)
	(pad "20" smd rect
		(at 9 4.7)
		(size 1.3 2.6)
		(layers "F.Cu" "F.Paste" "F.Mask")
		(uuid "17bcb4f0-16ab-4254-b9d0-a12ade84f29b")
	)
	(pad "21" thru_hole circle
		(at 12 1.5)
		(size 1.7 1.7)
		(drill 1.1)
		(layers "*.Cu" "*.Mask")
		(remove_unused_layers no)
		(uuid "2598b431-d809-4615-8379-7401b222d0d4")
	)
	(pad "21" smd rect
		(at 12 4.7)
		(size 1.3 2.6)
		(layers "F.Cu" "F.Paste" "F.Mask")
		(uuid "7f60e1e4-ede9-4aed-aba3-b503319ff6c3")
	)
	(pad "22" thru_hole circle
		(at 15 1.5)
		(size 1.7 1.7)
		(drill 1.1)
		(layers "*.Cu" "*.Mask")
		(remove_unused_layers no)
		(uuid "137d042d-4feb-4761-9f68-b624116bad88")
	)
	(pad "22" smd rect
		(at 15 4.7)
		(size 1.3 2.6)
		(layers "F.Cu" "F.Paste" "F.Mask")
		(uuid "051c70a9-cdb2-4742-8b1b-8696bef02502")
	)
)
