(footprint "43045-02"
	(version 20240108)
	(generator "pcbnew")
	(generator_version "8.0")
	(layer "F.Cu")
	(descr "MicroFIT 3.0 Vertical Header 2×1 pins")
	(property "Reference" "43045-02"
		(at 0 0 0)
		(layer "F.Fab")
		(uuid "a4a3dfbd-2eb0-41ea-bf83-1bd4d9c64575")
		(effects
			(font
				(size 1.2 1.2)
				(thickness 0.12)
			)
		)
	)
	(property "Value" "43045-02"
		(at 0 0 0)
		(layer "F.Fab")
		(hide yes)
		(uuid "374f090a-08cb-41eb-b825-de823cb62eed")
		(effects
			(font
				(size 1.2 1.2)
				(thickness 0.12)
			)
		)
	)
	(property "Footprint" ""
		(at 0 0 0)
		(layer "F.Fab")
		(hide yes)
		(uuid "6b206226-ac82-42fd-939b-a933c6b2b94e")
		(effects
			(font
				(size 1.27 1.27)
				(thickness 0.15)
			)
		)
	)
	(property "Datasheet" ""
		(at 0 0 0)
		(layer "F.Fab")
		(hide yes)
		(uuid "9359410a-ea14-4a29-a1ca-78d6db2f93ab")
		(effects
			(font
				(size 1.27 1.27)
				(thickness 0.15)
			)
		)
	)
	(property "Description" ""
		(at 0 0 0)
		(layer "F.Fab")
		(hide yes)
		(uuid "149a1831-736c-41ad-9139-0bcfcc09da61")
		(effects
			(font
				(size 1.27 1.27)
				(thickness 0.15)
			)
		)
	)
	(attr smd)
	(fp_line
		(start -3.7 -4)
		(end -0.95 -4)
		(stroke
			(width 0.12)
			(type solid)
		)
		(layer "F.SilkS")
		(uuid "def310a2-9f4a-48c4-827b-ce98f02564f3")
	)
	(fp_line
		(start -3.7 -1.15)
		(end -3.7 -4)
		(stroke
			(width 0.12)
			(type solid)
		)
		(layer "F.SilkS")
		(uuid "dfe34b9b-aa34-4f03-acf0-b677fbaa1e68")
	)
	(fp_line
		(start -3.7 3.4)
		(end -3.7 2.95)
		(stroke
			(width 0.12)
			(type default)
		)
		(layer "F.SilkS")
		(uuid "815cbf82-35b1-47f5-9b88-4211b74a5c13")
	)
	(fp_line
		(start -0.95 -6)
		(end -0.95 -4)
		(stroke
			(width 0.12)
			(type default)
		)
		(layer "F.SilkS")
		(uuid "713d1279-8eaf-402d-bd20-35efe8ae66a8")
	)
	(fp_line
		(start -0.95 3.4)
		(end -3.7 3.4)
		(stroke
			(width 0.12)
			(type solid)
		)
		(layer "F.SilkS")
		(uuid "44d306cf-a004-4599-8f14-ffd9f92531c0")
	)
	(fp_line
		(start 0.95 -4)
		(end 3.7 -4)
		(stroke
			(width 0.12)
			(type solid)
		)
		(layer "F.SilkS")
		(uuid "415067a2-79ee-40aa-bcdd-5e004be9861a")
	)
	(fp_line
		(start 3.7 -4)
		(end 3.7 -1.15)
		(stroke
			(width 0.12)
			(type solid)
		)
		(layer "F.SilkS")
		(uuid "74568f74-fbcf-4d89-8490-0d7294827627")
	)
	(fp_line
		(start 3.7 3.4)
		(end 0.95 3.4)
		(stroke
			(width 0.12)
			(type solid)
		)
		(layer "F.SilkS")
		(uuid "99681a63-e7c1-4937-b026-e76f3fad56f9")
	)
	(fp_line
		(start 3.7 3.4)
		(end 3.7 2.95)
		(stroke
			(width 0.12)
			(type default)
		)
		(layer "F.SilkS")
		(uuid "5d06ab65-67e1-4c66-b30b-510b25314e89")
	)
	(fp_poly
		(pts
			(xy -5.85 -1.05) (xy -3.9 -1.05) (xy -3.9 -4.2) (xy -0.85 -4.2) (xy -0.85 -6.2) (xy 0.85 -6.2) (xy 0.85 -4.2)
			(xy 3.9 -4.2) (xy 3.9 -1.05) (xy 5.85 -1.05) (xy 5.85 1.05) (xy 3.9 1.05) (xy 3.9 3.6) (xy 0.85 3.6)
			(xy 0.85 6.2) (xy -0.85 6.2) (xy -0.85 3.6) (xy -3.9 3.6) (xy -3.9 1.05) (xy -5.85 1.05)
		)
		(stroke
			(width 0.01)
			(type solid)
		)
		(fill none)
		(layer "F.CrtYd")
		(uuid "75e5905d-7cc0-452b-8533-9f53b5a67350")
	)
	(fp_line
		(start -3.7 -4)
		(end -3.7 3.4)
		(stroke
			(width 0.1)
			(type solid)
		)
		(layer "F.Fab")
		(uuid "2047ded5-0260-43af-951d-fb821e539812")
	)
	(fp_line
		(start -3.7 3.4)
		(end 3.7 3.4)
		(stroke
			(width 0.1)
			(type solid)
		)
		(layer "F.Fab")
		(uuid "6bfdf5a8-61fa-4bc2-a5b0-62b0b3616971")
	)
	(fp_line
		(start -2.7 -4)
		(end -3.7 -3)
		(stroke
			(width 0.1)
			(type default)
		)
		(layer "F.Fab")
		(uuid "a5e20867-b52e-4ccb-8d92-37ef368bf556")
	)
	(fp_line
		(start -1 3.4)
		(end -1 4.8)
		(stroke
			(width 0.1)
			(type solid)
		)
		(layer "F.Fab")
		(uuid "e1d2bbbc-a7d0-453e-ade5-45ce6a5ce6a1")
	)
	(fp_line
		(start -1 4.8)
		(end 1 4.8)
		(stroke
			(width 0.1)
			(type solid)
		)
		(layer "F.Fab")
		(uuid "c61a91eb-0a0a-449e-aea8-7cd17faf759d")
	)
	(fp_line
		(start 1 4.8)
		(end 1 3.4)
		(stroke
			(width 0.1)
			(type solid)
		)
		(layer "F.Fab")
		(uuid "785c72ed-d504-48b8-80ff-ae144c56e091")
	)
	(fp_line
		(start 3.7 -4)
		(end -3.7 -4)
		(stroke
			(width 0.1)
			(type solid)
		)
		(layer "F.Fab")
		(uuid "876ff221-ba5c-4140-ab99-4afa093408c3")
	)
	(fp_line
		(start 3.7 3.4)
		(end 3.7 -4)
		(stroke
			(width 0.1)
			(type solid)
		)
		(layer "F.Fab")
		(uuid "0b056e6e-7a20-4040-83dc-39930d2affe9")
	)
	(fp_text user "${REFERENCE}"
		(at 0 -6.75 0)
		(layer "F.SilkS")
		(uuid "0103e9f6-0fa9-4ef9-85b8-7fc7776ebaae")
		(effects
			(font
				(size 0.8 0.8)
				(thickness 0.15)
				(bold yes)
			)
		)
	)
	(pad "" smd rect
		(at -3.9 0)
		(size 3.5 1.7)
		(layers "F.Cu" "F.Paste" "F.Mask")
		(uuid "7f3d17dc-d62a-4644-abad-936a27b58f7f")
	)
	(pad "" np_thru_hole circle
		(at -3 2.4)
		(size 1.1 1.1)
		(drill 1.1)
		(layers "*.Mask")
		(uuid "845ea222-03dd-4594-9954-60bbe2414a3c")
	)
	(pad "" np_thru_hole circle
		(at 3 2.4)
		(size 1.1 1.1)
		(drill 1.1)
		(layers "*.Mask")
		(uuid "623a406e-9fae-447b-b044-fe4a279a3172")
	)
	(pad "" smd rect
		(at 3.9 0)
		(size 3.5 1.7)
		(layers "F.Cu" "F.Paste" "F.Mask")
		(uuid "fa85bc14-cfef-43e6-90ef-97428b1671fe")
	)
	(pad "1" smd rect
		(at 0 -4.7)
		(size 1.3 2.6)
		(layers "F.Cu" "F.Paste" "F.Mask")
		(uuid "6070a9b3-5daa-4845-bfd3-958381c869ba")
	)
	(pad "1" thru_hole circle
		(at 0 -1.5)
		(size 1.7 1.7)
		(drill 1.1)
		(layers "*.Cu" "*.Mask")
		(remove_unused_layers no)
		(uuid "2f2bbbc2-d5c6-4f7a-af44-c168a374f814")
	)
	(pad "2" thru_hole circle
		(at 0 1.5)
		(size 1.7 1.7)
		(drill 1.1)
		(layers "*.Cu" "*.Mask")
		(remove_unused_layers no)
		(uuid "0949db4e-3c40-4741-a64d-e84829a2a155")
	)
	(pad "2" smd rect
		(at 0 4.7)
		(size 1.3 2.6)
		(layers "F.Cu" "F.Paste" "F.Mask")
		(uuid "3e1154ef-e305-420c-ad7a-cad800ade607")
	)
	(model "${KICAD6_3DMODEL_DIR}/MicroFIT/43045-02-18.wrl"
		(offset
			(xyz 0 0 0)
		)
		(scale
			(xyz 1 1 1)
		)
		(rotate
			(xyz 0 0 0)
		)
	)
)
