(footprint "43045-06"
	(version 20240108)
	(generator "pcbnew")
	(generator_version "8.0")
	(layer "F.Cu")
	(descr "MicroFIT 3.0 Vertical Header 2×3 pins")
	(property "Reference" "43045-06"
		(at 0 0 0)
		(layer "F.Fab")
		(uuid "7e07453f-3b01-4c2d-81fb-6066ef0374d1")
		(effects
			(font
				(size 1.2 1.2)
				(thickness 0.12)
			)
		)
	)
	(property "Value" "43045-06"
		(at 0 0 0)
		(layer "F.Fab")
		(hide yes)
		(uuid "1a6bcb24-07f9-4152-b477-4dc33e70888a")
		(effects
			(font
				(size 1.2 1.2)
				(thickness 0.12)
			)
		)
	)
	(property "Footprint" ""
		(at 0 0 0)
		(layer "F.Fab")
		(hide yes)
		(uuid "e986fa14-fae4-4ab6-896d-bd19d05a3b2e")
		(effects
			(font
				(size 1.27 1.27)
				(thickness 0.15)
			)
		)
	)
	(property "Datasheet" ""
		(at 0 0 0)
		(layer "F.Fab")
		(hide yes)
		(uuid "b7d5d468-4a4f-4154-852d-0ac0c8103172")
		(effects
			(font
				(size 1.27 1.27)
				(thickness 0.15)
			)
		)
	)
	(property "Description" ""
		(at 0 0 0)
		(layer "F.Fab")
		(hide yes)
		(uuid "8ecf1d1f-4c48-44ad-9044-6238174e03ee")
		(effects
			(font
				(size 1.27 1.27)
				(thickness 0.15)
			)
		)
	)
	(attr smd)
	(fp_line
		(start -6.7 -4)
		(end -6.7 -1.15)
		(stroke
			(width 0.12)
			(type default)
		)
		(layer "F.SilkS")
		(uuid "9068c568-2d89-4df3-b86e-fedc3724512e")
	)
	(fp_line
		(start -6.7 2.95)
		(end -6.7 3.4)
		(stroke
			(width 0.12)
			(type default)
		)
		(layer "F.SilkS")
		(uuid "50be8f76-c979-4029-899a-e54e11b103a1")
	)
	(fp_line
		(start -6.7 3.4)
		(end -3.95 3.4)
		(stroke
			(width 0.12)
			(type default)
		)
		(layer "F.SilkS")
		(uuid "a2b879e6-c40c-4447-b800-8d850dedbd7a")
	)
	(fp_line
		(start -3.95 -6)
		(end -3.95 -4)
		(stroke
			(width 0.12)
			(type default)
		)
		(layer "F.SilkS")
		(uuid "29756f09-cbb3-4392-af29-4f8773f8f5d1")
	)
	(fp_line
		(start -3.95 -4)
		(end -6.7 -4)
		(stroke
			(width 0.12)
			(type default)
		)
		(layer "F.SilkS")
		(uuid "7898bc12-d84c-4526-84c8-4b07eccdbea1")
	)
	(fp_line
		(start 3.95 3.4)
		(end 6.7 3.4)
		(stroke
			(width 0.12)
			(type default)
		)
		(layer "F.SilkS")
		(uuid "337635d0-391b-46d9-a057-6d3f34ab5e76")
	)
	(fp_line
		(start 6.7 -4)
		(end 3.95 -4)
		(stroke
			(width 0.12)
			(type default)
		)
		(layer "F.SilkS")
		(uuid "1ac589e4-9529-4d1d-bb42-25fc6eab32b5")
	)
	(fp_line
		(start 6.7 -4)
		(end 6.7 -1.15)
		(stroke
			(width 0.12)
			(type default)
		)
		(layer "F.SilkS")
		(uuid "90a547f2-9af7-4ff2-84ba-5fb3fd5cab8d")
	)
	(fp_line
		(start 6.7 2.95)
		(end 6.7 3.4)
		(stroke
			(width 0.12)
			(type default)
		)
		(layer "F.SilkS")
		(uuid "f7bd33e8-5013-405c-a667-481c43e62612")
	)
	(fp_line
		(start -5.7 -4)
		(end -6.7 -3)
		(stroke
			(width 0.1)
			(type default)
		)
		(layer "F.Fab")
		(uuid "697ab6ec-9b9c-4289-99d9-a043bbc23ac1")
	)
	(fp_line
		(start -1 3.4)
		(end -1 4.8)
		(stroke
			(width 0.1)
			(type solid)
		)
		(layer "F.Fab")
		(uuid "28738a49-69d5-4281-bceb-1bd26fc6c3bc")
	)
	(fp_line
		(start -1 4.8)
		(end 1 4.8)
		(stroke
			(width 0.1)
			(type solid)
		)
		(layer "F.Fab")
		(uuid "c334f339-9228-41af-bdbe-0a9b969f5c92")
	)
	(fp_line
		(start 1 4.8)
		(end 1 3.4)
		(stroke
			(width 0.1)
			(type solid)
		)
		(layer "F.Fab")
		(uuid "a28dee2a-b09e-4457-8251-bb63c4c4a723")
	)
	(fp_rect
		(start -6.7 -4)
		(end 6.7 3.4)
		(stroke
			(width 0.1)
			(type solid)
		)
		(fill none)
		(layer "F.Fab")
		(uuid "51ccd3e3-2059-4c56-ab5f-a45d83a5df55")
	)
	(fp_text user "${REFERENCE}"
		(at 0 -6.75 0)
		(layer "F.SilkS")
		(uuid "e0ac4be2-7b31-4c48-ad00-6eaca306f4a7")
		(effects
			(font
				(size 0.8 0.8)
				(thickness 0.15)
				(bold yes)
			)
		)
	)
	(pad "" smd rect
		(at -6.9 0)
		(size 3.5 1.7)
		(layers "F.Cu" "F.Paste" "F.Mask")
		(uuid "0a3ac17a-7c2c-40d7-bfa2-b95ef7477c7c")
	)
	(pad "" np_thru_hole circle
		(at -6 2.4)
		(size 1.1 1.1)
		(drill 1.1)
		(layers "*.Mask")
		(uuid "766c5257-5f43-4ac1-80db-e37946c9333e")
	)
	(pad "" np_thru_hole circle
		(at 6 2.4)
		(size 1.1 1.1)
		(drill 1.1)
		(layers "*.Mask")
		(uuid "90d98391-4440-4574-a792-1e247f7d76b9")
	)
	(pad "" smd rect
		(at 6.9 0)
		(size 3.5 1.7)
		(layers "F.Cu" "F.Paste" "F.Mask")
		(uuid "950a4775-08ab-4bd5-ad69-7c35de67f13c")
	)
	(pad "1" smd rect
		(at -3 -4.7)
		(size 1.3 2.6)
		(layers "F.Cu" "F.Paste" "F.Mask")
		(uuid "983785ce-bbd7-4829-bb5b-5b8b7f6c42ab")
	)
	(pad "1" thru_hole circle
		(at -3 -1.5)
		(size 1.7 1.7)
		(drill 1.1)
		(layers "*.Cu" "*.Mask")
		(remove_unused_layers no)
		(uuid "a8722e19-f037-4950-a4b4-a8b27af3d48a")
	)
	(pad "2" smd rect
		(at 0 -4.7)
		(size 1.3 2.6)
		(layers "F.Cu" "F.Paste" "F.Mask")
		(uuid "38593281-8723-49dc-a5e3-3fa4957df33b")
	)
	(pad "2" thru_hole circle
		(at 0 -1.5)
		(size 1.7 1.7)
		(drill 1.1)
		(layers "*.Cu" "*.Mask")
		(remove_unused_layers no)
		(uuid "cc1d5447-5136-4541-b709-a9ec3b7d6249")
	)
	(pad "3" smd rect
		(at 3 -4.7)
		(size 1.3 2.6)
		(layers "F.Cu" "F.Paste" "F.Mask")
		(uuid "c6fb2581-2c61-4c0c-8f9f-46d7fefd2619")
	)
	(pad "3" thru_hole circle
		(at 3 -1.5)
		(size 1.7 1.7)
		(drill 1.1)
		(layers "*.Cu" "*.Mask")
		(remove_unused_layers no)
		(uuid "c8a74ac6-7cd8-4644-94d0-d335ee7ff3bc")
	)
	(pad "4" thru_hole circle
		(at -3 1.5)
		(size 1.7 1.7)
		(drill 1.1)
		(layers "*.Cu" "*.Mask")
		(remove_unused_layers no)
		(uuid "76093776-f333-4fe3-a549-e9591d4df3c1")
	)
	(pad "4" smd rect
		(at -3 4.7)
		(size 1.3 2.6)
		(layers "F.Cu" "F.Paste" "F.Mask")
		(uuid "53ac4ed5-67a7-4243-938f-d39dc3dc0931")
	)
	(pad "5" thru_hole circle
		(at 0 1.5)
		(size 1.7 1.7)
		(drill 1.1)
		(layers "*.Cu" "*.Mask")
		(remove_unused_layers no)
		(uuid "459434f7-e020-4877-97ba-07d8fe069ef2")
	)
	(pad "5" smd rect
		(at 0 4.7)
		(size 1.3 2.6)
		(layers "F.Cu" "F.Paste" "F.Mask")
		(uuid "d1a226e8-3c05-4c94-8319-8cc17e586609")
	)
	(pad "6" thru_hole circle
		(at 3 1.5)
		(size 1.7 1.7)
		(drill 1.1)
		(layers "*.Cu" "*.Mask")
		(remove_unused_layers no)
		(uuid "91d94fbb-b5ef-48c8-8c37-49c8ba139e00")
	)
	(pad "6" smd rect
		(at 3 4.7)
		(size 1.3 2.6)
		(layers "F.Cu" "F.Paste" "F.Mask")
		(uuid "e5fe4187-267f-4dcb-a0d8-aa10c86d0051")
	)
)
