(footprint "43045-14"
	(version 20240108)
	(generator "pcbnew")
	(generator_version "8.0")
	(layer "F.Cu")
	(descr "MicroFIT 3.0 Vertical Header 2×7 pins")
	(property "Reference" "43045-14"
		(at 0 0 0)
		(layer "F.Fab")
		(uuid "c601128b-b4bc-45d6-b7ba-449e2fa607d3")
		(effects
			(font
				(size 1.2 1.2)
				(thickness 0.12)
			)
		)
	)
	(property "Value" "43045-14"
		(at 0 0 0)
		(layer "F.Fab")
		(hide yes)
		(uuid "f64936f4-4592-447a-90ff-93e1f0a8da23")
		(effects
			(font
				(size 1.2 1.2)
				(thickness 0.12)
			)
		)
	)
	(property "Footprint" ""
		(at 0 0 0)
		(layer "F.Fab")
		(hide yes)
		(uuid "935bdd86-f142-475c-9aec-a2beee2f3a15")
		(effects
			(font
				(size 1.27 1.27)
				(thickness 0.15)
			)
		)
	)
	(property "Datasheet" ""
		(at 0 0 0)
		(layer "F.Fab")
		(hide yes)
		(uuid "132dd4a4-d2df-41a8-a5ef-27477ff7b2d3")
		(effects
			(font
				(size 1.27 1.27)
				(thickness 0.15)
			)
		)
	)
	(property "Description" ""
		(at 0 0 0)
		(layer "F.Fab")
		(hide yes)
		(uuid "bd8833d9-ea90-4123-9c1d-c7b9f13e6da1")
		(effects
			(font
				(size 1.27 1.27)
				(thickness 0.15)
			)
		)
	)
	(attr smd)
	(fp_line
		(start -12.7 -4)
		(end -12.7 -1.15)
		(stroke
			(width 0.12)
			(type default)
		)
		(layer "F.SilkS")
		(uuid "0ff2cbf0-0899-421f-ac06-65427e3200e0")
	)
	(fp_line
		(start -12.7 2.95)
		(end -12.7 3.4)
		(stroke
			(width 0.12)
			(type default)
		)
		(layer "F.SilkS")
		(uuid "906c98f4-0cbe-431b-87fd-1ffb005da12f")
	)
	(fp_line
		(start -12.7 3.4)
		(end -9.95 3.4)
		(stroke
			(width 0.12)
			(type default)
		)
		(layer "F.SilkS")
		(uuid "1a0d1363-34e7-45fa-8c4f-f288b5b5499a")
	)
	(fp_line
		(start -9.95 -4)
		(end -12.7 -4)
		(stroke
			(width 0.12)
			(type default)
		)
		(layer "F.SilkS")
		(uuid "66c2cffa-0995-455d-829e-0cf4095fe7b6")
	)
	(fp_line
		(start 9.95 3.4)
		(end 12.7 3.4)
		(stroke
			(width 0.12)
			(type default)
		)
		(layer "F.SilkS")
		(uuid "69d333a5-8c93-4f98-9147-3b7323448da5")
	)
	(fp_line
		(start 12.7 -4)
		(end 9.95 -4)
		(stroke
			(width 0.12)
			(type default)
		)
		(layer "F.SilkS")
		(uuid "b3aa3b9a-2566-4533-b50d-9050744c34ab")
	)
	(fp_line
		(start 12.7 -1.15)
		(end 12.7 -4)
		(stroke
			(width 0.12)
			(type default)
		)
		(layer "F.SilkS")
		(uuid "2d1c4f49-25c1-4e4a-a1b7-d35d48a69bea")
	)
	(fp_line
		(start 12.7 3.4)
		(end 12.7 2.95)
		(stroke
			(width 0.12)
			(type default)
		)
		(layer "F.SilkS")
		(uuid "7aa2ad8b-a9aa-4133-914f-860b69862f77")
	)
	(fp_line
		(start -11.7 -4)
		(end -12.7 -3)
		(stroke
			(width 0.1)
			(type default)
		)
		(layer "F.Fab")
		(uuid "12920744-6159-4fef-9d71-8d73a60549a5")
	)
	(fp_line
		(start -1 3.4)
		(end -1 4.8)
		(stroke
			(width 0.1)
			(type solid)
		)
		(layer "F.Fab")
		(uuid "46e92764-f49a-4ada-9082-ede3baa37cef")
	)
	(fp_line
		(start -1 4.8)
		(end 1 4.8)
		(stroke
			(width 0.1)
			(type solid)
		)
		(layer "F.Fab")
		(uuid "16b35c0d-f685-4368-8d4f-bbd943112ea5")
	)
	(fp_line
		(start 1 4.8)
		(end 1 3.4)
		(stroke
			(width 0.1)
			(type solid)
		)
		(layer "F.Fab")
		(uuid "62c4f3e0-fd8f-4924-b6b8-a329e221ad48")
	)
	(fp_rect
		(start -12.7 -4)
		(end 12.7 3.4)
		(stroke
			(width 0.1)
			(type solid)
		)
		(fill none)
		(layer "F.Fab")
		(uuid "176169a8-045e-48c6-a959-9f70a88ce555")
	)
	(fp_text user "${REFERENCE}"
		(at 0 -6.6 0)
		(layer "F.SilkS")
		(uuid "a395d113-bc35-441a-9e32-1a71da103d52")
		(effects
			(font
				(size 0.8 0.8)
				(thickness 0.15)
				(bold yes)
			)
		)
	)
	(pad "" smd rect
		(at -12.9 0)
		(size 3.5 1.7)
		(layers "F.Cu" "F.Paste" "F.Mask")
		(uuid "b1400395-2120-48d4-94b0-fa701329e30a")
	)
	(pad "" np_thru_hole circle
		(at -12 2.4)
		(size 1.1 1.1)
		(drill 1.1)
		(layers "*.Mask")
		(uuid "6eaa54e1-15e7-4a45-808d-f1753e911002")
	)
	(pad "" np_thru_hole circle
		(at 12 2.4)
		(size 1.1 1.1)
		(drill 1.1)
		(layers "*.Mask")
		(uuid "4090a0c0-0a89-42d4-8e14-d36ce4800d26")
	)
	(pad "" smd rect
		(at 12.9 0)
		(size 3.5 1.7)
		(layers "F.Cu" "F.Paste" "F.Mask")
		(uuid "b29d99a8-d202-40a1-a94d-03c68139acb5")
	)
	(pad "1" smd rect
		(at -9 -4.7)
		(size 1.3 2.6)
		(layers "F.Cu" "F.Paste" "F.Mask")
		(uuid "f7e54c54-4436-4cc5-8065-9e13c5d96c68")
	)
	(pad "1" thru_hole circle
		(at -9 -1.5)
		(size 1.7 1.7)
		(drill 1.1)
		(layers "*.Cu" "*.Mask")
		(remove_unused_layers no)
		(uuid "66504eae-5d0e-4484-b845-b8bb33c1295e")
	)
	(pad "2" smd rect
		(at -6 -4.7)
		(size 1.3 2.6)
		(layers "F.Cu" "F.Paste" "F.Mask")
		(uuid "9fc14099-c449-47ac-a761-3e2b1d79c84d")
	)
	(pad "2" thru_hole circle
		(at -6 -1.5)
		(size 1.7 1.7)
		(drill 1.1)
		(layers "*.Cu" "*.Mask")
		(remove_unused_layers no)
		(uuid "0df14dcd-0012-4b41-b52c-0aec504c3029")
	)
	(pad "3" smd rect
		(at -3 -4.7)
		(size 1.3 2.6)
		(layers "F.Cu" "F.Paste" "F.Mask")
		(uuid "7730f735-40b5-4c9a-8d9d-0a73dd8e6f4c")
	)
	(pad "3" thru_hole circle
		(at -3 -1.5)
		(size 1.7 1.7)
		(drill 1.1)
		(layers "*.Cu" "*.Mask")
		(remove_unused_layers no)
		(uuid "62510738-c2ef-4b1d-b2ed-633a4bca5b51")
	)
	(pad "4" smd rect
		(at 0 -4.7)
		(size 1.3 2.6)
		(layers "F.Cu" "F.Paste" "F.Mask")
		(uuid "8ed06800-c3d6-4deb-b3ad-f68efbe4b512")
	)
	(pad "4" thru_hole circle
		(at 0 -1.5)
		(size 1.7 1.7)
		(drill 1.1)
		(layers "*.Cu" "*.Mask")
		(remove_unused_layers no)
		(uuid "b277923a-342c-439d-add1-5ad320a20019")
	)
	(pad "5" smd rect
		(at 3 -4.7)
		(size 1.3 2.6)
		(layers "F.Cu" "F.Paste" "F.Mask")
		(uuid "82111ad1-ce35-47f2-aa67-3aa5f8d5fb88")
	)
	(pad "5" thru_hole circle
		(at 3 -1.5)
		(size 1.7 1.7)
		(drill 1.1)
		(layers "*.Cu" "*.Mask")
		(remove_unused_layers no)
		(uuid "6de61699-ea32-4925-8725-34347a980909")
	)
	(pad "6" smd rect
		(at 6 -4.7)
		(size 1.3 2.6)
		(layers "F.Cu" "F.Paste" "F.Mask")
		(uuid "3b34de20-5444-4c3c-bf1b-b32a0a037192")
	)
	(pad "6" thru_hole circle
		(at 6 -1.5)
		(size 1.7 1.7)
		(drill 1.1)
		(layers "*.Cu" "*.Mask")
		(remove_unused_layers no)
		(uuid "8252504a-c163-4216-8bbe-188b5c48304a")
	)
	(pad "7" smd rect
		(at 9 -4.7)
		(size 1.3 2.6)
		(layers "F.Cu" "F.Paste" "F.Mask")
		(uuid "ad4a6853-7640-491d-a128-01d5c440c286")
	)
	(pad "7" thru_hole circle
		(at 9 -1.5)
		(size 1.7 1.7)
		(drill 1.1)
		(layers "*.Cu" "*.Mask")
		(remove_unused_layers no)
		(uuid "85bea3f9-4210-4ad7-bac3-b6b6a370e4a1")
	)
	(pad "8" thru_hole circle
		(at -9 1.5)
		(size 1.7 1.7)
		(drill 1.1)
		(layers "*.Cu" "*.Mask")
		(remove_unused_layers no)
		(uuid "bba10bd6-d17a-401b-8ef4-d816abd7f179")
	)
	(pad "8" smd rect
		(at -9 4.7)
		(size 1.3 2.6)
		(layers "F.Cu" "F.Paste" "F.Mask")
		(uuid "6d7bc31c-57e9-46c9-8fbf-3410bdde97eb")
	)
	(pad "9" thru_hole circle
		(at -6 1.5)
		(size 1.7 1.7)
		(drill 1.1)
		(layers "*.Cu" "*.Mask")
		(remove_unused_layers no)
		(uuid "2f72bb24-8237-4e5c-adae-e6003652be24")
	)
	(pad "9" smd rect
		(at -6 4.7)
		(size 1.3 2.6)
		(layers "F.Cu" "F.Paste" "F.Mask")
		(uuid "d2a1f822-b41d-4c9f-8dc3-e34f5898f805")
	)
	(pad "10" thru_hole circle
		(at -3 1.5)
		(size 1.7 1.7)
		(drill 1.1)
		(layers "*.Cu" "*.Mask")
		(remove_unused_layers no)
		(uuid "29af1884-0560-49b9-99d9-4319f89bea01")
	)
	(pad "10" smd rect
		(at -3 4.7)
		(size 1.3 2.6)
		(layers "F.Cu" "F.Paste" "F.Mask")
		(uuid "ef3dc6a7-2539-4486-8863-36438e855346")
	)
	(pad "11" thru_hole circle
		(at 0 1.5)
		(size 1.7 1.7)
		(drill 1.1)
		(layers "*.Cu" "*.Mask")
		(remove_unused_layers no)
		(uuid "00efebf0-73f5-4576-9123-bcc7f928defd")
	)
	(pad "11" smd rect
		(at 0 4.7)
		(size 1.3 2.6)
		(layers "F.Cu" "F.Paste" "F.Mask")
		(uuid "fd7e14c8-caa8-48a6-80fa-0a759ca935e7")
	)
	(pad "12" thru_hole circle
		(at 3 1.5)
		(size 1.7 1.7)
		(drill 1.1)
		(layers "*.Cu" "*.Mask")
		(remove_unused_layers no)
		(uuid "606ade1a-e364-4754-8271-946d004c07a5")
	)
	(pad "12" smd rect
		(at 3 4.7)
		(size 1.3 2.6)
		(layers "F.Cu" "F.Paste" "F.Mask")
		(uuid "e7167f7d-c9af-4106-b194-1045888ed2fb")
	)
	(pad "13" thru_hole circle
		(at 6 1.5)
		(size 1.7 1.7)
		(drill 1.1)
		(layers "*.Cu" "*.Mask")
		(remove_unused_layers no)
		(uuid "703143fb-ff94-4173-b87e-33aac2d72b51")
	)
	(pad "13" smd rect
		(at 6 4.7)
		(size 1.3 2.6)
		(layers "F.Cu" "F.Paste" "F.Mask")
		(uuid "1eb31f9e-3037-4b1f-baa4-e1eaf2855ab2")
	)
	(pad "14" thru_hole circle
		(at 9 1.5)
		(size 1.7 1.7)
		(drill 1.1)
		(layers "*.Cu" "*.Mask")
		(remove_unused_layers no)
		(uuid "1d579169-1dbb-440d-8043-251f8fc779de")
	)
	(pad "14" smd rect
		(at 9 4.7)
		(size 1.3 2.6)
		(layers "F.Cu" "F.Paste" "F.Mask")
		(uuid "5c54d054-f1e4-4db0-b125-827173373663")
	)
)
