(module "MOV-07D301K" (layer "F.Cu") (tedit 5510178F)
  (descr "Radial Lead Varistor 9.0mm dia, 4.0mm width")
  (fp_text reference "MOV-07D301K" (at 0 0) (layer "F.Fab") (effects (font (size 1.2 1.2) (thickness 0.12))))
  (fp_text value "MOV-07D301K" (at 0 0) (layer "F.Fab") hide (effects (font (size 1.2 1.2) (thickness 0.12))))
  (fp_line (start 5 -2.5) (end 5 2.5) (layer "F.CrtYd") (width 0.01))
  (fp_line (start 5 2.5) (end -5 2.5) (layer "F.CrtYd") (width 0.01))
  (fp_line (start -5 2.5) (end -5 -2.5) (layer "F.CrtYd") (width 0.01))
  (fp_line (start -5 -2.5) (end 5 -2.5) (layer "F.CrtYd") (width 0.01))
  (fp_arc (start -2.5 0) (end -2.5 2) (angle 180) (layer "F.Fab") (width 0.12))
  (fp_arc (start 2.5 0) (end 2.5 -2) (angle 180) (layer "F.Fab") (width 0.12))
  (fp_line (start -2.5 2) (end 2.5 2) (layer "F.Fab") (width 0.12))
  (fp_line (start 2.5 -2) (end -2.5 -2) (layer "F.Fab") (width 0.12))
  (fp_line (start -2.5 -2) (end 2.5 -2) (layer "F.SilkS") (width 0.12))
  (fp_line (start 2.5 2) (end -2.5 2) (layer "F.SilkS") (width 0.12))
  (fp_arc (start -2.5 0) (end -2.5 2) (angle 180) (layer "F.SilkS") (width 0.12))
  (fp_arc (start 2.5 0) (end 2.5 -2) (angle 180) (layer "F.SilkS") (width 0.12))
  (pad "1" thru_hole circle (at -2.5 -0) (size 1.4 1.4) (drill 0.9) (layers "*.Cu" "*.Mask"))
  (pad "2" thru_hole circle (at 2.5 0) (size 1.4 1.4) (drill 0.9) (layers "*.Cu" "*.Mask"))
)
