(module "MOV-20D470K" (layer "F.Cu") (tedit 5510178F)
  (descr "Radial Lead Varistor 23.0mm dia, 4.6mm width")
  (fp_text reference "MOV-20D470K" (at 0 0) (layer "F.Fab") (effects (font (size 1.2 1.2) (thickness 0.12))))
  (fp_text value "MOV-20D470K" (at 0 0) (layer "F.Fab") hide (effects (font (size 1.2 1.2) (thickness 0.12))))
  (fp_line (start 12 -2.8) (end 12 2.8) (layer "F.CrtYd") (width 0.01))
  (fp_line (start 12 2.8) (end -12 2.8) (layer "F.CrtYd") (width 0.01))
  (fp_line (start -12 2.8) (end -12 -2.8) (layer "F.CrtYd") (width 0.01))
  (fp_line (start -12 -2.8) (end 12 -2.8) (layer "F.CrtYd") (width 0.01))
  (fp_arc (start -9.2 0) (end -9.2 2.3) (angle 180) (layer "F.Fab") (width 0.12))
  (fp_arc (start 9.2 0) (end 9.2 -2.3) (angle 180) (layer "F.Fab") (width 0.12))
  (fp_line (start -9.2 2.3) (end 9.2 2.3) (layer "F.Fab") (width 0.12))
  (fp_line (start 9.2 -2.3) (end -9.2 -2.3) (layer "F.Fab") (width 0.12))
  (fp_line (start -9.2 -2.3) (end 9.2 -2.3) (layer "F.SilkS") (width 0.12))
  (fp_line (start 9.2 2.3) (end -9.2 2.3) (layer "F.SilkS") (width 0.12))
  (fp_arc (start -9.2 0) (end -9.2 2.3) (angle 180) (layer "F.SilkS") (width 0.12))
  (fp_arc (start 9.2 0) (end 9.2 -2.3) (angle 180) (layer "F.SilkS") (width 0.12))
  (pad "1" thru_hole circle (at -5 -0) (size 2 2) (drill 1.3) (layers "*.Cu" "*.Mask"))
  (pad "2" thru_hole circle (at 5 0) (size 2 2) (drill 1.3) (layers "*.Cu" "*.Mask"))
)
