(module "MOV-20D471K" (layer "F.Cu") (tedit 5510178F)
  (descr "Radial Lead Varistor 23.0mm dia, 5.9mm width")
  (fp_text reference "MOV-20D471K" (at 0 0) (layer "F.Fab") (effects (font (size 1.2 1.2) (thickness 0.12))))
  (fp_text value "MOV-20D471K" (at 0 0) (layer "F.Fab") hide (effects (font (size 1.2 1.2) (thickness 0.12))))
  (fp_line (start 12 -3.45) (end 12 3.45) (layer "F.CrtYd") (width 0.01))
  (fp_line (start 12 3.45) (end -12 3.45) (layer "F.CrtYd") (width 0.01))
  (fp_line (start -12 3.45) (end -12 -3.45) (layer "F.CrtYd") (width 0.01))
  (fp_line (start -12 -3.45) (end 12 -3.45) (layer "F.CrtYd") (width 0.01))
  (fp_arc (start -8.55 0) (end -8.55 2.95) (angle 180) (layer "F.Fab") (width 0.12))
  (fp_arc (start 8.55 0) (end 8.55 -2.95) (angle 180) (layer "F.Fab") (width 0.12))
  (fp_line (start -8.55 2.95) (end 8.55 2.95) (layer "F.Fab") (width 0.12))
  (fp_line (start 8.55 -2.95) (end -8.55 -2.95) (layer "F.Fab") (width 0.12))
  (fp_line (start -8.55 -2.95) (end 8.55 -2.95) (layer "F.SilkS") (width 0.12))
  (fp_line (start 8.55 2.95) (end -8.55 2.95) (layer "F.SilkS") (width 0.12))
  (fp_arc (start -8.55 0) (end -8.55 2.95) (angle 180) (layer "F.SilkS") (width 0.12))
  (fp_arc (start 8.55 0) (end 8.55 -2.95) (angle 180) (layer "F.SilkS") (width 0.12))
  (pad "1" thru_hole circle (at -5 -0) (size 2 2) (drill 1.3) (layers "*.Cu" "*.Mask"))
  (pad "2" thru_hole circle (at 5 0) (size 2 2) (drill 1.3) (layers "*.Cu" "*.Mask"))
)
