(module "MOV-14D121K" (layer "F.Cu") (tedit 5510178F)
  (descr "Radial Lead Varistor 16.5mm dia, 4.2mm width")
  (fp_text reference "MOV-14D121K" (at 0 0) (layer "F.Fab") (effects (font (size 1.2 1.2) (thickness 0.12))))
  (fp_text value "MOV-14D121K" (at 0 0) (layer "F.Fab") hide (effects (font (size 1.2 1.2) (thickness 0.12))))
  (fp_line (start 8.75 -2.6) (end 8.75 2.6) (layer "F.CrtYd") (width 0.01))
  (fp_line (start 8.75 2.6) (end -8.75 2.6) (layer "F.CrtYd") (width 0.01))
  (fp_line (start -8.75 2.6) (end -8.75 -2.6) (layer "F.CrtYd") (width 0.01))
  (fp_line (start -8.75 -2.6) (end 8.75 -2.6) (layer "F.CrtYd") (width 0.01))
  (fp_arc (start -6.15 0) (end -6.15 2.1) (angle 180) (layer "F.Fab") (width 0.12))
  (fp_arc (start 6.15 0) (end 6.15 -2.1) (angle 180) (layer "F.Fab") (width 0.12))
  (fp_line (start -6.15 2.1) (end 6.15 2.1) (layer "F.Fab") (width 0.12))
  (fp_line (start 6.15 -2.1) (end -6.15 -2.1) (layer "F.Fab") (width 0.12))
  (fp_line (start -6.15 -2.1) (end 6.15 -2.1) (layer "F.SilkS") (width 0.12))
  (fp_line (start 6.15 2.1) (end -6.15 2.1) (layer "F.SilkS") (width 0.12))
  (fp_arc (start -6.15 0) (end -6.15 2.1) (angle 180) (layer "F.SilkS") (width 0.12))
  (fp_arc (start 6.15 0) (end 6.15 -2.1) (angle 180) (layer "F.SilkS") (width 0.12))
  (pad "1" thru_hole circle (at -3.75 -0) (size 1.7 1.7) (drill 1.1) (layers "*.Cu" "*.Mask"))
  (pad "2" thru_hole circle (at 3.75 0) (size 1.7 1.7) (drill 1.1) (layers "*.Cu" "*.Mask"))
)
