(footprint "UltraMOV-10x7.3" (version 20220914) (generator pcbnew)
  (layer "F.Cu")
  (descr "UltraMOV 10×7.3mm Varistor")
  (attr through_hole)
  (fp_text reference "UltraMOV-10x7.3" (at 0 0 unlocked) (layer "F.Fab")
      (effects (font (size 1.2 1.2) (thickness 0.12)))
    (tstamp e8622ff8-3895-41c3-88ef-79f3cacb8657)
  )
  (fp_text value "UltraMOV-10x7.3" (at 0 0 unlocked) (layer "F.Fab") hide
      (effects (font (size 1.2 1.2) (thickness 0.12)))
    (tstamp 7569d425-3c4e-49b0-a8aa-755a7586c047)
  )
  (fp_rect (start -6.5 -5.7) (end 6.5 5.7)
    (stroke (width 0.01) (type default)) (fill none) (layer "F.CrtYd") (tstamp 4faaa0b3-f69d-438b-a038-f5539a380b77))
  (fp_line (start -0.05 4.149999) (end 3.65 2.049999)
    (stroke (width 0.12) (type default)) (layer "F.Fab") (tstamp 4d07a5f9-1048-46d4-b9a6-913a300b9875))
  (fp_line (start 0.05 -4.149999) (end -3.65 -2.049999)
    (stroke (width 0.12) (type default)) (layer "F.Fab") (tstamp bb2844fd-ab80-4757-9e51-0a3ec24ca9e1))
  (fp_arc (start -0.05 4.149999) (mid -4.949999 2.85) (end -3.65 -2.049999)
    (stroke (width 0.12) (type default)) (layer "F.Fab") (tstamp f3d7043e-a190-4660-9a63-156ed9a3ba36))
  (fp_arc (start 0.05 -4.149999) (mid 4.949999 -2.85) (end 3.65 2.049999)
    (stroke (width 0.12) (type default)) (layer "F.Fab") (tstamp 18436956-466f-40fd-a9a5-d265749d3e4d))
  (pad "1" thru_hole circle (at -4.25 0) (size 1.7 1.7) (drill 1.1) (layers *.Cu *.Mask) (tstamp fb41c2c7-2ec4-40f0-9dbe-7869dbf2cbd3))
  (pad "2" thru_hole circle (at 4.25 0) (size 1.7 1.7) (drill 1.1) (layers *.Cu *.Mask) (tstamp 363c21d6-884b-4bfb-9a5e-1b30630567f4))
  (model ":KICAD6_3DMODEL_DIR:Littelfuse/UltraMOV-10x7.3.wrl"
    (offset (xyz 0 0 0))
    (scale (xyz 1 1 1))
    (rotate (xyz 0 0 0))
  )
)
