(module "V140LA10AP" (layer "F.Cu") (tedit 5510178F)
  (descr "Radial Lead Varistor 17.0mm dia, 5.6mm width")
  (fp_text reference "V140LA10AP" (at 0 0) (layer "F.Fab") (effects (font (size 1.2 1.2) (thickness 0.12))))
  (fp_text value "V140LA10AP" (at 0 0) (layer "F.Fab") hide (effects (font (size 1.2 1.2) (thickness 0.12))))
  (fp_line (start 9 -3.3) (end 9 3.3) (layer "F.CrtYd") (width 0.01))
  (fp_line (start 9 3.3) (end -9 3.3) (layer "F.CrtYd") (width 0.01))
  (fp_line (start -9 3.3) (end -9 -3.3) (layer "F.CrtYd") (width 0.01))
  (fp_line (start -9 -3.3) (end 9 -3.3) (layer "F.CrtYd") (width 0.01))
  (fp_arc (start -5.7 0) (end -5.7 2.8) (angle 180) (layer "F.Fab") (width 0.12))
  (fp_arc (start 5.7 0) (end 5.7 -2.8) (angle 180) (layer "F.Fab") (width 0.12))
  (fp_line (start -5.7 2.8) (end 5.7 2.8) (layer "F.Fab") (width 0.12))
  (fp_line (start 5.7 -2.8) (end -5.7 -2.8) (layer "F.Fab") (width 0.12))
  (fp_line (start -5.7 -2.8) (end 5.7 -2.8) (layer "F.SilkS") (width 0.12))
  (fp_line (start 5.7 2.8) (end -5.7 2.8) (layer "F.SilkS") (width 0.12))
  (fp_arc (start -5.7 0) (end -5.7 2.8) (angle 180) (layer "F.SilkS") (width 0.12))
  (fp_arc (start 5.7 0) (end 5.7 -2.8) (angle 180) (layer "F.SilkS") (width 0.12))
  (pad "1" thru_hole circle (at -3.75 -1.25) (size 1.7 1.7) (drill 1.1) (layers "*.Cu" "*.Mask"))
  (pad "2" thru_hole circle (at 3.75 1.25) (size 1.7 1.7) (drill 1.1) (layers "*.Cu" "*.Mask"))
)
