(module "V275LA40CPX680" (layer "F.Cu") (tedit 5510178F)
  (descr "Radial Lead Varistor 23.0mm dia, 7.3mm width")
  (fp_text reference "V275LA40CPX680" (at 0 0) (layer "F.Fab") (effects (font (size 1.2 1.2) (thickness 0.12))))
  (fp_text value "V275LA40CPX680" (at 0 0) (layer "F.Fab") hide (effects (font (size 1.2 1.2) (thickness 0.12))))
  (fp_line (start 12 -4.15) (end 12 4.15) (layer "F.CrtYd") (width 0.01))
  (fp_line (start 12 4.15) (end -12 4.15) (layer "F.CrtYd") (width 0.01))
  (fp_line (start -12 4.15) (end -12 -4.15) (layer "F.CrtYd") (width 0.01))
  (fp_line (start -12 -4.15) (end 12 -4.15) (layer "F.CrtYd") (width 0.01))
  (fp_arc (start -7.85 0) (end -7.85 3.65) (angle 180) (layer "F.Fab") (width 0.12))
  (fp_arc (start 7.85 0) (end 7.85 -3.65) (angle 180) (layer "F.Fab") (width 0.12))
  (fp_line (start -7.85 3.65) (end 7.85 3.65) (layer "F.Fab") (width 0.12))
  (fp_line (start 7.85 -3.65) (end -7.85 -3.65) (layer "F.Fab") (width 0.12))
  (fp_line (start -7.85 -3.65) (end 7.85 -3.65) (layer "F.SilkS") (width 0.12))
  (fp_line (start 7.85 3.65) (end -7.85 3.65) (layer "F.SilkS") (width 0.12))
  (fp_arc (start -7.85 0) (end -7.85 3.65) (angle 180) (layer "F.SilkS") (width 0.12))
  (fp_arc (start 7.85 0) (end 7.85 -3.65) (angle 180) (layer "F.SilkS") (width 0.12))
  (pad "1" thru_hole circle (at -3.75 -1.5) (size 1.7 1.7) (drill 1.1) (layers "*.Cu" "*.Mask"))
  (pad "2" thru_hole circle (at 3.75 1.5) (size 1.7 1.7) (drill 1.1) (layers "*.Cu" "*.Mask"))
)
