(module "V625LA80CP" (layer "F.Cu") (tedit 5510178F)
  (descr "Radial Lead Varistor 23.0mm dia, 11.0mm width")
  (fp_text reference "V625LA80CP" (at 0 0) (layer "F.Fab") (effects (font (size 1.2 1.2) (thickness 0.12))))
  (fp_text value "V625LA80CP" (at 0 0) (layer "F.Fab") hide (effects (font (size 1.2 1.2) (thickness 0.12))))
  (fp_line (start 12 -6) (end 12 6) (layer "F.CrtYd") (width 0.01))
  (fp_line (start 12 6) (end -12 6) (layer "F.CrtYd") (width 0.01))
  (fp_line (start -12 6) (end -12 -6) (layer "F.CrtYd") (width 0.01))
  (fp_line (start -12 -6) (end 12 -6) (layer "F.CrtYd") (width 0.01))
  (fp_arc (start -6 0) (end -6 5.5) (angle 180) (layer "F.Fab") (width 0.12))
  (fp_arc (start 6 0) (end 6 -5.5) (angle 180) (layer "F.Fab") (width 0.12))
  (fp_line (start -6 5.5) (end 6 5.5) (layer "F.Fab") (width 0.12))
  (fp_line (start 6 -5.5) (end -6 -5.5) (layer "F.Fab") (width 0.12))
  (fp_line (start -6 -5.5) (end 6 -5.5) (layer "F.SilkS") (width 0.12))
  (fp_line (start 6 5.5) (end -6 5.5) (layer "F.SilkS") (width 0.12))
  (fp_arc (start -6 0) (end -6 5.5) (angle 180) (layer "F.SilkS") (width 0.12))
  (fp_arc (start 6 0) (end 6 -5.5) (angle 180) (layer "F.SilkS") (width 0.12))
  (pad "1" thru_hole circle (at -3.75 -2.5) (size 1.7 1.7) (drill 1.1) (layers "*.Cu" "*.Mask"))
  (pad "2" thru_hole circle (at 3.75 2.5) (size 1.7 1.7) (drill 1.1) (layers "*.Cu" "*.Mask"))
)
