(footprint "280390"
	(version 20240108)
	(generator "pcbnew")
	(generator_version "8.0")
	(layer "F.Cu")
	(descr "MOD II Double Row R.A. Shrouded Pin Header, 2x8 pins")
	(property "Reference" "280390"
		(at 0 0 0)
		(layer "F.Fab")
		(uuid "fef4a015-fb68-4d4c-8be4-b9bdfd290fbc")
		(effects
			(font
				(size 1.2 1.2)
				(thickness 0.12)
			)
		)
	)
	(property "Value" "280390"
		(at 0 0 0)
		(layer "F.Fab")
		(hide yes)
		(uuid "60ea4234-c676-4495-b82e-346c0a3f6baf")
		(effects
			(font
				(size 1.2 1.2)
				(thickness 0.12)
			)
		)
	)
	(property "Footprint" ""
		(at 0 0 0)
		(layer "F.Fab")
		(hide yes)
		(uuid "bfcfc15a-b10c-46aa-b508-c3d6aca5fcf2")
		(effects
			(font
				(size 1.27 1.27)
				(thickness 0.15)
			)
		)
	)
	(property "Datasheet" ""
		(at 0 0 0)
		(layer "F.Fab")
		(hide yes)
		(uuid "1ac3f5af-9e76-4c4b-9e65-524d28cd4c1a")
		(effects
			(font
				(size 1.27 1.27)
				(thickness 0.15)
			)
		)
	)
	(property "Description" ""
		(at 0 0 0)
		(layer "F.Fab")
		(hide yes)
		(uuid "2afb4bfa-da13-4c93-8061-846281cad2a3")
		(effects
			(font
				(size 1.27 1.27)
				(thickness 0.15)
			)
		)
	)
	(attr through_hole)
	(fp_line
		(start -11.5 14.85)
		(end -11.5 -2.75)
		(stroke
			(width 0.12)
			(type solid)
		)
		(layer "F.SilkS")
		(uuid "ed23c2b2-0371-481d-bbc8-3f9618bb185d")
	)
	(fp_line
		(start -11.5 14.85)
		(end 11.5 14.85)
		(stroke
			(width 0.12)
			(type solid)
		)
		(layer "F.SilkS")
		(uuid "1a60a3ee-45b7-4f3f-8255-3b87ad73d5d6")
	)
	(fp_line
		(start -9.5 -2.75)
		(end -11.5 -2.75)
		(stroke
			(width 0.12)
			(type solid)
		)
		(layer "F.SilkS")
		(uuid "059f9fea-a4bd-45fe-b39e-9cd27a67703d")
	)
	(fp_line
		(start -8.3 -2.75)
		(end 11.5 -2.75)
		(stroke
			(width 0.12)
			(type solid)
		)
		(layer "F.SilkS")
		(uuid "c154381a-8046-45d7-916d-e068115405a8")
	)
	(fp_line
		(start 11.5 14.85)
		(end 11.5 -2.75)
		(stroke
			(width 0.12)
			(type solid)
		)
		(layer "F.SilkS")
		(uuid "ac80386d-4632-4e32-b292-9d215a729ffa")
	)
	(fp_circle
		(center -8.9 -3.15)
		(end -8.5 -3.15)
		(stroke
			(width 0.12)
			(type solid)
		)
		(fill solid)
		(layer "F.SilkS")
		(uuid "864122e9-ff61-488c-b712-7b015e62e869")
	)
	(fp_rect
		(start -12 -3.25)
		(end 12 14.9)
		(stroke
			(width 0.01)
			(type solid)
		)
		(fill none)
		(layer "F.CrtYd")
		(uuid "0a4ff3e2-46c3-48e4-a100-7d7f6c93e410")
	)
	(fp_line
		(start -10.5 -2.75)
		(end -11.5 -1.75)
		(stroke
			(width 0.1)
			(type solid)
		)
		(layer "F.Fab")
		(uuid "e3493cd7-bc4d-45d7-bb99-df321ab69b0a")
	)
	(fp_rect
		(start -11.5 -2.75)
		(end 11.5 14.85)
		(stroke
			(width 0.1)
			(type solid)
		)
		(fill none)
		(layer "F.Fab")
		(uuid "4eddfe99-ae98-4449-8e23-55657cbd64df")
	)
	(fp_text user "${REFERENCE}"
		(at 0 -3.4 0)
		(layer "F.SilkS")
		(uuid "1c537c04-4e3c-4c90-b8b0-be3d2462b838")
		(effects
			(font
				(size 0.8 0.8)
				(thickness 0.15)
				(bold yes)
			)
		)
	)
	(pad "1" thru_hole circle
		(at -8.89 -1.27)
		(size 1.9 1.9)
		(drill 1.1)
		(layers "*.Cu" "*.Mask")
		(remove_unused_layers no)
		(uuid "2ec43f6c-b7a5-4124-9427-2dcdbfd24bc6")
	)
	(pad "2" thru_hole circle
		(at -8.89 1.27)
		(size 1.9 1.9)
		(drill 1.1)
		(layers "*.Cu" "*.Mask")
		(remove_unused_layers no)
		(uuid "732cd063-9491-4362-ba4c-527b634e7276")
	)
	(pad "3" thru_hole circle
		(at -6.35 -1.27)
		(size 1.9 1.9)
		(drill 1.1)
		(layers "*.Cu" "*.Mask")
		(remove_unused_layers no)
		(uuid "e474e3b0-78a0-401c-a338-bffd5823e263")
	)
	(pad "4" thru_hole circle
		(at -6.35 1.27)
		(size 1.9 1.9)
		(drill 1.1)
		(layers "*.Cu" "*.Mask")
		(remove_unused_layers no)
		(uuid "43f143a6-393d-4993-ae48-729977c51283")
	)
	(pad "5" thru_hole circle
		(at -3.81 -1.27)
		(size 1.9 1.9)
		(drill 1.1)
		(layers "*.Cu" "*.Mask")
		(remove_unused_layers no)
		(uuid "3b72cb78-96ec-4349-95db-74467509b6e9")
	)
	(pad "6" thru_hole circle
		(at -3.81 1.27)
		(size 1.9 1.9)
		(drill 1.1)
		(layers "*.Cu" "*.Mask")
		(remove_unused_layers no)
		(uuid "46fa6895-334c-4654-8647-0891ffd38e23")
	)
	(pad "7" thru_hole circle
		(at -1.27 -1.27)
		(size 1.9 1.9)
		(drill 1.1)
		(layers "*.Cu" "*.Mask")
		(remove_unused_layers no)
		(uuid "4847bb5a-125b-4c12-8da4-e1805ceffc73")
	)
	(pad "8" thru_hole circle
		(at -1.27 1.27)
		(size 1.9 1.9)
		(drill 1.1)
		(layers "*.Cu" "*.Mask")
		(remove_unused_layers no)
		(uuid "041fd84c-f29e-405c-99c0-485c3455977b")
	)
	(pad "9" thru_hole circle
		(at 1.27 -1.27)
		(size 1.9 1.9)
		(drill 1.1)
		(layers "*.Cu" "*.Mask")
		(remove_unused_layers no)
		(uuid "21efdef6-372b-496e-a7ef-d292185bd8c1")
	)
	(pad "10" thru_hole circle
		(at 1.27 1.27)
		(size 1.9 1.9)
		(drill 1.1)
		(layers "*.Cu" "*.Mask")
		(remove_unused_layers no)
		(uuid "dcd0153d-738a-48a2-bcb9-f04a60abfa4a")
	)
	(pad "11" thru_hole circle
		(at 3.81 -1.27)
		(size 1.9 1.9)
		(drill 1.1)
		(layers "*.Cu" "*.Mask")
		(remove_unused_layers no)
		(uuid "b2395a46-e9a5-4afa-8178-ca2fa0648155")
	)
	(pad "12" thru_hole circle
		(at 3.81 1.27)
		(size 1.9 1.9)
		(drill 1.1)
		(layers "*.Cu" "*.Mask")
		(remove_unused_layers no)
		(uuid "46bba765-c353-4520-a8e6-7292a64bca43")
	)
	(pad "13" thru_hole circle
		(at 6.35 -1.27)
		(size 1.9 1.9)
		(drill 1.1)
		(layers "*.Cu" "*.Mask")
		(remove_unused_layers no)
		(uuid "99bcd878-26a8-4f81-a687-9b07a1a0a3c8")
	)
	(pad "14" thru_hole circle
		(at 6.35 1.27)
		(size 1.9 1.9)
		(drill 1.1)
		(layers "*.Cu" "*.Mask")
		(remove_unused_layers no)
		(uuid "1102b705-51bd-40aa-8946-3e4557225a2e")
	)
	(pad "15" thru_hole circle
		(at 8.89 -1.27)
		(size 1.9 1.9)
		(drill 1.1)
		(layers "*.Cu" "*.Mask")
		(remove_unused_layers no)
		(uuid "fc33d219-01f2-4493-83d8-78e010f7af69")
	)
	(pad "16" thru_hole circle
		(at 8.89 1.27)
		(size 1.9 1.9)
		(drill 1.1)
		(layers "*.Cu" "*.Mask")
		(remove_unused_layers no)
		(uuid "59a9230e-ef34-4fa1-8623-05c17c79e92a")
	)
)
