(footprint "280373"
	(version 20240108)
	(generator "pcbnew")
	(generator_version "8.0")
	(layer "F.Cu")
	(descr "MOD II Vertical Shrouded Pin Header, 8 pins")
	(property "Reference" "280373"
		(at 0 0 0)
		(layer "F.Fab")
		(uuid "fda3d028-3408-4ff1-ad66-37a0009c141f")
		(effects
			(font
				(size 1.2 1.2)
				(thickness 0.12)
			)
		)
	)
	(property "Value" "280373"
		(at 0 0 0)
		(layer "F.Fab")
		(hide yes)
		(uuid "98551652-d6ef-4993-a180-f1662cb6af4b")
		(effects
			(font
				(size 1.2 1.2)
				(thickness 0.12)
			)
		)
	)
	(property "Footprint" ""
		(at 0 0 0)
		(layer "F.Fab")
		(hide yes)
		(uuid "9f254adb-a911-4a91-8ed7-d03557897cad")
		(effects
			(font
				(size 1.27 1.27)
				(thickness 0.15)
			)
		)
	)
	(property "Datasheet" ""
		(at 0 0 0)
		(layer "F.Fab")
		(hide yes)
		(uuid "80c10cd9-d3a5-4128-a4d6-83edd2df347e")
		(effects
			(font
				(size 1.27 1.27)
				(thickness 0.15)
			)
		)
	)
	(property "Description" ""
		(at 0 0 0)
		(layer "F.Fab")
		(hide yes)
		(uuid "71d27aa7-f5ab-44da-be48-5e50d51a4313")
		(effects
			(font
				(size 1.27 1.27)
				(thickness 0.15)
			)
		)
	)
	(attr through_hole)
	(fp_line
		(start -11.5 -2.95)
		(end 11.5 -2.95)
		(stroke
			(width 0.12)
			(type solid)
		)
		(layer "F.SilkS")
		(uuid "ad8b3c97-2f77-44bd-a1d1-9a8b8e8e3574")
	)
	(fp_line
		(start -11.5 2.35)
		(end -11.5 -2.95)
		(stroke
			(width 0.12)
			(type solid)
		)
		(layer "F.SilkS")
		(uuid "50960a06-64c5-4127-973c-c5c49f1ccf55")
	)
	(fp_line
		(start -9.55 2.35)
		(end -11.5 2.35)
		(stroke
			(width 0.12)
			(type solid)
		)
		(layer "F.SilkS")
		(uuid "29834286-45d7-4291-9c0d-c101a1d55d82")
	)
	(fp_line
		(start -8.35 2.35)
		(end 11.5 2.35)
		(stroke
			(width 0.12)
			(type solid)
		)
		(layer "F.SilkS")
		(uuid "07caf50d-8779-4f06-926d-fd70557123f8")
	)
	(fp_line
		(start 11.5 2.35)
		(end 11.5 -2.95)
		(stroke
			(width 0.12)
			(type solid)
		)
		(layer "F.SilkS")
		(uuid "6a0da22b-6d33-470e-8714-b61270e2c1e6")
	)
	(fp_circle
		(center -8.95 2.75)
		(end -8.55 2.75)
		(stroke
			(width 0.12)
			(type solid)
		)
		(fill solid)
		(layer "F.SilkS")
		(uuid "5bec3a5c-5713-4eb4-b4ab-7df3b1fc5b2d")
	)
	(fp_rect
		(start -12 -3.45)
		(end 12 2.85)
		(stroke
			(width 0.01)
			(type solid)
		)
		(fill none)
		(layer "F.CrtYd")
		(uuid "538253c5-ab97-421b-9efa-bf07bc6274b8")
	)
	(fp_line
		(start -11 1.85)
		(end -11 2.35)
		(stroke
			(width 0.1)
			(type solid)
		)
		(layer "F.Fab")
		(uuid "d9e222fc-dcd3-4800-949f-b29ec8623e7f")
	)
	(fp_line
		(start -11 1.85)
		(end 11 1.85)
		(stroke
			(width 0.1)
			(type solid)
		)
		(layer "F.Fab")
		(uuid "21dfa054-c466-4fb1-a941-bcda68927a51")
	)
	(fp_line
		(start -10.5 2.35)
		(end -11.5 1.35)
		(stroke
			(width 0.1)
			(type solid)
		)
		(layer "F.Fab")
		(uuid "db84d1f9-8021-4219-89f5-1df732bce144")
	)
	(fp_line
		(start 11 1.85)
		(end 11 2.35)
		(stroke
			(width 0.1)
			(type solid)
		)
		(layer "F.Fab")
		(uuid "a26e56cc-b6a5-4b95-8d14-db7214b78ec5")
	)
	(fp_rect
		(start -11.5 -2.95)
		(end 11.5 2.35)
		(stroke
			(width 0.1)
			(type solid)
		)
		(fill none)
		(layer "F.Fab")
		(uuid "b7165636-aadd-4cb3-ba1f-30a781c8acd3")
	)
	(fp_text user "${REFERENCE}"
		(at 0 -3.6 0)
		(layer "F.SilkS")
		(uuid "11314d4b-7114-44c6-b8c4-2fd3bed6d080")
		(effects
			(font
				(size 0.8 0.8)
				(thickness 0.15)
				(bold yes)
			)
		)
	)
	(pad "1" thru_hole circle
		(at -8.89 0)
		(size 1.9 1.9)
		(drill 1.1)
		(layers "*.Cu" "*.Mask")
		(remove_unused_layers no)
		(uuid "eaa0c36c-b4c6-49c2-99c8-ba2c666505f8")
	)
	(pad "2" thru_hole circle
		(at -6.35 0)
		(size 1.9 1.9)
		(drill 1.1)
		(layers "*.Cu" "*.Mask")
		(remove_unused_layers no)
		(uuid "6e3bc62a-d67b-488b-b03a-ec3535d093d7")
	)
	(pad "3" thru_hole circle
		(at -3.81 0)
		(size 1.9 1.9)
		(drill 1.1)
		(layers "*.Cu" "*.Mask")
		(remove_unused_layers no)
		(uuid "fc2d9e47-f455-4d4c-b9d7-2048f54acd66")
	)
	(pad "4" thru_hole circle
		(at -1.27 0)
		(size 1.9 1.9)
		(drill 1.1)
		(layers "*.Cu" "*.Mask")
		(remove_unused_layers no)
		(uuid "979392b9-99f3-4397-a664-5d8c6dc86f2d")
	)
	(pad "5" thru_hole circle
		(at 1.27 0)
		(size 1.9 1.9)
		(drill 1.1)
		(layers "*.Cu" "*.Mask")
		(remove_unused_layers no)
		(uuid "90343584-707c-4d78-ac09-794f51d30f50")
	)
	(pad "6" thru_hole circle
		(at 3.81 0)
		(size 1.9 1.9)
		(drill 1.1)
		(layers "*.Cu" "*.Mask")
		(remove_unused_layers no)
		(uuid "19620aa1-3256-4938-95f4-415bd87d024a")
	)
	(pad "7" thru_hole circle
		(at 6.35 0)
		(size 1.9 1.9)
		(drill 1.1)
		(layers "*.Cu" "*.Mask")
		(remove_unused_layers no)
		(uuid "9d30afa6-0112-40c0-a270-f10c2ba4edc8")
	)
	(pad "8" thru_hole circle
		(at 8.89 0)
		(size 1.9 1.9)
		(drill 1.1)
		(layers "*.Cu" "*.Mask")
		(remove_unused_layers no)
		(uuid "99361001-e7e4-4692-94c7-4649bb813130")
	)
	(model "${KISYS3DMOD}/TE/280373.wrl"
		(offset
			(xyz 0 0 0)
		)
		(scale
			(xyz 1 1 1)
		)
		(rotate
			(xyz 0 0 0)
		)
	)
)
