(footprint "280393"
	(version 20240108)
	(generator "pcbnew")
	(generator_version "8.0")
	(layer "F.Cu")
	(descr "MOD II Double Row R.A. Shrouded Pin Header, 2x22 pins")
	(property "Reference" "280393"
		(at 0 0 0)
		(layer "F.Fab")
		(uuid "40cf802f-17bd-4a61-880b-fc915b110dec")
		(effects
			(font
				(size 1.2 1.2)
				(thickness 0.12)
			)
		)
	)
	(property "Value" "280393"
		(at 0 0 0)
		(layer "F.Fab")
		(hide yes)
		(uuid "a0c8f97e-9957-4b18-a839-3061b1b96f52")
		(effects
			(font
				(size 1.2 1.2)
				(thickness 0.12)
			)
		)
	)
	(property "Footprint" ""
		(at 0 0 0)
		(layer "F.Fab")
		(hide yes)
		(uuid "a62f4ea2-cc54-4935-b81b-e280884355f6")
		(effects
			(font
				(size 1.27 1.27)
				(thickness 0.15)
			)
		)
	)
	(property "Datasheet" ""
		(at 0 0 0)
		(layer "F.Fab")
		(hide yes)
		(uuid "7c69bf83-a5a3-4dc2-be11-d40d617ab94a")
		(effects
			(font
				(size 1.27 1.27)
				(thickness 0.15)
			)
		)
	)
	(property "Description" ""
		(at 0 0 0)
		(layer "F.Fab")
		(hide yes)
		(uuid "a7d02685-706f-40bf-8314-94d14cef49d1")
		(effects
			(font
				(size 1.27 1.27)
				(thickness 0.15)
			)
		)
	)
	(attr through_hole)
	(fp_line
		(start -29.25 14.85)
		(end -29.25 -2.75)
		(stroke
			(width 0.12)
			(type solid)
		)
		(layer "F.SilkS")
		(uuid "72072b5d-2df8-41d2-a550-a87b4fd5fcb8")
	)
	(fp_line
		(start -29.25 14.85)
		(end 29.25 14.85)
		(stroke
			(width 0.12)
			(type solid)
		)
		(layer "F.SilkS")
		(uuid "c5658838-0644-4586-ac29-9c43020ed06e")
	)
	(fp_line
		(start -27.25 -2.75)
		(end -29.25 -2.75)
		(stroke
			(width 0.12)
			(type solid)
		)
		(layer "F.SilkS")
		(uuid "e4ded793-021f-40bb-bdae-7d45ca977613")
	)
	(fp_line
		(start -26.05 -2.75)
		(end 29.25 -2.75)
		(stroke
			(width 0.12)
			(type solid)
		)
		(layer "F.SilkS")
		(uuid "55b9acf9-1425-44f5-891b-b15a606b38a7")
	)
	(fp_line
		(start 29.25 14.85)
		(end 29.25 -2.75)
		(stroke
			(width 0.12)
			(type solid)
		)
		(layer "F.SilkS")
		(uuid "93012155-d6ea-4576-8fce-3e924b516216")
	)
	(fp_circle
		(center -26.65 -3.15)
		(end -26.25 -3.15)
		(stroke
			(width 0.12)
			(type solid)
		)
		(fill solid)
		(layer "F.SilkS")
		(uuid "d9499494-8cee-455d-8227-7d9b8d73767c")
	)
	(fp_rect
		(start -29.75 -3.25)
		(end 29.75 14.9)
		(stroke
			(width 0.01)
			(type solid)
		)
		(fill none)
		(layer "F.CrtYd")
		(uuid "47e005c4-33f9-4470-9068-8c80dfa2853d")
	)
	(fp_line
		(start -29.25 -2.75)
		(end -29.25 13.55)
		(stroke
			(width 0.1)
			(type solid)
		)
		(layer "F.Fab")
		(uuid "63ea85d6-11b1-455b-8530-6bf28a66a6c5")
	)
	(fp_line
		(start -29.25 14.85)
		(end 29.25 14.85)
		(stroke
			(width 0.1)
			(type solid)
		)
		(layer "F.Fab")
		(uuid "433745d4-6dbc-4143-a7bc-2f7b2229533d")
	)
	(fp_line
		(start -28.25 -2.75)
		(end -29.25 -1.75)
		(stroke
			(width 0.1)
			(type solid)
		)
		(layer "F.Fab")
		(uuid "608bfe77-83bd-4c9c-9c27-bf06d00fc1f7")
	)
	(fp_line
		(start 29.25 -2.75)
		(end -29.25 -2.75)
		(stroke
			(width 0.1)
			(type solid)
		)
		(layer "F.Fab")
		(uuid "621a4190-c12c-4dbf-b97f-987182b7e188")
	)
	(fp_line
		(start 29.25 14.85)
		(end 29.25 -2.75)
		(stroke
			(width 0.1)
			(type solid)
		)
		(layer "F.Fab")
		(uuid "eec7ed7a-8fc1-4ce9-ba9f-2dd59e6295e3")
	)
	(fp_text user "${REFERENCE}"
		(at 0 -3.4 0)
		(layer "F.SilkS")
		(uuid "bc305d9e-1fa5-4f3e-9e90-4bd4573c8581")
		(effects
			(font
				(size 0.8 0.8)
				(thickness 0.15)
				(bold yes)
			)
		)
	)
	(pad "1" thru_hole circle
		(at -26.67 -1.27)
		(size 1.9 1.9)
		(drill 1.1)
		(layers "*.Cu" "*.Mask")
		(remove_unused_layers no)
		(uuid "3755504d-a313-4737-a1ed-cdfac200460f")
	)
	(pad "2" thru_hole circle
		(at -26.67 1.27)
		(size 1.9 1.9)
		(drill 1.1)
		(layers "*.Cu" "*.Mask")
		(remove_unused_layers no)
		(uuid "9ee6e709-0011-42db-b795-b7e354144040")
	)
	(pad "3" thru_hole circle
		(at -24.13 -1.27)
		(size 1.9 1.9)
		(drill 1.1)
		(layers "*.Cu" "*.Mask")
		(remove_unused_layers no)
		(uuid "d507b4ae-0166-46e4-bca8-0a585b2a5e5b")
	)
	(pad "4" thru_hole circle
		(at -24.13 1.27)
		(size 1.9 1.9)
		(drill 1.1)
		(layers "*.Cu" "*.Mask")
		(remove_unused_layers no)
		(uuid "90cdd9b3-a942-4fc9-9651-c7f37cf0dc8d")
	)
	(pad "5" thru_hole circle
		(at -21.59 -1.27)
		(size 1.9 1.9)
		(drill 1.1)
		(layers "*.Cu" "*.Mask")
		(remove_unused_layers no)
		(uuid "6ded7bc3-39a6-48d2-8e8c-36fe8bfb242a")
	)
	(pad "6" thru_hole circle
		(at -21.59 1.27)
		(size 1.9 1.9)
		(drill 1.1)
		(layers "*.Cu" "*.Mask")
		(remove_unused_layers no)
		(uuid "e89ad776-ebaa-48fb-ba96-7211b2adc24c")
	)
	(pad "7" thru_hole circle
		(at -19.05 -1.27)
		(size 1.9 1.9)
		(drill 1.1)
		(layers "*.Cu" "*.Mask")
		(remove_unused_layers no)
		(uuid "cce2bed4-f92d-4ff4-aa3a-cacaa3c78cfb")
	)
	(pad "8" thru_hole circle
		(at -19.05 1.27)
		(size 1.9 1.9)
		(drill 1.1)
		(layers "*.Cu" "*.Mask")
		(remove_unused_layers no)
		(uuid "6df54a7d-5660-4226-987a-dc9827598e5d")
	)
	(pad "9" thru_hole circle
		(at -16.51 -1.27)
		(size 1.9 1.9)
		(drill 1.1)
		(layers "*.Cu" "*.Mask")
		(remove_unused_layers no)
		(uuid "3ca22b61-9836-4e19-8f89-0ee540041227")
	)
	(pad "10" thru_hole circle
		(at -16.51 1.27)
		(size 1.9 1.9)
		(drill 1.1)
		(layers "*.Cu" "*.Mask")
		(remove_unused_layers no)
		(uuid "814d3fe7-6088-4889-b647-61b623c3751a")
	)
	(pad "11" thru_hole circle
		(at -13.97 -1.27)
		(size 1.9 1.9)
		(drill 1.1)
		(layers "*.Cu" "*.Mask")
		(remove_unused_layers no)
		(uuid "7be2126a-e4a1-4590-b401-0ab5bd88b719")
	)
	(pad "12" thru_hole circle
		(at -13.97 1.27)
		(size 1.9 1.9)
		(drill 1.1)
		(layers "*.Cu" "*.Mask")
		(remove_unused_layers no)
		(uuid "77774db9-5ca8-4280-a8fc-9001acb04150")
	)
	(pad "13" thru_hole circle
		(at -11.43 -1.27)
		(size 1.9 1.9)
		(drill 1.1)
		(layers "*.Cu" "*.Mask")
		(remove_unused_layers no)
		(uuid "23423e7f-e719-4d82-b98b-321ea17e062f")
	)
	(pad "14" thru_hole circle
		(at -11.43 1.27)
		(size 1.9 1.9)
		(drill 1.1)
		(layers "*.Cu" "*.Mask")
		(remove_unused_layers no)
		(uuid "8a63761c-e234-4e76-b32e-d6a1bf656a55")
	)
	(pad "15" thru_hole circle
		(at -8.89 -1.27)
		(size 1.9 1.9)
		(drill 1.1)
		(layers "*.Cu" "*.Mask")
		(remove_unused_layers no)
		(uuid "5313c8f6-6a07-4a3c-8e38-f9ff6a4ff3ab")
	)
	(pad "16" thru_hole circle
		(at -8.89 1.27)
		(size 1.9 1.9)
		(drill 1.1)
		(layers "*.Cu" "*.Mask")
		(remove_unused_layers no)
		(uuid "5bfcd5d1-531f-482b-98c9-df678fd13843")
	)
	(pad "17" thru_hole circle
		(at -6.35 -1.27)
		(size 1.9 1.9)
		(drill 1.1)
		(layers "*.Cu" "*.Mask")
		(remove_unused_layers no)
		(uuid "b9422b2c-8c4a-4c82-9c0b-72a577244a94")
	)
	(pad "18" thru_hole circle
		(at -6.35 1.27)
		(size 1.9 1.9)
		(drill 1.1)
		(layers "*.Cu" "*.Mask")
		(remove_unused_layers no)
		(uuid "ee9fc2af-0aa0-4d3e-ba38-1c5be4cf0e87")
	)
	(pad "19" thru_hole circle
		(at -3.81 -1.27)
		(size 1.9 1.9)
		(drill 1.1)
		(layers "*.Cu" "*.Mask")
		(remove_unused_layers no)
		(uuid "b64f0305-d05b-494e-99a0-090e6f58a618")
	)
	(pad "20" thru_hole circle
		(at -3.81 1.27)
		(size 1.9 1.9)
		(drill 1.1)
		(layers "*.Cu" "*.Mask")
		(remove_unused_layers no)
		(uuid "b8d2e0f4-5260-4c12-9a65-cb77deb75899")
	)
	(pad "21" thru_hole circle
		(at -1.27 -1.27)
		(size 1.9 1.9)
		(drill 1.1)
		(layers "*.Cu" "*.Mask")
		(remove_unused_layers no)
		(uuid "9a70545d-6c59-428d-bc41-fb4725b09c5a")
	)
	(pad "22" thru_hole circle
		(at -1.27 1.27)
		(size 1.9 1.9)
		(drill 1.1)
		(layers "*.Cu" "*.Mask")
		(remove_unused_layers no)
		(uuid "1a530c05-3680-4729-a66e-c6d3531fe5b3")
	)
	(pad "23" thru_hole circle
		(at 1.27 -1.27)
		(size 1.9 1.9)
		(drill 1.1)
		(layers "*.Cu" "*.Mask")
		(remove_unused_layers no)
		(uuid "b976ce5b-98b9-474b-b79c-b0e705ffa471")
	)
	(pad "24" thru_hole circle
		(at 1.27 1.27)
		(size 1.9 1.9)
		(drill 1.1)
		(layers "*.Cu" "*.Mask")
		(remove_unused_layers no)
		(uuid "31ac8e7d-b173-4079-bc40-0e35e0ff6e62")
	)
	(pad "25" thru_hole circle
		(at 3.81 -1.27)
		(size 1.9 1.9)
		(drill 1.1)
		(layers "*.Cu" "*.Mask")
		(remove_unused_layers no)
		(uuid "ca77782a-08aa-4abe-8484-923bcbe55fc8")
	)
	(pad "26" thru_hole circle
		(at 3.81 1.27)
		(size 1.9 1.9)
		(drill 1.1)
		(layers "*.Cu" "*.Mask")
		(remove_unused_layers no)
		(uuid "2bcf828f-2bb3-44d7-a376-eceaf4cafc52")
	)
	(pad "27" thru_hole circle
		(at 6.35 -1.27)
		(size 1.9 1.9)
		(drill 1.1)
		(layers "*.Cu" "*.Mask")
		(remove_unused_layers no)
		(uuid "244bda4b-1922-4fcb-9184-41ba00450862")
	)
	(pad "28" thru_hole circle
		(at 6.35 1.27)
		(size 1.9 1.9)
		(drill 1.1)
		(layers "*.Cu" "*.Mask")
		(remove_unused_layers no)
		(uuid "79e67e6c-004b-4ee0-a961-f2e83a2ab6f4")
	)
	(pad "29" thru_hole circle
		(at 8.89 -1.27)
		(size 1.9 1.9)
		(drill 1.1)
		(layers "*.Cu" "*.Mask")
		(remove_unused_layers no)
		(uuid "ae0a91e6-0540-4788-b178-bb5a236f11dc")
	)
	(pad "30" thru_hole circle
		(at 8.89 1.27)
		(size 1.9 1.9)
		(drill 1.1)
		(layers "*.Cu" "*.Mask")
		(remove_unused_layers no)
		(uuid "c06a7e5d-8173-4e96-b815-6ce638c22b7f")
	)
	(pad "31" thru_hole circle
		(at 11.43 -1.27)
		(size 1.9 1.9)
		(drill 1.1)
		(layers "*.Cu" "*.Mask")
		(remove_unused_layers no)
		(uuid "cfd938bb-d1bd-4b93-a306-c33d59d5e11d")
	)
	(pad "32" thru_hole circle
		(at 11.43 1.27)
		(size 1.9 1.9)
		(drill 1.1)
		(layers "*.Cu" "*.Mask")
		(remove_unused_layers no)
		(uuid "a2b5efa6-2e81-40af-8135-7e16ff9266b7")
	)
	(pad "33" thru_hole circle
		(at 13.97 -1.27)
		(size 1.9 1.9)
		(drill 1.1)
		(layers "*.Cu" "*.Mask")
		(remove_unused_layers no)
		(uuid "7645c83d-d961-4a1a-af3c-cfebeb3f767a")
	)
	(pad "34" thru_hole circle
		(at 13.97 1.27)
		(size 1.9 1.9)
		(drill 1.1)
		(layers "*.Cu" "*.Mask")
		(remove_unused_layers no)
		(uuid "cc0d05ca-a542-431c-a620-2f1b53720a88")
	)
	(pad "35" thru_hole circle
		(at 16.51 -1.27)
		(size 1.9 1.9)
		(drill 1.1)
		(layers "*.Cu" "*.Mask")
		(remove_unused_layers no)
		(uuid "f453b828-da24-468b-aa8a-e4f5ab29c745")
	)
	(pad "36" thru_hole circle
		(at 16.51 1.27)
		(size 1.9 1.9)
		(drill 1.1)
		(layers "*.Cu" "*.Mask")
		(remove_unused_layers no)
		(uuid "50f98791-c5c9-43f0-a459-15fa18c816c7")
	)
	(pad "37" thru_hole circle
		(at 19.05 -1.27)
		(size 1.9 1.9)
		(drill 1.1)
		(layers "*.Cu" "*.Mask")
		(remove_unused_layers no)
		(uuid "4f8801e4-c66c-47fc-b704-854684f916ad")
	)
	(pad "38" thru_hole circle
		(at 19.05 1.27)
		(size 1.9 1.9)
		(drill 1.1)
		(layers "*.Cu" "*.Mask")
		(remove_unused_layers no)
		(uuid "388d7f35-1f73-45a1-a3ca-16bcb3362559")
	)
	(pad "39" thru_hole circle
		(at 21.59 -1.27)
		(size 1.9 1.9)
		(drill 1.1)
		(layers "*.Cu" "*.Mask")
		(remove_unused_layers no)
		(uuid "4c2ce351-4360-437c-936c-20e7b84932d7")
	)
	(pad "40" thru_hole circle
		(at 21.59 1.27)
		(size 1.9 1.9)
		(drill 1.1)
		(layers "*.Cu" "*.Mask")
		(remove_unused_layers no)
		(uuid "26ed49d7-4c33-49c6-b866-a818651b5321")
	)
	(pad "41" thru_hole circle
		(at 24.13 -1.27)
		(size 1.9 1.9)
		(drill 1.1)
		(layers "*.Cu" "*.Mask")
		(remove_unused_layers no)
		(uuid "dcdc1ce4-c4e5-492f-bcc1-5cd5877a361b")
	)
	(pad "42" thru_hole circle
		(at 24.13 1.27)
		(size 1.9 1.9)
		(drill 1.1)
		(layers "*.Cu" "*.Mask")
		(remove_unused_layers no)
		(uuid "0051b3bf-ab5a-4273-a7ba-66329add685b")
	)
	(pad "43" thru_hole circle
		(at 26.67 -1.27)
		(size 1.9 1.9)
		(drill 1.1)
		(layers "*.Cu" "*.Mask")
		(remove_unused_layers no)
		(uuid "5e4524ce-0702-4737-a8a3-c5d3bea0a62c")
	)
	(pad "44" thru_hole circle
		(at 26.67 1.27)
		(size 1.9 1.9)
		(drill 1.1)
		(layers "*.Cu" "*.Mask")
		(remove_unused_layers no)
		(uuid "09e64f02-0fde-46d3-a341-2a983cd38dfb")
	)
)
