(footprint "280522"
	(version 20240108)
	(generator "pcbnew")
	(generator_version "8.0")
	(layer "F.Cu")
	(descr "MOD II Double Row R.A. Shrouded Pin Header, 2x12 pins")
	(property "Reference" "280522"
		(at 0 0 0)
		(layer "F.Fab")
		(uuid "15a5ac92-2c37-403b-ae56-79068b815c13")
		(effects
			(font
				(size 1.2 1.2)
				(thickness 0.12)
			)
		)
	)
	(property "Value" "280522"
		(at 0 0 0)
		(layer "F.Fab")
		(hide yes)
		(uuid "0be3c930-81cc-46ee-b4e1-8f5536be6ba6")
		(effects
			(font
				(size 1.2 1.2)
				(thickness 0.12)
			)
		)
	)
	(property "Footprint" ""
		(at 0 0 0)
		(layer "F.Fab")
		(hide yes)
		(uuid "623f26f7-8bcc-4ef6-94a7-6239413b2ce8")
		(effects
			(font
				(size 1.27 1.27)
				(thickness 0.15)
			)
		)
	)
	(property "Datasheet" ""
		(at 0 0 0)
		(layer "F.Fab")
		(hide yes)
		(uuid "ec365072-fddf-4b29-9b14-9fa8c8ad6cd7")
		(effects
			(font
				(size 1.27 1.27)
				(thickness 0.15)
			)
		)
	)
	(property "Description" ""
		(at 0 0 0)
		(layer "F.Fab")
		(hide yes)
		(uuid "f8454455-a81e-4b3d-9cff-9fc5f53467bf")
		(effects
			(font
				(size 1.27 1.27)
				(thickness 0.15)
			)
		)
	)
	(attr through_hole)
	(fp_line
		(start -16.55 14.85)
		(end -16.55 -2.75)
		(stroke
			(width 0.12)
			(type solid)
		)
		(layer "F.SilkS")
		(uuid "e39afcdd-9cfa-43f5-9cab-473295f520f9")
	)
	(fp_line
		(start -16.55 14.85)
		(end 16.55 14.85)
		(stroke
			(width 0.12)
			(type solid)
		)
		(layer "F.SilkS")
		(uuid "2163b2a7-99fa-4319-8484-d906fe6d4195")
	)
	(fp_line
		(start -14.55 -2.75)
		(end -16.55 -2.75)
		(stroke
			(width 0.12)
			(type solid)
		)
		(layer "F.SilkS")
		(uuid "a5dd63a5-56fe-474d-958f-3458bda64479")
	)
	(fp_line
		(start -13.35 -2.75)
		(end 16.55 -2.75)
		(stroke
			(width 0.12)
			(type solid)
		)
		(layer "F.SilkS")
		(uuid "de887b57-065f-430c-8615-44ac9aa906d8")
	)
	(fp_line
		(start 16.55 14.85)
		(end 16.55 -2.75)
		(stroke
			(width 0.12)
			(type solid)
		)
		(layer "F.SilkS")
		(uuid "7e75a942-5e95-4910-bb4e-b39acc40365a")
	)
	(fp_circle
		(center -13.95 -3.15)
		(end -13.55 -3.15)
		(stroke
			(width 0.12)
			(type solid)
		)
		(fill solid)
		(layer "F.SilkS")
		(uuid "3ee7ff8b-3ce5-4f9e-9d92-782faaef70bd")
	)
	(fp_rect
		(start -17.05 -3.25)
		(end 17.05 14.9)
		(stroke
			(width 0.01)
			(type solid)
		)
		(fill none)
		(layer "F.CrtYd")
		(uuid "4202f8cb-16e0-437e-85cb-096d7af2a39d")
	)
	(fp_line
		(start -15.55 -2.75)
		(end -16.55 -1.75)
		(stroke
			(width 0.1)
			(type solid)
		)
		(layer "F.Fab")
		(uuid "fa115800-48a9-473e-a6b4-6753ed59e791")
	)
	(fp_rect
		(start -16.55 -2.75)
		(end 16.55 14.85)
		(stroke
			(width 0.1)
			(type solid)
		)
		(fill none)
		(layer "F.Fab")
		(uuid "0845eb5c-7e83-4b5c-bb7a-88f2e13ab253")
	)
	(fp_text user "${REFERENCE}"
		(at 0 -3.4 0)
		(layer "F.SilkS")
		(uuid "992886f5-2002-4594-9faf-ef9c66238a5c")
		(effects
			(font
				(size 0.8 0.8)
				(thickness 0.15)
				(bold yes)
			)
		)
	)
	(pad "1" thru_hole circle
		(at -13.97 -1.27)
		(size 1.9 1.9)
		(drill 1.1)
		(layers "*.Cu" "*.Mask")
		(remove_unused_layers no)
		(uuid "47f95667-d8b6-4650-a6ad-16c3ce4fef0f")
	)
	(pad "2" thru_hole circle
		(at -13.97 1.27)
		(size 1.9 1.9)
		(drill 1.1)
		(layers "*.Cu" "*.Mask")
		(remove_unused_layers no)
		(uuid "db1ab40d-91c9-417a-b6dc-29cb100f1a9d")
	)
	(pad "3" thru_hole circle
		(at -11.43 -1.27)
		(size 1.9 1.9)
		(drill 1.1)
		(layers "*.Cu" "*.Mask")
		(remove_unused_layers no)
		(uuid "552d1459-7789-4be8-9eda-929ab0909394")
	)
	(pad "4" thru_hole circle
		(at -11.43 1.27)
		(size 1.9 1.9)
		(drill 1.1)
		(layers "*.Cu" "*.Mask")
		(remove_unused_layers no)
		(uuid "1fd7e788-2764-4fee-9908-4a48e56ef15b")
	)
	(pad "5" thru_hole circle
		(at -8.89 -1.27)
		(size 1.9 1.9)
		(drill 1.1)
		(layers "*.Cu" "*.Mask")
		(remove_unused_layers no)
		(uuid "4de20b83-304e-48cc-bdd1-899a46e73f4e")
	)
	(pad "6" thru_hole circle
		(at -8.89 1.27)
		(size 1.9 1.9)
		(drill 1.1)
		(layers "*.Cu" "*.Mask")
		(remove_unused_layers no)
		(uuid "8ee8884f-cadb-431c-a556-f11f71ec90e8")
	)
	(pad "7" thru_hole circle
		(at -6.35 -1.27)
		(size 1.9 1.9)
		(drill 1.1)
		(layers "*.Cu" "*.Mask")
		(remove_unused_layers no)
		(uuid "3bf78ddd-d0c2-4440-8193-219d625d1c2c")
	)
	(pad "8" thru_hole circle
		(at -6.35 1.27)
		(size 1.9 1.9)
		(drill 1.1)
		(layers "*.Cu" "*.Mask")
		(remove_unused_layers no)
		(uuid "88d56822-9db1-4359-84c9-a3818e69b2e8")
	)
	(pad "9" thru_hole circle
		(at -3.81 -1.27)
		(size 1.9 1.9)
		(drill 1.1)
		(layers "*.Cu" "*.Mask")
		(remove_unused_layers no)
		(uuid "bd212e40-ba6a-40d1-b5a5-472501a091c9")
	)
	(pad "10" thru_hole circle
		(at -3.81 1.27)
		(size 1.9 1.9)
		(drill 1.1)
		(layers "*.Cu" "*.Mask")
		(remove_unused_layers no)
		(uuid "7386f810-a83e-4579-ae5c-973566a8bf41")
	)
	(pad "11" thru_hole circle
		(at -1.27 -1.27)
		(size 1.9 1.9)
		(drill 1.1)
		(layers "*.Cu" "*.Mask")
		(remove_unused_layers no)
		(uuid "8d4b1827-6028-4a53-b5c1-09dba4cbf1ae")
	)
	(pad "12" thru_hole circle
		(at -1.27 1.27)
		(size 1.9 1.9)
		(drill 1.1)
		(layers "*.Cu" "*.Mask")
		(remove_unused_layers no)
		(uuid "b3004ea9-a1fe-45df-9aeb-45a5ba5c3f61")
	)
	(pad "13" thru_hole circle
		(at 1.27 -1.27)
		(size 1.9 1.9)
		(drill 1.1)
		(layers "*.Cu" "*.Mask")
		(remove_unused_layers no)
		(uuid "7f15d023-fc17-455d-a71d-b1e50c72e9ed")
	)
	(pad "14" thru_hole circle
		(at 1.27 1.27)
		(size 1.9 1.9)
		(drill 1.1)
		(layers "*.Cu" "*.Mask")
		(remove_unused_layers no)
		(uuid "b70df3a3-8042-40d0-ae61-1f800c7822b3")
	)
	(pad "15" thru_hole circle
		(at 3.81 -1.27)
		(size 1.9 1.9)
		(drill 1.1)
		(layers "*.Cu" "*.Mask")
		(remove_unused_layers no)
		(uuid "4e347b12-e0fc-42c1-8262-d27788661cda")
	)
	(pad "16" thru_hole circle
		(at 3.81 1.27)
		(size 1.9 1.9)
		(drill 1.1)
		(layers "*.Cu" "*.Mask")
		(remove_unused_layers no)
		(uuid "fb8c919e-13b1-43a5-884a-4eff40f7e5de")
	)
	(pad "17" thru_hole circle
		(at 6.35 -1.27)
		(size 1.9 1.9)
		(drill 1.1)
		(layers "*.Cu" "*.Mask")
		(remove_unused_layers no)
		(uuid "5a5b66b2-9b62-43cc-94ca-82d3504ddb7c")
	)
	(pad "18" thru_hole circle
		(at 6.35 1.27)
		(size 1.9 1.9)
		(drill 1.1)
		(layers "*.Cu" "*.Mask")
		(remove_unused_layers no)
		(uuid "037074f9-513d-4b8c-96bb-67f1d5d42c90")
	)
	(pad "19" thru_hole circle
		(at 8.89 -1.27)
		(size 1.9 1.9)
		(drill 1.1)
		(layers "*.Cu" "*.Mask")
		(remove_unused_layers no)
		(uuid "d9c2da1e-e23f-497c-8e75-9af238a6f8e1")
	)
	(pad "20" thru_hole circle
		(at 8.89 1.27)
		(size 1.9 1.9)
		(drill 1.1)
		(layers "*.Cu" "*.Mask")
		(remove_unused_layers no)
		(uuid "0211b5ad-321d-4974-93a0-8e14dfcc3cd8")
	)
	(pad "21" thru_hole circle
		(at 11.43 -1.27)
		(size 1.9 1.9)
		(drill 1.1)
		(layers "*.Cu" "*.Mask")
		(remove_unused_layers no)
		(uuid "9355e3d8-f148-4cf7-8662-7f87c2270af9")
	)
	(pad "22" thru_hole circle
		(at 11.43 1.27)
		(size 1.9 1.9)
		(drill 1.1)
		(layers "*.Cu" "*.Mask")
		(remove_unused_layers no)
		(uuid "54a04500-ef1c-4b5b-9d15-0f58f579c3ff")
	)
	(pad "23" thru_hole circle
		(at 13.97 -1.27)
		(size 1.9 1.9)
		(drill 1.1)
		(layers "*.Cu" "*.Mask")
		(remove_unused_layers no)
		(uuid "5979b1a8-980f-44ab-9392-5676bea545a8")
	)
	(pad "24" thru_hole circle
		(at 13.97 1.27)
		(size 1.9 1.9)
		(drill 1.1)
		(layers "*.Cu" "*.Mask")
		(remove_unused_layers no)
		(uuid "7457f95b-0f46-4794-a4b9-5d03da128644")
	)
)
