(footprint "280511"
	(version 20240108)
	(generator "pcbnew")
	(generator_version "8.0")
	(layer "F.Cu")
	(descr "MOD II R.A. Shrouded Pin Header, 9 pins")
	(property "Reference" "280511"
		(at 0 0 0)
		(layer "F.Fab")
		(uuid "5e0051d0-0731-430b-a661-9efcdb248451")
		(effects
			(font
				(size 1.2 1.2)
				(thickness 0.12)
			)
		)
	)
	(property "Value" "280511"
		(at 0 0 0)
		(layer "F.Fab")
		(hide yes)
		(uuid "3329e85e-9f87-42a9-aa07-5ba66cc5cfe9")
		(effects
			(font
				(size 1.2 1.2)
				(thickness 0.12)
			)
		)
	)
	(property "Footprint" ""
		(at 0 0 0)
		(layer "F.Fab")
		(hide yes)
		(uuid "ff1b1006-ab01-420c-8e6c-83f20ed2ebec")
		(effects
			(font
				(size 1.27 1.27)
				(thickness 0.15)
			)
		)
	)
	(property "Datasheet" ""
		(at 0 0 0)
		(layer "F.Fab")
		(hide yes)
		(uuid "60f6d527-66ed-4a93-883f-e3a238ebcc3e")
		(effects
			(font
				(size 1.27 1.27)
				(thickness 0.15)
			)
		)
	)
	(property "Description" ""
		(at 0 0 0)
		(layer "F.Fab")
		(hide yes)
		(uuid "4631a4fd-6777-4f82-89fc-dd8c0f664262")
		(effects
			(font
				(size 1.27 1.27)
				(thickness 0.15)
			)
		)
	)
	(attr through_hole)
	(fp_line
		(start -12.75 13.55)
		(end -12.75 -1.55)
		(stroke
			(width 0.12)
			(type solid)
		)
		(layer "F.SilkS")
		(uuid "5b3ac6fa-ed5f-40f6-99c9-ff20b0a9aea9")
	)
	(fp_line
		(start -12.75 13.55)
		(end 12.75 13.55)
		(stroke
			(width 0.12)
			(type solid)
		)
		(layer "F.SilkS")
		(uuid "cc7a02cc-575d-495b-ae37-8893bc001eca")
	)
	(fp_line
		(start -10.75 -1.55)
		(end -12.75 -1.55)
		(stroke
			(width 0.12)
			(type solid)
		)
		(layer "F.SilkS")
		(uuid "7e7be74a-21cb-4bf9-b050-502bda92004a")
	)
	(fp_line
		(start -9.55 -1.55)
		(end 12.75 -1.55)
		(stroke
			(width 0.12)
			(type solid)
		)
		(layer "F.SilkS")
		(uuid "f82e8da7-00bb-4625-b1e3-403ba9941029")
	)
	(fp_line
		(start 12.75 13.55)
		(end 12.75 -1.55)
		(stroke
			(width 0.12)
			(type solid)
		)
		(layer "F.SilkS")
		(uuid "ac26f1df-b5ca-43f3-ab80-6540007f7921")
	)
	(fp_circle
		(center -10.15 -1.95)
		(end -9.75 -1.95)
		(stroke
			(width 0.12)
			(type solid)
		)
		(fill solid)
		(layer "F.SilkS")
		(uuid "f4ef7915-8d91-477a-b27f-9c6a26a683d1")
	)
	(fp_rect
		(start -13.25 -2.05)
		(end 13.25 13.6)
		(stroke
			(width 0.01)
			(type solid)
		)
		(fill none)
		(layer "F.CrtYd")
		(uuid "e6f53baa-cae7-4ebb-a6d1-2c88bc754798")
	)
	(fp_line
		(start -11.75 -1.55)
		(end -12.75 -0.55)
		(stroke
			(width 0.1)
			(type solid)
		)
		(layer "F.Fab")
		(uuid "b5ef39f0-4ad5-440d-987b-85be7e7f19a9")
	)
	(fp_rect
		(start -12.75 -1.55)
		(end 12.75 13.55)
		(stroke
			(width 0.1)
			(type solid)
		)
		(fill none)
		(layer "F.Fab")
		(uuid "ab95208c-5fb1-434b-97d6-45b92ed60f0e")
	)
	(fp_text user "${REFERENCE}"
		(at 0 -2.2 0)
		(layer "F.SilkS")
		(uuid "dd9dc9fe-27c3-4f94-a4a9-acb59efd94b6")
		(effects
			(font
				(size 0.8 0.8)
				(thickness 0.15)
				(bold yes)
			)
		)
	)
	(pad "1" thru_hole circle
		(at -10.16 0)
		(size 1.9 1.9)
		(drill 1.1)
		(layers "*.Cu" "*.Mask")
		(remove_unused_layers no)
		(uuid "f7b13899-f078-4a7b-9327-0c184820388d")
	)
	(pad "2" thru_hole circle
		(at -7.62 0)
		(size 1.9 1.9)
		(drill 1.1)
		(layers "*.Cu" "*.Mask")
		(remove_unused_layers no)
		(uuid "5fb48e57-2319-4b55-9529-92e5e4773222")
	)
	(pad "3" thru_hole circle
		(at -5.08 0)
		(size 1.9 1.9)
		(drill 1.1)
		(layers "*.Cu" "*.Mask")
		(remove_unused_layers no)
		(uuid "6ba115d4-640b-4704-9adc-059a045ee8bf")
	)
	(pad "4" thru_hole circle
		(at -2.54 0)
		(size 1.9 1.9)
		(drill 1.1)
		(layers "*.Cu" "*.Mask")
		(remove_unused_layers no)
		(uuid "6712a447-c23b-42e5-b636-9fc2dafda981")
	)
	(pad "5" thru_hole circle
		(at 0 0)
		(size 1.9 1.9)
		(drill 1.1)
		(layers "*.Cu" "*.Mask")
		(remove_unused_layers no)
		(uuid "226ca485-455b-4276-b53a-6d44aafbe2a5")
	)
	(pad "6" thru_hole circle
		(at 2.54 0)
		(size 1.9 1.9)
		(drill 1.1)
		(layers "*.Cu" "*.Mask")
		(remove_unused_layers no)
		(uuid "94a83300-31dc-4887-9963-5f61059e3d54")
	)
	(pad "7" thru_hole circle
		(at 5.08 0)
		(size 1.9 1.9)
		(drill 1.1)
		(layers "*.Cu" "*.Mask")
		(remove_unused_layers no)
		(uuid "0f172630-27a6-40ec-b21c-2a847ae57fcf")
	)
	(pad "8" thru_hole circle
		(at 7.62 0)
		(size 1.9 1.9)
		(drill 1.1)
		(layers "*.Cu" "*.Mask")
		(remove_unused_layers no)
		(uuid "1bd1f75b-872d-4f00-8dbe-bcbe82d59fae")
	)
	(pad "9" thru_hole circle
		(at 10.16 0)
		(size 1.9 1.9)
		(drill 1.1)
		(layers "*.Cu" "*.Mask")
		(remove_unused_layers no)
		(uuid "cefb8656-14ce-429c-b88c-a72fdd8f938e")
	)
)
