ISO-10303-21;
HEADER;
FILE_DESCRIPTION(('FreeCAD Model'),'2;1');
FILE_NAME(
  '/home/lomarcan/cvswork/kicad-lib/modules/packages3d/Murata-BNX0.step'
  ,'2019-12-28T21:28:54',('kicad StepUp'),('ksu MCAD'),
  'Open CASCADE STEP processor 7.3','FreeCAD','Unknown');
FILE_SCHEMA(('AUTOMOTIVE_DESIGN { 1 0 10303 214 1 1 1 1 }'));
ENDSEC;
DATA;
#1 = APPLICATION_PROTOCOL_DEFINITION('international standard',
  'automotive_design',2000,#2);
#2 = APPLICATION_CONTEXT(
  'core data for automotive mechanical design processes');
#3 = SHAPE_DEFINITION_REPRESENTATION(#4,#10);
#4 = PRODUCT_DEFINITION_SHAPE('','',#5);
#5 = PRODUCT_DEFINITION('design','',#6,#9);
#6 = PRODUCT_DEFINITION_FORMATION('','',#7);
#7 = PRODUCT('Murata-BNX0','Murata-BNX0','',(#8));
#8 = PRODUCT_CONTEXT('',#2,'mechanical');
#9 = PRODUCT_DEFINITION_CONTEXT('part definition',#2,'design');
#10 = ADVANCED_BREP_SHAPE_REPRESENTATION('',(#11,#15),#1551);
#11 = AXIS2_PLACEMENT_3D('',#12,#13,#14);
#12 = CARTESIAN_POINT('',(0.,0.,0.));
#13 = DIRECTION('',(0.,0.,1.));
#14 = DIRECTION('',(1.,0.,-0.));
#15 = MANIFOLD_SOLID_BREP('',#16);
#16 = CLOSED_SHELL('',(#17,#57,#88,#119,#200,#351,#368,#385,#402,#419,
    #436,#453,#470,#487,#499,#530,#555,#579,#604,#628,#653,#677,#695,
    #779,#812,#941,#966,#1017,#1050,#1109,#1134,#1255,#1272,#1289,#1306,
    #1323,#1335,#1357,#1374,#1391,#1408,#1425,#1442,#1459,#1471,#1488,
    #1505,#1522,#1539));
#17 = ADVANCED_FACE('',(#18),#52,.F.);
#18 = FACE_BOUND('',#19,.F.);
#19 = EDGE_LOOP('',(#20,#30,#38,#46));
#20 = ORIENTED_EDGE('',*,*,#21,.T.);
#21 = EDGE_CURVE('',#22,#24,#26,.T.);
#22 = VERTEX_POINT('',#23);
#23 = CARTESIAN_POINT('',(-6.,5.5,0.));
#24 = VERTEX_POINT('',#25);
#25 = CARTESIAN_POINT('',(-6.,5.5,12.5));
#26 = LINE('',#27,#28);
#27 = CARTESIAN_POINT('',(-6.,5.5,0.));
#28 = VECTOR('',#29,1.);
#29 = DIRECTION('',(0.,0.,1.));
#30 = ORIENTED_EDGE('',*,*,#31,.T.);
#31 = EDGE_CURVE('',#24,#32,#34,.T.);
#32 = VERTEX_POINT('',#33);
#33 = CARTESIAN_POINT('',(-6.,0.25,12.5));
#34 = LINE('',#35,#36);
#35 = CARTESIAN_POINT('',(-6.,5.5,12.5));
#36 = VECTOR('',#37,1.);
#37 = DIRECTION('',(0.,-1.,0.));
#38 = ORIENTED_EDGE('',*,*,#39,.F.);
#39 = EDGE_CURVE('',#40,#32,#42,.T.);
#40 = VERTEX_POINT('',#41);
#41 = CARTESIAN_POINT('',(-6.,0.25,0.));
#42 = LINE('',#43,#44);
#43 = CARTESIAN_POINT('',(-6.,0.25,0.));
#44 = VECTOR('',#45,1.);
#45 = DIRECTION('',(0.,0.,1.));
#46 = ORIENTED_EDGE('',*,*,#47,.F.);
#47 = EDGE_CURVE('',#22,#40,#48,.T.);
#48 = LINE('',#49,#50);
#49 = CARTESIAN_POINT('',(-6.,5.5,0.));
#50 = VECTOR('',#51,1.);
#51 = DIRECTION('',(0.,-1.,0.));
#52 = PLANE('',#53);
#53 = AXIS2_PLACEMENT_3D('',#54,#55,#56);
#54 = CARTESIAN_POINT('',(-6.,5.5,0.));
#55 = DIRECTION('',(1.,0.,0.));
#56 = DIRECTION('',(0.,-1.,0.));
#57 = ADVANCED_FACE('',(#58),#83,.T.);
#58 = FACE_BOUND('',#59,.T.);
#59 = EDGE_LOOP('',(#60,#61,#69,#77));
#60 = ORIENTED_EDGE('',*,*,#21,.T.);
#61 = ORIENTED_EDGE('',*,*,#62,.T.);
#62 = EDGE_CURVE('',#24,#63,#65,.T.);
#63 = VERTEX_POINT('',#64);
#64 = CARTESIAN_POINT('',(6.,5.5,12.5));
#65 = LINE('',#66,#67);
#66 = CARTESIAN_POINT('',(-6.,5.5,12.5));
#67 = VECTOR('',#68,1.);
#68 = DIRECTION('',(1.,0.,0.));
#69 = ORIENTED_EDGE('',*,*,#70,.F.);
#70 = EDGE_CURVE('',#71,#63,#73,.T.);
#71 = VERTEX_POINT('',#72);
#72 = CARTESIAN_POINT('',(6.,5.5,0.));
#73 = LINE('',#74,#75);
#74 = CARTESIAN_POINT('',(6.,5.5,0.));
#75 = VECTOR('',#76,1.);
#76 = DIRECTION('',(0.,0.,1.));
#77 = ORIENTED_EDGE('',*,*,#78,.F.);
#78 = EDGE_CURVE('',#22,#71,#79,.T.);
#79 = LINE('',#80,#81);
#80 = CARTESIAN_POINT('',(-6.,5.5,0.));
#81 = VECTOR('',#82,1.);
#82 = DIRECTION('',(1.,0.,0.));
#83 = PLANE('',#84);
#84 = AXIS2_PLACEMENT_3D('',#85,#86,#87);
#85 = CARTESIAN_POINT('',(-6.,5.5,0.));
#86 = DIRECTION('',(0.,1.,0.));
#87 = DIRECTION('',(1.,0.,0.));
#88 = ADVANCED_FACE('',(#89),#114,.F.);
#89 = FACE_BOUND('',#90,.F.);
#90 = EDGE_LOOP('',(#91,#92,#100,#108));
#91 = ORIENTED_EDGE('',*,*,#39,.T.);
#92 = ORIENTED_EDGE('',*,*,#93,.T.);
#93 = EDGE_CURVE('',#32,#94,#96,.T.);
#94 = VERTEX_POINT('',#95);
#95 = CARTESIAN_POINT('',(-4.,0.25,12.5));
#96 = LINE('',#97,#98);
#97 = CARTESIAN_POINT('',(-6.,0.25,12.5));
#98 = VECTOR('',#99,1.);
#99 = DIRECTION('',(1.,0.,0.));
#100 = ORIENTED_EDGE('',*,*,#101,.F.);
#101 = EDGE_CURVE('',#102,#94,#104,.T.);
#102 = VERTEX_POINT('',#103);
#103 = CARTESIAN_POINT('',(-4.,0.25,0.));
#104 = LINE('',#105,#106);
#105 = CARTESIAN_POINT('',(-4.,0.25,0.));
#106 = VECTOR('',#107,1.);
#107 = DIRECTION('',(0.,0.,1.));
#108 = ORIENTED_EDGE('',*,*,#109,.F.);
#109 = EDGE_CURVE('',#40,#102,#110,.T.);
#110 = LINE('',#111,#112);
#111 = CARTESIAN_POINT('',(-6.,0.25,0.));
#112 = VECTOR('',#113,1.);
#113 = DIRECTION('',(1.,0.,0.));
#114 = PLANE('',#115);
#115 = AXIS2_PLACEMENT_3D('',#116,#117,#118);
#116 = CARTESIAN_POINT('',(-6.,0.25,0.));
#117 = DIRECTION('',(0.,1.,0.));
#118 = DIRECTION('',(1.,0.,0.));
#119 = ADVANCED_FACE('',(#120),#195,.T.);
#120 = FACE_BOUND('',#121,.T.);
#121 = EDGE_LOOP('',(#122,#123,#124,#132,#140,#148,#156,#164,#172,#180,
    #188,#194));
#122 = ORIENTED_EDGE('',*,*,#47,.F.);
#123 = ORIENTED_EDGE('',*,*,#78,.T.);
#124 = ORIENTED_EDGE('',*,*,#125,.T.);
#125 = EDGE_CURVE('',#71,#126,#128,.T.);
#126 = VERTEX_POINT('',#127);
#127 = CARTESIAN_POINT('',(6.,0.25,0.));
#128 = LINE('',#129,#130);
#129 = CARTESIAN_POINT('',(6.,5.5,0.));
#130 = VECTOR('',#131,1.);
#131 = DIRECTION('',(0.,-1.,0.));
#132 = ORIENTED_EDGE('',*,*,#133,.T.);
#133 = EDGE_CURVE('',#126,#134,#136,.T.);
#134 = VERTEX_POINT('',#135);
#135 = CARTESIAN_POINT('',(4.,0.25,0.));
#136 = LINE('',#137,#138);
#137 = CARTESIAN_POINT('',(6.,0.25,0.));
#138 = VECTOR('',#139,1.);
#139 = DIRECTION('',(-1.,0.,0.));
#140 = ORIENTED_EDGE('',*,*,#141,.T.);
#141 = EDGE_CURVE('',#134,#142,#144,.T.);
#142 = VERTEX_POINT('',#143);
#143 = CARTESIAN_POINT('',(4.,-0.25,0.));
#144 = LINE('',#145,#146);
#145 = CARTESIAN_POINT('',(4.,0.25,0.));
#146 = VECTOR('',#147,1.);
#147 = DIRECTION('',(0.,-1.,0.));
#148 = ORIENTED_EDGE('',*,*,#149,.T.);
#149 = EDGE_CURVE('',#142,#150,#152,.T.);
#150 = VERTEX_POINT('',#151);
#151 = CARTESIAN_POINT('',(6.,-0.25,0.));
#152 = LINE('',#153,#154);
#153 = CARTESIAN_POINT('',(4.,-0.25,0.));
#154 = VECTOR('',#155,1.);
#155 = DIRECTION('',(1.,0.,0.));
#156 = ORIENTED_EDGE('',*,*,#157,.T.);
#157 = EDGE_CURVE('',#150,#158,#160,.T.);
#158 = VERTEX_POINT('',#159);
#159 = CARTESIAN_POINT('',(6.,-5.5,0.));
#160 = LINE('',#161,#162);
#161 = CARTESIAN_POINT('',(6.,-0.25,0.));
#162 = VECTOR('',#163,1.);
#163 = DIRECTION('',(0.,-1.,0.));
#164 = ORIENTED_EDGE('',*,*,#165,.T.);
#165 = EDGE_CURVE('',#158,#166,#168,.T.);
#166 = VERTEX_POINT('',#167);
#167 = CARTESIAN_POINT('',(-6.,-5.5,0.));
#168 = LINE('',#169,#170);
#169 = CARTESIAN_POINT('',(6.,-5.5,0.));
#170 = VECTOR('',#171,1.);
#171 = DIRECTION('',(-1.,0.,0.));
#172 = ORIENTED_EDGE('',*,*,#173,.F.);
#173 = EDGE_CURVE('',#174,#166,#176,.T.);
#174 = VERTEX_POINT('',#175);
#175 = CARTESIAN_POINT('',(-6.,-0.25,0.));
#176 = LINE('',#177,#178);
#177 = CARTESIAN_POINT('',(-6.,-0.25,0.));
#178 = VECTOR('',#179,1.);
#179 = DIRECTION('',(0.,-1.,0.));
#180 = ORIENTED_EDGE('',*,*,#181,.F.);
#181 = EDGE_CURVE('',#182,#174,#184,.T.);
#182 = VERTEX_POINT('',#183);
#183 = CARTESIAN_POINT('',(-4.,-0.25,0.));
#184 = LINE('',#185,#186);
#185 = CARTESIAN_POINT('',(-4.,-0.25,0.));
#186 = VECTOR('',#187,1.);
#187 = DIRECTION('',(-1.,0.,0.));
#188 = ORIENTED_EDGE('',*,*,#189,.F.);
#189 = EDGE_CURVE('',#102,#182,#190,.T.);
#190 = LINE('',#191,#192);
#191 = CARTESIAN_POINT('',(-4.,0.25,0.));
#192 = VECTOR('',#193,1.);
#193 = DIRECTION('',(0.,-1.,0.));
#194 = ORIENTED_EDGE('',*,*,#109,.F.);
#195 = PLANE('',#196);
#196 = AXIS2_PLACEMENT_3D('',#197,#198,#199);
#197 = CARTESIAN_POINT('',(4.3E-16,3.9E-16,0.));
#198 = DIRECTION('',(-0.,-0.,-1.));
#199 = DIRECTION('',(-1.,0.,0.));
#200 = ADVANCED_FACE('',(#201,#276),#346,.F.);
#201 = FACE_BOUND('',#202,.F.);
#202 = EDGE_LOOP('',(#203,#204,#205,#213,#221,#229,#237,#245,#253,#261,
    #269,#275));
#203 = ORIENTED_EDGE('',*,*,#31,.F.);
#204 = ORIENTED_EDGE('',*,*,#62,.T.);
#205 = ORIENTED_EDGE('',*,*,#206,.T.);
#206 = EDGE_CURVE('',#63,#207,#209,.T.);
#207 = VERTEX_POINT('',#208);
#208 = CARTESIAN_POINT('',(6.,0.25,12.5));
#209 = LINE('',#210,#211);
#210 = CARTESIAN_POINT('',(6.,5.5,12.5));
#211 = VECTOR('',#212,1.);
#212 = DIRECTION('',(0.,-1.,0.));
#213 = ORIENTED_EDGE('',*,*,#214,.T.);
#214 = EDGE_CURVE('',#207,#215,#217,.T.);
#215 = VERTEX_POINT('',#216);
#216 = CARTESIAN_POINT('',(4.,0.25,12.5));
#217 = LINE('',#218,#219);
#218 = CARTESIAN_POINT('',(6.,0.25,12.5));
#219 = VECTOR('',#220,1.);
#220 = DIRECTION('',(-1.,0.,0.));
#221 = ORIENTED_EDGE('',*,*,#222,.T.);
#222 = EDGE_CURVE('',#215,#223,#225,.T.);
#223 = VERTEX_POINT('',#224);
#224 = CARTESIAN_POINT('',(4.,-0.25,12.5));
#225 = LINE('',#226,#227);
#226 = CARTESIAN_POINT('',(4.,0.25,12.5));
#227 = VECTOR('',#228,1.);
#228 = DIRECTION('',(0.,-1.,0.));
#229 = ORIENTED_EDGE('',*,*,#230,.T.);
#230 = EDGE_CURVE('',#223,#231,#233,.T.);
#231 = VERTEX_POINT('',#232);
#232 = CARTESIAN_POINT('',(6.,-0.25,12.5));
#233 = LINE('',#234,#235);
#234 = CARTESIAN_POINT('',(4.,-0.25,12.5));
#235 = VECTOR('',#236,1.);
#236 = DIRECTION('',(1.,0.,0.));
#237 = ORIENTED_EDGE('',*,*,#238,.T.);
#238 = EDGE_CURVE('',#231,#239,#241,.T.);
#239 = VERTEX_POINT('',#240);
#240 = CARTESIAN_POINT('',(6.,-5.5,12.5));
#241 = LINE('',#242,#243);
#242 = CARTESIAN_POINT('',(6.,-0.25,12.5));
#243 = VECTOR('',#244,1.);
#244 = DIRECTION('',(0.,-1.,0.));
#245 = ORIENTED_EDGE('',*,*,#246,.T.);
#246 = EDGE_CURVE('',#239,#247,#249,.T.);
#247 = VERTEX_POINT('',#248);
#248 = CARTESIAN_POINT('',(-6.,-5.5,12.5));
#249 = LINE('',#250,#251);
#250 = CARTESIAN_POINT('',(6.,-5.5,12.5));
#251 = VECTOR('',#252,1.);
#252 = DIRECTION('',(-1.,0.,0.));
#253 = ORIENTED_EDGE('',*,*,#254,.F.);
#254 = EDGE_CURVE('',#255,#247,#257,.T.);
#255 = VERTEX_POINT('',#256);
#256 = CARTESIAN_POINT('',(-6.,-0.25,12.5));
#257 = LINE('',#258,#259);
#258 = CARTESIAN_POINT('',(-6.,-0.25,12.5));
#259 = VECTOR('',#260,1.);
#260 = DIRECTION('',(0.,-1.,0.));
#261 = ORIENTED_EDGE('',*,*,#262,.F.);
#262 = EDGE_CURVE('',#263,#255,#265,.T.);
#263 = VERTEX_POINT('',#264);
#264 = CARTESIAN_POINT('',(-4.,-0.25,12.5));
#265 = LINE('',#266,#267);
#266 = CARTESIAN_POINT('',(-4.,-0.25,12.5));
#267 = VECTOR('',#268,1.);
#268 = DIRECTION('',(-1.,0.,0.));
#269 = ORIENTED_EDGE('',*,*,#270,.F.);
#270 = EDGE_CURVE('',#94,#263,#271,.T.);
#271 = LINE('',#272,#273);
#272 = CARTESIAN_POINT('',(-4.,0.25,12.5));
#273 = VECTOR('',#274,1.);
#274 = DIRECTION('',(0.,-1.,0.));
#275 = ORIENTED_EDGE('',*,*,#93,.F.);
#276 = FACE_BOUND('',#277,.F.);
#277 = EDGE_LOOP('',(#278,#288,#297,#305,#314,#322,#331,#339));
#278 = ORIENTED_EDGE('',*,*,#279,.F.);
#279 = EDGE_CURVE('',#280,#282,#284,.T.);
#280 = VERTEX_POINT('',#281);
#281 = CARTESIAN_POINT('',(3.5,0.75,12.5));
#282 = VERTEX_POINT('',#283);
#283 = CARTESIAN_POINT('',(3.5,-0.75,12.5));
#284 = LINE('',#285,#286);
#285 = CARTESIAN_POINT('',(3.5,0.75,12.5));
#286 = VECTOR('',#287,1.);
#287 = DIRECTION('',(0.,-1.,0.));
#288 = ORIENTED_EDGE('',*,*,#289,.T.);
#289 = EDGE_CURVE('',#280,#290,#292,.T.);
#290 = VERTEX_POINT('',#291);
#291 = CARTESIAN_POINT('',(1.340697417814,3.5,12.5));
#292 = CIRCLE('',#293,2.126894374382);
#293 = AXIS2_PLACEMENT_3D('',#294,#295,#296);
#294 = CARTESIAN_POINT('',(3.373105625618,2.873105625618,12.5));
#295 = DIRECTION('',(0.,0.,1.));
#296 = DIRECTION('',(1.,0.,0.));
#297 = ORIENTED_EDGE('',*,*,#298,.F.);
#298 = EDGE_CURVE('',#299,#290,#301,.T.);
#299 = VERTEX_POINT('',#300);
#300 = CARTESIAN_POINT('',(-1.340697417814,3.5,12.5));
#301 = LINE('',#302,#303);
#302 = CARTESIAN_POINT('',(-1.340697417814,3.5,12.5));
#303 = VECTOR('',#304,1.);
#304 = DIRECTION('',(1.,0.,0.));
#305 = ORIENTED_EDGE('',*,*,#306,.T.);
#306 = EDGE_CURVE('',#299,#307,#309,.T.);
#307 = VERTEX_POINT('',#308);
#308 = CARTESIAN_POINT('',(-3.5,0.75,12.5));
#309 = CIRCLE('',#310,2.126894374382);
#310 = AXIS2_PLACEMENT_3D('',#311,#312,#313);
#311 = CARTESIAN_POINT('',(-3.373105625618,2.873105625618,12.5));
#312 = DIRECTION('',(0.,0.,1.));
#313 = DIRECTION('',(1.,0.,0.));
#314 = ORIENTED_EDGE('',*,*,#315,.T.);
#315 = EDGE_CURVE('',#307,#316,#318,.T.);
#316 = VERTEX_POINT('',#317);
#317 = CARTESIAN_POINT('',(-3.5,-0.75,12.5));
#318 = LINE('',#319,#320);
#319 = CARTESIAN_POINT('',(-3.5,0.75,12.5));
#320 = VECTOR('',#321,1.);
#321 = DIRECTION('',(0.,-1.,0.));
#322 = ORIENTED_EDGE('',*,*,#323,.T.);
#323 = EDGE_CURVE('',#316,#324,#326,.T.);
#324 = VERTEX_POINT('',#325);
#325 = CARTESIAN_POINT('',(-1.340697417814,-3.5,12.5));
#326 = CIRCLE('',#327,2.126894374382);
#327 = AXIS2_PLACEMENT_3D('',#328,#329,#330);
#328 = CARTESIAN_POINT('',(-3.373105625618,-2.873105625618,12.5));
#329 = DIRECTION('',(0.,0.,1.));
#330 = DIRECTION('',(1.,0.,0.));
#331 = ORIENTED_EDGE('',*,*,#332,.T.);
#332 = EDGE_CURVE('',#324,#333,#335,.T.);
#333 = VERTEX_POINT('',#334);
#334 = CARTESIAN_POINT('',(1.340697417814,-3.5,12.5));
#335 = LINE('',#336,#337);
#336 = CARTESIAN_POINT('',(-1.340697417814,-3.5,12.5));
#337 = VECTOR('',#338,1.);
#338 = DIRECTION('',(1.,0.,0.));
#339 = ORIENTED_EDGE('',*,*,#340,.T.);
#340 = EDGE_CURVE('',#333,#282,#341,.T.);
#341 = CIRCLE('',#342,2.126894374382);
#342 = AXIS2_PLACEMENT_3D('',#343,#344,#345);
#343 = CARTESIAN_POINT('',(3.373105625618,-2.873105625618,12.5));
#344 = DIRECTION('',(0.,0.,1.));
#345 = DIRECTION('',(1.,0.,0.));
#346 = PLANE('',#347);
#347 = AXIS2_PLACEMENT_3D('',#348,#349,#350);
#348 = CARTESIAN_POINT('',(4.3E-16,3.9E-16,12.5));
#349 = DIRECTION('',(-0.,-0.,-1.));
#350 = DIRECTION('',(-1.,0.,0.));
#351 = ADVANCED_FACE('',(#352),#363,.T.);
#352 = FACE_BOUND('',#353,.T.);
#353 = EDGE_LOOP('',(#354,#355,#356,#362));
#354 = ORIENTED_EDGE('',*,*,#70,.T.);
#355 = ORIENTED_EDGE('',*,*,#206,.T.);
#356 = ORIENTED_EDGE('',*,*,#357,.F.);
#357 = EDGE_CURVE('',#126,#207,#358,.T.);
#358 = LINE('',#359,#360);
#359 = CARTESIAN_POINT('',(6.,0.25,0.));
#360 = VECTOR('',#361,1.);
#361 = DIRECTION('',(0.,0.,1.));
#362 = ORIENTED_EDGE('',*,*,#125,.F.);
#363 = PLANE('',#364);
#364 = AXIS2_PLACEMENT_3D('',#365,#366,#367);
#365 = CARTESIAN_POINT('',(6.,5.5,0.));
#366 = DIRECTION('',(1.,0.,0.));
#367 = DIRECTION('',(0.,-1.,0.));
#368 = ADVANCED_FACE('',(#369),#380,.F.);
#369 = FACE_BOUND('',#370,.F.);
#370 = EDGE_LOOP('',(#371,#372,#373,#379));
#371 = ORIENTED_EDGE('',*,*,#101,.T.);
#372 = ORIENTED_EDGE('',*,*,#270,.T.);
#373 = ORIENTED_EDGE('',*,*,#374,.F.);
#374 = EDGE_CURVE('',#182,#263,#375,.T.);
#375 = LINE('',#376,#377);
#376 = CARTESIAN_POINT('',(-4.,-0.25,0.));
#377 = VECTOR('',#378,1.);
#378 = DIRECTION('',(0.,0.,1.));
#379 = ORIENTED_EDGE('',*,*,#189,.F.);
#380 = PLANE('',#381);
#381 = AXIS2_PLACEMENT_3D('',#382,#383,#384);
#382 = CARTESIAN_POINT('',(-4.,0.25,0.));
#383 = DIRECTION('',(1.,0.,0.));
#384 = DIRECTION('',(0.,-1.,0.));
#385 = ADVANCED_FACE('',(#386),#397,.T.);
#386 = FACE_BOUND('',#387,.T.);
#387 = EDGE_LOOP('',(#388,#389,#390,#396));
#388 = ORIENTED_EDGE('',*,*,#357,.T.);
#389 = ORIENTED_EDGE('',*,*,#214,.T.);
#390 = ORIENTED_EDGE('',*,*,#391,.F.);
#391 = EDGE_CURVE('',#134,#215,#392,.T.);
#392 = LINE('',#393,#394);
#393 = CARTESIAN_POINT('',(4.,0.25,0.));
#394 = VECTOR('',#395,1.);
#395 = DIRECTION('',(0.,0.,1.));
#396 = ORIENTED_EDGE('',*,*,#133,.F.);
#397 = PLANE('',#398);
#398 = AXIS2_PLACEMENT_3D('',#399,#400,#401);
#399 = CARTESIAN_POINT('',(6.,0.25,0.));
#400 = DIRECTION('',(0.,-1.,0.));
#401 = DIRECTION('',(-1.,0.,0.));
#402 = ADVANCED_FACE('',(#403),#414,.T.);
#403 = FACE_BOUND('',#404,.T.);
#404 = EDGE_LOOP('',(#405,#406,#407,#413));
#405 = ORIENTED_EDGE('',*,*,#391,.T.);
#406 = ORIENTED_EDGE('',*,*,#222,.T.);
#407 = ORIENTED_EDGE('',*,*,#408,.F.);
#408 = EDGE_CURVE('',#142,#223,#409,.T.);
#409 = LINE('',#410,#411);
#410 = CARTESIAN_POINT('',(4.,-0.25,0.));
#411 = VECTOR('',#412,1.);
#412 = DIRECTION('',(0.,0.,1.));
#413 = ORIENTED_EDGE('',*,*,#141,.F.);
#414 = PLANE('',#415);
#415 = AXIS2_PLACEMENT_3D('',#416,#417,#418);
#416 = CARTESIAN_POINT('',(4.,0.25,0.));
#417 = DIRECTION('',(1.,0.,0.));
#418 = DIRECTION('',(0.,-1.,0.));
#419 = ADVANCED_FACE('',(#420),#431,.T.);
#420 = FACE_BOUND('',#421,.T.);
#421 = EDGE_LOOP('',(#422,#423,#424,#430));
#422 = ORIENTED_EDGE('',*,*,#408,.T.);
#423 = ORIENTED_EDGE('',*,*,#230,.T.);
#424 = ORIENTED_EDGE('',*,*,#425,.F.);
#425 = EDGE_CURVE('',#150,#231,#426,.T.);
#426 = LINE('',#427,#428);
#427 = CARTESIAN_POINT('',(6.,-0.25,0.));
#428 = VECTOR('',#429,1.);
#429 = DIRECTION('',(0.,0.,1.));
#430 = ORIENTED_EDGE('',*,*,#149,.F.);
#431 = PLANE('',#432);
#432 = AXIS2_PLACEMENT_3D('',#433,#434,#435);
#433 = CARTESIAN_POINT('',(4.,-0.25,0.));
#434 = DIRECTION('',(0.,1.,0.));
#435 = DIRECTION('',(1.,0.,0.));
#436 = ADVANCED_FACE('',(#437),#448,.T.);
#437 = FACE_BOUND('',#438,.T.);
#438 = EDGE_LOOP('',(#439,#440,#441,#447));
#439 = ORIENTED_EDGE('',*,*,#425,.T.);
#440 = ORIENTED_EDGE('',*,*,#238,.T.);
#441 = ORIENTED_EDGE('',*,*,#442,.F.);
#442 = EDGE_CURVE('',#158,#239,#443,.T.);
#443 = LINE('',#444,#445);
#444 = CARTESIAN_POINT('',(6.,-5.5,0.));
#445 = VECTOR('',#446,1.);
#446 = DIRECTION('',(0.,0.,1.));
#447 = ORIENTED_EDGE('',*,*,#157,.F.);
#448 = PLANE('',#449);
#449 = AXIS2_PLACEMENT_3D('',#450,#451,#452);
#450 = CARTESIAN_POINT('',(6.,-0.25,0.));
#451 = DIRECTION('',(1.,0.,0.));
#452 = DIRECTION('',(0.,-1.,0.));
#453 = ADVANCED_FACE('',(#454),#465,.T.);
#454 = FACE_BOUND('',#455,.T.);
#455 = EDGE_LOOP('',(#456,#457,#458,#464));
#456 = ORIENTED_EDGE('',*,*,#442,.T.);
#457 = ORIENTED_EDGE('',*,*,#246,.T.);
#458 = ORIENTED_EDGE('',*,*,#459,.F.);
#459 = EDGE_CURVE('',#166,#247,#460,.T.);
#460 = LINE('',#461,#462);
#461 = CARTESIAN_POINT('',(-6.,-5.5,0.));
#462 = VECTOR('',#463,1.);
#463 = DIRECTION('',(0.,0.,1.));
#464 = ORIENTED_EDGE('',*,*,#165,.F.);
#465 = PLANE('',#466);
#466 = AXIS2_PLACEMENT_3D('',#467,#468,#469);
#467 = CARTESIAN_POINT('',(6.,-5.5,0.));
#468 = DIRECTION('',(0.,-1.,0.));
#469 = DIRECTION('',(-1.,0.,0.));
#470 = ADVANCED_FACE('',(#471),#482,.F.);
#471 = FACE_BOUND('',#472,.F.);
#472 = EDGE_LOOP('',(#473,#479,#480,#481));
#473 = ORIENTED_EDGE('',*,*,#474,.T.);
#474 = EDGE_CURVE('',#174,#255,#475,.T.);
#475 = LINE('',#476,#477);
#476 = CARTESIAN_POINT('',(-6.,-0.25,0.));
#477 = VECTOR('',#478,1.);
#478 = DIRECTION('',(0.,0.,1.));
#479 = ORIENTED_EDGE('',*,*,#254,.T.);
#480 = ORIENTED_EDGE('',*,*,#459,.F.);
#481 = ORIENTED_EDGE('',*,*,#173,.F.);
#482 = PLANE('',#483);
#483 = AXIS2_PLACEMENT_3D('',#484,#485,#486);
#484 = CARTESIAN_POINT('',(-6.,-0.25,0.));
#485 = DIRECTION('',(1.,0.,0.));
#486 = DIRECTION('',(0.,-1.,0.));
#487 = ADVANCED_FACE('',(#488),#494,.F.);
#488 = FACE_BOUND('',#489,.F.);
#489 = EDGE_LOOP('',(#490,#491,#492,#493));
#490 = ORIENTED_EDGE('',*,*,#374,.T.);
#491 = ORIENTED_EDGE('',*,*,#262,.T.);
#492 = ORIENTED_EDGE('',*,*,#474,.F.);
#493 = ORIENTED_EDGE('',*,*,#181,.F.);
#494 = PLANE('',#495);
#495 = AXIS2_PLACEMENT_3D('',#496,#497,#498);
#496 = CARTESIAN_POINT('',(-4.,-0.25,0.));
#497 = DIRECTION('',(0.,-1.,0.));
#498 = DIRECTION('',(-1.,0.,0.));
#499 = ADVANCED_FACE('',(#500),#525,.T.);
#500 = FACE_BOUND('',#501,.T.);
#501 = EDGE_LOOP('',(#502,#510,#518,#524));
#502 = ORIENTED_EDGE('',*,*,#503,.T.);
#503 = EDGE_CURVE('',#280,#504,#506,.T.);
#504 = VERTEX_POINT('',#505);
#505 = CARTESIAN_POINT('',(3.5,0.75,9.));
#506 = LINE('',#507,#508);
#507 = CARTESIAN_POINT('',(3.5,0.75,12.5));
#508 = VECTOR('',#509,1.);
#509 = DIRECTION('',(-0.,-0.,-1.));
#510 = ORIENTED_EDGE('',*,*,#511,.T.);
#511 = EDGE_CURVE('',#504,#512,#514,.T.);
#512 = VERTEX_POINT('',#513);
#513 = CARTESIAN_POINT('',(3.5,-0.75,9.));
#514 = LINE('',#515,#516);
#515 = CARTESIAN_POINT('',(3.5,0.75,9.));
#516 = VECTOR('',#517,1.);
#517 = DIRECTION('',(0.,-1.,0.));
#518 = ORIENTED_EDGE('',*,*,#519,.F.);
#519 = EDGE_CURVE('',#282,#512,#520,.T.);
#520 = LINE('',#521,#522);
#521 = CARTESIAN_POINT('',(3.5,-0.75,12.5));
#522 = VECTOR('',#523,1.);
#523 = DIRECTION('',(-0.,-0.,-1.));
#524 = ORIENTED_EDGE('',*,*,#279,.F.);
#525 = PLANE('',#526);
#526 = AXIS2_PLACEMENT_3D('',#527,#528,#529);
#527 = CARTESIAN_POINT('',(3.5,0.75,12.5));
#528 = DIRECTION('',(-1.,0.,0.));
#529 = DIRECTION('',(0.,-1.,0.));
#530 = ADVANCED_FACE('',(#531),#550,.F.);
#531 = FACE_BOUND('',#532,.F.);
#532 = EDGE_LOOP('',(#533,#541,#548,#549));
#533 = ORIENTED_EDGE('',*,*,#534,.T.);
#534 = EDGE_CURVE('',#333,#535,#537,.T.);
#535 = VERTEX_POINT('',#536);
#536 = CARTESIAN_POINT('',(1.340697417814,-3.5,9.));
#537 = LINE('',#538,#539);
#538 = CARTESIAN_POINT('',(1.340697417814,-3.5,12.5));
#539 = VECTOR('',#540,1.);
#540 = DIRECTION('',(-0.,-0.,-1.));
#541 = ORIENTED_EDGE('',*,*,#542,.T.);
#542 = EDGE_CURVE('',#535,#512,#543,.T.);
#543 = CIRCLE('',#544,2.126894374382);
#544 = AXIS2_PLACEMENT_3D('',#545,#546,#547);
#545 = CARTESIAN_POINT('',(3.373105625618,-2.873105625618,9.));
#546 = DIRECTION('',(0.,0.,1.));
#547 = DIRECTION('',(1.,0.,0.));
#548 = ORIENTED_EDGE('',*,*,#519,.F.);
#549 = ORIENTED_EDGE('',*,*,#340,.F.);
#550 = CYLINDRICAL_SURFACE('',#551,2.126894374382);
#551 = AXIS2_PLACEMENT_3D('',#552,#553,#554);
#552 = CARTESIAN_POINT('',(3.373105625618,-2.873105625618,12.5));
#553 = DIRECTION('',(0.,0.,1.));
#554 = DIRECTION('',(1.,0.,0.));
#555 = ADVANCED_FACE('',(#556),#574,.F.);
#556 = FACE_BOUND('',#557,.F.);
#557 = EDGE_LOOP('',(#558,#566,#572,#573));
#558 = ORIENTED_EDGE('',*,*,#559,.T.);
#559 = EDGE_CURVE('',#324,#560,#562,.T.);
#560 = VERTEX_POINT('',#561);
#561 = CARTESIAN_POINT('',(-1.340697417814,-3.5,9.));
#562 = LINE('',#563,#564);
#563 = CARTESIAN_POINT('',(-1.340697417814,-3.5,12.5));
#564 = VECTOR('',#565,1.);
#565 = DIRECTION('',(-0.,-0.,-1.));
#566 = ORIENTED_EDGE('',*,*,#567,.T.);
#567 = EDGE_CURVE('',#560,#535,#568,.T.);
#568 = LINE('',#569,#570);
#569 = CARTESIAN_POINT('',(-1.340697417814,-3.5,9.));
#570 = VECTOR('',#571,1.);
#571 = DIRECTION('',(1.,0.,0.));
#572 = ORIENTED_EDGE('',*,*,#534,.F.);
#573 = ORIENTED_EDGE('',*,*,#332,.F.);
#574 = PLANE('',#575);
#575 = AXIS2_PLACEMENT_3D('',#576,#577,#578);
#576 = CARTESIAN_POINT('',(-1.340697417814,-3.5,12.5));
#577 = DIRECTION('',(0.,-1.,0.));
#578 = DIRECTION('',(1.,0.,0.));
#579 = ADVANCED_FACE('',(#580),#599,.F.);
#580 = FACE_BOUND('',#581,.F.);
#581 = EDGE_LOOP('',(#582,#590,#597,#598));
#582 = ORIENTED_EDGE('',*,*,#583,.T.);
#583 = EDGE_CURVE('',#316,#584,#586,.T.);
#584 = VERTEX_POINT('',#585);
#585 = CARTESIAN_POINT('',(-3.5,-0.75,9.));
#586 = LINE('',#587,#588);
#587 = CARTESIAN_POINT('',(-3.5,-0.75,12.5));
#588 = VECTOR('',#589,1.);
#589 = DIRECTION('',(-0.,-0.,-1.));
#590 = ORIENTED_EDGE('',*,*,#591,.T.);
#591 = EDGE_CURVE('',#584,#560,#592,.T.);
#592 = CIRCLE('',#593,2.126894374382);
#593 = AXIS2_PLACEMENT_3D('',#594,#595,#596);
#594 = CARTESIAN_POINT('',(-3.373105625618,-2.873105625618,9.));
#595 = DIRECTION('',(0.,0.,1.));
#596 = DIRECTION('',(1.,0.,0.));
#597 = ORIENTED_EDGE('',*,*,#559,.F.);
#598 = ORIENTED_EDGE('',*,*,#323,.F.);
#599 = CYLINDRICAL_SURFACE('',#600,2.126894374382);
#600 = AXIS2_PLACEMENT_3D('',#601,#602,#603);
#601 = CARTESIAN_POINT('',(-3.373105625618,-2.873105625618,12.5));
#602 = DIRECTION('',(0.,0.,1.));
#603 = DIRECTION('',(1.,0.,0.));
#604 = ADVANCED_FACE('',(#605),#623,.F.);
#605 = FACE_BOUND('',#606,.F.);
#606 = EDGE_LOOP('',(#607,#615,#621,#622));
#607 = ORIENTED_EDGE('',*,*,#608,.T.);
#608 = EDGE_CURVE('',#307,#609,#611,.T.);
#609 = VERTEX_POINT('',#610);
#610 = CARTESIAN_POINT('',(-3.5,0.75,9.));
#611 = LINE('',#612,#613);
#612 = CARTESIAN_POINT('',(-3.5,0.75,12.5));
#613 = VECTOR('',#614,1.);
#614 = DIRECTION('',(-0.,-0.,-1.));
#615 = ORIENTED_EDGE('',*,*,#616,.T.);
#616 = EDGE_CURVE('',#609,#584,#617,.T.);
#617 = LINE('',#618,#619);
#618 = CARTESIAN_POINT('',(-3.5,0.75,9.));
#619 = VECTOR('',#620,1.);
#620 = DIRECTION('',(0.,-1.,0.));
#621 = ORIENTED_EDGE('',*,*,#583,.F.);
#622 = ORIENTED_EDGE('',*,*,#315,.F.);
#623 = PLANE('',#624);
#624 = AXIS2_PLACEMENT_3D('',#625,#626,#627);
#625 = CARTESIAN_POINT('',(-3.5,0.75,12.5));
#626 = DIRECTION('',(-1.,0.,0.));
#627 = DIRECTION('',(0.,-1.,0.));
#628 = ADVANCED_FACE('',(#629),#648,.F.);
#629 = FACE_BOUND('',#630,.F.);
#630 = EDGE_LOOP('',(#631,#639,#646,#647));
#631 = ORIENTED_EDGE('',*,*,#632,.T.);
#632 = EDGE_CURVE('',#299,#633,#635,.T.);
#633 = VERTEX_POINT('',#634);
#634 = CARTESIAN_POINT('',(-1.340697417814,3.5,9.));
#635 = LINE('',#636,#637);
#636 = CARTESIAN_POINT('',(-1.340697417814,3.5,12.5));
#637 = VECTOR('',#638,1.);
#638 = DIRECTION('',(-0.,-0.,-1.));
#639 = ORIENTED_EDGE('',*,*,#640,.T.);
#640 = EDGE_CURVE('',#633,#609,#641,.T.);
#641 = CIRCLE('',#642,2.126894374382);
#642 = AXIS2_PLACEMENT_3D('',#643,#644,#645);
#643 = CARTESIAN_POINT('',(-3.373105625618,2.873105625618,9.));
#644 = DIRECTION('',(0.,0.,1.));
#645 = DIRECTION('',(1.,0.,0.));
#646 = ORIENTED_EDGE('',*,*,#608,.F.);
#647 = ORIENTED_EDGE('',*,*,#306,.F.);
#648 = CYLINDRICAL_SURFACE('',#649,2.126894374382);
#649 = AXIS2_PLACEMENT_3D('',#650,#651,#652);
#650 = CARTESIAN_POINT('',(-3.373105625618,2.873105625618,12.5));
#651 = DIRECTION('',(0.,0.,1.));
#652 = DIRECTION('',(1.,0.,0.));
#653 = ADVANCED_FACE('',(#654),#672,.T.);
#654 = FACE_BOUND('',#655,.T.);
#655 = EDGE_LOOP('',(#656,#657,#665,#671));
#656 = ORIENTED_EDGE('',*,*,#632,.T.);
#657 = ORIENTED_EDGE('',*,*,#658,.T.);
#658 = EDGE_CURVE('',#633,#659,#661,.T.);
#659 = VERTEX_POINT('',#660);
#660 = CARTESIAN_POINT('',(1.340697417814,3.5,9.));
#661 = LINE('',#662,#663);
#662 = CARTESIAN_POINT('',(-1.340697417814,3.5,9.));
#663 = VECTOR('',#664,1.);
#664 = DIRECTION('',(1.,0.,0.));
#665 = ORIENTED_EDGE('',*,*,#666,.F.);
#666 = EDGE_CURVE('',#290,#659,#667,.T.);
#667 = LINE('',#668,#669);
#668 = CARTESIAN_POINT('',(1.340697417814,3.5,12.5));
#669 = VECTOR('',#670,1.);
#670 = DIRECTION('',(-0.,-0.,-1.));
#671 = ORIENTED_EDGE('',*,*,#298,.F.);
#672 = PLANE('',#673);
#673 = AXIS2_PLACEMENT_3D('',#674,#675,#676);
#674 = CARTESIAN_POINT('',(-1.340697417814,3.5,12.5));
#675 = DIRECTION('',(0.,-1.,0.));
#676 = DIRECTION('',(1.,0.,0.));
#677 = ADVANCED_FACE('',(#678),#690,.F.);
#678 = FACE_BOUND('',#679,.F.);
#679 = EDGE_LOOP('',(#680,#681,#688,#689));
#680 = ORIENTED_EDGE('',*,*,#503,.T.);
#681 = ORIENTED_EDGE('',*,*,#682,.T.);
#682 = EDGE_CURVE('',#504,#659,#683,.T.);
#683 = CIRCLE('',#684,2.126894374382);
#684 = AXIS2_PLACEMENT_3D('',#685,#686,#687);
#685 = CARTESIAN_POINT('',(3.373105625618,2.873105625618,9.));
#686 = DIRECTION('',(0.,0.,1.));
#687 = DIRECTION('',(1.,0.,0.));
#688 = ORIENTED_EDGE('',*,*,#666,.F.);
#689 = ORIENTED_EDGE('',*,*,#289,.F.);
#690 = CYLINDRICAL_SURFACE('',#691,2.126894374382);
#691 = AXIS2_PLACEMENT_3D('',#692,#693,#694);
#692 = CARTESIAN_POINT('',(3.373105625618,2.873105625618,12.5));
#693 = DIRECTION('',(0.,0.,1.));
#694 = DIRECTION('',(1.,0.,0.));
#695 = ADVANCED_FACE('',(#696,#706,#740),#774,.T.);
#696 = FACE_BOUND('',#697,.T.);
#697 = EDGE_LOOP('',(#698,#699,#700,#701,#702,#703,#704,#705));
#698 = ORIENTED_EDGE('',*,*,#682,.T.);
#699 = ORIENTED_EDGE('',*,*,#658,.F.);
#700 = ORIENTED_EDGE('',*,*,#640,.T.);
#701 = ORIENTED_EDGE('',*,*,#616,.T.);
#702 = ORIENTED_EDGE('',*,*,#591,.T.);
#703 = ORIENTED_EDGE('',*,*,#567,.T.);
#704 = ORIENTED_EDGE('',*,*,#542,.T.);
#705 = ORIENTED_EDGE('',*,*,#511,.F.);
#706 = FACE_BOUND('',#707,.T.);
#707 = EDGE_LOOP('',(#708,#718,#726,#734));
#708 = ORIENTED_EDGE('',*,*,#709,.F.);
#709 = EDGE_CURVE('',#710,#712,#714,.T.);
#710 = VERTEX_POINT('',#711);
#711 = CARTESIAN_POINT('',(-2.8,-3.12,9.));
#712 = VERTEX_POINT('',#713);
#713 = CARTESIAN_POINT('',(-2.,-3.12,9.));
#714 = LINE('',#715,#716);
#715 = CARTESIAN_POINT('',(-2.8,-3.12,9.));
#716 = VECTOR('',#717,1.);
#717 = DIRECTION('',(1.,0.,0.));
#718 = ORIENTED_EDGE('',*,*,#719,.T.);
#719 = EDGE_CURVE('',#710,#720,#722,.T.);
#720 = VERTEX_POINT('',#721);
#721 = CARTESIAN_POINT('',(-2.8,3.12,9.));
#722 = LINE('',#723,#724);
#723 = CARTESIAN_POINT('',(-2.8,-3.2,9.));
#724 = VECTOR('',#725,1.);
#725 = DIRECTION('',(0.,1.,0.));
#726 = ORIENTED_EDGE('',*,*,#727,.T.);
#727 = EDGE_CURVE('',#720,#728,#730,.T.);
#728 = VERTEX_POINT('',#729);
#729 = CARTESIAN_POINT('',(-2.,3.12,9.));
#730 = LINE('',#731,#732);
#731 = CARTESIAN_POINT('',(-2.8,3.12,9.));
#732 = VECTOR('',#733,1.);
#733 = DIRECTION('',(1.,0.,0.));
#734 = ORIENTED_EDGE('',*,*,#735,.F.);
#735 = EDGE_CURVE('',#712,#728,#736,.T.);
#736 = LINE('',#737,#738);
#737 = CARTESIAN_POINT('',(-2.,-3.2,9.));
#738 = VECTOR('',#739,1.);
#739 = DIRECTION('',(0.,1.,0.));
#740 = FACE_BOUND('',#741,.T.);
#741 = EDGE_LOOP('',(#742,#752,#760,#768));
#742 = ORIENTED_EDGE('',*,*,#743,.F.);
#743 = EDGE_CURVE('',#744,#746,#748,.T.);
#744 = VERTEX_POINT('',#745);
#745 = CARTESIAN_POINT('',(2.,-3.12,9.));
#746 = VERTEX_POINT('',#747);
#747 = CARTESIAN_POINT('',(2.8,-3.12,9.));
#748 = LINE('',#749,#750);
#749 = CARTESIAN_POINT('',(2.,-3.12,9.));
#750 = VECTOR('',#751,1.);
#751 = DIRECTION('',(1.,0.,0.));
#752 = ORIENTED_EDGE('',*,*,#753,.T.);
#753 = EDGE_CURVE('',#744,#754,#756,.T.);
#754 = VERTEX_POINT('',#755);
#755 = CARTESIAN_POINT('',(2.,3.12,9.));
#756 = LINE('',#757,#758);
#757 = CARTESIAN_POINT('',(2.,-3.2,9.));
#758 = VECTOR('',#759,1.);
#759 = DIRECTION('',(0.,1.,0.));
#760 = ORIENTED_EDGE('',*,*,#761,.T.);
#761 = EDGE_CURVE('',#754,#762,#764,.T.);
#762 = VERTEX_POINT('',#763);
#763 = CARTESIAN_POINT('',(2.8,3.12,9.));
#764 = LINE('',#765,#766);
#765 = CARTESIAN_POINT('',(2.,3.12,9.));
#766 = VECTOR('',#767,1.);
#767 = DIRECTION('',(1.,0.,0.));
#768 = ORIENTED_EDGE('',*,*,#769,.F.);
#769 = EDGE_CURVE('',#746,#762,#770,.T.);
#770 = LINE('',#771,#772);
#771 = CARTESIAN_POINT('',(2.8,-3.2,9.));
#772 = VECTOR('',#773,1.);
#773 = DIRECTION('',(0.,1.,0.));
#774 = PLANE('',#775);
#775 = AXIS2_PLACEMENT_3D('',#776,#777,#778);
#776 = CARTESIAN_POINT('',(3.2E-16,4.E-17,9.));
#777 = DIRECTION('',(0.,0.,1.));
#778 = DIRECTION('',(1.,0.,0.));
#779 = ADVANCED_FACE('',(#780),#807,.T.);
#780 = FACE_BOUND('',#781,.T.);
#781 = EDGE_LOOP('',(#782,#791,#792,#801));
#782 = ORIENTED_EDGE('',*,*,#783,.T.);
#783 = EDGE_CURVE('',#784,#710,#786,.T.);
#784 = VERTEX_POINT('',#785);
#785 = CARTESIAN_POINT('',(-2.8,-3.2,9.08));
#786 = CIRCLE('',#787,8.E-02);
#787 = AXIS2_PLACEMENT_3D('',#788,#789,#790);
#788 = CARTESIAN_POINT('',(-2.8,-3.12,9.08));
#789 = DIRECTION('',(1.,0.,-0.));
#790 = DIRECTION('',(0.,0.,1.));
#791 = ORIENTED_EDGE('',*,*,#709,.T.);
#792 = ORIENTED_EDGE('',*,*,#793,.F.);
#793 = EDGE_CURVE('',#794,#712,#796,.T.);
#794 = VERTEX_POINT('',#795);
#795 = CARTESIAN_POINT('',(-2.,-3.2,9.08));
#796 = CIRCLE('',#797,8.E-02);
#797 = AXIS2_PLACEMENT_3D('',#798,#799,#800);
#798 = CARTESIAN_POINT('',(-2.,-3.12,9.08));
#799 = DIRECTION('',(1.,0.,-0.));
#800 = DIRECTION('',(0.,0.,1.));
#801 = ORIENTED_EDGE('',*,*,#802,.F.);
#802 = EDGE_CURVE('',#784,#794,#803,.T.);
#803 = LINE('',#804,#805);
#804 = CARTESIAN_POINT('',(-2.8,-3.2,9.08));
#805 = VECTOR('',#806,1.);
#806 = DIRECTION('',(1.,0.,0.));
#807 = CYLINDRICAL_SURFACE('',#808,8.E-02);
#808 = AXIS2_PLACEMENT_3D('',#809,#810,#811);
#809 = CARTESIAN_POINT('',(-2.8,-3.12,9.08));
#810 = DIRECTION('',(1.,0.,0.));
#811 = DIRECTION('',(0.,-1.,0.));
#812 = ADVANCED_FACE('',(#813,#866),#936,.T.);
#813 = FACE_BOUND('',#814,.T.);
#814 = EDGE_LOOP('',(#815,#823,#824,#825,#834,#842,#851,#859));
#815 = ORIENTED_EDGE('',*,*,#816,.F.);
#816 = EDGE_CURVE('',#794,#817,#819,.T.);
#817 = VERTEX_POINT('',#818);
#818 = CARTESIAN_POINT('',(-2.,-3.2,12.32));
#819 = LINE('',#820,#821);
#820 = CARTESIAN_POINT('',(-2.,-3.2,9.));
#821 = VECTOR('',#822,1.);
#822 = DIRECTION('',(0.,0.,1.));
#823 = ORIENTED_EDGE('',*,*,#793,.T.);
#824 = ORIENTED_EDGE('',*,*,#735,.T.);
#825 = ORIENTED_EDGE('',*,*,#826,.F.);
#826 = EDGE_CURVE('',#827,#728,#829,.T.);
#827 = VERTEX_POINT('',#828);
#828 = CARTESIAN_POINT('',(-2.,3.2,9.08));
#829 = CIRCLE('',#830,8.E-02);
#830 = AXIS2_PLACEMENT_3D('',#831,#832,#833);
#831 = CARTESIAN_POINT('',(-2.,3.12,9.08));
#832 = DIRECTION('',(-1.,0.,0.));
#833 = DIRECTION('',(0.,0.,1.));
#834 = ORIENTED_EDGE('',*,*,#835,.T.);
#835 = EDGE_CURVE('',#827,#836,#838,.T.);
#836 = VERTEX_POINT('',#837);
#837 = CARTESIAN_POINT('',(-2.,3.2,12.32));
#838 = LINE('',#839,#840);
#839 = CARTESIAN_POINT('',(-2.,3.2,9.));
#840 = VECTOR('',#841,1.);
#841 = DIRECTION('',(0.,0.,1.));
#842 = ORIENTED_EDGE('',*,*,#843,.T.);
#843 = EDGE_CURVE('',#836,#844,#846,.T.);
#844 = VERTEX_POINT('',#845);
#845 = CARTESIAN_POINT('',(-2.,3.12,12.4));
#846 = CIRCLE('',#847,8.E-02);
#847 = AXIS2_PLACEMENT_3D('',#848,#849,#850);
#848 = CARTESIAN_POINT('',(-2.,3.12,12.32));
#849 = DIRECTION('',(1.,0.,-0.));
#850 = DIRECTION('',(0.,0.,1.));
#851 = ORIENTED_EDGE('',*,*,#852,.F.);
#852 = EDGE_CURVE('',#853,#844,#855,.T.);
#853 = VERTEX_POINT('',#854);
#854 = CARTESIAN_POINT('',(-2.,-3.12,12.4));
#855 = LINE('',#856,#857);
#856 = CARTESIAN_POINT('',(-2.,-3.2,12.4));
#857 = VECTOR('',#858,1.);
#858 = DIRECTION('',(0.,1.,0.));
#859 = ORIENTED_EDGE('',*,*,#860,.F.);
#860 = EDGE_CURVE('',#817,#853,#861,.T.);
#861 = CIRCLE('',#862,8.E-02);
#862 = AXIS2_PLACEMENT_3D('',#863,#864,#865);
#863 = CARTESIAN_POINT('',(-2.,-3.12,12.32));
#864 = DIRECTION('',(-1.,0.,0.));
#865 = DIRECTION('',(0.,0.,1.));
#866 = FACE_BOUND('',#867,.T.);
#867 = EDGE_LOOP('',(#868,#879,#887,#896,#904,#913,#921,#930));
#868 = ORIENTED_EDGE('',*,*,#869,.F.);
#869 = EDGE_CURVE('',#870,#872,#874,.T.);
#870 = VERTEX_POINT('',#871);
#871 = CARTESIAN_POINT('',(-2.,-3.12,9.16));
#872 = VERTEX_POINT('',#873);
#873 = CARTESIAN_POINT('',(-2.,-3.04,9.08));
#874 = CIRCLE('',#875,8.E-02);
#875 = AXIS2_PLACEMENT_3D('',#876,#877,#878);
#876 = CARTESIAN_POINT('',(-2.,-3.04,9.16));
#877 = DIRECTION('',(1.,0.,-0.));
#878 = DIRECTION('',(0.,0.,1.));
#879 = ORIENTED_EDGE('',*,*,#880,.T.);
#880 = EDGE_CURVE('',#870,#881,#883,.T.);
#881 = VERTEX_POINT('',#882);
#882 = CARTESIAN_POINT('',(-2.,-3.12,12.24));
#883 = LINE('',#884,#885);
#884 = CARTESIAN_POINT('',(-2.,-3.12,9.08));
#885 = VECTOR('',#886,1.);
#886 = DIRECTION('',(0.,0.,1.));
#887 = ORIENTED_EDGE('',*,*,#888,.T.);
#888 = EDGE_CURVE('',#881,#889,#891,.T.);
#889 = VERTEX_POINT('',#890);
#890 = CARTESIAN_POINT('',(-2.,-3.04,12.32));
#891 = CIRCLE('',#892,8.E-02);
#892 = AXIS2_PLACEMENT_3D('',#893,#894,#895);
#893 = CARTESIAN_POINT('',(-2.,-3.04,12.24));
#894 = DIRECTION('',(-1.,0.,0.));
#895 = DIRECTION('',(0.,0.,1.));
#896 = ORIENTED_EDGE('',*,*,#897,.T.);
#897 = EDGE_CURVE('',#889,#898,#900,.T.);
#898 = VERTEX_POINT('',#899);
#899 = CARTESIAN_POINT('',(-2.,3.04,12.32));
#900 = LINE('',#901,#902);
#901 = CARTESIAN_POINT('',(-2.,-3.12,12.32));
#902 = VECTOR('',#903,1.);
#903 = DIRECTION('',(0.,1.,0.));
#904 = ORIENTED_EDGE('',*,*,#905,.F.);
#905 = EDGE_CURVE('',#906,#898,#908,.T.);
#906 = VERTEX_POINT('',#907);
#907 = CARTESIAN_POINT('',(-2.,3.12,12.24));
#908 = CIRCLE('',#909,8.E-02);
#909 = AXIS2_PLACEMENT_3D('',#910,#911,#912);
#910 = CARTESIAN_POINT('',(-2.,3.04,12.24));
#911 = DIRECTION('',(1.,0.,-0.));
#912 = DIRECTION('',(0.,0.,1.));
#913 = ORIENTED_EDGE('',*,*,#914,.F.);
#914 = EDGE_CURVE('',#915,#906,#917,.T.);
#915 = VERTEX_POINT('',#916);
#916 = CARTESIAN_POINT('',(-2.,3.12,9.16));
#917 = LINE('',#918,#919);
#918 = CARTESIAN_POINT('',(-2.,3.12,9.08));
#919 = VECTOR('',#920,1.);
#920 = DIRECTION('',(0.,0.,1.));
#921 = ORIENTED_EDGE('',*,*,#922,.T.);
#922 = EDGE_CURVE('',#915,#923,#925,.T.);
#923 = VERTEX_POINT('',#924);
#924 = CARTESIAN_POINT('',(-2.,3.04,9.08));
#925 = CIRCLE('',#926,8.E-02);
#926 = AXIS2_PLACEMENT_3D('',#927,#928,#929);
#927 = CARTESIAN_POINT('',(-2.,3.04,9.16));
#928 = DIRECTION('',(-1.,0.,0.));
#929 = DIRECTION('',(0.,0.,1.));
#930 = ORIENTED_EDGE('',*,*,#931,.F.);
#931 = EDGE_CURVE('',#872,#923,#932,.T.);
#932 = LINE('',#933,#934);
#933 = CARTESIAN_POINT('',(-2.,-3.12,9.08));
#934 = VECTOR('',#935,1.);
#935 = DIRECTION('',(0.,1.,0.));
#936 = PLANE('',#937);
#937 = AXIS2_PLACEMENT_3D('',#938,#939,#940);
#938 = CARTESIAN_POINT('',(-2.,-3.2,9.));
#939 = DIRECTION('',(1.,0.,0.));
#940 = DIRECTION('',(0.,0.,1.));
#941 = ADVANCED_FACE('',(#942),#961,.T.);
#942 = FACE_BOUND('',#943,.T.);
#943 = EDGE_LOOP('',(#944,#952,#953,#954));
#944 = ORIENTED_EDGE('',*,*,#945,.T.);
#945 = EDGE_CURVE('',#946,#827,#948,.T.);
#946 = VERTEX_POINT('',#947);
#947 = CARTESIAN_POINT('',(-2.8,3.2,9.08));
#948 = LINE('',#949,#950);
#949 = CARTESIAN_POINT('',(-2.8,3.2,9.08));
#950 = VECTOR('',#951,1.);
#951 = DIRECTION('',(1.,0.,0.));
#952 = ORIENTED_EDGE('',*,*,#826,.T.);
#953 = ORIENTED_EDGE('',*,*,#727,.F.);
#954 = ORIENTED_EDGE('',*,*,#955,.F.);
#955 = EDGE_CURVE('',#946,#720,#956,.T.);
#956 = CIRCLE('',#957,8.E-02);
#957 = AXIS2_PLACEMENT_3D('',#958,#959,#960);
#958 = CARTESIAN_POINT('',(-2.8,3.12,9.08));
#959 = DIRECTION('',(-1.,0.,0.));
#960 = DIRECTION('',(0.,0.,1.));
#961 = CYLINDRICAL_SURFACE('',#962,8.E-02);
#962 = AXIS2_PLACEMENT_3D('',#963,#964,#965);
#963 = CARTESIAN_POINT('',(-2.8,3.12,9.08));
#964 = DIRECTION('',(1.,0.,0.));
#965 = DIRECTION('',(0.,1.,0.));
#966 = ADVANCED_FACE('',(#967),#1012,.F.);
#967 = FACE_BOUND('',#968,.F.);
#968 = EDGE_LOOP('',(#969,#977,#978,#979,#980,#988,#997,#1005));
#969 = ORIENTED_EDGE('',*,*,#970,.F.);
#970 = EDGE_CURVE('',#784,#971,#973,.T.);
#971 = VERTEX_POINT('',#972);
#972 = CARTESIAN_POINT('',(-2.8,-3.2,12.32));
#973 = LINE('',#974,#975);
#974 = CARTESIAN_POINT('',(-2.8,-3.2,9.));
#975 = VECTOR('',#976,1.);
#976 = DIRECTION('',(0.,0.,1.));
#977 = ORIENTED_EDGE('',*,*,#783,.T.);
#978 = ORIENTED_EDGE('',*,*,#719,.T.);
#979 = ORIENTED_EDGE('',*,*,#955,.F.);
#980 = ORIENTED_EDGE('',*,*,#981,.T.);
#981 = EDGE_CURVE('',#946,#982,#984,.T.);
#982 = VERTEX_POINT('',#983);
#983 = CARTESIAN_POINT('',(-2.8,3.2,12.32));
#984 = LINE('',#985,#986);
#985 = CARTESIAN_POINT('',(-2.8,3.2,9.));
#986 = VECTOR('',#987,1.);
#987 = DIRECTION('',(0.,0.,1.));
#988 = ORIENTED_EDGE('',*,*,#989,.T.);
#989 = EDGE_CURVE('',#982,#990,#992,.T.);
#990 = VERTEX_POINT('',#991);
#991 = CARTESIAN_POINT('',(-2.8,3.12,12.4));
#992 = CIRCLE('',#993,8.E-02);
#993 = AXIS2_PLACEMENT_3D('',#994,#995,#996);
#994 = CARTESIAN_POINT('',(-2.8,3.12,12.32));
#995 = DIRECTION('',(1.,0.,-0.));
#996 = DIRECTION('',(0.,0.,1.));
#997 = ORIENTED_EDGE('',*,*,#998,.F.);
#998 = EDGE_CURVE('',#999,#990,#1001,.T.);
#999 = VERTEX_POINT('',#1000);
#1000 = CARTESIAN_POINT('',(-2.8,-3.12,12.4));
#1001 = LINE('',#1002,#1003);
#1002 = CARTESIAN_POINT('',(-2.8,-3.2,12.4));
#1003 = VECTOR('',#1004,1.);
#1004 = DIRECTION('',(0.,1.,0.));
#1005 = ORIENTED_EDGE('',*,*,#1006,.F.);
#1006 = EDGE_CURVE('',#971,#999,#1007,.T.);
#1007 = CIRCLE('',#1008,8.E-02);
#1008 = AXIS2_PLACEMENT_3D('',#1009,#1010,#1011);
#1009 = CARTESIAN_POINT('',(-2.8,-3.12,12.32));
#1010 = DIRECTION('',(-1.,0.,0.));
#1011 = DIRECTION('',(0.,0.,1.));
#1012 = PLANE('',#1013);
#1013 = AXIS2_PLACEMENT_3D('',#1014,#1015,#1016);
#1014 = CARTESIAN_POINT('',(-2.8,-3.2,9.));
#1015 = DIRECTION('',(1.,0.,0.));
#1016 = DIRECTION('',(0.,0.,1.));
#1017 = ADVANCED_FACE('',(#1018),#1045,.T.);
#1018 = FACE_BOUND('',#1019,.T.);
#1019 = EDGE_LOOP('',(#1020,#1029,#1030,#1039));
#1020 = ORIENTED_EDGE('',*,*,#1021,.T.);
#1021 = EDGE_CURVE('',#1022,#744,#1024,.T.);
#1022 = VERTEX_POINT('',#1023);
#1023 = CARTESIAN_POINT('',(2.,-3.2,9.08));
#1024 = CIRCLE('',#1025,8.E-02);
#1025 = AXIS2_PLACEMENT_3D('',#1026,#1027,#1028);
#1026 = CARTESIAN_POINT('',(2.,-3.12,9.08));
#1027 = DIRECTION('',(1.,0.,-0.));
#1028 = DIRECTION('',(0.,0.,1.));
#1029 = ORIENTED_EDGE('',*,*,#743,.T.);
#1030 = ORIENTED_EDGE('',*,*,#1031,.F.);
#1031 = EDGE_CURVE('',#1032,#746,#1034,.T.);
#1032 = VERTEX_POINT('',#1033);
#1033 = CARTESIAN_POINT('',(2.8,-3.2,9.08));
#1034 = CIRCLE('',#1035,8.E-02);
#1035 = AXIS2_PLACEMENT_3D('',#1036,#1037,#1038);
#1036 = CARTESIAN_POINT('',(2.8,-3.12,9.08));
#1037 = DIRECTION('',(1.,0.,-0.));
#1038 = DIRECTION('',(0.,0.,1.));
#1039 = ORIENTED_EDGE('',*,*,#1040,.F.);
#1040 = EDGE_CURVE('',#1022,#1032,#1041,.T.);
#1041 = LINE('',#1042,#1043);
#1042 = CARTESIAN_POINT('',(2.,-3.2,9.08));
#1043 = VECTOR('',#1044,1.);
#1044 = DIRECTION('',(1.,0.,0.));
#1045 = CYLINDRICAL_SURFACE('',#1046,8.E-02);
#1046 = AXIS2_PLACEMENT_3D('',#1047,#1048,#1049);
#1047 = CARTESIAN_POINT('',(2.,-3.12,9.08));
#1048 = DIRECTION('',(1.,0.,0.));
#1049 = DIRECTION('',(0.,-1.,0.));
#1050 = ADVANCED_FACE('',(#1051),#1104,.T.);
#1051 = FACE_BOUND('',#1052,.T.);
#1052 = EDGE_LOOP('',(#1053,#1061,#1062,#1063,#1072,#1080,#1089,#1097));
#1053 = ORIENTED_EDGE('',*,*,#1054,.F.);
#1054 = EDGE_CURVE('',#1032,#1055,#1057,.T.);
#1055 = VERTEX_POINT('',#1056);
#1056 = CARTESIAN_POINT('',(2.8,-3.2,12.32));
#1057 = LINE('',#1058,#1059);
#1058 = CARTESIAN_POINT('',(2.8,-3.2,9.));
#1059 = VECTOR('',#1060,1.);
#1060 = DIRECTION('',(0.,0.,1.));
#1061 = ORIENTED_EDGE('',*,*,#1031,.T.);
#1062 = ORIENTED_EDGE('',*,*,#769,.T.);
#1063 = ORIENTED_EDGE('',*,*,#1064,.F.);
#1064 = EDGE_CURVE('',#1065,#762,#1067,.T.);
#1065 = VERTEX_POINT('',#1066);
#1066 = CARTESIAN_POINT('',(2.8,3.2,9.08));
#1067 = CIRCLE('',#1068,8.E-02);
#1068 = AXIS2_PLACEMENT_3D('',#1069,#1070,#1071);
#1069 = CARTESIAN_POINT('',(2.8,3.12,9.08));
#1070 = DIRECTION('',(-1.,0.,0.));
#1071 = DIRECTION('',(0.,0.,1.));
#1072 = ORIENTED_EDGE('',*,*,#1073,.T.);
#1073 = EDGE_CURVE('',#1065,#1074,#1076,.T.);
#1074 = VERTEX_POINT('',#1075);
#1075 = CARTESIAN_POINT('',(2.8,3.2,12.32));
#1076 = LINE('',#1077,#1078);
#1077 = CARTESIAN_POINT('',(2.8,3.2,9.));
#1078 = VECTOR('',#1079,1.);
#1079 = DIRECTION('',(0.,0.,1.));
#1080 = ORIENTED_EDGE('',*,*,#1081,.T.);
#1081 = EDGE_CURVE('',#1074,#1082,#1084,.T.);
#1082 = VERTEX_POINT('',#1083);
#1083 = CARTESIAN_POINT('',(2.8,3.12,12.4));
#1084 = CIRCLE('',#1085,8.E-02);
#1085 = AXIS2_PLACEMENT_3D('',#1086,#1087,#1088);
#1086 = CARTESIAN_POINT('',(2.8,3.12,12.32));
#1087 = DIRECTION('',(1.,0.,-0.));
#1088 = DIRECTION('',(0.,0.,1.));
#1089 = ORIENTED_EDGE('',*,*,#1090,.F.);
#1090 = EDGE_CURVE('',#1091,#1082,#1093,.T.);
#1091 = VERTEX_POINT('',#1092);
#1092 = CARTESIAN_POINT('',(2.8,-3.12,12.4));
#1093 = LINE('',#1094,#1095);
#1094 = CARTESIAN_POINT('',(2.8,-3.2,12.4));
#1095 = VECTOR('',#1096,1.);
#1096 = DIRECTION('',(0.,1.,0.));
#1097 = ORIENTED_EDGE('',*,*,#1098,.F.);
#1098 = EDGE_CURVE('',#1055,#1091,#1099,.T.);
#1099 = CIRCLE('',#1100,8.E-02);
#1100 = AXIS2_PLACEMENT_3D('',#1101,#1102,#1103);
#1101 = CARTESIAN_POINT('',(2.8,-3.12,12.32));
#1102 = DIRECTION('',(-1.,0.,0.));
#1103 = DIRECTION('',(0.,0.,1.));
#1104 = PLANE('',#1105);
#1105 = AXIS2_PLACEMENT_3D('',#1106,#1107,#1108);
#1106 = CARTESIAN_POINT('',(2.8,-3.2,9.));
#1107 = DIRECTION('',(1.,0.,0.));
#1108 = DIRECTION('',(0.,0.,1.));
#1109 = ADVANCED_FACE('',(#1110),#1129,.T.);
#1110 = FACE_BOUND('',#1111,.T.);
#1111 = EDGE_LOOP('',(#1112,#1120,#1121,#1122));
#1112 = ORIENTED_EDGE('',*,*,#1113,.T.);
#1113 = EDGE_CURVE('',#1114,#1065,#1116,.T.);
#1114 = VERTEX_POINT('',#1115);
#1115 = CARTESIAN_POINT('',(2.,3.2,9.08));
#1116 = LINE('',#1117,#1118);
#1117 = CARTESIAN_POINT('',(2.,3.2,9.08));
#1118 = VECTOR('',#1119,1.);
#1119 = DIRECTION('',(1.,0.,0.));
#1120 = ORIENTED_EDGE('',*,*,#1064,.T.);
#1121 = ORIENTED_EDGE('',*,*,#761,.F.);
#1122 = ORIENTED_EDGE('',*,*,#1123,.F.);
#1123 = EDGE_CURVE('',#1114,#754,#1124,.T.);
#1124 = CIRCLE('',#1125,8.E-02);
#1125 = AXIS2_PLACEMENT_3D('',#1126,#1127,#1128);
#1126 = CARTESIAN_POINT('',(2.,3.12,9.08));
#1127 = DIRECTION('',(-1.,0.,0.));
#1128 = DIRECTION('',(0.,0.,1.));
#1129 = CYLINDRICAL_SURFACE('',#1130,8.E-02);
#1130 = AXIS2_PLACEMENT_3D('',#1131,#1132,#1133);
#1131 = CARTESIAN_POINT('',(2.,3.12,9.08));
#1132 = DIRECTION('',(1.,0.,0.));
#1133 = DIRECTION('',(0.,1.,0.));
#1134 = ADVANCED_FACE('',(#1135,#1180),#1250,.F.);
#1135 = FACE_BOUND('',#1136,.F.);
#1136 = EDGE_LOOP('',(#1137,#1145,#1146,#1147,#1148,#1156,#1165,#1173));
#1137 = ORIENTED_EDGE('',*,*,#1138,.F.);
#1138 = EDGE_CURVE('',#1022,#1139,#1141,.T.);
#1139 = VERTEX_POINT('',#1140);
#1140 = CARTESIAN_POINT('',(2.,-3.2,12.32));
#1141 = LINE('',#1142,#1143);
#1142 = CARTESIAN_POINT('',(2.,-3.2,9.));
#1143 = VECTOR('',#1144,1.);
#1144 = DIRECTION('',(0.,0.,1.));
#1145 = ORIENTED_EDGE('',*,*,#1021,.T.);
#1146 = ORIENTED_EDGE('',*,*,#753,.T.);
#1147 = ORIENTED_EDGE('',*,*,#1123,.F.);
#1148 = ORIENTED_EDGE('',*,*,#1149,.T.);
#1149 = EDGE_CURVE('',#1114,#1150,#1152,.T.);
#1150 = VERTEX_POINT('',#1151);
#1151 = CARTESIAN_POINT('',(2.,3.2,12.32));
#1152 = LINE('',#1153,#1154);
#1153 = CARTESIAN_POINT('',(2.,3.2,9.));
#1154 = VECTOR('',#1155,1.);
#1155 = DIRECTION('',(0.,0.,1.));
#1156 = ORIENTED_EDGE('',*,*,#1157,.T.);
#1157 = EDGE_CURVE('',#1150,#1158,#1160,.T.);
#1158 = VERTEX_POINT('',#1159);
#1159 = CARTESIAN_POINT('',(2.,3.12,12.4));
#1160 = CIRCLE('',#1161,8.E-02);
#1161 = AXIS2_PLACEMENT_3D('',#1162,#1163,#1164);
#1162 = CARTESIAN_POINT('',(2.,3.12,12.32));
#1163 = DIRECTION('',(1.,0.,-0.));
#1164 = DIRECTION('',(0.,0.,1.));
#1165 = ORIENTED_EDGE('',*,*,#1166,.F.);
#1166 = EDGE_CURVE('',#1167,#1158,#1169,.T.);
#1167 = VERTEX_POINT('',#1168);
#1168 = CARTESIAN_POINT('',(2.,-3.12,12.4));
#1169 = LINE('',#1170,#1171);
#1170 = CARTESIAN_POINT('',(2.,-3.2,12.4));
#1171 = VECTOR('',#1172,1.);
#1172 = DIRECTION('',(0.,1.,0.));
#1173 = ORIENTED_EDGE('',*,*,#1174,.F.);
#1174 = EDGE_CURVE('',#1139,#1167,#1175,.T.);
#1175 = CIRCLE('',#1176,8.E-02);
#1176 = AXIS2_PLACEMENT_3D('',#1177,#1178,#1179);
#1177 = CARTESIAN_POINT('',(2.,-3.12,12.32));
#1178 = DIRECTION('',(-1.,0.,0.));
#1179 = DIRECTION('',(0.,0.,1.));
#1180 = FACE_BOUND('',#1181,.F.);
#1181 = EDGE_LOOP('',(#1182,#1193,#1201,#1210,#1218,#1227,#1235,#1244));
#1182 = ORIENTED_EDGE('',*,*,#1183,.F.);
#1183 = EDGE_CURVE('',#1184,#1186,#1188,.T.);
#1184 = VERTEX_POINT('',#1185);
#1185 = CARTESIAN_POINT('',(2.,-3.12,9.16));
#1186 = VERTEX_POINT('',#1187);
#1187 = CARTESIAN_POINT('',(2.,-3.04,9.08));
#1188 = CIRCLE('',#1189,8.E-02);
#1189 = AXIS2_PLACEMENT_3D('',#1190,#1191,#1192);
#1190 = CARTESIAN_POINT('',(2.,-3.04,9.16));
#1191 = DIRECTION('',(1.,0.,-0.));
#1192 = DIRECTION('',(0.,0.,1.));
#1193 = ORIENTED_EDGE('',*,*,#1194,.T.);
#1194 = EDGE_CURVE('',#1184,#1195,#1197,.T.);
#1195 = VERTEX_POINT('',#1196);
#1196 = CARTESIAN_POINT('',(2.,-3.12,12.24));
#1197 = LINE('',#1198,#1199);
#1198 = CARTESIAN_POINT('',(2.,-3.12,9.08));
#1199 = VECTOR('',#1200,1.);
#1200 = DIRECTION('',(0.,0.,1.));
#1201 = ORIENTED_EDGE('',*,*,#1202,.T.);
#1202 = EDGE_CURVE('',#1195,#1203,#1205,.T.);
#1203 = VERTEX_POINT('',#1204);
#1204 = CARTESIAN_POINT('',(2.,-3.04,12.32));
#1205 = CIRCLE('',#1206,8.E-02);
#1206 = AXIS2_PLACEMENT_3D('',#1207,#1208,#1209);
#1207 = CARTESIAN_POINT('',(2.,-3.04,12.24));
#1208 = DIRECTION('',(-1.,0.,0.));
#1209 = DIRECTION('',(0.,0.,1.));
#1210 = ORIENTED_EDGE('',*,*,#1211,.T.);
#1211 = EDGE_CURVE('',#1203,#1212,#1214,.T.);
#1212 = VERTEX_POINT('',#1213);
#1213 = CARTESIAN_POINT('',(2.,3.04,12.32));
#1214 = LINE('',#1215,#1216);
#1215 = CARTESIAN_POINT('',(2.,-3.12,12.32));
#1216 = VECTOR('',#1217,1.);
#1217 = DIRECTION('',(0.,1.,0.));
#1218 = ORIENTED_EDGE('',*,*,#1219,.F.);
#1219 = EDGE_CURVE('',#1220,#1212,#1222,.T.);
#1220 = VERTEX_POINT('',#1221);
#1221 = CARTESIAN_POINT('',(2.,3.12,12.24));
#1222 = CIRCLE('',#1223,8.E-02);
#1223 = AXIS2_PLACEMENT_3D('',#1224,#1225,#1226);
#1224 = CARTESIAN_POINT('',(2.,3.04,12.24));
#1225 = DIRECTION('',(1.,0.,-0.));
#1226 = DIRECTION('',(0.,0.,1.));
#1227 = ORIENTED_EDGE('',*,*,#1228,.F.);
#1228 = EDGE_CURVE('',#1229,#1220,#1231,.T.);
#1229 = VERTEX_POINT('',#1230);
#1230 = CARTESIAN_POINT('',(2.,3.12,9.16));
#1231 = LINE('',#1232,#1233);
#1232 = CARTESIAN_POINT('',(2.,3.12,9.08));
#1233 = VECTOR('',#1234,1.);
#1234 = DIRECTION('',(0.,0.,1.));
#1235 = ORIENTED_EDGE('',*,*,#1236,.T.);
#1236 = EDGE_CURVE('',#1229,#1237,#1239,.T.);
#1237 = VERTEX_POINT('',#1238);
#1238 = CARTESIAN_POINT('',(2.,3.04,9.08));
#1239 = CIRCLE('',#1240,8.E-02);
#1240 = AXIS2_PLACEMENT_3D('',#1241,#1242,#1243);
#1241 = CARTESIAN_POINT('',(2.,3.04,9.16));
#1242 = DIRECTION('',(-1.,0.,0.));
#1243 = DIRECTION('',(0.,0.,1.));
#1244 = ORIENTED_EDGE('',*,*,#1245,.F.);
#1245 = EDGE_CURVE('',#1186,#1237,#1246,.T.);
#1246 = LINE('',#1247,#1248);
#1247 = CARTESIAN_POINT('',(2.,-3.12,9.08));
#1248 = VECTOR('',#1249,1.);
#1249 = DIRECTION('',(0.,1.,0.));
#1250 = PLANE('',#1251);
#1251 = AXIS2_PLACEMENT_3D('',#1252,#1253,#1254);
#1252 = CARTESIAN_POINT('',(2.,-3.2,9.));
#1253 = DIRECTION('',(1.,0.,0.));
#1254 = DIRECTION('',(0.,0.,1.));
#1255 = ADVANCED_FACE('',(#1256),#1267,.F.);
#1256 = FACE_BOUND('',#1257,.F.);
#1257 = EDGE_LOOP('',(#1258,#1259,#1260,#1261));
#1258 = ORIENTED_EDGE('',*,*,#816,.F.);
#1259 = ORIENTED_EDGE('',*,*,#802,.F.);
#1260 = ORIENTED_EDGE('',*,*,#970,.T.);
#1261 = ORIENTED_EDGE('',*,*,#1262,.T.);
#1262 = EDGE_CURVE('',#971,#817,#1263,.T.);
#1263 = LINE('',#1264,#1265);
#1264 = CARTESIAN_POINT('',(-2.8,-3.2,12.32));
#1265 = VECTOR('',#1266,1.);
#1266 = DIRECTION('',(1.,0.,0.));
#1267 = PLANE('',#1268);
#1268 = AXIS2_PLACEMENT_3D('',#1269,#1270,#1271);
#1269 = CARTESIAN_POINT('',(-2.8,-3.2,9.));
#1270 = DIRECTION('',(0.,1.,0.));
#1271 = DIRECTION('',(0.,0.,1.));
#1272 = ADVANCED_FACE('',(#1273),#1284,.T.);
#1273 = FACE_BOUND('',#1274,.T.);
#1274 = EDGE_LOOP('',(#1275,#1276,#1277,#1278));
#1275 = ORIENTED_EDGE('',*,*,#835,.F.);
#1276 = ORIENTED_EDGE('',*,*,#945,.F.);
#1277 = ORIENTED_EDGE('',*,*,#981,.T.);
#1278 = ORIENTED_EDGE('',*,*,#1279,.T.);
#1279 = EDGE_CURVE('',#982,#836,#1280,.T.);
#1280 = LINE('',#1281,#1282);
#1281 = CARTESIAN_POINT('',(-2.8,3.2,12.32));
#1282 = VECTOR('',#1283,1.);
#1283 = DIRECTION('',(1.,0.,0.));
#1284 = PLANE('',#1285);
#1285 = AXIS2_PLACEMENT_3D('',#1286,#1287,#1288);
#1286 = CARTESIAN_POINT('',(-2.8,3.2,9.));
#1287 = DIRECTION('',(0.,1.,0.));
#1288 = DIRECTION('',(0.,0.,1.));
#1289 = ADVANCED_FACE('',(#1290),#1301,.T.);
#1290 = FACE_BOUND('',#1291,.T.);
#1291 = EDGE_LOOP('',(#1292,#1293,#1299,#1300));
#1292 = ORIENTED_EDGE('',*,*,#989,.T.);
#1293 = ORIENTED_EDGE('',*,*,#1294,.T.);
#1294 = EDGE_CURVE('',#990,#844,#1295,.T.);
#1295 = LINE('',#1296,#1297);
#1296 = CARTESIAN_POINT('',(-2.8,3.12,12.4));
#1297 = VECTOR('',#1298,1.);
#1298 = DIRECTION('',(1.,0.,0.));
#1299 = ORIENTED_EDGE('',*,*,#843,.F.);
#1300 = ORIENTED_EDGE('',*,*,#1279,.F.);
#1301 = CYLINDRICAL_SURFACE('',#1302,8.E-02);
#1302 = AXIS2_PLACEMENT_3D('',#1303,#1304,#1305);
#1303 = CARTESIAN_POINT('',(-2.8,3.12,12.32));
#1304 = DIRECTION('',(1.,0.,0.));
#1305 = DIRECTION('',(0.,1.,0.));
#1306 = ADVANCED_FACE('',(#1307),#1318,.T.);
#1307 = FACE_BOUND('',#1308,.T.);
#1308 = EDGE_LOOP('',(#1309,#1310,#1316,#1317));
#1309 = ORIENTED_EDGE('',*,*,#998,.F.);
#1310 = ORIENTED_EDGE('',*,*,#1311,.T.);
#1311 = EDGE_CURVE('',#999,#853,#1312,.T.);
#1312 = LINE('',#1313,#1314);
#1313 = CARTESIAN_POINT('',(-2.8,-3.12,12.4));
#1314 = VECTOR('',#1315,1.);
#1315 = DIRECTION('',(1.,0.,0.));
#1316 = ORIENTED_EDGE('',*,*,#852,.T.);
#1317 = ORIENTED_EDGE('',*,*,#1294,.F.);
#1318 = PLANE('',#1319);
#1319 = AXIS2_PLACEMENT_3D('',#1320,#1321,#1322);
#1320 = CARTESIAN_POINT('',(-2.8,-3.2,12.4));
#1321 = DIRECTION('',(0.,0.,1.));
#1322 = DIRECTION('',(1.,0.,0.));
#1323 = ADVANCED_FACE('',(#1324),#1330,.T.);
#1324 = FACE_BOUND('',#1325,.T.);
#1325 = EDGE_LOOP('',(#1326,#1327,#1328,#1329));
#1326 = ORIENTED_EDGE('',*,*,#1262,.T.);
#1327 = ORIENTED_EDGE('',*,*,#860,.T.);
#1328 = ORIENTED_EDGE('',*,*,#1311,.F.);
#1329 = ORIENTED_EDGE('',*,*,#1006,.F.);
#1330 = CYLINDRICAL_SURFACE('',#1331,8.E-02);
#1331 = AXIS2_PLACEMENT_3D('',#1332,#1333,#1334);
#1332 = CARTESIAN_POINT('',(-2.8,-3.12,12.32));
#1333 = DIRECTION('',(1.,0.,0.));
#1334 = DIRECTION('',(0.,-1.,0.));
#1335 = ADVANCED_FACE('',(#1336),#1352,.T.);
#1336 = FACE_BOUND('',#1337,.T.);
#1337 = EDGE_LOOP('',(#1338,#1339,#1345,#1346));
#1338 = ORIENTED_EDGE('',*,*,#869,.T.);
#1339 = ORIENTED_EDGE('',*,*,#1340,.T.);
#1340 = EDGE_CURVE('',#872,#1186,#1341,.T.);
#1341 = LINE('',#1342,#1343);
#1342 = CARTESIAN_POINT('',(-2.,-3.04,9.08));
#1343 = VECTOR('',#1344,1.);
#1344 = DIRECTION('',(1.,0.,0.));
#1345 = ORIENTED_EDGE('',*,*,#1183,.F.);
#1346 = ORIENTED_EDGE('',*,*,#1347,.F.);
#1347 = EDGE_CURVE('',#870,#1184,#1348,.T.);
#1348 = LINE('',#1349,#1350);
#1349 = CARTESIAN_POINT('',(-2.,-3.12,9.16));
#1350 = VECTOR('',#1351,1.);
#1351 = DIRECTION('',(1.,0.,0.));
#1352 = CYLINDRICAL_SURFACE('',#1353,8.E-02);
#1353 = AXIS2_PLACEMENT_3D('',#1354,#1355,#1356);
#1354 = CARTESIAN_POINT('',(-2.,-3.04,9.16));
#1355 = DIRECTION('',(1.,0.,0.));
#1356 = DIRECTION('',(0.,-1.,0.));
#1357 = ADVANCED_FACE('',(#1358),#1369,.F.);
#1358 = FACE_BOUND('',#1359,.F.);
#1359 = EDGE_LOOP('',(#1360,#1361,#1362,#1363));
#1360 = ORIENTED_EDGE('',*,*,#1194,.F.);
#1361 = ORIENTED_EDGE('',*,*,#1347,.F.);
#1362 = ORIENTED_EDGE('',*,*,#880,.T.);
#1363 = ORIENTED_EDGE('',*,*,#1364,.T.);
#1364 = EDGE_CURVE('',#881,#1195,#1365,.T.);
#1365 = LINE('',#1366,#1367);
#1366 = CARTESIAN_POINT('',(-2.,-3.12,12.24));
#1367 = VECTOR('',#1368,1.);
#1368 = DIRECTION('',(1.,0.,0.));
#1369 = PLANE('',#1370);
#1370 = AXIS2_PLACEMENT_3D('',#1371,#1372,#1373);
#1371 = CARTESIAN_POINT('',(-2.,-3.12,9.08));
#1372 = DIRECTION('',(0.,1.,0.));
#1373 = DIRECTION('',(0.,0.,1.));
#1374 = ADVANCED_FACE('',(#1375),#1386,.T.);
#1375 = FACE_BOUND('',#1376,.T.);
#1376 = EDGE_LOOP('',(#1377,#1378,#1379,#1385));
#1377 = ORIENTED_EDGE('',*,*,#1364,.T.);
#1378 = ORIENTED_EDGE('',*,*,#1202,.T.);
#1379 = ORIENTED_EDGE('',*,*,#1380,.F.);
#1380 = EDGE_CURVE('',#889,#1203,#1381,.T.);
#1381 = LINE('',#1382,#1383);
#1382 = CARTESIAN_POINT('',(-2.,-3.04,12.32));
#1383 = VECTOR('',#1384,1.);
#1384 = DIRECTION('',(1.,0.,0.));
#1385 = ORIENTED_EDGE('',*,*,#888,.F.);
#1386 = CYLINDRICAL_SURFACE('',#1387,8.E-02);
#1387 = AXIS2_PLACEMENT_3D('',#1388,#1389,#1390);
#1388 = CARTESIAN_POINT('',(-2.,-3.04,12.24));
#1389 = DIRECTION('',(1.,0.,0.));
#1390 = DIRECTION('',(0.,-1.,0.));
#1391 = ADVANCED_FACE('',(#1392),#1403,.T.);
#1392 = FACE_BOUND('',#1393,.T.);
#1393 = EDGE_LOOP('',(#1394,#1395,#1396,#1397));
#1394 = ORIENTED_EDGE('',*,*,#897,.F.);
#1395 = ORIENTED_EDGE('',*,*,#1380,.T.);
#1396 = ORIENTED_EDGE('',*,*,#1211,.T.);
#1397 = ORIENTED_EDGE('',*,*,#1398,.F.);
#1398 = EDGE_CURVE('',#898,#1212,#1399,.T.);
#1399 = LINE('',#1400,#1401);
#1400 = CARTESIAN_POINT('',(-2.,3.04,12.32));
#1401 = VECTOR('',#1402,1.);
#1402 = DIRECTION('',(1.,0.,0.));
#1403 = PLANE('',#1404);
#1404 = AXIS2_PLACEMENT_3D('',#1405,#1406,#1407);
#1405 = CARTESIAN_POINT('',(-2.,-3.12,12.32));
#1406 = DIRECTION('',(0.,0.,1.));
#1407 = DIRECTION('',(1.,0.,0.));
#1408 = ADVANCED_FACE('',(#1409),#1420,.T.);
#1409 = FACE_BOUND('',#1410,.T.);
#1410 = EDGE_LOOP('',(#1411,#1412,#1413,#1414));
#1411 = ORIENTED_EDGE('',*,*,#905,.T.);
#1412 = ORIENTED_EDGE('',*,*,#1398,.T.);
#1413 = ORIENTED_EDGE('',*,*,#1219,.F.);
#1414 = ORIENTED_EDGE('',*,*,#1415,.F.);
#1415 = EDGE_CURVE('',#906,#1220,#1416,.T.);
#1416 = LINE('',#1417,#1418);
#1417 = CARTESIAN_POINT('',(-2.,3.12,12.24));
#1418 = VECTOR('',#1419,1.);
#1419 = DIRECTION('',(1.,0.,0.));
#1420 = CYLINDRICAL_SURFACE('',#1421,8.E-02);
#1421 = AXIS2_PLACEMENT_3D('',#1422,#1423,#1424);
#1422 = CARTESIAN_POINT('',(-2.,3.04,12.24));
#1423 = DIRECTION('',(1.,0.,0.));
#1424 = DIRECTION('',(0.,1.,0.));
#1425 = ADVANCED_FACE('',(#1426),#1437,.T.);
#1426 = FACE_BOUND('',#1427,.T.);
#1427 = EDGE_LOOP('',(#1428,#1429,#1435,#1436));
#1428 = ORIENTED_EDGE('',*,*,#1228,.F.);
#1429 = ORIENTED_EDGE('',*,*,#1430,.F.);
#1430 = EDGE_CURVE('',#915,#1229,#1431,.T.);
#1431 = LINE('',#1432,#1433);
#1432 = CARTESIAN_POINT('',(-2.,3.12,9.16));
#1433 = VECTOR('',#1434,1.);
#1434 = DIRECTION('',(1.,0.,0.));
#1435 = ORIENTED_EDGE('',*,*,#914,.T.);
#1436 = ORIENTED_EDGE('',*,*,#1415,.T.);
#1437 = PLANE('',#1438);
#1438 = AXIS2_PLACEMENT_3D('',#1439,#1440,#1441);
#1439 = CARTESIAN_POINT('',(-2.,3.12,9.08));
#1440 = DIRECTION('',(0.,1.,0.));
#1441 = DIRECTION('',(0.,0.,1.));
#1442 = ADVANCED_FACE('',(#1443),#1454,.T.);
#1443 = FACE_BOUND('',#1444,.T.);
#1444 = EDGE_LOOP('',(#1445,#1446,#1447,#1453));
#1445 = ORIENTED_EDGE('',*,*,#1430,.T.);
#1446 = ORIENTED_EDGE('',*,*,#1236,.T.);
#1447 = ORIENTED_EDGE('',*,*,#1448,.F.);
#1448 = EDGE_CURVE('',#923,#1237,#1449,.T.);
#1449 = LINE('',#1450,#1451);
#1450 = CARTESIAN_POINT('',(-2.,3.04,9.08));
#1451 = VECTOR('',#1452,1.);
#1452 = DIRECTION('',(1.,0.,0.));
#1453 = ORIENTED_EDGE('',*,*,#922,.F.);
#1454 = CYLINDRICAL_SURFACE('',#1455,8.E-02);
#1455 = AXIS2_PLACEMENT_3D('',#1456,#1457,#1458);
#1456 = CARTESIAN_POINT('',(-2.,3.04,9.16));
#1457 = DIRECTION('',(1.,0.,0.));
#1458 = DIRECTION('',(0.,1.,0.));
#1459 = ADVANCED_FACE('',(#1460),#1466,.F.);
#1460 = FACE_BOUND('',#1461,.F.);
#1461 = EDGE_LOOP('',(#1462,#1463,#1464,#1465));
#1462 = ORIENTED_EDGE('',*,*,#931,.F.);
#1463 = ORIENTED_EDGE('',*,*,#1340,.T.);
#1464 = ORIENTED_EDGE('',*,*,#1245,.T.);
#1465 = ORIENTED_EDGE('',*,*,#1448,.F.);
#1466 = PLANE('',#1467);
#1467 = AXIS2_PLACEMENT_3D('',#1468,#1469,#1470);
#1468 = CARTESIAN_POINT('',(-2.,-3.12,9.08));
#1469 = DIRECTION('',(0.,0.,1.));
#1470 = DIRECTION('',(1.,0.,0.));
#1471 = ADVANCED_FACE('',(#1472),#1483,.F.);
#1472 = FACE_BOUND('',#1473,.F.);
#1473 = EDGE_LOOP('',(#1474,#1475,#1476,#1477));
#1474 = ORIENTED_EDGE('',*,*,#1054,.F.);
#1475 = ORIENTED_EDGE('',*,*,#1040,.F.);
#1476 = ORIENTED_EDGE('',*,*,#1138,.T.);
#1477 = ORIENTED_EDGE('',*,*,#1478,.T.);
#1478 = EDGE_CURVE('',#1139,#1055,#1479,.T.);
#1479 = LINE('',#1480,#1481);
#1480 = CARTESIAN_POINT('',(2.,-3.2,12.32));
#1481 = VECTOR('',#1482,1.);
#1482 = DIRECTION('',(1.,0.,0.));
#1483 = PLANE('',#1484);
#1484 = AXIS2_PLACEMENT_3D('',#1485,#1486,#1487);
#1485 = CARTESIAN_POINT('',(2.,-3.2,9.));
#1486 = DIRECTION('',(0.,1.,0.));
#1487 = DIRECTION('',(0.,0.,1.));
#1488 = ADVANCED_FACE('',(#1489),#1500,.T.);
#1489 = FACE_BOUND('',#1490,.T.);
#1490 = EDGE_LOOP('',(#1491,#1492,#1493,#1494));
#1491 = ORIENTED_EDGE('',*,*,#1073,.F.);
#1492 = ORIENTED_EDGE('',*,*,#1113,.F.);
#1493 = ORIENTED_EDGE('',*,*,#1149,.T.);
#1494 = ORIENTED_EDGE('',*,*,#1495,.T.);
#1495 = EDGE_CURVE('',#1150,#1074,#1496,.T.);
#1496 = LINE('',#1497,#1498);
#1497 = CARTESIAN_POINT('',(2.,3.2,12.32));
#1498 = VECTOR('',#1499,1.);
#1499 = DIRECTION('',(1.,0.,0.));
#1500 = PLANE('',#1501);
#1501 = AXIS2_PLACEMENT_3D('',#1502,#1503,#1504);
#1502 = CARTESIAN_POINT('',(2.,3.2,9.));
#1503 = DIRECTION('',(0.,1.,0.));
#1504 = DIRECTION('',(0.,0.,1.));
#1505 = ADVANCED_FACE('',(#1506),#1517,.T.);
#1506 = FACE_BOUND('',#1507,.T.);
#1507 = EDGE_LOOP('',(#1508,#1509,#1515,#1516));
#1508 = ORIENTED_EDGE('',*,*,#1157,.T.);
#1509 = ORIENTED_EDGE('',*,*,#1510,.T.);
#1510 = EDGE_CURVE('',#1158,#1082,#1511,.T.);
#1511 = LINE('',#1512,#1513);
#1512 = CARTESIAN_POINT('',(2.,3.12,12.4));
#1513 = VECTOR('',#1514,1.);
#1514 = DIRECTION('',(1.,0.,0.));
#1515 = ORIENTED_EDGE('',*,*,#1081,.F.);
#1516 = ORIENTED_EDGE('',*,*,#1495,.F.);
#1517 = CYLINDRICAL_SURFACE('',#1518,8.E-02);
#1518 = AXIS2_PLACEMENT_3D('',#1519,#1520,#1521);
#1519 = CARTESIAN_POINT('',(2.,3.12,12.32));
#1520 = DIRECTION('',(1.,0.,0.));
#1521 = DIRECTION('',(0.,1.,0.));
#1522 = ADVANCED_FACE('',(#1523),#1534,.T.);
#1523 = FACE_BOUND('',#1524,.T.);
#1524 = EDGE_LOOP('',(#1525,#1526,#1532,#1533));
#1525 = ORIENTED_EDGE('',*,*,#1166,.F.);
#1526 = ORIENTED_EDGE('',*,*,#1527,.T.);
#1527 = EDGE_CURVE('',#1167,#1091,#1528,.T.);
#1528 = LINE('',#1529,#1530);
#1529 = CARTESIAN_POINT('',(2.,-3.12,12.4));
#1530 = VECTOR('',#1531,1.);
#1531 = DIRECTION('',(1.,0.,0.));
#1532 = ORIENTED_EDGE('',*,*,#1090,.T.);
#1533 = ORIENTED_EDGE('',*,*,#1510,.F.);
#1534 = PLANE('',#1535);
#1535 = AXIS2_PLACEMENT_3D('',#1536,#1537,#1538);
#1536 = CARTESIAN_POINT('',(2.,-3.2,12.4));
#1537 = DIRECTION('',(0.,0.,1.));
#1538 = DIRECTION('',(1.,0.,0.));
#1539 = ADVANCED_FACE('',(#1540),#1546,.T.);
#1540 = FACE_BOUND('',#1541,.T.);
#1541 = EDGE_LOOP('',(#1542,#1543,#1544,#1545));
#1542 = ORIENTED_EDGE('',*,*,#1478,.T.);
#1543 = ORIENTED_EDGE('',*,*,#1098,.T.);
#1544 = ORIENTED_EDGE('',*,*,#1527,.F.);
#1545 = ORIENTED_EDGE('',*,*,#1174,.F.);
#1546 = CYLINDRICAL_SURFACE('',#1547,8.E-02);
#1547 = AXIS2_PLACEMENT_3D('',#1548,#1549,#1550);
#1548 = CARTESIAN_POINT('',(2.,-3.12,12.32));
#1549 = DIRECTION('',(1.,0.,0.));
#1550 = DIRECTION('',(0.,-1.,0.));
#1551 = ( GEOMETRIC_REPRESENTATION_CONTEXT(3) 
GLOBAL_UNCERTAINTY_ASSIGNED_CONTEXT((#1555)) 
GLOBAL_UNIT_ASSIGNED_CONTEXT((#1552,#1553,#1554)) REPRESENTATION_CONTEXT
('Context #1','3D Context with UNIT and UNCERTAINTY') );
#1552 = ( LENGTH_UNIT() NAMED_UNIT(*) SI_UNIT(.MILLI.,.METRE.) );
#1553 = ( NAMED_UNIT(*) PLANE_ANGLE_UNIT() SI_UNIT($,.RADIAN.) );
#1554 = ( NAMED_UNIT(*) SI_UNIT($,.STERADIAN.) SOLID_ANGLE_UNIT() );
#1555 = UNCERTAINTY_MEASURE_WITH_UNIT(LENGTH_MEASURE(1.E-07),#1552,
  'distance_accuracy_value','confusion accuracy');
#1556 = PRODUCT_RELATED_PRODUCT_CATEGORY('part',$,(#7));
#1557 = MECHANICAL_DESIGN_GEOMETRIC_PRESENTATION_REPRESENTATION('',(
    #1558,#1569,#1577,#1584,#1591,#1598,#1605,#1612,#1619,#1626,#1633,
    #1640,#1647,#1654,#1661,#1668,#1675,#1682,#1689,#1696,#1703,#1710,
    #1717,#1724,#1731,#1739,#1746,#1753,#1760,#1767,#1774,#1781,#1788,
    #1795,#1802,#1809,#1816,#1823,#1831,#1838,#1845,#1852,#1859,#1866,
    #1873,#1880,#1887,#1894,#1901,#1908),#1551);
#1558 = STYLED_ITEM('color',(#1559),#15);
#1559 = PRESENTATION_STYLE_ASSIGNMENT((#1560,#1566));
#1560 = SURFACE_STYLE_USAGE(.BOTH.,#1561);
#1561 = SURFACE_SIDE_STYLE('',(#1562));
#1562 = SURFACE_STYLE_FILL_AREA(#1563);
#1563 = FILL_AREA_STYLE('',(#1564));
#1564 = FILL_AREA_STYLE_COLOUR('',#1565);
#1565 = COLOUR_RGB('',0.800000011921,0.800000011921,0.800000011921);
#1566 = CURVE_STYLE('',#1567,POSITIVE_LENGTH_MEASURE(0.1),#1568);
#1567 = DRAUGHTING_PRE_DEFINED_CURVE_FONT('continuous');
#1568 = COLOUR_RGB('',9.803921729326E-02,9.803921729326E-02,
  9.803921729326E-02);
#1569 = OVER_RIDING_STYLED_ITEM('overriding color',(#1570),#17,#1558);
#1570 = PRESENTATION_STYLE_ASSIGNMENT((#1571));
#1571 = SURFACE_STYLE_USAGE(.BOTH.,#1572);
#1572 = SURFACE_SIDE_STYLE('',(#1573));
#1573 = SURFACE_STYLE_FILL_AREA(#1574);
#1574 = FILL_AREA_STYLE('',(#1575));
#1575 = FILL_AREA_STYLE_COLOUR('',#1576);
#1576 = COLOUR_RGB('',0.273000001907,0.273000001907,0.273000001907);
#1577 = OVER_RIDING_STYLED_ITEM('overriding color',(#1578),#57,#1558);
#1578 = PRESENTATION_STYLE_ASSIGNMENT((#1579));
#1579 = SURFACE_STYLE_USAGE(.BOTH.,#1580);
#1580 = SURFACE_SIDE_STYLE('',(#1581));
#1581 = SURFACE_STYLE_FILL_AREA(#1582);
#1582 = FILL_AREA_STYLE('',(#1583));
#1583 = FILL_AREA_STYLE_COLOUR('',#1576);
#1584 = OVER_RIDING_STYLED_ITEM('overriding color',(#1585),#88,#1558);
#1585 = PRESENTATION_STYLE_ASSIGNMENT((#1586));
#1586 = SURFACE_STYLE_USAGE(.BOTH.,#1587);
#1587 = SURFACE_SIDE_STYLE('',(#1588));
#1588 = SURFACE_STYLE_FILL_AREA(#1589);
#1589 = FILL_AREA_STYLE('',(#1590));
#1590 = FILL_AREA_STYLE_COLOUR('',#1576);
#1591 = OVER_RIDING_STYLED_ITEM('overriding color',(#1592),#119,#1558);
#1592 = PRESENTATION_STYLE_ASSIGNMENT((#1593));
#1593 = SURFACE_STYLE_USAGE(.BOTH.,#1594);
#1594 = SURFACE_SIDE_STYLE('',(#1595));
#1595 = SURFACE_STYLE_FILL_AREA(#1596);
#1596 = FILL_AREA_STYLE('',(#1597));
#1597 = FILL_AREA_STYLE_COLOUR('',#1576);
#1598 = OVER_RIDING_STYLED_ITEM('overriding color',(#1599),#200,#1558);
#1599 = PRESENTATION_STYLE_ASSIGNMENT((#1600));
#1600 = SURFACE_STYLE_USAGE(.BOTH.,#1601);
#1601 = SURFACE_SIDE_STYLE('',(#1602));
#1602 = SURFACE_STYLE_FILL_AREA(#1603);
#1603 = FILL_AREA_STYLE('',(#1604));
#1604 = FILL_AREA_STYLE_COLOUR('',#1576);
#1605 = OVER_RIDING_STYLED_ITEM('overriding color',(#1606),#351,#1558);
#1606 = PRESENTATION_STYLE_ASSIGNMENT((#1607));
#1607 = SURFACE_STYLE_USAGE(.BOTH.,#1608);
#1608 = SURFACE_SIDE_STYLE('',(#1609));
#1609 = SURFACE_STYLE_FILL_AREA(#1610);
#1610 = FILL_AREA_STYLE('',(#1611));
#1611 = FILL_AREA_STYLE_COLOUR('',#1576);
#1612 = OVER_RIDING_STYLED_ITEM('overriding color',(#1613),#368,#1558);
#1613 = PRESENTATION_STYLE_ASSIGNMENT((#1614));
#1614 = SURFACE_STYLE_USAGE(.BOTH.,#1615);
#1615 = SURFACE_SIDE_STYLE('',(#1616));
#1616 = SURFACE_STYLE_FILL_AREA(#1617);
#1617 = FILL_AREA_STYLE('',(#1618));
#1618 = FILL_AREA_STYLE_COLOUR('',#1576);
#1619 = OVER_RIDING_STYLED_ITEM('overriding color',(#1620),#385,#1558);
#1620 = PRESENTATION_STYLE_ASSIGNMENT((#1621));
#1621 = SURFACE_STYLE_USAGE(.BOTH.,#1622);
#1622 = SURFACE_SIDE_STYLE('',(#1623));
#1623 = SURFACE_STYLE_FILL_AREA(#1624);
#1624 = FILL_AREA_STYLE('',(#1625));
#1625 = FILL_AREA_STYLE_COLOUR('',#1576);
#1626 = OVER_RIDING_STYLED_ITEM('overriding color',(#1627),#402,#1558);
#1627 = PRESENTATION_STYLE_ASSIGNMENT((#1628));
#1628 = SURFACE_STYLE_USAGE(.BOTH.,#1629);
#1629 = SURFACE_SIDE_STYLE('',(#1630));
#1630 = SURFACE_STYLE_FILL_AREA(#1631);
#1631 = FILL_AREA_STYLE('',(#1632));
#1632 = FILL_AREA_STYLE_COLOUR('',#1576);
#1633 = OVER_RIDING_STYLED_ITEM('overriding color',(#1634),#419,#1558);
#1634 = PRESENTATION_STYLE_ASSIGNMENT((#1635));
#1635 = SURFACE_STYLE_USAGE(.BOTH.,#1636);
#1636 = SURFACE_SIDE_STYLE('',(#1637));
#1637 = SURFACE_STYLE_FILL_AREA(#1638);
#1638 = FILL_AREA_STYLE('',(#1639));
#1639 = FILL_AREA_STYLE_COLOUR('',#1576);
#1640 = OVER_RIDING_STYLED_ITEM('overriding color',(#1641),#436,#1558);
#1641 = PRESENTATION_STYLE_ASSIGNMENT((#1642));
#1642 = SURFACE_STYLE_USAGE(.BOTH.,#1643);
#1643 = SURFACE_SIDE_STYLE('',(#1644));
#1644 = SURFACE_STYLE_FILL_AREA(#1645);
#1645 = FILL_AREA_STYLE('',(#1646));
#1646 = FILL_AREA_STYLE_COLOUR('',#1576);
#1647 = OVER_RIDING_STYLED_ITEM('overriding color',(#1648),#453,#1558);
#1648 = PRESENTATION_STYLE_ASSIGNMENT((#1649));
#1649 = SURFACE_STYLE_USAGE(.BOTH.,#1650);
#1650 = SURFACE_SIDE_STYLE('',(#1651));
#1651 = SURFACE_STYLE_FILL_AREA(#1652);
#1652 = FILL_AREA_STYLE('',(#1653));
#1653 = FILL_AREA_STYLE_COLOUR('',#1576);
#1654 = OVER_RIDING_STYLED_ITEM('overriding color',(#1655),#470,#1558);
#1655 = PRESENTATION_STYLE_ASSIGNMENT((#1656));
#1656 = SURFACE_STYLE_USAGE(.BOTH.,#1657);
#1657 = SURFACE_SIDE_STYLE('',(#1658));
#1658 = SURFACE_STYLE_FILL_AREA(#1659);
#1659 = FILL_AREA_STYLE('',(#1660));
#1660 = FILL_AREA_STYLE_COLOUR('',#1576);
#1661 = OVER_RIDING_STYLED_ITEM('overriding color',(#1662),#487,#1558);
#1662 = PRESENTATION_STYLE_ASSIGNMENT((#1663));
#1663 = SURFACE_STYLE_USAGE(.BOTH.,#1664);
#1664 = SURFACE_SIDE_STYLE('',(#1665));
#1665 = SURFACE_STYLE_FILL_AREA(#1666);
#1666 = FILL_AREA_STYLE('',(#1667));
#1667 = FILL_AREA_STYLE_COLOUR('',#1576);
#1668 = OVER_RIDING_STYLED_ITEM('overriding color',(#1669),#499,#1558);
#1669 = PRESENTATION_STYLE_ASSIGNMENT((#1670));
#1670 = SURFACE_STYLE_USAGE(.BOTH.,#1671);
#1671 = SURFACE_SIDE_STYLE('',(#1672));
#1672 = SURFACE_STYLE_FILL_AREA(#1673);
#1673 = FILL_AREA_STYLE('',(#1674));
#1674 = FILL_AREA_STYLE_COLOUR('',#1576);
#1675 = OVER_RIDING_STYLED_ITEM('overriding color',(#1676),#530,#1558);
#1676 = PRESENTATION_STYLE_ASSIGNMENT((#1677));
#1677 = SURFACE_STYLE_USAGE(.BOTH.,#1678);
#1678 = SURFACE_SIDE_STYLE('',(#1679));
#1679 = SURFACE_STYLE_FILL_AREA(#1680);
#1680 = FILL_AREA_STYLE('',(#1681));
#1681 = FILL_AREA_STYLE_COLOUR('',#1576);
#1682 = OVER_RIDING_STYLED_ITEM('overriding color',(#1683),#555,#1558);
#1683 = PRESENTATION_STYLE_ASSIGNMENT((#1684));
#1684 = SURFACE_STYLE_USAGE(.BOTH.,#1685);
#1685 = SURFACE_SIDE_STYLE('',(#1686));
#1686 = SURFACE_STYLE_FILL_AREA(#1687);
#1687 = FILL_AREA_STYLE('',(#1688));
#1688 = FILL_AREA_STYLE_COLOUR('',#1576);
#1689 = OVER_RIDING_STYLED_ITEM('overriding color',(#1690),#579,#1558);
#1690 = PRESENTATION_STYLE_ASSIGNMENT((#1691));
#1691 = SURFACE_STYLE_USAGE(.BOTH.,#1692);
#1692 = SURFACE_SIDE_STYLE('',(#1693));
#1693 = SURFACE_STYLE_FILL_AREA(#1694);
#1694 = FILL_AREA_STYLE('',(#1695));
#1695 = FILL_AREA_STYLE_COLOUR('',#1576);
#1696 = OVER_RIDING_STYLED_ITEM('overriding color',(#1697),#604,#1558);
#1697 = PRESENTATION_STYLE_ASSIGNMENT((#1698));
#1698 = SURFACE_STYLE_USAGE(.BOTH.,#1699);
#1699 = SURFACE_SIDE_STYLE('',(#1700));
#1700 = SURFACE_STYLE_FILL_AREA(#1701);
#1701 = FILL_AREA_STYLE('',(#1702));
#1702 = FILL_AREA_STYLE_COLOUR('',#1576);
#1703 = OVER_RIDING_STYLED_ITEM('overriding color',(#1704),#628,#1558);
#1704 = PRESENTATION_STYLE_ASSIGNMENT((#1705));
#1705 = SURFACE_STYLE_USAGE(.BOTH.,#1706);
#1706 = SURFACE_SIDE_STYLE('',(#1707));
#1707 = SURFACE_STYLE_FILL_AREA(#1708);
#1708 = FILL_AREA_STYLE('',(#1709));
#1709 = FILL_AREA_STYLE_COLOUR('',#1576);
#1710 = OVER_RIDING_STYLED_ITEM('overriding color',(#1711),#653,#1558);
#1711 = PRESENTATION_STYLE_ASSIGNMENT((#1712));
#1712 = SURFACE_STYLE_USAGE(.BOTH.,#1713);
#1713 = SURFACE_SIDE_STYLE('',(#1714));
#1714 = SURFACE_STYLE_FILL_AREA(#1715);
#1715 = FILL_AREA_STYLE('',(#1716));
#1716 = FILL_AREA_STYLE_COLOUR('',#1576);
#1717 = OVER_RIDING_STYLED_ITEM('overriding color',(#1718),#677,#1558);
#1718 = PRESENTATION_STYLE_ASSIGNMENT((#1719));
#1719 = SURFACE_STYLE_USAGE(.BOTH.,#1720);
#1720 = SURFACE_SIDE_STYLE('',(#1721));
#1721 = SURFACE_STYLE_FILL_AREA(#1722);
#1722 = FILL_AREA_STYLE('',(#1723));
#1723 = FILL_AREA_STYLE_COLOUR('',#1576);
#1724 = OVER_RIDING_STYLED_ITEM('overriding color',(#1725),#695,#1558);
#1725 = PRESENTATION_STYLE_ASSIGNMENT((#1726));
#1726 = SURFACE_STYLE_USAGE(.BOTH.,#1727);
#1727 = SURFACE_SIDE_STYLE('',(#1728));
#1728 = SURFACE_STYLE_FILL_AREA(#1729);
#1729 = FILL_AREA_STYLE('',(#1730));
#1730 = FILL_AREA_STYLE_COLOUR('',#1576);
#1731 = OVER_RIDING_STYLED_ITEM('overriding color',(#1732),#779,#1558);
#1732 = PRESENTATION_STYLE_ASSIGNMENT((#1733));
#1733 = SURFACE_STYLE_USAGE(.BOTH.,#1734);
#1734 = SURFACE_SIDE_STYLE('',(#1735));
#1735 = SURFACE_STYLE_FILL_AREA(#1736);
#1736 = FILL_AREA_STYLE('',(#1737));
#1737 = FILL_AREA_STYLE_COLOUR('',#1738);
#1738 = COLOUR_RGB('',0.824000000954,0.819999992847,0.78100001812);
#1739 = OVER_RIDING_STYLED_ITEM('overriding color',(#1740),#812,#1558);
#1740 = PRESENTATION_STYLE_ASSIGNMENT((#1741));
#1741 = SURFACE_STYLE_USAGE(.BOTH.,#1742);
#1742 = SURFACE_SIDE_STYLE('',(#1743));
#1743 = SURFACE_STYLE_FILL_AREA(#1744);
#1744 = FILL_AREA_STYLE('',(#1745));
#1745 = FILL_AREA_STYLE_COLOUR('',#1738);
#1746 = OVER_RIDING_STYLED_ITEM('overriding color',(#1747),#941,#1558);
#1747 = PRESENTATION_STYLE_ASSIGNMENT((#1748));
#1748 = SURFACE_STYLE_USAGE(.BOTH.,#1749);
#1749 = SURFACE_SIDE_STYLE('',(#1750));
#1750 = SURFACE_STYLE_FILL_AREA(#1751);
#1751 = FILL_AREA_STYLE('',(#1752));
#1752 = FILL_AREA_STYLE_COLOUR('',#1738);
#1753 = OVER_RIDING_STYLED_ITEM('overriding color',(#1754),#966,#1558);
#1754 = PRESENTATION_STYLE_ASSIGNMENT((#1755));
#1755 = SURFACE_STYLE_USAGE(.BOTH.,#1756);
#1756 = SURFACE_SIDE_STYLE('',(#1757));
#1757 = SURFACE_STYLE_FILL_AREA(#1758);
#1758 = FILL_AREA_STYLE('',(#1759));
#1759 = FILL_AREA_STYLE_COLOUR('',#1738);
#1760 = OVER_RIDING_STYLED_ITEM('overriding color',(#1761),#1017,#1558);
#1761 = PRESENTATION_STYLE_ASSIGNMENT((#1762));
#1762 = SURFACE_STYLE_USAGE(.BOTH.,#1763);
#1763 = SURFACE_SIDE_STYLE('',(#1764));
#1764 = SURFACE_STYLE_FILL_AREA(#1765);
#1765 = FILL_AREA_STYLE('',(#1766));
#1766 = FILL_AREA_STYLE_COLOUR('',#1738);
#1767 = OVER_RIDING_STYLED_ITEM('overriding color',(#1768),#1050,#1558);
#1768 = PRESENTATION_STYLE_ASSIGNMENT((#1769));
#1769 = SURFACE_STYLE_USAGE(.BOTH.,#1770);
#1770 = SURFACE_SIDE_STYLE('',(#1771));
#1771 = SURFACE_STYLE_FILL_AREA(#1772);
#1772 = FILL_AREA_STYLE('',(#1773));
#1773 = FILL_AREA_STYLE_COLOUR('',#1738);
#1774 = OVER_RIDING_STYLED_ITEM('overriding color',(#1775),#1109,#1558);
#1775 = PRESENTATION_STYLE_ASSIGNMENT((#1776));
#1776 = SURFACE_STYLE_USAGE(.BOTH.,#1777);
#1777 = SURFACE_SIDE_STYLE('',(#1778));
#1778 = SURFACE_STYLE_FILL_AREA(#1779);
#1779 = FILL_AREA_STYLE('',(#1780));
#1780 = FILL_AREA_STYLE_COLOUR('',#1738);
#1781 = OVER_RIDING_STYLED_ITEM('overriding color',(#1782),#1134,#1558);
#1782 = PRESENTATION_STYLE_ASSIGNMENT((#1783));
#1783 = SURFACE_STYLE_USAGE(.BOTH.,#1784);
#1784 = SURFACE_SIDE_STYLE('',(#1785));
#1785 = SURFACE_STYLE_FILL_AREA(#1786);
#1786 = FILL_AREA_STYLE('',(#1787));
#1787 = FILL_AREA_STYLE_COLOUR('',#1738);
#1788 = OVER_RIDING_STYLED_ITEM('overriding color',(#1789),#1255,#1558);
#1789 = PRESENTATION_STYLE_ASSIGNMENT((#1790));
#1790 = SURFACE_STYLE_USAGE(.BOTH.,#1791);
#1791 = SURFACE_SIDE_STYLE('',(#1792));
#1792 = SURFACE_STYLE_FILL_AREA(#1793);
#1793 = FILL_AREA_STYLE('',(#1794));
#1794 = FILL_AREA_STYLE_COLOUR('',#1738);
#1795 = OVER_RIDING_STYLED_ITEM('overriding color',(#1796),#1272,#1558);
#1796 = PRESENTATION_STYLE_ASSIGNMENT((#1797));
#1797 = SURFACE_STYLE_USAGE(.BOTH.,#1798);
#1798 = SURFACE_SIDE_STYLE('',(#1799));
#1799 = SURFACE_STYLE_FILL_AREA(#1800);
#1800 = FILL_AREA_STYLE('',(#1801));
#1801 = FILL_AREA_STYLE_COLOUR('',#1738);
#1802 = OVER_RIDING_STYLED_ITEM('overriding color',(#1803),#1289,#1558);
#1803 = PRESENTATION_STYLE_ASSIGNMENT((#1804));
#1804 = SURFACE_STYLE_USAGE(.BOTH.,#1805);
#1805 = SURFACE_SIDE_STYLE('',(#1806));
#1806 = SURFACE_STYLE_FILL_AREA(#1807);
#1807 = FILL_AREA_STYLE('',(#1808));
#1808 = FILL_AREA_STYLE_COLOUR('',#1738);
#1809 = OVER_RIDING_STYLED_ITEM('overriding color',(#1810),#1306,#1558);
#1810 = PRESENTATION_STYLE_ASSIGNMENT((#1811));
#1811 = SURFACE_STYLE_USAGE(.BOTH.,#1812);
#1812 = SURFACE_SIDE_STYLE('',(#1813));
#1813 = SURFACE_STYLE_FILL_AREA(#1814);
#1814 = FILL_AREA_STYLE('',(#1815));
#1815 = FILL_AREA_STYLE_COLOUR('',#1738);
#1816 = OVER_RIDING_STYLED_ITEM('overriding color',(#1817),#1323,#1558);
#1817 = PRESENTATION_STYLE_ASSIGNMENT((#1818));
#1818 = SURFACE_STYLE_USAGE(.BOTH.,#1819);
#1819 = SURFACE_SIDE_STYLE('',(#1820));
#1820 = SURFACE_STYLE_FILL_AREA(#1821);
#1821 = FILL_AREA_STYLE('',(#1822));
#1822 = FILL_AREA_STYLE_COLOUR('',#1738);
#1823 = OVER_RIDING_STYLED_ITEM('overriding color',(#1824),#1335,#1558);
#1824 = PRESENTATION_STYLE_ASSIGNMENT((#1825));
#1825 = SURFACE_STYLE_USAGE(.BOTH.,#1826);
#1826 = SURFACE_SIDE_STYLE('',(#1827));
#1827 = SURFACE_STYLE_FILL_AREA(#1828);
#1828 = FILL_AREA_STYLE('',(#1829));
#1829 = FILL_AREA_STYLE_COLOUR('',#1830);
#1830 = COLOUR_RGB('',0.379000008106,0.270000010729,0.215000003576);
#1831 = OVER_RIDING_STYLED_ITEM('overriding color',(#1832),#1357,#1558);
#1832 = PRESENTATION_STYLE_ASSIGNMENT((#1833));
#1833 = SURFACE_STYLE_USAGE(.BOTH.,#1834);
#1834 = SURFACE_SIDE_STYLE('',(#1835));
#1835 = SURFACE_STYLE_FILL_AREA(#1836);
#1836 = FILL_AREA_STYLE('',(#1837));
#1837 = FILL_AREA_STYLE_COLOUR('',#1830);
#1838 = OVER_RIDING_STYLED_ITEM('overriding color',(#1839),#1374,#1558);
#1839 = PRESENTATION_STYLE_ASSIGNMENT((#1840));
#1840 = SURFACE_STYLE_USAGE(.BOTH.,#1841);
#1841 = SURFACE_SIDE_STYLE('',(#1842));
#1842 = SURFACE_STYLE_FILL_AREA(#1843);
#1843 = FILL_AREA_STYLE('',(#1844));
#1844 = FILL_AREA_STYLE_COLOUR('',#1830);
#1845 = OVER_RIDING_STYLED_ITEM('overriding color',(#1846),#1391,#1558);
#1846 = PRESENTATION_STYLE_ASSIGNMENT((#1847));
#1847 = SURFACE_STYLE_USAGE(.BOTH.,#1848);
#1848 = SURFACE_SIDE_STYLE('',(#1849));
#1849 = SURFACE_STYLE_FILL_AREA(#1850);
#1850 = FILL_AREA_STYLE('',(#1851));
#1851 = FILL_AREA_STYLE_COLOUR('',#1830);
#1852 = OVER_RIDING_STYLED_ITEM('overriding color',(#1853),#1408,#1558);
#1853 = PRESENTATION_STYLE_ASSIGNMENT((#1854));
#1854 = SURFACE_STYLE_USAGE(.BOTH.,#1855);
#1855 = SURFACE_SIDE_STYLE('',(#1856));
#1856 = SURFACE_STYLE_FILL_AREA(#1857);
#1857 = FILL_AREA_STYLE('',(#1858));
#1858 = FILL_AREA_STYLE_COLOUR('',#1830);
#1859 = OVER_RIDING_STYLED_ITEM('overriding color',(#1860),#1425,#1558);
#1860 = PRESENTATION_STYLE_ASSIGNMENT((#1861));
#1861 = SURFACE_STYLE_USAGE(.BOTH.,#1862);
#1862 = SURFACE_SIDE_STYLE('',(#1863));
#1863 = SURFACE_STYLE_FILL_AREA(#1864);
#1864 = FILL_AREA_STYLE('',(#1865));
#1865 = FILL_AREA_STYLE_COLOUR('',#1830);
#1866 = OVER_RIDING_STYLED_ITEM('overriding color',(#1867),#1442,#1558);
#1867 = PRESENTATION_STYLE_ASSIGNMENT((#1868));
#1868 = SURFACE_STYLE_USAGE(.BOTH.,#1869);
#1869 = SURFACE_SIDE_STYLE('',(#1870));
#1870 = SURFACE_STYLE_FILL_AREA(#1871);
#1871 = FILL_AREA_STYLE('',(#1872));
#1872 = FILL_AREA_STYLE_COLOUR('',#1830);
#1873 = OVER_RIDING_STYLED_ITEM('overriding color',(#1874),#1459,#1558);
#1874 = PRESENTATION_STYLE_ASSIGNMENT((#1875));
#1875 = SURFACE_STYLE_USAGE(.BOTH.,#1876);
#1876 = SURFACE_SIDE_STYLE('',(#1877));
#1877 = SURFACE_STYLE_FILL_AREA(#1878);
#1878 = FILL_AREA_STYLE('',(#1879));
#1879 = FILL_AREA_STYLE_COLOUR('',#1830);
#1880 = OVER_RIDING_STYLED_ITEM('overriding color',(#1881),#1471,#1558);
#1881 = PRESENTATION_STYLE_ASSIGNMENT((#1882));
#1882 = SURFACE_STYLE_USAGE(.BOTH.,#1883);
#1883 = SURFACE_SIDE_STYLE('',(#1884));
#1884 = SURFACE_STYLE_FILL_AREA(#1885);
#1885 = FILL_AREA_STYLE('',(#1886));
#1886 = FILL_AREA_STYLE_COLOUR('',#1738);
#1887 = OVER_RIDING_STYLED_ITEM('overriding color',(#1888),#1488,#1558);
#1888 = PRESENTATION_STYLE_ASSIGNMENT((#1889));
#1889 = SURFACE_STYLE_USAGE(.BOTH.,#1890);
#1890 = SURFACE_SIDE_STYLE('',(#1891));
#1891 = SURFACE_STYLE_FILL_AREA(#1892);
#1892 = FILL_AREA_STYLE('',(#1893));
#1893 = FILL_AREA_STYLE_COLOUR('',#1738);
#1894 = OVER_RIDING_STYLED_ITEM('overriding color',(#1895),#1505,#1558);
#1895 = PRESENTATION_STYLE_ASSIGNMENT((#1896));
#1896 = SURFACE_STYLE_USAGE(.BOTH.,#1897);
#1897 = SURFACE_SIDE_STYLE('',(#1898));
#1898 = SURFACE_STYLE_FILL_AREA(#1899);
#1899 = FILL_AREA_STYLE('',(#1900));
#1900 = FILL_AREA_STYLE_COLOUR('',#1738);
#1901 = OVER_RIDING_STYLED_ITEM('overriding color',(#1902),#1522,#1558);
#1902 = PRESENTATION_STYLE_ASSIGNMENT((#1903));
#1903 = SURFACE_STYLE_USAGE(.BOTH.,#1904);
#1904 = SURFACE_SIDE_STYLE('',(#1905));
#1905 = SURFACE_STYLE_FILL_AREA(#1906);
#1906 = FILL_AREA_STYLE('',(#1907));
#1907 = FILL_AREA_STYLE_COLOUR('',#1738);
#1908 = OVER_RIDING_STYLED_ITEM('overriding color',(#1909),#1539,#1558);
#1909 = PRESENTATION_STYLE_ASSIGNMENT((#1910));
#1910 = SURFACE_STYLE_USAGE(.BOTH.,#1911);
#1911 = SURFACE_SIDE_STYLE('',(#1912));
#1912 = SURFACE_STYLE_FILL_AREA(#1913);
#1913 = FILL_AREA_STYLE('',(#1914));
#1914 = FILL_AREA_STYLE_COLOUR('',#1738);
ENDSEC;
END-ISO-10303-21;
