ISO-10303-21;
HEADER;
FILE_DESCRIPTION(('FreeCAD Model'),'2;1');
FILE_NAME(
'/home/lomarcan/cvswork/kicad-lib/modules/packages3d/Murata-PKM22EPPH.st
ep','2019-12-27T18:24:45',('kicad StepUp'),('ksu MCAD'),
  'Open CASCADE STEP processor 7.3','FreeCAD','Unknown');
FILE_SCHEMA(('AUTOMOTIVE_DESIGN { 1 0 10303 214 1 1 1 1 }'));
ENDSEC;
DATA;
#1 = APPLICATION_PROTOCOL_DEFINITION('international standard',
  'automotive_design',2000,#2);
#2 = APPLICATION_CONTEXT(
  'core data for automotive mechanical design processes');
#3 = SHAPE_DEFINITION_REPRESENTATION(#4,#10);
#4 = PRODUCT_DEFINITION_SHAPE('','',#5);
#5 = PRODUCT_DEFINITION('design','',#6,#9);
#6 = PRODUCT_DEFINITION_FORMATION('','',#7);
#7 = PRODUCT('Murata-PKM22EPPH','Murata-PKM22EPPH','',(#8));
#8 = PRODUCT_CONTEXT('',#2,'mechanical');
#9 = PRODUCT_DEFINITION_CONTEXT('part definition',#2,'design');
#10 = SHAPE_REPRESENTATION('',(#11,#15,#440,#656),#872);
#11 = AXIS2_PLACEMENT_3D('',#12,#13,#14);
#12 = CARTESIAN_POINT('',(0.,0.,0.));
#13 = DIRECTION('',(0.,0.,1.));
#14 = DIRECTION('',(1.,0.,-0.));
#15 = MANIFOLD_SOLID_BREP('',#16);
#16 = CLOSED_SHELL('',(#17,#50,#75,#128,#137,#162,#187,#212,#237,#263,
    #272,#281,#306,#326,#335,#360,#380,#406,#431));
#17 = ADVANCED_FACE('',(#18),#45,.T.);
#18 = FACE_BOUND('',#19,.F.);
#19 = EDGE_LOOP('',(#20,#30,#37,#38));
#20 = ORIENTED_EDGE('',*,*,#21,.F.);
#21 = EDGE_CURVE('',#22,#24,#26,.T.);
#22 = VERTEX_POINT('',#23);
#23 = CARTESIAN_POINT('',(6.75,0.,1.2));
#24 = VERTEX_POINT('',#25);
#25 = CARTESIAN_POINT('',(6.75,-1.E-15,0.2));
#26 = LINE('',#27,#28);
#27 = CARTESIAN_POINT('',(6.75,0.,1.2));
#28 = VECTOR('',#29,1.);
#29 = DIRECTION('',(0.,-1.11E-15,-1.));
#30 = ORIENTED_EDGE('',*,*,#31,.F.);
#31 = EDGE_CURVE('',#22,#22,#32,.T.);
#32 = CIRCLE('',#33,1.75);
#33 = AXIS2_PLACEMENT_3D('',#34,#35,#36);
#34 = CARTESIAN_POINT('',(5.,0.,1.2));
#35 = DIRECTION('',(0.,-1.22E-15,-1.));
#36 = DIRECTION('',(1.,0.,0.));
#37 = ORIENTED_EDGE('',*,*,#21,.T.);
#38 = ORIENTED_EDGE('',*,*,#39,.T.);
#39 = EDGE_CURVE('',#24,#24,#40,.T.);
#40 = CIRCLE('',#41,1.75);
#41 = AXIS2_PLACEMENT_3D('',#42,#43,#44);
#42 = CARTESIAN_POINT('',(5.,-1.11E-15,0.2));
#43 = DIRECTION('',(0.,-1.11E-15,-1.));
#44 = DIRECTION('',(1.,0.,0.));
#45 = CYLINDRICAL_SURFACE('',#46,1.75);
#46 = AXIS2_PLACEMENT_3D('',#47,#48,#49);
#47 = CARTESIAN_POINT('',(5.,0.,1.2));
#48 = DIRECTION('',(0.,1.11E-15,1.));
#49 = DIRECTION('',(1.,0.,0.));
#50 = ADVANCED_FACE('',(#51),#70,.T.);
#51 = FACE_BOUND('',#52,.T.);
#52 = EDGE_LOOP('',(#53,#61,#62,#63));
#53 = ORIENTED_EDGE('',*,*,#54,.F.);
#54 = EDGE_CURVE('',#24,#55,#57,.T.);
#55 = VERTEX_POINT('',#56);
#56 = CARTESIAN_POINT('',(6.55,-1.E-15,0.));
#57 = LINE('',#58,#59);
#58 = CARTESIAN_POINT('',(6.75,-1.11E-15,0.2));
#59 = VECTOR('',#60,1.);
#60 = DIRECTION('',(-0.707106781187,-7.9E-16,-0.707106781187));
#61 = ORIENTED_EDGE('',*,*,#39,.T.);
#62 = ORIENTED_EDGE('',*,*,#54,.T.);
#63 = ORIENTED_EDGE('',*,*,#64,.F.);
#64 = EDGE_CURVE('',#55,#55,#65,.T.);
#65 = CIRCLE('',#66,1.55);
#66 = AXIS2_PLACEMENT_3D('',#67,#68,#69);
#67 = CARTESIAN_POINT('',(5.,-1.33E-15,2.22044604925E-16));
#68 = DIRECTION('',(0.,-1.11E-15,-1.));
#69 = DIRECTION('',(1.,0.,0.));
#70 = CONICAL_SURFACE('',#71,1.75,0.785398163397);
#71 = AXIS2_PLACEMENT_3D('',#72,#73,#74);
#72 = CARTESIAN_POINT('',(5.,-1.11E-15,0.2));
#73 = DIRECTION('',(0.,1.11E-15,1.));
#74 = DIRECTION('',(1.,0.,0.));
#75 = ADVANCED_FACE('',(#76,#87,#90,#101,#112),#123,.F.);
#76 = FACE_BOUND('',#77,.T.);
#77 = EDGE_LOOP('',(#78));
#78 = ORIENTED_EDGE('',*,*,#79,.F.);
#79 = EDGE_CURVE('',#80,#80,#82,.T.);
#80 = VERTEX_POINT('',#81);
#81 = CARTESIAN_POINT('',(11.,0.,1.2));
#82 = CIRCLE('',#83,11.);
#83 = AXIS2_PLACEMENT_3D('',#84,#85,#86);
#84 = CARTESIAN_POINT('',(0.,0.,1.2));
#85 = DIRECTION('',(-0.,6.7E-16,1.));
#86 = DIRECTION('',(1.,0.,0.));
#87 = FACE_BOUND('',#88,.T.);
#88 = EDGE_LOOP('',(#89));
#89 = ORIENTED_EDGE('',*,*,#31,.F.);
#90 = FACE_BOUND('',#91,.T.);
#91 = EDGE_LOOP('',(#92));
#92 = ORIENTED_EDGE('',*,*,#93,.F.);
#93 = EDGE_CURVE('',#94,#94,#96,.T.);
#94 = VERTEX_POINT('',#95);
#95 = CARTESIAN_POINT('',(0.6,5.,1.2));
#96 = CIRCLE('',#97,0.6);
#97 = AXIS2_PLACEMENT_3D('',#98,#99,#100);
#98 = CARTESIAN_POINT('',(0.,5.,1.2));
#99 = DIRECTION('',(0.,-1.22E-15,-1.));
#100 = DIRECTION('',(1.,0.,0.));
#101 = FACE_BOUND('',#102,.T.);
#102 = EDGE_LOOP('',(#103));
#103 = ORIENTED_EDGE('',*,*,#104,.F.);
#104 = EDGE_CURVE('',#105,#105,#107,.T.);
#105 = VERTEX_POINT('',#106);
#106 = CARTESIAN_POINT('',(0.6,-5.,1.2));
#107 = CIRCLE('',#108,0.6);
#108 = AXIS2_PLACEMENT_3D('',#109,#110,#111);
#109 = CARTESIAN_POINT('',(0.,-5.,1.2));
#110 = DIRECTION('',(0.,-1.22E-15,-1.));
#111 = DIRECTION('',(1.,0.,0.));
#112 = FACE_BOUND('',#113,.T.);
#113 = EDGE_LOOP('',(#114));
#114 = ORIENTED_EDGE('',*,*,#115,.F.);
#115 = EDGE_CURVE('',#116,#116,#118,.T.);
#116 = VERTEX_POINT('',#117);
#117 = CARTESIAN_POINT('',(-3.25,0.,1.2));
#118 = CIRCLE('',#119,1.75);
#119 = AXIS2_PLACEMENT_3D('',#120,#121,#122);
#120 = CARTESIAN_POINT('',(-5.,0.,1.2));
#121 = DIRECTION('',(0.,-1.22E-15,-1.));
#122 = DIRECTION('',(1.,0.,0.));
#123 = PLANE('',#124);
#124 = AXIS2_PLACEMENT_3D('',#125,#126,#127);
#125 = CARTESIAN_POINT('',(0.,0.,1.2));
#126 = DIRECTION('',(0.,6.7E-16,1.));
#127 = DIRECTION('',(1.,0.,0.));
#128 = ADVANCED_FACE('',(#129),#132,.T.);
#129 = FACE_BOUND('',#130,.T.);
#130 = EDGE_LOOP('',(#131));
#131 = ORIENTED_EDGE('',*,*,#64,.T.);
#132 = PLANE('',#133);
#133 = AXIS2_PLACEMENT_3D('',#134,#135,#136);
#134 = CARTESIAN_POINT('',(5.,-1.33226762955E-15,4.440892098501E-16));
#135 = DIRECTION('',(0.,-8.9E-16,-1.));
#136 = DIRECTION('',(0.,-1.,8.9E-16));
#137 = ADVANCED_FACE('',(#138),#157,.T.);
#138 = FACE_BOUND('',#139,.T.);
#139 = EDGE_LOOP('',(#140,#141,#149,#156));
#140 = ORIENTED_EDGE('',*,*,#79,.T.);
#141 = ORIENTED_EDGE('',*,*,#142,.T.);
#142 = EDGE_CURVE('',#80,#143,#145,.T.);
#143 = VERTEX_POINT('',#144);
#144 = CARTESIAN_POINT('',(11.,7.E-15,7.2));
#145 = LINE('',#146,#147);
#146 = CARTESIAN_POINT('',(11.,0.,1.2));
#147 = VECTOR('',#148,1.);
#148 = DIRECTION('',(0.,2.2E-16,1.));
#149 = ORIENTED_EDGE('',*,*,#150,.F.);
#150 = EDGE_CURVE('',#143,#143,#151,.T.);
#151 = CIRCLE('',#152,11.);
#152 = AXIS2_PLACEMENT_3D('',#153,#154,#155);
#153 = CARTESIAN_POINT('',(0.,4.E-15,7.2));
#154 = DIRECTION('',(-0.,6.7E-16,1.));
#155 = DIRECTION('',(1.,0.,0.));
#156 = ORIENTED_EDGE('',*,*,#142,.F.);
#157 = CYLINDRICAL_SURFACE('',#158,11.);
#158 = AXIS2_PLACEMENT_3D('',#159,#160,#161);
#159 = CARTESIAN_POINT('',(0.,0.,1.2));
#160 = DIRECTION('',(0.,6.7E-16,1.));
#161 = DIRECTION('',(1.,0.,0.));
#162 = ADVANCED_FACE('',(#163),#182,.T.);
#163 = FACE_BOUND('',#164,.F.);
#164 = EDGE_LOOP('',(#165,#166,#174,#181));
#165 = ORIENTED_EDGE('',*,*,#93,.F.);
#166 = ORIENTED_EDGE('',*,*,#167,.T.);
#167 = EDGE_CURVE('',#94,#168,#170,.T.);
#168 = VERTEX_POINT('',#169);
#169 = CARTESIAN_POINT('',(0.6,5.,-5.E-15));
#170 = LINE('',#171,#172);
#171 = CARTESIAN_POINT('',(0.6,5.,1.2));
#172 = VECTOR('',#173,1.);
#173 = DIRECTION('',(0.,-1.11E-15,-1.));
#174 = ORIENTED_EDGE('',*,*,#175,.T.);
#175 = EDGE_CURVE('',#168,#168,#176,.T.);
#176 = CIRCLE('',#177,0.6);
#177 = AXIS2_PLACEMENT_3D('',#178,#179,#180);
#178 = CARTESIAN_POINT('',(0.,5.,-5.995204332976E-15));
#179 = DIRECTION('',(0.,-1.22E-15,-1.));
#180 = DIRECTION('',(1.,0.,0.));
#181 = ORIENTED_EDGE('',*,*,#167,.F.);
#182 = CYLINDRICAL_SURFACE('',#183,0.6);
#183 = AXIS2_PLACEMENT_3D('',#184,#185,#186);
#184 = CARTESIAN_POINT('',(0.,5.,1.2));
#185 = DIRECTION('',(0.,1.11E-15,1.));
#186 = DIRECTION('',(1.,0.,0.));
#187 = ADVANCED_FACE('',(#188),#207,.T.);
#188 = FACE_BOUND('',#189,.F.);
#189 = EDGE_LOOP('',(#190,#191,#199,#206));
#190 = ORIENTED_EDGE('',*,*,#104,.F.);
#191 = ORIENTED_EDGE('',*,*,#192,.T.);
#192 = EDGE_CURVE('',#105,#193,#195,.T.);
#193 = VERTEX_POINT('',#194);
#194 = CARTESIAN_POINT('',(0.6,-5.,6.E-15));
#195 = LINE('',#196,#197);
#196 = CARTESIAN_POINT('',(0.6,-5.,1.2));
#197 = VECTOR('',#198,1.);
#198 = DIRECTION('',(0.,-1.11E-15,-1.));
#199 = ORIENTED_EDGE('',*,*,#200,.T.);
#200 = EDGE_CURVE('',#193,#193,#201,.T.);
#201 = CIRCLE('',#202,0.6);
#202 = AXIS2_PLACEMENT_3D('',#203,#204,#205);
#203 = CARTESIAN_POINT('',(0.,-5.,6.217248937901E-15));
#204 = DIRECTION('',(0.,-1.22E-15,-1.));
#205 = DIRECTION('',(1.,0.,0.));
#206 = ORIENTED_EDGE('',*,*,#192,.F.);
#207 = CYLINDRICAL_SURFACE('',#208,0.6);
#208 = AXIS2_PLACEMENT_3D('',#209,#210,#211);
#209 = CARTESIAN_POINT('',(0.,-5.,1.2));
#210 = DIRECTION('',(0.,1.11E-15,1.));
#211 = DIRECTION('',(1.,0.,0.));
#212 = ADVANCED_FACE('',(#213),#232,.T.);
#213 = FACE_BOUND('',#214,.F.);
#214 = EDGE_LOOP('',(#215,#223,#224,#225));
#215 = ORIENTED_EDGE('',*,*,#216,.F.);
#216 = EDGE_CURVE('',#116,#217,#219,.T.);
#217 = VERTEX_POINT('',#218);
#218 = CARTESIAN_POINT('',(-3.25,-1.E-15,0.2));
#219 = LINE('',#220,#221);
#220 = CARTESIAN_POINT('',(-3.25,0.,1.2));
#221 = VECTOR('',#222,1.);
#222 = DIRECTION('',(0.,-1.11E-15,-1.));
#223 = ORIENTED_EDGE('',*,*,#115,.F.);
#224 = ORIENTED_EDGE('',*,*,#216,.T.);
#225 = ORIENTED_EDGE('',*,*,#226,.T.);
#226 = EDGE_CURVE('',#217,#217,#227,.T.);
#227 = CIRCLE('',#228,1.75);
#228 = AXIS2_PLACEMENT_3D('',#229,#230,#231);
#229 = CARTESIAN_POINT('',(-5.,-1.11E-15,0.2));
#230 = DIRECTION('',(0.,-1.11E-15,-1.));
#231 = DIRECTION('',(1.,0.,0.));
#232 = CYLINDRICAL_SURFACE('',#233,1.75);
#233 = AXIS2_PLACEMENT_3D('',#234,#235,#236);
#234 = CARTESIAN_POINT('',(-5.,0.,1.2));
#235 = DIRECTION('',(0.,1.11E-15,1.));
#236 = DIRECTION('',(1.,0.,0.));
#237 = ADVANCED_FACE('',(#238),#258,.T.);
#238 = FACE_BOUND('',#239,.T.);
#239 = EDGE_LOOP('',(#240,#241,#250,#257));
#240 = ORIENTED_EDGE('',*,*,#150,.T.);
#241 = ORIENTED_EDGE('',*,*,#242,.T.);
#242 = EDGE_CURVE('',#143,#243,#245,.T.);
#243 = VERTEX_POINT('',#244);
#244 = CARTESIAN_POINT('',(10.,8.E-15,8.2));
#245 = CIRCLE('',#246,1.);
#246 = AXIS2_PLACEMENT_3D('',#247,#248,#249);
#247 = CARTESIAN_POINT('',(10.,1.33E-15,7.2));
#248 = DIRECTION('',(0.,-1.,2.2E-16));
#249 = DIRECTION('',(1.,0.,0.));
#250 = ORIENTED_EDGE('',*,*,#251,.F.);
#251 = EDGE_CURVE('',#243,#243,#252,.T.);
#252 = CIRCLE('',#253,10.);
#253 = AXIS2_PLACEMENT_3D('',#254,#255,#256);
#254 = CARTESIAN_POINT('',(0.,4.66E-15,8.2));
#255 = DIRECTION('',(-0.,6.7E-16,1.));
#256 = DIRECTION('',(1.,0.,0.));
#257 = ORIENTED_EDGE('',*,*,#242,.F.);
#258 = TOROIDAL_SURFACE('',#259,10.,1.);
#259 = AXIS2_PLACEMENT_3D('',#260,#261,#262);
#260 = CARTESIAN_POINT('',(0.,4.E-15,7.2));
#261 = DIRECTION('',(0.,6.7E-16,1.));
#262 = DIRECTION('',(1.,0.,0.));
#263 = ADVANCED_FACE('',(#264),#267,.T.);
#264 = FACE_BOUND('',#265,.T.);
#265 = EDGE_LOOP('',(#266));
#266 = ORIENTED_EDGE('',*,*,#175,.T.);
#267 = PLANE('',#268);
#268 = AXIS2_PLACEMENT_3D('',#269,#270,#271);
#269 = CARTESIAN_POINT('',(-2.E-17,5.,-3.996802888651E-15));
#270 = DIRECTION('',(0.,-8.9E-16,-1.));
#271 = DIRECTION('',(0.,-1.,8.9E-16));
#272 = ADVANCED_FACE('',(#273),#276,.T.);
#273 = FACE_BOUND('',#274,.T.);
#274 = EDGE_LOOP('',(#275));
#275 = ORIENTED_EDGE('',*,*,#200,.T.);
#276 = PLANE('',#277);
#277 = AXIS2_PLACEMENT_3D('',#278,#279,#280);
#278 = CARTESIAN_POINT('',(-2.E-17,-5.,4.884981308351E-15));
#279 = DIRECTION('',(0.,-8.9E-16,-1.));
#280 = DIRECTION('',(0.,-1.,8.9E-16));
#281 = ADVANCED_FACE('',(#282),#301,.T.);
#282 = FACE_BOUND('',#283,.T.);
#283 = EDGE_LOOP('',(#284,#292,#293,#294));
#284 = ORIENTED_EDGE('',*,*,#285,.F.);
#285 = EDGE_CURVE('',#217,#286,#288,.T.);
#286 = VERTEX_POINT('',#287);
#287 = CARTESIAN_POINT('',(-3.45,-1.E-15,0.));
#288 = LINE('',#289,#290);
#289 = CARTESIAN_POINT('',(-3.25,-1.11E-15,0.2));
#290 = VECTOR('',#291,1.);
#291 = DIRECTION('',(-0.707106781187,-7.9E-16,-0.707106781187));
#292 = ORIENTED_EDGE('',*,*,#226,.T.);
#293 = ORIENTED_EDGE('',*,*,#285,.T.);
#294 = ORIENTED_EDGE('',*,*,#295,.F.);
#295 = EDGE_CURVE('',#286,#286,#296,.T.);
#296 = CIRCLE('',#297,1.55);
#297 = AXIS2_PLACEMENT_3D('',#298,#299,#300);
#298 = CARTESIAN_POINT('',(-5.,-1.33E-15,2.22044604925E-16));
#299 = DIRECTION('',(0.,-1.11E-15,-1.));
#300 = DIRECTION('',(1.,0.,0.));
#301 = CONICAL_SURFACE('',#302,1.75,0.785398163397);
#302 = AXIS2_PLACEMENT_3D('',#303,#304,#305);
#303 = CARTESIAN_POINT('',(-5.,-1.11E-15,0.2));
#304 = DIRECTION('',(0.,1.11E-15,1.));
#305 = DIRECTION('',(1.,0.,0.));
#306 = ADVANCED_FACE('',(#307,#310),#321,.T.);
#307 = FACE_BOUND('',#308,.T.);
#308 = EDGE_LOOP('',(#309));
#309 = ORIENTED_EDGE('',*,*,#251,.T.);
#310 = FACE_BOUND('',#311,.T.);
#311 = EDGE_LOOP('',(#312));
#312 = ORIENTED_EDGE('',*,*,#313,.F.);
#313 = EDGE_CURVE('',#314,#314,#316,.T.);
#314 = VERTEX_POINT('',#315);
#315 = CARTESIAN_POINT('',(2.,8.E-15,8.2));
#316 = CIRCLE('',#317,2.);
#317 = AXIS2_PLACEMENT_3D('',#318,#319,#320);
#318 = CARTESIAN_POINT('',(0.,4.66E-15,8.2));
#319 = DIRECTION('',(-0.,6.7E-16,1.));
#320 = DIRECTION('',(1.,0.,0.));
#321 = PLANE('',#322);
#322 = AXIS2_PLACEMENT_3D('',#323,#324,#325);
#323 = CARTESIAN_POINT('',(0.,4.66E-15,8.2));
#324 = DIRECTION('',(0.,6.7E-16,1.));
#325 = DIRECTION('',(1.,0.,0.));
#326 = ADVANCED_FACE('',(#327),#330,.T.);
#327 = FACE_BOUND('',#328,.T.);
#328 = EDGE_LOOP('',(#329));
#329 = ORIENTED_EDGE('',*,*,#295,.T.);
#330 = PLANE('',#331);
#331 = AXIS2_PLACEMENT_3D('',#332,#333,#334);
#332 = CARTESIAN_POINT('',(-5.,-1.33226762955E-15,4.440892098501E-16));
#333 = DIRECTION('',(0.,-8.9E-16,-1.));
#334 = DIRECTION('',(0.,-1.,8.9E-16));
#335 = ADVANCED_FACE('',(#336),#355,.F.);
#336 = FACE_BOUND('',#337,.T.);
#337 = EDGE_LOOP('',(#338,#339,#347,#354));
#338 = ORIENTED_EDGE('',*,*,#313,.T.);
#339 = ORIENTED_EDGE('',*,*,#340,.T.);
#340 = EDGE_CURVE('',#314,#341,#343,.T.);
#341 = VERTEX_POINT('',#342);
#342 = CARTESIAN_POINT('',(2.,8.E-15,8.));
#343 = LINE('',#344,#345);
#344 = CARTESIAN_POINT('',(2.,1.55E-15,8.2));
#345 = VECTOR('',#346,1.);
#346 = DIRECTION('',(0.,-2.2E-16,-1.));
#347 = ORIENTED_EDGE('',*,*,#348,.F.);
#348 = EDGE_CURVE('',#341,#341,#349,.T.);
#349 = CIRCLE('',#350,2.);
#350 = AXIS2_PLACEMENT_3D('',#351,#352,#353);
#351 = CARTESIAN_POINT('',(0.,4.53E-15,8.));
#352 = DIRECTION('',(-0.,6.7E-16,1.));
#353 = DIRECTION('',(1.,0.,0.));
#354 = ORIENTED_EDGE('',*,*,#340,.F.);
#355 = CYLINDRICAL_SURFACE('',#356,2.);
#356 = AXIS2_PLACEMENT_3D('',#357,#358,#359);
#357 = CARTESIAN_POINT('',(0.,4.66E-15,8.2));
#358 = DIRECTION('',(0.,-6.7E-16,-1.));
#359 = DIRECTION('',(1.,0.,0.));
#360 = ADVANCED_FACE('',(#361,#364),#375,.F.);
#361 = FACE_BOUND('',#362,.T.);
#362 = EDGE_LOOP('',(#363));
#363 = ORIENTED_EDGE('',*,*,#348,.T.);
#364 = FACE_BOUND('',#365,.T.);
#365 = EDGE_LOOP('',(#366));
#366 = ORIENTED_EDGE('',*,*,#367,.F.);
#367 = EDGE_CURVE('',#368,#368,#370,.T.);
#368 = VERTEX_POINT('',#369);
#369 = CARTESIAN_POINT('',(10.063158994192,8.E-15,8.));
#370 = CIRCLE('',#371,10.063158994192);
#371 = AXIS2_PLACEMENT_3D('',#372,#373,#374);
#372 = CARTESIAN_POINT('',(0.,4.53E-15,8.));
#373 = DIRECTION('',(-0.,6.7E-16,1.));
#374 = DIRECTION('',(1.,0.,0.));
#375 = PLANE('',#376);
#376 = AXIS2_PLACEMENT_3D('',#377,#378,#379);
#377 = CARTESIAN_POINT('',(0.,4.53E-15,8.));
#378 = DIRECTION('',(0.,6.7E-16,1.));
#379 = DIRECTION('',(1.,0.,0.));
#380 = ADVANCED_FACE('',(#381),#401,.F.);
#381 = FACE_BOUND('',#382,.F.);
#382 = EDGE_LOOP('',(#383,#392,#399,#400));
#383 = ORIENTED_EDGE('',*,*,#384,.T.);
#384 = EDGE_CURVE('',#385,#385,#387,.T.);
#385 = VERTEX_POINT('',#386);
#386 = CARTESIAN_POINT('',(10.802479627333,7.E-15,7.203937799137));
#387 = CIRCLE('',#388,10.802479627333);
#388 = AXIS2_PLACEMENT_3D('',#389,#390,#391);
#389 = CARTESIAN_POINT('',(0.,4.E-15,7.203937799137));
#390 = DIRECTION('',(-0.,6.7E-16,1.));
#391 = DIRECTION('',(1.,0.,0.));
#392 = ORIENTED_EDGE('',*,*,#393,.T.);
#393 = EDGE_CURVE('',#385,#368,#394,.T.);
#394 = CIRCLE('',#395,0.802489288743);
#395 = AXIS2_PLACEMENT_3D('',#396,#397,#398);
#396 = CARTESIAN_POINT('',(10.,1.33E-15,7.2));
#397 = DIRECTION('',(0.,-1.,2.2E-16));
#398 = DIRECTION('',(1.,0.,0.));
#399 = ORIENTED_EDGE('',*,*,#367,.F.);
#400 = ORIENTED_EDGE('',*,*,#393,.F.);
#401 = TOROIDAL_SURFACE('',#402,10.,0.802489288743);
#402 = AXIS2_PLACEMENT_3D('',#403,#404,#405);
#403 = CARTESIAN_POINT('',(0.,4.E-15,7.2));
#404 = DIRECTION('',(0.,6.7E-16,1.));
#405 = DIRECTION('',(1.,0.,0.));
#406 = ADVANCED_FACE('',(#407),#426,.F.);
#407 = FACE_BOUND('',#408,.F.);
#408 = EDGE_LOOP('',(#409,#418,#424,#425));
#409 = ORIENTED_EDGE('',*,*,#410,.T.);
#410 = EDGE_CURVE('',#411,#411,#413,.T.);
#411 = VERTEX_POINT('',#412);
#412 = CARTESIAN_POINT('',(10.802479627333,0.,1.4));
#413 = CIRCLE('',#414,10.802479627333);
#414 = AXIS2_PLACEMENT_3D('',#415,#416,#417);
#415 = CARTESIAN_POINT('',(0.,1.3E-16,1.4));
#416 = DIRECTION('',(-0.,6.7E-16,1.));
#417 = DIRECTION('',(1.,0.,0.));
#418 = ORIENTED_EDGE('',*,*,#419,.T.);
#419 = EDGE_CURVE('',#411,#385,#420,.T.);
#420 = LINE('',#421,#422);
#421 = CARTESIAN_POINT('',(10.802479627333,4.E-17,1.4));
#422 = VECTOR('',#423,1.);
#423 = DIRECTION('',(0.,2.2E-16,1.));
#424 = ORIENTED_EDGE('',*,*,#384,.F.);
#425 = ORIENTED_EDGE('',*,*,#419,.F.);
#426 = CYLINDRICAL_SURFACE('',#427,10.802479627333);
#427 = AXIS2_PLACEMENT_3D('',#428,#429,#430);
#428 = CARTESIAN_POINT('',(0.,1.3E-16,1.4));
#429 = DIRECTION('',(0.,6.7E-16,1.));
#430 = DIRECTION('',(1.,0.,0.));
#431 = ADVANCED_FACE('',(#432),#435,.T.);
#432 = FACE_BOUND('',#433,.F.);
#433 = EDGE_LOOP('',(#434));
#434 = ORIENTED_EDGE('',*,*,#410,.F.);
#435 = PLANE('',#436);
#436 = AXIS2_PLACEMENT_3D('',#437,#438,#439);
#437 = CARTESIAN_POINT('',(0.,1.3E-16,1.4));
#438 = DIRECTION('',(0.,6.7E-16,1.));
#439 = DIRECTION('',(1.,0.,0.));
#440 = MANIFOLD_SOLID_BREP('',#441);
#441 = CLOSED_SHELL('',(#442,#482,#513,#544,#575,#606,#628,#642));
#442 = ADVANCED_FACE('',(#443),#477,.F.);
#443 = FACE_BOUND('',#444,.F.);
#444 = EDGE_LOOP('',(#445,#455,#463,#471));
#445 = ORIENTED_EDGE('',*,*,#446,.T.);
#446 = EDGE_CURVE('',#447,#449,#451,.T.);
#447 = VERTEX_POINT('',#448);
#448 = CARTESIAN_POINT('',(4.80627900531,0.4,0.));
#449 = VERTEX_POINT('',#450);
#450 = CARTESIAN_POINT('',(4.80627900531,0.4,-3.5));
#451 = LINE('',#452,#453);
#452 = CARTESIAN_POINT('',(4.80627900531,0.4,0.));
#453 = VECTOR('',#454,1.);
#454 = DIRECTION('',(-0.,-0.,-1.));
#455 = ORIENTED_EDGE('',*,*,#456,.T.);
#456 = EDGE_CURVE('',#449,#457,#459,.T.);
#457 = VERTEX_POINT('',#458);
#458 = CARTESIAN_POINT('',(5.128393354003,0.,-3.5));
#459 = LINE('',#460,#461);
#460 = CARTESIAN_POINT('',(4.80627900531,0.4,-3.5));
#461 = VECTOR('',#462,1.);
#462 = DIRECTION('',(0.627202146082,-0.778856513069,0.));
#463 = ORIENTED_EDGE('',*,*,#464,.F.);
#464 = EDGE_CURVE('',#465,#457,#467,.T.);
#465 = VERTEX_POINT('',#466);
#466 = CARTESIAN_POINT('',(5.128393354003,0.,0.));
#467 = LINE('',#468,#469);
#468 = CARTESIAN_POINT('',(5.128393354003,0.,0.));
#469 = VECTOR('',#470,1.);
#470 = DIRECTION('',(-0.,-0.,-1.));
#471 = ORIENTED_EDGE('',*,*,#472,.F.);
#472 = EDGE_CURVE('',#447,#465,#473,.T.);
#473 = LINE('',#474,#475);
#474 = CARTESIAN_POINT('',(4.80627900531,0.4,0.));
#475 = VECTOR('',#476,1.);
#476 = DIRECTION('',(0.627202146082,-0.778856513069,0.));
#477 = PLANE('',#478);
#478 = AXIS2_PLACEMENT_3D('',#479,#480,#481);
#479 = CARTESIAN_POINT('',(4.80627900531,0.4,0.));
#480 = DIRECTION('',(-0.778856513069,-0.627202146082,0.));
#481 = DIRECTION('',(0.627202146082,-0.778856513069,0.));
#482 = ADVANCED_FACE('',(#483),#508,.F.);
#483 = FACE_BOUND('',#484,.F.);
#484 = EDGE_LOOP('',(#485,#486,#494,#502));
#485 = ORIENTED_EDGE('',*,*,#464,.T.);
#486 = ORIENTED_EDGE('',*,*,#487,.T.);
#487 = EDGE_CURVE('',#457,#488,#490,.T.);
#488 = VERTEX_POINT('',#489);
#489 = CARTESIAN_POINT('',(4.80627900531,-0.4,-3.5));
#490 = LINE('',#491,#492);
#491 = CARTESIAN_POINT('',(5.128393354003,0.,-3.5));
#492 = VECTOR('',#493,1.);
#493 = DIRECTION('',(-0.627202146082,-0.778856513069,0.));
#494 = ORIENTED_EDGE('',*,*,#495,.F.);
#495 = EDGE_CURVE('',#496,#488,#498,.T.);
#496 = VERTEX_POINT('',#497);
#497 = CARTESIAN_POINT('',(4.80627900531,-0.4,0.));
#498 = LINE('',#499,#500);
#499 = CARTESIAN_POINT('',(4.80627900531,-0.4,0.));
#500 = VECTOR('',#501,1.);
#501 = DIRECTION('',(-0.,-0.,-1.));
#502 = ORIENTED_EDGE('',*,*,#503,.F.);
#503 = EDGE_CURVE('',#465,#496,#504,.T.);
#504 = LINE('',#505,#506);
#505 = CARTESIAN_POINT('',(5.128393354003,0.,0.));
#506 = VECTOR('',#507,1.);
#507 = DIRECTION('',(-0.627202146082,-0.778856513069,0.));
#508 = PLANE('',#509);
#509 = AXIS2_PLACEMENT_3D('',#510,#511,#512);
#510 = CARTESIAN_POINT('',(5.128393354003,0.,0.));
#511 = DIRECTION('',(-0.778856513069,0.627202146082,0.));
#512 = DIRECTION('',(-0.627202146082,-0.778856513069,0.));
#513 = ADVANCED_FACE('',(#514),#539,.T.);
#514 = FACE_BOUND('',#515,.T.);
#515 = EDGE_LOOP('',(#516,#526,#532,#533));
#516 = ORIENTED_EDGE('',*,*,#517,.T.);
#517 = EDGE_CURVE('',#518,#520,#522,.T.);
#518 = VERTEX_POINT('',#519);
#519 = CARTESIAN_POINT('',(4.728393354003,-0.337279785392,0.));
#520 = VERTEX_POINT('',#521);
#521 = CARTESIAN_POINT('',(4.728393354003,-0.337279785392,-3.5));
#522 = LINE('',#523,#524);
#523 = CARTESIAN_POINT('',(4.728393354003,-0.337279785392,0.));
#524 = VECTOR('',#525,1.);
#525 = DIRECTION('',(-0.,-0.,-1.));
#526 = ORIENTED_EDGE('',*,*,#527,.T.);
#527 = EDGE_CURVE('',#520,#488,#528,.T.);
#528 = LINE('',#529,#530);
#529 = CARTESIAN_POINT('',(4.728393354003,-0.337279785392,-3.5));
#530 = VECTOR('',#531,1.);
#531 = DIRECTION('',(0.778856513069,-0.627202146082,0.));
#532 = ORIENTED_EDGE('',*,*,#495,.F.);
#533 = ORIENTED_EDGE('',*,*,#534,.F.);
#534 = EDGE_CURVE('',#518,#496,#535,.T.);
#535 = LINE('',#536,#537);
#536 = CARTESIAN_POINT('',(4.728393354003,-0.337279785392,0.));
#537 = VECTOR('',#538,1.);
#538 = DIRECTION('',(0.778856513069,-0.627202146082,0.));
#539 = PLANE('',#540);
#540 = AXIS2_PLACEMENT_3D('',#541,#542,#543);
#541 = CARTESIAN_POINT('',(4.728393354003,-0.337279785392,0.));
#542 = DIRECTION('',(-0.627202146082,-0.778856513069,0.));
#543 = DIRECTION('',(0.778856513069,-0.627202146082,0.));
#544 = ADVANCED_FACE('',(#545),#570,.T.);
#545 = FACE_BOUND('',#546,.T.);
#546 = EDGE_LOOP('',(#547,#557,#563,#564));
#547 = ORIENTED_EDGE('',*,*,#548,.T.);
#548 = EDGE_CURVE('',#549,#551,#553,.T.);
#549 = VERTEX_POINT('',#550);
#550 = CARTESIAN_POINT('',(5.,0.,0.));
#551 = VERTEX_POINT('',#552);
#552 = CARTESIAN_POINT('',(5.,0.,-3.5));
#553 = LINE('',#554,#555);
#554 = CARTESIAN_POINT('',(5.,0.,0.));
#555 = VECTOR('',#556,1.);
#556 = DIRECTION('',(-0.,-0.,-1.));
#557 = ORIENTED_EDGE('',*,*,#558,.T.);
#558 = EDGE_CURVE('',#551,#520,#559,.T.);
#559 = LINE('',#560,#561);
#560 = CARTESIAN_POINT('',(5.,0.,-3.5));
#561 = VECTOR('',#562,1.);
#562 = DIRECTION('',(-0.627202146082,-0.778856513069,0.));
#563 = ORIENTED_EDGE('',*,*,#517,.F.);
#564 = ORIENTED_EDGE('',*,*,#565,.F.);
#565 = EDGE_CURVE('',#549,#518,#566,.T.);
#566 = LINE('',#567,#568);
#567 = CARTESIAN_POINT('',(5.,0.,0.));
#568 = VECTOR('',#569,1.);
#569 = DIRECTION('',(-0.627202146082,-0.778856513069,0.));
#570 = PLANE('',#571);
#571 = AXIS2_PLACEMENT_3D('',#572,#573,#574);
#572 = CARTESIAN_POINT('',(5.,0.,0.));
#573 = DIRECTION('',(-0.778856513069,0.627202146082,0.));
#574 = DIRECTION('',(-0.627202146082,-0.778856513069,0.));
#575 = ADVANCED_FACE('',(#576),#601,.T.);
#576 = FACE_BOUND('',#577,.T.);
#577 = EDGE_LOOP('',(#578,#588,#594,#595));
#578 = ORIENTED_EDGE('',*,*,#579,.T.);
#579 = EDGE_CURVE('',#580,#582,#584,.T.);
#580 = VERTEX_POINT('',#581);
#581 = CARTESIAN_POINT('',(4.728393354003,0.337279785392,0.));
#582 = VERTEX_POINT('',#583);
#583 = CARTESIAN_POINT('',(4.728393354003,0.337279785392,-3.5));
#584 = LINE('',#585,#586);
#585 = CARTESIAN_POINT('',(4.728393354003,0.337279785392,0.));
#586 = VECTOR('',#587,1.);
#587 = DIRECTION('',(-0.,-0.,-1.));
#588 = ORIENTED_EDGE('',*,*,#589,.T.);
#589 = EDGE_CURVE('',#582,#551,#590,.T.);
#590 = LINE('',#591,#592);
#591 = CARTESIAN_POINT('',(4.728393354003,0.337279785392,-3.5));
#592 = VECTOR('',#593,1.);
#593 = DIRECTION('',(0.627202146082,-0.778856513069,0.));
#594 = ORIENTED_EDGE('',*,*,#548,.F.);
#595 = ORIENTED_EDGE('',*,*,#596,.F.);
#596 = EDGE_CURVE('',#580,#549,#597,.T.);
#597 = LINE('',#598,#599);
#598 = CARTESIAN_POINT('',(4.728393354003,0.337279785392,0.));
#599 = VECTOR('',#600,1.);
#600 = DIRECTION('',(0.627202146082,-0.778856513069,0.));
#601 = PLANE('',#602);
#602 = AXIS2_PLACEMENT_3D('',#603,#604,#605);
#603 = CARTESIAN_POINT('',(4.728393354003,0.337279785392,0.));
#604 = DIRECTION('',(-0.778856513069,-0.627202146082,0.));
#605 = DIRECTION('',(0.627202146082,-0.778856513069,0.));
#606 = ADVANCED_FACE('',(#607),#623,.T.);
#607 = FACE_BOUND('',#608,.T.);
#608 = EDGE_LOOP('',(#609,#610,#616,#617));
#609 = ORIENTED_EDGE('',*,*,#446,.T.);
#610 = ORIENTED_EDGE('',*,*,#611,.T.);
#611 = EDGE_CURVE('',#449,#582,#612,.T.);
#612 = LINE('',#613,#614);
#613 = CARTESIAN_POINT('',(4.80627900531,0.4,-3.5));
#614 = VECTOR('',#615,1.);
#615 = DIRECTION('',(-0.778856513069,-0.627202146082,0.));
#616 = ORIENTED_EDGE('',*,*,#579,.F.);
#617 = ORIENTED_EDGE('',*,*,#618,.F.);
#618 = EDGE_CURVE('',#447,#580,#619,.T.);
#619 = LINE('',#620,#621);
#620 = CARTESIAN_POINT('',(4.80627900531,0.4,0.));
#621 = VECTOR('',#622,1.);
#622 = DIRECTION('',(-0.778856513069,-0.627202146082,0.));
#623 = PLANE('',#624);
#624 = AXIS2_PLACEMENT_3D('',#625,#626,#627);
#625 = CARTESIAN_POINT('',(4.80627900531,0.4,0.));
#626 = DIRECTION('',(-0.627202146082,0.778856513069,0.));
#627 = DIRECTION('',(-0.778856513069,-0.627202146082,0.));
#628 = ADVANCED_FACE('',(#629),#637,.F.);
#629 = FACE_BOUND('',#630,.F.);
#630 = EDGE_LOOP('',(#631,#632,#633,#634,#635,#636));
#631 = ORIENTED_EDGE('',*,*,#472,.T.);
#632 = ORIENTED_EDGE('',*,*,#503,.T.);
#633 = ORIENTED_EDGE('',*,*,#534,.F.);
#634 = ORIENTED_EDGE('',*,*,#565,.F.);
#635 = ORIENTED_EDGE('',*,*,#596,.F.);
#636 = ORIENTED_EDGE('',*,*,#618,.F.);
#637 = PLANE('',#638);
#638 = AXIS2_PLACEMENT_3D('',#639,#640,#641);
#639 = CARTESIAN_POINT('',(4.905552402628,1.E-17,0.));
#640 = DIRECTION('',(-0.,-0.,-1.));
#641 = DIRECTION('',(-1.,0.,0.));
#642 = ADVANCED_FACE('',(#643),#651,.T.);
#643 = FACE_BOUND('',#644,.T.);
#644 = EDGE_LOOP('',(#645,#646,#647,#648,#649,#650));
#645 = ORIENTED_EDGE('',*,*,#456,.T.);
#646 = ORIENTED_EDGE('',*,*,#487,.T.);
#647 = ORIENTED_EDGE('',*,*,#527,.F.);
#648 = ORIENTED_EDGE('',*,*,#558,.F.);
#649 = ORIENTED_EDGE('',*,*,#589,.F.);
#650 = ORIENTED_EDGE('',*,*,#611,.F.);
#651 = PLANE('',#652);
#652 = AXIS2_PLACEMENT_3D('',#653,#654,#655);
#653 = CARTESIAN_POINT('',(4.905552402628,1.E-17,-3.5));
#654 = DIRECTION('',(-0.,-0.,-1.));
#655 = DIRECTION('',(-1.,0.,0.));
#656 = MANIFOLD_SOLID_BREP('',#657);
#657 = CLOSED_SHELL('',(#658,#698,#729,#760,#791,#822,#844,#858));
#658 = ADVANCED_FACE('',(#659),#693,.F.);
#659 = FACE_BOUND('',#660,.F.);
#660 = EDGE_LOOP('',(#661,#671,#679,#687));
#661 = ORIENTED_EDGE('',*,*,#662,.T.);
#662 = EDGE_CURVE('',#663,#665,#667,.T.);
#663 = VERTEX_POINT('',#664);
#664 = CARTESIAN_POINT('',(-4.80627900531,-0.4,0.));
#665 = VERTEX_POINT('',#666);
#666 = CARTESIAN_POINT('',(-4.80627900531,-0.4,-3.5));
#667 = LINE('',#668,#669);
#668 = CARTESIAN_POINT('',(-4.80627900531,-0.4,0.));
#669 = VECTOR('',#670,1.);
#670 = DIRECTION('',(0.,0.,-1.));
#671 = ORIENTED_EDGE('',*,*,#672,.T.);
#672 = EDGE_CURVE('',#665,#673,#675,.T.);
#673 = VERTEX_POINT('',#674);
#674 = CARTESIAN_POINT('',(-5.128393354003,1.E-15,-3.5));
#675 = LINE('',#676,#677);
#676 = CARTESIAN_POINT('',(-4.80627900531,-0.4,-3.5));
#677 = VECTOR('',#678,1.);
#678 = DIRECTION('',(-0.627202146082,0.778856513069,0.));
#679 = ORIENTED_EDGE('',*,*,#680,.F.);
#680 = EDGE_CURVE('',#681,#673,#683,.T.);
#681 = VERTEX_POINT('',#682);
#682 = CARTESIAN_POINT('',(-5.128393354003,1.E-15,0.));
#683 = LINE('',#684,#685);
#684 = CARTESIAN_POINT('',(-5.128393354003,0.,0.));
#685 = VECTOR('',#686,1.);
#686 = DIRECTION('',(0.,0.,-1.));
#687 = ORIENTED_EDGE('',*,*,#688,.F.);
#688 = EDGE_CURVE('',#663,#681,#689,.T.);
#689 = LINE('',#690,#691);
#690 = CARTESIAN_POINT('',(-4.80627900531,-0.4,0.));
#691 = VECTOR('',#692,1.);
#692 = DIRECTION('',(-0.627202146082,0.778856513069,0.));
#693 = PLANE('',#694);
#694 = AXIS2_PLACEMENT_3D('',#695,#696,#697);
#695 = CARTESIAN_POINT('',(-4.80627900531,-0.4,0.));
#696 = DIRECTION('',(0.778856513069,0.627202146082,0.));
#697 = DIRECTION('',(-0.627202146082,0.778856513069,0.));
#698 = ADVANCED_FACE('',(#699),#724,.F.);
#699 = FACE_BOUND('',#700,.F.);
#700 = EDGE_LOOP('',(#701,#702,#710,#718));
#701 = ORIENTED_EDGE('',*,*,#680,.T.);
#702 = ORIENTED_EDGE('',*,*,#703,.T.);
#703 = EDGE_CURVE('',#673,#704,#706,.T.);
#704 = VERTEX_POINT('',#705);
#705 = CARTESIAN_POINT('',(-4.80627900531,0.4,-3.5));
#706 = LINE('',#707,#708);
#707 = CARTESIAN_POINT('',(-5.128393354003,0.,-3.5));
#708 = VECTOR('',#709,1.);
#709 = DIRECTION('',(0.627202146082,0.778856513069,0.));
#710 = ORIENTED_EDGE('',*,*,#711,.F.);
#711 = EDGE_CURVE('',#712,#704,#714,.T.);
#712 = VERTEX_POINT('',#713);
#713 = CARTESIAN_POINT('',(-4.80627900531,0.4,0.));
#714 = LINE('',#715,#716);
#715 = CARTESIAN_POINT('',(-4.80627900531,0.4,0.));
#716 = VECTOR('',#717,1.);
#717 = DIRECTION('',(0.,0.,-1.));
#718 = ORIENTED_EDGE('',*,*,#719,.F.);
#719 = EDGE_CURVE('',#681,#712,#720,.T.);
#720 = LINE('',#721,#722);
#721 = CARTESIAN_POINT('',(-5.128393354003,0.,0.));
#722 = VECTOR('',#723,1.);
#723 = DIRECTION('',(0.627202146082,0.778856513069,0.));
#724 = PLANE('',#725);
#725 = AXIS2_PLACEMENT_3D('',#726,#727,#728);
#726 = CARTESIAN_POINT('',(-5.128393354003,0.,0.));
#727 = DIRECTION('',(0.778856513069,-0.627202146082,0.));
#728 = DIRECTION('',(0.627202146082,0.778856513069,0.));
#729 = ADVANCED_FACE('',(#730),#755,.T.);
#730 = FACE_BOUND('',#731,.T.);
#731 = EDGE_LOOP('',(#732,#742,#748,#749));
#732 = ORIENTED_EDGE('',*,*,#733,.T.);
#733 = EDGE_CURVE('',#734,#736,#738,.T.);
#734 = VERTEX_POINT('',#735);
#735 = CARTESIAN_POINT('',(-4.728393354003,0.337279785392,0.));
#736 = VERTEX_POINT('',#737);
#737 = CARTESIAN_POINT('',(-4.728393354003,0.337279785392,-3.5));
#738 = LINE('',#739,#740);
#739 = CARTESIAN_POINT('',(-4.728393354003,0.337279785392,0.));
#740 = VECTOR('',#741,1.);
#741 = DIRECTION('',(0.,0.,-1.));
#742 = ORIENTED_EDGE('',*,*,#743,.T.);
#743 = EDGE_CURVE('',#736,#704,#744,.T.);
#744 = LINE('',#745,#746);
#745 = CARTESIAN_POINT('',(-4.728393354003,0.337279785392,-3.5));
#746 = VECTOR('',#747,1.);
#747 = DIRECTION('',(-0.778856513069,0.627202146082,0.));
#748 = ORIENTED_EDGE('',*,*,#711,.F.);
#749 = ORIENTED_EDGE('',*,*,#750,.F.);
#750 = EDGE_CURVE('',#734,#712,#751,.T.);
#751 = LINE('',#752,#753);
#752 = CARTESIAN_POINT('',(-4.728393354003,0.337279785392,0.));
#753 = VECTOR('',#754,1.);
#754 = DIRECTION('',(-0.778856513069,0.627202146082,0.));
#755 = PLANE('',#756);
#756 = AXIS2_PLACEMENT_3D('',#757,#758,#759);
#757 = CARTESIAN_POINT('',(-4.728393354003,0.337279785392,0.));
#758 = DIRECTION('',(0.627202146082,0.778856513069,0.));
#759 = DIRECTION('',(-0.778856513069,0.627202146082,0.));
#760 = ADVANCED_FACE('',(#761),#786,.T.);
#761 = FACE_BOUND('',#762,.T.);
#762 = EDGE_LOOP('',(#763,#773,#779,#780));
#763 = ORIENTED_EDGE('',*,*,#764,.T.);
#764 = EDGE_CURVE('',#765,#767,#769,.T.);
#765 = VERTEX_POINT('',#766);
#766 = CARTESIAN_POINT('',(-5.,1.E-15,0.));
#767 = VERTEX_POINT('',#768);
#768 = CARTESIAN_POINT('',(-5.,1.E-15,-3.5));
#769 = LINE('',#770,#771);
#770 = CARTESIAN_POINT('',(-5.,0.,0.));
#771 = VECTOR('',#772,1.);
#772 = DIRECTION('',(0.,0.,-1.));
#773 = ORIENTED_EDGE('',*,*,#774,.T.);
#774 = EDGE_CURVE('',#767,#736,#775,.T.);
#775 = LINE('',#776,#777);
#776 = CARTESIAN_POINT('',(-5.,0.,-3.5));
#777 = VECTOR('',#778,1.);
#778 = DIRECTION('',(0.627202146082,0.778856513069,0.));
#779 = ORIENTED_EDGE('',*,*,#733,.F.);
#780 = ORIENTED_EDGE('',*,*,#781,.F.);
#781 = EDGE_CURVE('',#765,#734,#782,.T.);
#782 = LINE('',#783,#784);
#783 = CARTESIAN_POINT('',(-5.,0.,0.));
#784 = VECTOR('',#785,1.);
#785 = DIRECTION('',(0.627202146082,0.778856513069,0.));
#786 = PLANE('',#787);
#787 = AXIS2_PLACEMENT_3D('',#788,#789,#790);
#788 = CARTESIAN_POINT('',(-5.,0.,0.));
#789 = DIRECTION('',(0.778856513069,-0.627202146082,0.));
#790 = DIRECTION('',(0.627202146082,0.778856513069,0.));
#791 = ADVANCED_FACE('',(#792),#817,.T.);
#792 = FACE_BOUND('',#793,.T.);
#793 = EDGE_LOOP('',(#794,#804,#810,#811));
#794 = ORIENTED_EDGE('',*,*,#795,.T.);
#795 = EDGE_CURVE('',#796,#798,#800,.T.);
#796 = VERTEX_POINT('',#797);
#797 = CARTESIAN_POINT('',(-4.728393354003,-0.337279785392,0.));
#798 = VERTEX_POINT('',#799);
#799 = CARTESIAN_POINT('',(-4.728393354003,-0.337279785392,-3.5));
#800 = LINE('',#801,#802);
#801 = CARTESIAN_POINT('',(-4.728393354003,-0.337279785392,0.));
#802 = VECTOR('',#803,1.);
#803 = DIRECTION('',(0.,0.,-1.));
#804 = ORIENTED_EDGE('',*,*,#805,.T.);
#805 = EDGE_CURVE('',#798,#767,#806,.T.);
#806 = LINE('',#807,#808);
#807 = CARTESIAN_POINT('',(-4.728393354003,-0.337279785392,-3.5));
#808 = VECTOR('',#809,1.);
#809 = DIRECTION('',(-0.627202146082,0.778856513069,0.));
#810 = ORIENTED_EDGE('',*,*,#764,.F.);
#811 = ORIENTED_EDGE('',*,*,#812,.F.);
#812 = EDGE_CURVE('',#796,#765,#813,.T.);
#813 = LINE('',#814,#815);
#814 = CARTESIAN_POINT('',(-4.728393354003,-0.337279785392,0.));
#815 = VECTOR('',#816,1.);
#816 = DIRECTION('',(-0.627202146082,0.778856513069,0.));
#817 = PLANE('',#818);
#818 = AXIS2_PLACEMENT_3D('',#819,#820,#821);
#819 = CARTESIAN_POINT('',(-4.728393354003,-0.337279785392,0.));
#820 = DIRECTION('',(0.778856513069,0.627202146082,0.));
#821 = DIRECTION('',(-0.627202146082,0.778856513069,0.));
#822 = ADVANCED_FACE('',(#823),#839,.T.);
#823 = FACE_BOUND('',#824,.T.);
#824 = EDGE_LOOP('',(#825,#826,#832,#833));
#825 = ORIENTED_EDGE('',*,*,#662,.T.);
#826 = ORIENTED_EDGE('',*,*,#827,.T.);
#827 = EDGE_CURVE('',#665,#798,#828,.T.);
#828 = LINE('',#829,#830);
#829 = CARTESIAN_POINT('',(-4.80627900531,-0.4,-3.5));
#830 = VECTOR('',#831,1.);
#831 = DIRECTION('',(0.778856513069,0.627202146082,0.));
#832 = ORIENTED_EDGE('',*,*,#795,.F.);
#833 = ORIENTED_EDGE('',*,*,#834,.F.);
#834 = EDGE_CURVE('',#663,#796,#835,.T.);
#835 = LINE('',#836,#837);
#836 = CARTESIAN_POINT('',(-4.80627900531,-0.4,0.));
#837 = VECTOR('',#838,1.);
#838 = DIRECTION('',(0.778856513069,0.627202146082,0.));
#839 = PLANE('',#840);
#840 = AXIS2_PLACEMENT_3D('',#841,#842,#843);
#841 = CARTESIAN_POINT('',(-4.80627900531,-0.4,0.));
#842 = DIRECTION('',(0.627202146082,-0.778856513069,0.));
#843 = DIRECTION('',(0.778856513069,0.627202146082,0.));
#844 = ADVANCED_FACE('',(#845),#853,.F.);
#845 = FACE_BOUND('',#846,.F.);
#846 = EDGE_LOOP('',(#847,#848,#849,#850,#851,#852));
#847 = ORIENTED_EDGE('',*,*,#688,.T.);
#848 = ORIENTED_EDGE('',*,*,#719,.T.);
#849 = ORIENTED_EDGE('',*,*,#750,.F.);
#850 = ORIENTED_EDGE('',*,*,#781,.F.);
#851 = ORIENTED_EDGE('',*,*,#812,.F.);
#852 = ORIENTED_EDGE('',*,*,#834,.F.);
#853 = PLANE('',#854);
#854 = AXIS2_PLACEMENT_3D('',#855,#856,#857);
#855 = CARTESIAN_POINT('',(-4.905552402628,-1.E-17,0.));
#856 = DIRECTION('',(0.,0.,-1.));
#857 = DIRECTION('',(1.,0.,0.));
#858 = ADVANCED_FACE('',(#859),#867,.T.);
#859 = FACE_BOUND('',#860,.T.);
#860 = EDGE_LOOP('',(#861,#862,#863,#864,#865,#866));
#861 = ORIENTED_EDGE('',*,*,#672,.T.);
#862 = ORIENTED_EDGE('',*,*,#703,.T.);
#863 = ORIENTED_EDGE('',*,*,#743,.F.);
#864 = ORIENTED_EDGE('',*,*,#774,.F.);
#865 = ORIENTED_EDGE('',*,*,#805,.F.);
#866 = ORIENTED_EDGE('',*,*,#827,.F.);
#867 = PLANE('',#868);
#868 = AXIS2_PLACEMENT_3D('',#869,#870,#871);
#869 = CARTESIAN_POINT('',(-4.905552402628,-1.E-17,-3.5));
#870 = DIRECTION('',(0.,0.,-1.));
#871 = DIRECTION('',(1.,0.,0.));
#872 = ( GEOMETRIC_REPRESENTATION_CONTEXT(3) 
GLOBAL_UNCERTAINTY_ASSIGNED_CONTEXT((#876)) GLOBAL_UNIT_ASSIGNED_CONTEXT
((#873,#874,#875)) REPRESENTATION_CONTEXT('Context #1',
  '3D Context with UNIT and UNCERTAINTY') );
#873 = ( LENGTH_UNIT() NAMED_UNIT(*) SI_UNIT(.MILLI.,.METRE.) );
#874 = ( NAMED_UNIT(*) PLANE_ANGLE_UNIT() SI_UNIT($,.RADIAN.) );
#875 = ( NAMED_UNIT(*) SI_UNIT($,.STERADIAN.) SOLID_ANGLE_UNIT() );
#876 = UNCERTAINTY_MEASURE_WITH_UNIT(LENGTH_MEASURE(1.E-07),#873,
  'distance_accuracy_value','confusion accuracy');
#877 = PRODUCT_RELATED_PRODUCT_CATEGORY('part',$,(#7));
#878 = MECHANICAL_DESIGN_GEOMETRIC_PRESENTATION_REPRESENTATION('',(#879,
    #890,#898,#905,#912,#919,#926,#933,#940,#947,#954,#961,#968,#975,
    #982,#989,#996,#1003,#1010,#1017,#1024,#1033,#1041,#1048,#1055,#1062
    ,#1069,#1076,#1083,#1090,#1099,#1106,#1113,#1120,#1127,#1134,#1141,
    #1148),#872);
#879 = STYLED_ITEM('color',(#880),#15);
#880 = PRESENTATION_STYLE_ASSIGNMENT((#881,#887));
#881 = SURFACE_STYLE_USAGE(.BOTH.,#882);
#882 = SURFACE_SIDE_STYLE('',(#883));
#883 = SURFACE_STYLE_FILL_AREA(#884);
#884 = FILL_AREA_STYLE('',(#885));
#885 = FILL_AREA_STYLE_COLOUR('',#886);
#886 = COLOUR_RGB('',0.800000011921,0.800000011921,0.800000011921);
#887 = CURVE_STYLE('',#888,POSITIVE_LENGTH_MEASURE(0.1),#889);
#888 = DRAUGHTING_PRE_DEFINED_CURVE_FONT('continuous');
#889 = COLOUR_RGB('',9.803921729326E-02,9.803921729326E-02,
  9.803921729326E-02);
#890 = OVER_RIDING_STYLED_ITEM('overriding color',(#891),#17,#879);
#891 = PRESENTATION_STYLE_ASSIGNMENT((#892));
#892 = SURFACE_STYLE_USAGE(.BOTH.,#893);
#893 = SURFACE_SIDE_STYLE('',(#894));
#894 = SURFACE_STYLE_FILL_AREA(#895);
#895 = FILL_AREA_STYLE('',(#896));
#896 = FILL_AREA_STYLE_COLOUR('',#897);
#897 = COLOUR_RGB('',0.148000001907,0.144999995828,0.144999995828);
#898 = OVER_RIDING_STYLED_ITEM('overriding color',(#899),#50,#879);
#899 = PRESENTATION_STYLE_ASSIGNMENT((#900));
#900 = SURFACE_STYLE_USAGE(.BOTH.,#901);
#901 = SURFACE_SIDE_STYLE('',(#902));
#902 = SURFACE_STYLE_FILL_AREA(#903);
#903 = FILL_AREA_STYLE('',(#904));
#904 = FILL_AREA_STYLE_COLOUR('',#897);
#905 = OVER_RIDING_STYLED_ITEM('overriding color',(#906),#75,#879);
#906 = PRESENTATION_STYLE_ASSIGNMENT((#907));
#907 = SURFACE_STYLE_USAGE(.BOTH.,#908);
#908 = SURFACE_SIDE_STYLE('',(#909));
#909 = SURFACE_STYLE_FILL_AREA(#910);
#910 = FILL_AREA_STYLE('',(#911));
#911 = FILL_AREA_STYLE_COLOUR('',#897);
#912 = OVER_RIDING_STYLED_ITEM('overriding color',(#913),#128,#879);
#913 = PRESENTATION_STYLE_ASSIGNMENT((#914));
#914 = SURFACE_STYLE_USAGE(.BOTH.,#915);
#915 = SURFACE_SIDE_STYLE('',(#916));
#916 = SURFACE_STYLE_FILL_AREA(#917);
#917 = FILL_AREA_STYLE('',(#918));
#918 = FILL_AREA_STYLE_COLOUR('',#897);
#919 = OVER_RIDING_STYLED_ITEM('overriding color',(#920),#137,#879);
#920 = PRESENTATION_STYLE_ASSIGNMENT((#921));
#921 = SURFACE_STYLE_USAGE(.BOTH.,#922);
#922 = SURFACE_SIDE_STYLE('',(#923));
#923 = SURFACE_STYLE_FILL_AREA(#924);
#924 = FILL_AREA_STYLE('',(#925));
#925 = FILL_AREA_STYLE_COLOUR('',#897);
#926 = OVER_RIDING_STYLED_ITEM('overriding color',(#927),#162,#879);
#927 = PRESENTATION_STYLE_ASSIGNMENT((#928));
#928 = SURFACE_STYLE_USAGE(.BOTH.,#929);
#929 = SURFACE_SIDE_STYLE('',(#930));
#930 = SURFACE_STYLE_FILL_AREA(#931);
#931 = FILL_AREA_STYLE('',(#932));
#932 = FILL_AREA_STYLE_COLOUR('',#897);
#933 = OVER_RIDING_STYLED_ITEM('overriding color',(#934),#187,#879);
#934 = PRESENTATION_STYLE_ASSIGNMENT((#935));
#935 = SURFACE_STYLE_USAGE(.BOTH.,#936);
#936 = SURFACE_SIDE_STYLE('',(#937));
#937 = SURFACE_STYLE_FILL_AREA(#938);
#938 = FILL_AREA_STYLE('',(#939));
#939 = FILL_AREA_STYLE_COLOUR('',#897);
#940 = OVER_RIDING_STYLED_ITEM('overriding color',(#941),#212,#879);
#941 = PRESENTATION_STYLE_ASSIGNMENT((#942));
#942 = SURFACE_STYLE_USAGE(.BOTH.,#943);
#943 = SURFACE_SIDE_STYLE('',(#944));
#944 = SURFACE_STYLE_FILL_AREA(#945);
#945 = FILL_AREA_STYLE('',(#946));
#946 = FILL_AREA_STYLE_COLOUR('',#897);
#947 = OVER_RIDING_STYLED_ITEM('overriding color',(#948),#237,#879);
#948 = PRESENTATION_STYLE_ASSIGNMENT((#949));
#949 = SURFACE_STYLE_USAGE(.BOTH.,#950);
#950 = SURFACE_SIDE_STYLE('',(#951));
#951 = SURFACE_STYLE_FILL_AREA(#952);
#952 = FILL_AREA_STYLE('',(#953));
#953 = FILL_AREA_STYLE_COLOUR('',#897);
#954 = OVER_RIDING_STYLED_ITEM('overriding color',(#955),#263,#879);
#955 = PRESENTATION_STYLE_ASSIGNMENT((#956));
#956 = SURFACE_STYLE_USAGE(.BOTH.,#957);
#957 = SURFACE_SIDE_STYLE('',(#958));
#958 = SURFACE_STYLE_FILL_AREA(#959);
#959 = FILL_AREA_STYLE('',(#960));
#960 = FILL_AREA_STYLE_COLOUR('',#897);
#961 = OVER_RIDING_STYLED_ITEM('overriding color',(#962),#272,#879);
#962 = PRESENTATION_STYLE_ASSIGNMENT((#963));
#963 = SURFACE_STYLE_USAGE(.BOTH.,#964);
#964 = SURFACE_SIDE_STYLE('',(#965));
#965 = SURFACE_STYLE_FILL_AREA(#966);
#966 = FILL_AREA_STYLE('',(#967));
#967 = FILL_AREA_STYLE_COLOUR('',#897);
#968 = OVER_RIDING_STYLED_ITEM('overriding color',(#969),#281,#879);
#969 = PRESENTATION_STYLE_ASSIGNMENT((#970));
#970 = SURFACE_STYLE_USAGE(.BOTH.,#971);
#971 = SURFACE_SIDE_STYLE('',(#972));
#972 = SURFACE_STYLE_FILL_AREA(#973);
#973 = FILL_AREA_STYLE('',(#974));
#974 = FILL_AREA_STYLE_COLOUR('',#897);
#975 = OVER_RIDING_STYLED_ITEM('overriding color',(#976),#306,#879);
#976 = PRESENTATION_STYLE_ASSIGNMENT((#977));
#977 = SURFACE_STYLE_USAGE(.BOTH.,#978);
#978 = SURFACE_SIDE_STYLE('',(#979));
#979 = SURFACE_STYLE_FILL_AREA(#980);
#980 = FILL_AREA_STYLE('',(#981));
#981 = FILL_AREA_STYLE_COLOUR('',#897);
#982 = OVER_RIDING_STYLED_ITEM('overriding color',(#983),#326,#879);
#983 = PRESENTATION_STYLE_ASSIGNMENT((#984));
#984 = SURFACE_STYLE_USAGE(.BOTH.,#985);
#985 = SURFACE_SIDE_STYLE('',(#986));
#986 = SURFACE_STYLE_FILL_AREA(#987);
#987 = FILL_AREA_STYLE('',(#988));
#988 = FILL_AREA_STYLE_COLOUR('',#897);
#989 = OVER_RIDING_STYLED_ITEM('overriding color',(#990),#335,#879);
#990 = PRESENTATION_STYLE_ASSIGNMENT((#991));
#991 = SURFACE_STYLE_USAGE(.BOTH.,#992);
#992 = SURFACE_SIDE_STYLE('',(#993));
#993 = SURFACE_STYLE_FILL_AREA(#994);
#994 = FILL_AREA_STYLE('',(#995));
#995 = FILL_AREA_STYLE_COLOUR('',#897);
#996 = OVER_RIDING_STYLED_ITEM('overriding color',(#997),#360,#879);
#997 = PRESENTATION_STYLE_ASSIGNMENT((#998));
#998 = SURFACE_STYLE_USAGE(.BOTH.,#999);
#999 = SURFACE_SIDE_STYLE('',(#1000));
#1000 = SURFACE_STYLE_FILL_AREA(#1001);
#1001 = FILL_AREA_STYLE('',(#1002));
#1002 = FILL_AREA_STYLE_COLOUR('',#897);
#1003 = OVER_RIDING_STYLED_ITEM('overriding color',(#1004),#380,#879);
#1004 = PRESENTATION_STYLE_ASSIGNMENT((#1005));
#1005 = SURFACE_STYLE_USAGE(.BOTH.,#1006);
#1006 = SURFACE_SIDE_STYLE('',(#1007));
#1007 = SURFACE_STYLE_FILL_AREA(#1008);
#1008 = FILL_AREA_STYLE('',(#1009));
#1009 = FILL_AREA_STYLE_COLOUR('',#897);
#1010 = OVER_RIDING_STYLED_ITEM('overriding color',(#1011),#406,#879);
#1011 = PRESENTATION_STYLE_ASSIGNMENT((#1012));
#1012 = SURFACE_STYLE_USAGE(.BOTH.,#1013);
#1013 = SURFACE_SIDE_STYLE('',(#1014));
#1014 = SURFACE_STYLE_FILL_AREA(#1015);
#1015 = FILL_AREA_STYLE('',(#1016));
#1016 = FILL_AREA_STYLE_COLOUR('',#897);
#1017 = OVER_RIDING_STYLED_ITEM('overriding color',(#1018),#431,#879);
#1018 = PRESENTATION_STYLE_ASSIGNMENT((#1019));
#1019 = SURFACE_STYLE_USAGE(.BOTH.,#1020);
#1020 = SURFACE_SIDE_STYLE('',(#1021));
#1021 = SURFACE_STYLE_FILL_AREA(#1022);
#1022 = FILL_AREA_STYLE('',(#1023));
#1023 = FILL_AREA_STYLE_COLOUR('',#897);
#1024 = STYLED_ITEM('color',(#1025),#440);
#1025 = PRESENTATION_STYLE_ASSIGNMENT((#1026,#1031));
#1026 = SURFACE_STYLE_USAGE(.BOTH.,#1027);
#1027 = SURFACE_SIDE_STYLE('',(#1028));
#1028 = SURFACE_STYLE_FILL_AREA(#1029);
#1029 = FILL_AREA_STYLE('',(#1030));
#1030 = FILL_AREA_STYLE_COLOUR('',#886);
#1031 = CURVE_STYLE('',#1032,POSITIVE_LENGTH_MEASURE(0.1),#889);
#1032 = DRAUGHTING_PRE_DEFINED_CURVE_FONT('continuous');
#1033 = OVER_RIDING_STYLED_ITEM('overriding color',(#1034),#442,#1024);
#1034 = PRESENTATION_STYLE_ASSIGNMENT((#1035));
#1035 = SURFACE_STYLE_USAGE(.BOTH.,#1036);
#1036 = SURFACE_SIDE_STYLE('',(#1037));
#1037 = SURFACE_STYLE_FILL_AREA(#1038);
#1038 = FILL_AREA_STYLE('',(#1039));
#1039 = FILL_AREA_STYLE_COLOUR('',#1040);
#1040 = COLOUR_RGB('',0.824000000954,0.819999992847,0.78100001812);
#1041 = OVER_RIDING_STYLED_ITEM('overriding color',(#1042),#482,#1024);
#1042 = PRESENTATION_STYLE_ASSIGNMENT((#1043));
#1043 = SURFACE_STYLE_USAGE(.BOTH.,#1044);
#1044 = SURFACE_SIDE_STYLE('',(#1045));
#1045 = SURFACE_STYLE_FILL_AREA(#1046);
#1046 = FILL_AREA_STYLE('',(#1047));
#1047 = FILL_AREA_STYLE_COLOUR('',#1040);
#1048 = OVER_RIDING_STYLED_ITEM('overriding color',(#1049),#513,#1024);
#1049 = PRESENTATION_STYLE_ASSIGNMENT((#1050));
#1050 = SURFACE_STYLE_USAGE(.BOTH.,#1051);
#1051 = SURFACE_SIDE_STYLE('',(#1052));
#1052 = SURFACE_STYLE_FILL_AREA(#1053);
#1053 = FILL_AREA_STYLE('',(#1054));
#1054 = FILL_AREA_STYLE_COLOUR('',#1040);
#1055 = OVER_RIDING_STYLED_ITEM('overriding color',(#1056),#544,#1024);
#1056 = PRESENTATION_STYLE_ASSIGNMENT((#1057));
#1057 = SURFACE_STYLE_USAGE(.BOTH.,#1058);
#1058 = SURFACE_SIDE_STYLE('',(#1059));
#1059 = SURFACE_STYLE_FILL_AREA(#1060);
#1060 = FILL_AREA_STYLE('',(#1061));
#1061 = FILL_AREA_STYLE_COLOUR('',#1040);
#1062 = OVER_RIDING_STYLED_ITEM('overriding color',(#1063),#575,#1024);
#1063 = PRESENTATION_STYLE_ASSIGNMENT((#1064));
#1064 = SURFACE_STYLE_USAGE(.BOTH.,#1065);
#1065 = SURFACE_SIDE_STYLE('',(#1066));
#1066 = SURFACE_STYLE_FILL_AREA(#1067);
#1067 = FILL_AREA_STYLE('',(#1068));
#1068 = FILL_AREA_STYLE_COLOUR('',#1040);
#1069 = OVER_RIDING_STYLED_ITEM('overriding color',(#1070),#606,#1024);
#1070 = PRESENTATION_STYLE_ASSIGNMENT((#1071));
#1071 = SURFACE_STYLE_USAGE(.BOTH.,#1072);
#1072 = SURFACE_SIDE_STYLE('',(#1073));
#1073 = SURFACE_STYLE_FILL_AREA(#1074);
#1074 = FILL_AREA_STYLE('',(#1075));
#1075 = FILL_AREA_STYLE_COLOUR('',#1040);
#1076 = OVER_RIDING_STYLED_ITEM('overriding color',(#1077),#628,#1024);
#1077 = PRESENTATION_STYLE_ASSIGNMENT((#1078));
#1078 = SURFACE_STYLE_USAGE(.BOTH.,#1079);
#1079 = SURFACE_SIDE_STYLE('',(#1080));
#1080 = SURFACE_STYLE_FILL_AREA(#1081);
#1081 = FILL_AREA_STYLE('',(#1082));
#1082 = FILL_AREA_STYLE_COLOUR('',#1040);
#1083 = OVER_RIDING_STYLED_ITEM('overriding color',(#1084),#642,#1024);
#1084 = PRESENTATION_STYLE_ASSIGNMENT((#1085));
#1085 = SURFACE_STYLE_USAGE(.BOTH.,#1086);
#1086 = SURFACE_SIDE_STYLE('',(#1087));
#1087 = SURFACE_STYLE_FILL_AREA(#1088);
#1088 = FILL_AREA_STYLE('',(#1089));
#1089 = FILL_AREA_STYLE_COLOUR('',#1040);
#1090 = STYLED_ITEM('color',(#1091),#656);
#1091 = PRESENTATION_STYLE_ASSIGNMENT((#1092,#1097));
#1092 = SURFACE_STYLE_USAGE(.BOTH.,#1093);
#1093 = SURFACE_SIDE_STYLE('',(#1094));
#1094 = SURFACE_STYLE_FILL_AREA(#1095);
#1095 = FILL_AREA_STYLE('',(#1096));
#1096 = FILL_AREA_STYLE_COLOUR('',#886);
#1097 = CURVE_STYLE('',#1098,POSITIVE_LENGTH_MEASURE(0.1),#889);
#1098 = DRAUGHTING_PRE_DEFINED_CURVE_FONT('continuous');
#1099 = OVER_RIDING_STYLED_ITEM('overriding color',(#1100),#658,#1090);
#1100 = PRESENTATION_STYLE_ASSIGNMENT((#1101));
#1101 = SURFACE_STYLE_USAGE(.BOTH.,#1102);
#1102 = SURFACE_SIDE_STYLE('',(#1103));
#1103 = SURFACE_STYLE_FILL_AREA(#1104);
#1104 = FILL_AREA_STYLE('',(#1105));
#1105 = FILL_AREA_STYLE_COLOUR('',#1040);
#1106 = OVER_RIDING_STYLED_ITEM('overriding color',(#1107),#698,#1090);
#1107 = PRESENTATION_STYLE_ASSIGNMENT((#1108));
#1108 = SURFACE_STYLE_USAGE(.BOTH.,#1109);
#1109 = SURFACE_SIDE_STYLE('',(#1110));
#1110 = SURFACE_STYLE_FILL_AREA(#1111);
#1111 = FILL_AREA_STYLE('',(#1112));
#1112 = FILL_AREA_STYLE_COLOUR('',#1040);
#1113 = OVER_RIDING_STYLED_ITEM('overriding color',(#1114),#729,#1090);
#1114 = PRESENTATION_STYLE_ASSIGNMENT((#1115));
#1115 = SURFACE_STYLE_USAGE(.BOTH.,#1116);
#1116 = SURFACE_SIDE_STYLE('',(#1117));
#1117 = SURFACE_STYLE_FILL_AREA(#1118);
#1118 = FILL_AREA_STYLE('',(#1119));
#1119 = FILL_AREA_STYLE_COLOUR('',#1040);
#1120 = OVER_RIDING_STYLED_ITEM('overriding color',(#1121),#760,#1090);
#1121 = PRESENTATION_STYLE_ASSIGNMENT((#1122));
#1122 = SURFACE_STYLE_USAGE(.BOTH.,#1123);
#1123 = SURFACE_SIDE_STYLE('',(#1124));
#1124 = SURFACE_STYLE_FILL_AREA(#1125);
#1125 = FILL_AREA_STYLE('',(#1126));
#1126 = FILL_AREA_STYLE_COLOUR('',#1040);
#1127 = OVER_RIDING_STYLED_ITEM('overriding color',(#1128),#791,#1090);
#1128 = PRESENTATION_STYLE_ASSIGNMENT((#1129));
#1129 = SURFACE_STYLE_USAGE(.BOTH.,#1130);
#1130 = SURFACE_SIDE_STYLE('',(#1131));
#1131 = SURFACE_STYLE_FILL_AREA(#1132);
#1132 = FILL_AREA_STYLE('',(#1133));
#1133 = FILL_AREA_STYLE_COLOUR('',#1040);
#1134 = OVER_RIDING_STYLED_ITEM('overriding color',(#1135),#822,#1090);
#1135 = PRESENTATION_STYLE_ASSIGNMENT((#1136));
#1136 = SURFACE_STYLE_USAGE(.BOTH.,#1137);
#1137 = SURFACE_SIDE_STYLE('',(#1138));
#1138 = SURFACE_STYLE_FILL_AREA(#1139);
#1139 = FILL_AREA_STYLE('',(#1140));
#1140 = FILL_AREA_STYLE_COLOUR('',#1040);
#1141 = OVER_RIDING_STYLED_ITEM('overriding color',(#1142),#844,#1090);
#1142 = PRESENTATION_STYLE_ASSIGNMENT((#1143));
#1143 = SURFACE_STYLE_USAGE(.BOTH.,#1144);
#1144 = SURFACE_SIDE_STYLE('',(#1145));
#1145 = SURFACE_STYLE_FILL_AREA(#1146);
#1146 = FILL_AREA_STYLE('',(#1147));
#1147 = FILL_AREA_STYLE_COLOUR('',#1040);
#1148 = OVER_RIDING_STYLED_ITEM('overriding color',(#1149),#858,#1090);
#1149 = PRESENTATION_STYLE_ASSIGNMENT((#1150));
#1150 = SURFACE_STYLE_USAGE(.BOTH.,#1151);
#1151 = SURFACE_SIDE_STYLE('',(#1152));
#1152 = SURFACE_STYLE_FILL_AREA(#1153);
#1153 = FILL_AREA_STYLE('',(#1154));
#1154 = FILL_AREA_STYLE_COLOUR('',#1040);
ENDSEC;
END-ISO-10303-21;
