#VRML V2.0 utf8
#kicad StepUp wrl exported

Shape {
    appearance Appearance {material DEF PIN-01 Material {
        ambientIntensity 0.271
        diffuseColor 0.824 0.820 0.781
        specularColor 0.328 0.258 0.172
        emissiveColor 0.0 0.0 0.0
        shininess 0.70
        transparency 0.0
        }
    }
}
Shape {
    appearance Appearance {material DEF MET-01 Material {
        ambientIntensity 0.249999
        diffuseColor 0.298 0.298 0.298
        specularColor 0.398 0.398 0.398
        emissiveColor 0.0 0.0 0.0
        shininess 0.056122
        transparency 0.0
        }
    }
}
Shape {
    appearance Appearance {material DEF PIN-02 Material {
        ambientIntensity 0.379
        diffuseColor 0.859 0.738 0.496
        specularColor 0.137 0.145 0.184
        emissiveColor 0.0 0.0 0.0
        shininess 0.40
        transparency 0.0
        }
    }
}
Shape {
    appearance Appearance {material DEF IC-BODY-EPOXY-04 Material {
        ambientIntensity 0.293
        diffuseColor 0.148 0.145 0.145
        specularColor 0.180 0.168 0.160
        emissiveColor 0.0 0.0 0.0
        shininess 0.35
        transparency 0.0
        }
    }
}
Shape {
    appearance Appearance {material DEF RES-SMD-01 Material {
        diffuseColor 0.082 0.086 0.094
        emissiveColor 0.000 0.000 0.000
        specularColor 0.066 0.063 0.063
        ambientIntensity 0.638
        transparency 0.0
        shininess 0.3
        }
    }
}
Shape {
    appearance Appearance {material DEF IC-BODY-EPOXY-01 Material {
        ambientIntensity 0.117
        diffuseColor 0.250 0.262 0.281
        specularColor 0.316 0.281 0.176
        emissiveColor 0.0 0.0 0.0
        shininess 0.25
        transparency 0.0
        }
    }
}
Shape {
    appearance Appearance {material DEF CAP-CERAMIC-05 Material {
        ambientIntensity 0.179
        diffuseColor 0.273 0.273 0.273
        specularColor 0.203 0.188 0.176
        emissiveColor 0.0 0.0 0.0
        shininess 0.15
        transparency 0.0
        }
    }
}
Shape {
    appearance Appearance {material DEF CAP-CERAMIC-06 Material {
        ambientIntensity 0.453
        diffuseColor 0.379 0.270 0.215
        specularColor 0.223 0.223 0.223
        emissiveColor 0.0 0.0 0.0
        shininess 0.15
        transparency 0.0
        }
    }
}
Shape {
    appearance Appearance {material DEF RES-THT-01 Material {
        ambientIntensity 0.149
        diffuseColor 0.883 0.711 0.492
        specularColor 0.043 0.121 0.281
        emissiveColor 0.0 0.0 0.0
        shininess 0.40
        transparency 0.0
        }
    }
}
Shape {
    appearance Appearance {material DEF PLASTIC-BLUE-01 Material {
        ambientIntensity 0.565
        diffuseColor 0.137 0.402 0.727
        specularColor 0.359 0.379 0.270
        emissiveColor 0.0 0.0 0.0
        shininess 0.25
        transparency 0.0
        }
    }
}
Shape {
    appearance Appearance {material DEF PLASTIC-GREEN-01 Material {
        ambientIntensity 0.315
        diffuseColor 0.340 0.680 0.445
        specularColor 0.176 0.105 0.195
        emissiveColor 0.0 0.0 0.0
        shininess 0.25
        transparency 0.0
        }
    }
}
Shape {
    appearance Appearance {material DEF PLASTIC-ORANGE-01 Material {
        ambientIntensity 0.284
        diffuseColor 0.809 0.426 0.148
        specularColor 0.039 0.102 0.145
        emissiveColor 0.0 0.0 0.0
        shininess 0.25
        transparency 0.0
        }
    }
}
Shape {
    appearance Appearance {material DEF PLASTIC-RED-01 Material {
        ambientIntensity 0.683
        diffuseColor 0.700 0.100 0.050
        emissiveColor 0.000 0.000 0.000
        specularColor 0.300 0.400 0.150
        shininess 0.25
        transparency 0.0
        }
    }
}
Shape {
    appearance Appearance {material DEF CAP-CERAMIC-02 Material {
        ambientIntensity 0.683
        diffuseColor 0.578 0.336 0.352
        specularColor 0.105 0.273 0.270
        emissiveColor 0.0 0.0 0.0
        shininess 0.25
        transparency 0.0
        }
    }
}
Shape {
    appearance Appearance {material DEF PLASTIC-YELLOW-01 Material {
        ambientIntensity 0.522
        diffuseColor 0.832 0.680 0.066
        specularColor 0.160 0.203 0.320
        emissiveColor 0.0 0.0 0.0
        shininess 0.25
        transparency 0.0
        }
    }
}
Shape {
    appearance Appearance {material DEF PLASTIC-WHITE-01 Material {
        ambientIntensity 0.494
        diffuseColor 0.895 0.891 0.813
        specularColor 0.047 0.055 0.109
        emissiveColor 0.0 0.0 0.0
        shininess 0.25
        transparency 0.0
        }
    }
}
Shape {
    appearance Appearance {material DEF IC-LABEL-01 Material {
        ambientIntensity 0.082
        diffuseColor 0.691 0.664 0.598
        specularColor 0.000 0.000 0.000
        emissiveColor 0.0 0.0 0.0
        shininess 0.01
        transparency 0.0
        }
    }
}
Shape {
    appearance Appearance {material DEF LED-RED Material {
        ambientIntensity 0.789
        diffuseColor 0.700 0.100 0.050
        emissiveColor 0.000 0.000 0.000
        specularColor 0.300 0.400 0.150
        shininess 0.125
        transparency 0.15
        }
    }
}
Shape {
    appearance Appearance {material DEF LED-GREEN Material {
        ambientIntensity 0.789
        diffuseColor 0.400 0.700 0.150
        emissiveColor 0.000 0.000 0.000
        specularColor 0.600 0.300 0.100
        shininess 0.05
        transparency 0.15
        }
    }
}
Shape {
    appearance Appearance {material DEF LED-BLUE Material {
        ambientIntensity 0.789
        diffuseColor 0.100 0.250 0.700
        emissiveColor 0.000 0.000 0.000
        specularColor 0.500 0.600 0.300
        shininess 0.125
        transparency 0.15
        }
    }
}
Shape {
    appearance Appearance {material DEF LED-YELLOW Material {
        ambientIntensity 0.522
        diffuseColor 0.98 0.840 0.066
        specularColor 0.160 0.203 0.320
        emissiveColor 0.0 0.0 0.0
        shininess 0.125
        transparency 0.15
        }
    }
}
Shape {
    appearance Appearance {material DEF LED-WHITE Material {
        ambientIntensity 0.494
        diffuseColor 0.895 0.891 0.813
        specularColor 0.047 0.055 0.109
        emissiveColor 0.0 0.0 0.0
        shininess 0.125
        transparency 0.15
        }
    }
}
Shape {
    appearance Appearance {material DEF LED-GREY Material {
        ambientIntensity 0.494
        diffuseColor 0.27 0.25 0.27
        specularColor 0.5 0.5 0.6
        emissiveColor 0.0 0.0 0.0
        shininess 0.35
        transparency 0.15
        }
    }
}
Shape {
    appearance Appearance {material DEF LED-BLACK Material {
        ambientIntensity 0.494
        diffuseColor 0.1 0.05 0.1
        specularColor 0.6 0.5 0.6
        emissiveColor 0.0 0.0 0.0
        shininess 0.5
        transparency 0.15
        }
    }
}
Shape {
    appearance Appearance {material DEF GLASS-GREY Material {
        ambientIntensity 2.018212
        diffuseColor 0.400769 0.441922 0.459091
        specularColor 0.573887 0.649271 0.810811
        emissiveColor 0.000000 0.000000 0.000000
        shininess 0.127273
        transparency 0.37
        }
    }
}
Shape {
    appearance Appearance {material DEF GLASS-GOLD Material {
        ambientIntensity 0.379
        diffuseColor 0.859 0.738 0.496
        specularColor 0.137 0.145 0.184
        emissiveColor 0.0 0.0 0.0
        shininess 0.40
        transparency 0.39
        }
    }
}
Shape {
    appearance Appearance {material DEF GLASS-BLUE Material {
        ambientIntensity 0.250000
        diffuseColor 0.000000 0.631244 0.748016
        specularColor 0.915152 0.915152 0.915152
        emissiveColor 0.000000 0.000000 0.000000
        shininess 0.642424
        transparency 0.39
        }
    }
}
Shape {
    appearance Appearance {material DEF GLASS-GREEN Material {
        ambientIntensity 0.250000
        diffuseColor 0.000000 0.75 0.44
        specularColor 0.915152 0.915152 0.915152
        emissiveColor 0.000000 0.000000 0.000000
        shininess 0.642424
        transparency 0.39
        }
    }
}
Shape {
    appearance Appearance {material DEF GLASS-ORANGE Material {
        ambientIntensity 0.250000
        diffuseColor 0.75 0.44 0.000000
        specularColor 0.915152 0.915152 0.915152
        emissiveColor 0.000000 0.000000 0.000000
        shininess 0.642424
        transparency 0.39
        }
    }
}
Shape {
    appearance Appearance {material DEF BOARD-GREEN-02 Material {
        ambientIntensity 1
        diffuseColor 0.07 0.3 0.12
        specularColor 0.07 0.3 0.12
        emissiveColor 0.0 0.0 0.0
        shininess 0.40
        transparency 0.0
        }
    }
}
Shape {
    appearance Appearance {material DEF BOARD-BLUE-01 Material {
        ambientIntensity 1
        diffuseColor 0.07 0.12 0.3
        specularColor 0.07 0.12 0.3
        emissiveColor 0.0 0.0 0.0
        shininess 0.40
        transparency 0.0
        }
    }
}
Shape {
    appearance Appearance {material DEF BOARD-BLACK-03 Material {
        ambientIntensity 1
        diffuseColor 0.16 0.16 0.16
        specularColor 0.16 0.16 0.16
        emissiveColor 0.0 0.0 0.0
        shininess 0.40
        transparency 0.0
        }
    }
}
Shape {
    appearance Appearance {material DEF MET-ALUMINUM Material {
        ambientIntensity 0.256000
        diffuseColor 0.372322 0.371574 0.373173
        specularColor 0.556122 0.554201 0.556122
        emissiveColor 0.0 0.0 0.0
        shininess 0.127551
        transparency 0.0
        }
    }
}
Shape {
    appearance Appearance {material DEF MET-BRONZE Material {
        ambientIntensity 0.022727
        diffuseColor 0.714 0.4284 0.18144
        specularColor 0.393548 0.271906 0.166721
        emissiveColor 0.000000 0.000000 0.000000
        shininess 0.2
        transparency 0.0
        }
    }
}
Shape {
    appearance Appearance {material DEF MET-SILVER Material {
        ambientIntensity 0.022727
        diffuseColor 0.50754 0.50754 0.50754
        specularColor 0.508273 0.508273 0.508273
        emissiveColor 0.000000 0.000000 0.000000
        shininess 0.4
        transparency 0.0
        }
    }
}
Shape {
    appearance Appearance {material DEF MET-COPPER Material {
        ambientIntensity 0.022727
        diffuseColor 0.7038 0.27048 0.0828
        specularColor 0.780612 0.37 0.000000
        emissiveColor 0.000000 0.000000 0.000000
        shininess 0.2
        transparency 0.0
        }
    }
}
Shape { geometry IndexedFaceSet 
{ creaseAngle 0.50 coordIndex [0,1,2,-1,3,2,4,-1,3,0,2,-1,5,6,1,-1,5,1,0,-1,7,4,8,-1,7,3,4,-1,9,10,6,-1,9,6,5,-1,11,8,12,-1,11,7,8,-1,13,14,10,-1,13,10,9,-1,15,12,16,-1,15,11,12,-1,17,18,14,-1,17,14,13,-1,19,16,20,-1,19,15,16,-1,21,18,17,-1,22,18,21,-1,23,20,24,-1,23,19,20,-1,25,22,21,-1,26,22,25,-1,27,23,24,-1,28,27,24,-1,29,26,25,-1,30,27,28,-1,31,26,29,-1,32,30,28,-1,33,31,29,-1,34,30,32,-1,35,31,33,-1,36,35,33,-1,37,34,32,-1,38,34,37,-1,39,35,36,-1,39,36,40,-1,41,38,37,-1,42,40,43,-1,42,39,40,-1,44,45,38,-1,44,38,41,-1,46,42,43,-1,46,43,47,-1,48,49,45,-1,48,45,44,-1,50,47,51,-1,50,46,47,-1,52,51,49,-1,52,50,51,-1,52,49,48,-1]
coord Coordinate { point [0.486236 -0.430768 -0.55118,0.690756 -0.454318 -0.55118,0.567364 -0.601371 -0.55118,0.369018 -0.534614 -0.55118,0.413385 -0.716004 -0.55118,0.575197 -0.301886 -0.55118,0.77691 -0.282772 -0.55118,0.230353 -0.607391 -0.55118,0.23712 -0.792037 -0.55118,0.630729 -0.155461 -0.55118,0.82118 -0.0959821 -0.55118,0.0783012 -0.644869 -0.55118,0.0480724 -0.825371 -0.55118,0.649605 6.56519e-16 -0.55118,0.82118 0.0959821 -0.55118,-0.0783012 -0.644869 -0.55118,-0.143567 -0.81421 -0.55118,0.630729 0.155461 -0.55118,0.77691 0.282772 -0.55118,-0.230353 -0.607391 -0.55118,-0.327467 -0.759154 -0.55118,0.575197 0.301886 -0.55118,0.690756 0.454318 -0.55118,-0.369018 -0.534614 -0.55118,-0.493713 -0.663171 -0.55118,0.486236 0.430768 -0.55118,0.567364 0.601371 -0.55118,-0.486236 -0.430768 -0.55118,-0.633343 -0.531438 -0.55118,0.369018 0.534614 -0.55118,-0.575197 -0.301886 -0.55118,0.413385 0.716004 -0.55118,-0.738829 -0.371054 -0.55118,0.230353 0.607391 -0.55118,-0.630729 -0.155461 -0.55118,0.23712 0.792037 -0.55118,0.0783012 0.644869 -0.55118,-0.804484 -0.190666 -0.55118,-0.649605 0 -0.55118,0.0480724 0.825371 -0.55118,-0.0783012 0.644869 -0.55118,-0.82677 0 -0.55118,-0.143567 0.81421 -0.55118,-0.230353 0.607391 -0.55118,-0.804484 0.190666 -0.55118,-0.630729 0.155461 -0.55118,-0.327467 0.759154 -0.55118,-0.369018 0.534614 -0.55118,-0.738829 0.371054 -0.55118,-0.575197 0.301886 -0.55118,-0.493713 0.663171 -0.55118,-0.486236 0.430768 -0.55118,-0.633343 0.531438 -0.55118]
}}
appearance Appearance{material USE MET-ALUMINUM }}
Shape { geometry IndexedFaceSet 
{ creaseAngle 0.50 coordIndex [0,1,2,-1,0,2,3,-1,4,3,5,-1,4,0,3,-1,6,5,7,-1,6,4,5,-1,8,9,10,-1,8,7,9,-1,8,6,7,-1,11,8,10,-1,12,10,13,-1,12,11,10,-1,14,15,16,-1,14,13,15,-1,14,12,13,-1,17,14,16,-1,18,16,19,-1,18,17,16,-1,20,21,22,-1,20,19,21,-1,20,18,19,-1,23,20,22,-1,24,23,22,-1,24,22,25,-1,26,24,25,-1,26,25,27,-1,28,26,27,-1,28,27,29,-1,30,28,29,-1,30,29,31,-1,32,30,31,-1,32,33,34,-1,32,31,33,-1,35,32,34,-1,35,34,36,-1,37,35,36,-1,38,37,36,-1,38,36,39,-1,40,41,42,-1,40,39,41,-1,40,38,39,-1,43,40,42,-1,44,45,46,-1,44,42,45,-1,44,43,42,-1,47,44,46,-1,48,46,49,-1,48,47,46,-1,50,49,51,-1,50,48,49,-1,52,51,53,-1,52,50,51,-1,1,53,2,-1,1,52,53,-1]
coord Coordinate { point [-0.804484 -0.190666 0,-0.82677 0 0,-0.82677 0 -0.55118,-0.804484 -0.190666 -0.55118,-0.738829 -0.371054 0,-0.738829 -0.371054 -0.55118,-0.633343 -0.531438 0,-0.633343 -0.531438 -0.55118,-0.493713 -0.663171 0,-0.493713 -0.663171 -0.55118,-0.327467 -0.759154 -0.55118,-0.327467 -0.759154 0,-0.143567 -0.81421 0,-0.143567 -0.81421 -0.55118,0.0480724 -0.825371 0,0.0480724 -0.825371 -0.55118,0.23712 -0.792037 -0.55118,0.23712 -0.792037 0,0.413385 -0.716004 0,0.413385 -0.716004 -0.55118,0.567364 -0.601371 0,0.567364 -0.601371 -0.55118,0.690756 -0.454318 -0.55118,0.690756 -0.454318 0,0.77691 -0.282772 0,0.77691 -0.282772 -0.55118,0.82118 -0.0959821 0,0.82118 -0.0959821 -0.55118,0.82118 0.0959821 0,0.82118 0.0959821 -0.55118,0.77691 0.282772 0,0.77691 0.282772 -0.55118,0.690756 0.454318 0,0.690756 0.454318 -0.55118,0.567364 0.601371 -0.55118,0.567364 0.601371 0,0.413385 0.716004 -0.55118,0.413385 0.716004 0,0.23712 0.792037 0,0.23712 0.792037 -0.55118,0.0480724 0.825371 0,0.0480724 0.825371 -0.55118,-0.143567 0.81421 -0.55118,-0.143567 0.81421 0,-0.327467 0.759154 0,-0.327467 0.759154 -0.55118,-0.493713 0.663171 -0.55118,-0.493713 0.663171 0,-0.633343 0.531438 0,-0.633343 0.531438 -0.55118,-0.738829 0.371054 0,-0.738829 0.371054 -0.55118,-0.804484 0.190666 0,-0.804484 0.190666 -0.55118]
}}
appearance Appearance{material USE MET-ALUMINUM }}
Shape { geometry IndexedFaceSet 
{ creaseAngle 0.50 coordIndex [0,1,2,-1,3,4,5,-1,3,5,1,-1,3,1,0,-1,6,2,7,-1,6,0,2,-1,8,9,4,-1,8,4,3,-1,10,7,11,-1,10,6,7,-1,12,13,9,-1,12,9,8,-1,14,11,15,-1,14,10,11,-1,16,17,13,-1,16,13,12,-1,18,15,19,-1,18,14,15,-1,20,21,17,-1,20,17,16,-1,22,18,19,-1,22,19,23,-1,24,22,23,-1,25,21,20,-1,25,26,21,-1,27,22,24,-1,28,26,25,-1,29,27,24,-1,30,28,25,-1,31,27,29,-1,32,28,30,-1,32,30,33,-1,34,31,29,-1,35,31,34,-1,36,32,33,-1,36,33,37,-1,38,35,34,-1,38,39,35,-1,40,37,41,-1,40,36,37,-1,42,39,38,-1,42,43,39,-1,44,43,42,-1,45,40,41,-1,45,41,46,-1,47,46,48,-1,47,45,46,-1,49,50,43,-1,49,43,44,-1,51,52,50,-1,51,50,49,-1,53,47,48,-1,54,55,52,-1,54,52,51,-1,56,48,57,-1,56,53,48,-1,58,57,55,-1,58,56,57,-1,58,55,54,-1]
coord Coordinate { point [0.567364 -0.601371 0,0.835164 -0.835164 0,0.656184 -0.982049 0,0.690756 -0.454318 0,1.09119 -0.451987 0,0.982049 -0.656184 0,0.413385 -0.716004 0,0.451987 -1.09119 0,0.77691 -0.282772 0,1.15841 -0.230421 0,0.23712 -0.792037 0,0.230421 -1.15841 0,0.82118 -0.0959821 0,1.1811 -9.04384e-16 0,0.0480724 -0.825371 0,-2.93012e-15 -1.1811 0,0.82118 0.0959821 0,1.15841 0.230421 0,-0.143567 -0.81421 0,-0.230421 -1.15841 0,0.77691 0.282772 0,1.09119 0.451987 0,-0.327467 -0.759154 0,-0.451987 -1.09119 0,-0.656184 -0.982049 0,0.690756 0.454318 0,0.982049 0.656184 0,-0.493713 -0.663171 0,0.835164 0.835164 0,-0.835164 -0.835164 0,0.567364 0.601371 0,-0.633343 -0.531438 0,0.656184 0.982049 0,0.413385 0.716004 0,-0.982049 -0.656184 0,-0.738829 -0.371054 0,0.451987 1.09119 0,0.23712 0.792037 0,-1.09119 -0.451987 0,-0.804484 -0.190666 0,0.230421 1.15841 0,0.0480724 0.825371 0,-1.15841 -0.230421 0,-0.82677 0 0,-1.1811 0 0,-7.23215e-17 1.1811 0,-0.143567 0.81421 0,-0.230421 1.15841 0,-0.327467 0.759154 0,-1.15841 0.230421 0,-0.804484 0.190666 0,-1.09119 0.451987 0,-0.738829 0.371054 0,-0.451987 1.09119 0,-0.982049 0.656184 0,-0.633343 0.531438 0,-0.656184 0.982049 0,-0.493713 0.663171 0,-0.835164 0.835164 0]
}}
appearance Appearance{material USE MET-ALUMINUM }}
Shape { geometry IndexedFaceSet 
{ creaseAngle 0.50 coordIndex [0,1,2,-1,0,3,4,-1,0,2,3,-1,5,0,4,-1,6,4,7,-1,6,5,4,-1,8,7,9,-1,8,6,7,-1,10,9,11,-1,10,8,9,-1,12,11,13,-1,12,10,11,-1,14,13,15,-1,14,12,13,-1,16,14,15,-1,16,15,17,-1,18,16,17,-1,18,17,19,-1,20,18,19,-1,20,19,21,-1,22,20,21,-1,22,21,23,-1,24,22,23,-1,24,23,25,-1,26,24,25,-1,26,25,27,-1,28,26,27,-1,28,27,29,-1,30,28,29,-1,30,29,31,-1,32,30,31,-1,32,31,33,-1,34,32,33,-1,34,35,36,-1,34,33,35,-1,37,34,36,-1,37,36,38,-1,39,37,38,-1,40,38,41,-1,40,39,38,-1,42,43,44,-1,42,41,43,-1,42,40,41,-1,45,42,44,-1,46,44,47,-1,46,45,44,-1,48,47,49,-1,48,46,47,-1,50,49,51,-1,50,48,49,-1,52,51,53,-1,52,50,51,-1,54,55,56,-1,54,53,55,-1,54,52,53,-1,57,54,56,-1,58,56,59,-1,58,57,56,-1,60,59,61,-1,60,58,59,-1,62,61,63,-1,62,60,61,-1,1,63,2,-1,1,62,63,-1]
coord Coordinate { point [-1.15841 -0.230421 1.5748,-1.1811 0 1.5748,-1.1811 0 0,-1.15841 -0.230421 0,-1.09119 -0.451987 0,-1.09119 -0.451987 1.5748,-0.982049 -0.656184 1.5748,-0.982049 -0.656184 0,-0.835164 -0.835164 1.5748,-0.835164 -0.835164 0,-0.656184 -0.982049 1.5748,-0.656184 -0.982049 0,-0.451987 -1.09119 1.5748,-0.451987 -1.09119 0,-0.230421 -1.15841 1.5748,-0.230421 -1.15841 0,-2.93012e-15 -1.1811 1.5748,-2.93012e-15 -1.1811 0,0.230421 -1.15841 1.5748,0.230421 -1.15841 0,0.451987 -1.09119 1.5748,0.451987 -1.09119 0,0.656184 -0.982049 1.5748,0.656184 -0.982049 0,0.835164 -0.835164 1.5748,0.835164 -0.835164 0,0.982049 -0.656184 1.5748,0.982049 -0.656184 0,1.09119 -0.451987 1.5748,1.09119 -0.451987 0,1.15841 -0.230421 1.5748,1.15841 -0.230421 0,1.1811 -9.04384e-16 1.5748,1.1811 -9.04384e-16 0,1.15841 0.230421 1.5748,1.15841 0.230421 0,1.09119 0.451987 0,1.09119 0.451987 1.5748,0.982049 0.656184 0,0.982049 0.656184 1.5748,0.835164 0.835164 1.5748,0.835164 0.835164 0,0.656184 0.982049 1.5748,0.656184 0.982049 0,0.451987 1.09119 0,0.451987 1.09119 1.5748,0.230421 1.15841 1.5748,0.230421 1.15841 0,-7.23215e-17 1.1811 1.5748,-7.23215e-17 1.1811 0,-0.230421 1.15841 1.5748,-0.230421 1.15841 0,-0.451987 1.09119 1.5748,-0.451987 1.09119 0,-0.656184 0.982049 1.5748,-0.656184 0.982049 0,-0.835164 0.835164 0,-0.835164 0.835164 1.5748,-0.982049 0.656184 1.5748,-0.982049 0.656184 0,-1.09119 0.451987 1.5748,-1.09119 0.451987 0,-1.15841 0.230421 1.5748,-1.15841 0.230421 0]
}}
appearance Appearance{material USE MET-ALUMINUM }}
Shape { geometry IndexedFaceSet 
{ creaseAngle 0.50 coordIndex [0,1,2,-1,3,4,5,-1,3,2,4,-1,3,0,2,-1,6,7,1,-1,6,1,0,-1,8,5,9,-1,8,3,5,-1,10,11,7,-1,10,7,6,-1,12,9,13,-1,12,8,9,-1,14,15,16,-1,14,16,11,-1,14,11,10,-1,17,13,18,-1,17,12,13,-1,19,20,15,-1,19,15,14,-1,21,17,18,-1,21,18,22,-1,23,24,20,-1,23,20,19,-1,25,21,22,-1,25,22,26,-1,27,24,23,-1,28,25,26,-1,29,24,27,-1,30,25,28,-1,31,29,27,-1,32,30,28,-1,32,33,30,-1,34,29,31,-1,35,33,32,-1,35,36,33,-1,37,34,31,-1,37,31,38,-1,39,36,35,-1,39,40,36,-1,41,38,42,-1,41,37,38,-1,43,40,39,-1,44,41,42,-1,44,42,45,-1,46,47,40,-1,46,40,43,-1,48,44,45,-1,48,45,49,-1,50,49,51,-1,50,48,49,-1,52,47,46,-1,52,53,47,-1,54,50,51,-1,55,56,53,-1,55,53,52,-1,57,51,56,-1,57,54,51,-1,57,56,55,-1]
coord Coordinate { point [-0.486236 -0.430768 1.5748,-0.982049 -0.656184 1.5748,-0.835164 -0.835164 1.5748,-0.369018 -0.534614 1.5748,-0.656184 -0.982049 1.5748,-0.451987 -1.09119 1.5748,-0.575197 -0.301886 1.5748,-1.09119 -0.451987 1.5748,-0.230353 -0.607391 1.5748,-0.230421 -1.15841 1.5748,-0.630729 -0.155461 1.5748,-1.15841 -0.230421 1.5748,-0.0783012 -0.644869 1.5748,-2.93012e-15 -1.1811 1.5748,-0.649605 0 1.5748,-1.15841 0.230421 1.5748,-1.1811 0 1.5748,0.0783012 -0.644869 1.5748,0.230421 -1.15841 1.5748,-0.630729 0.155461 1.5748,-1.09119 0.451987 1.5748,0.230353 -0.607391 1.5748,0.451987 -1.09119 1.5748,-0.575197 0.301886 1.5748,-0.982049 0.656184 1.5748,0.369018 -0.534614 1.5748,0.656184 -0.982049 1.5748,-0.486236 0.430768 1.5748,0.835164 -0.835164 1.5748,-0.835164 0.835164 1.5748,0.486236 -0.430768 1.5748,-0.369018 0.534614 1.5748,0.982049 -0.656184 1.5748,0.575197 -0.301886 1.5748,-0.656184 0.982049 1.5748,1.09119 -0.451987 1.5748,0.630729 -0.155461 1.5748,-0.451987 1.09119 1.5748,-0.230353 0.607391 1.5748,1.15841 -0.230421 1.5748,0.649605 6.56519e-16 1.5748,-0.230421 1.15841 1.5748,-0.0783012 0.644869 1.5748,1.1811 -9.04384e-16 1.5748,-7.23215e-17 1.1811 1.5748,0.0783012 0.644869 1.5748,1.15841 0.230421 1.5748,0.630729 0.155461 1.5748,0.230421 1.15841 1.5748,0.230353 0.607391 1.5748,0.451987 1.09119 1.5748,0.369018 0.534614 1.5748,1.09119 0.451987 1.5748,0.575197 0.301886 1.5748,0.656184 0.982049 1.5748,0.982049 0.656184 1.5748,0.486236 0.430768 1.5748,0.835164 0.835164 1.5748]
}}
appearance Appearance{material USE MET-ALUMINUM }}
Shape { geometry IndexedFaceSet 
{ creaseAngle 0.50 coordIndex [0,1,2,-1,3,1,0,-1,2,4,5,-1,1,4,2,-1,5,6,7,-1,4,6,5,-1,8,9,10,-1,7,9,8,-1,6,9,7,-1,9,11,10,-1,10,12,13,-1,11,12,10,-1,13,14,15,-1,12,14,13,-1,15,16,17,-1,14,16,15,-1,18,19,20,-1,17,19,18,-1,16,19,17,-1,19,21,20,-1,21,22,20,-1,20,22,23,-1,22,24,23,-1,25,24,26,-1,23,24,25,-1,24,27,26,-1,27,28,26,-1,26,28,29,-1,30,31,32,-1,29,31,30,-1,28,31,29,-1,32,33,34,-1,31,33,32,-1,34,35,36,-1,33,35,34,-1,35,37,36,-1,38,39,40,-1,36,39,38,-1,37,39,36,-1,39,41,40,-1,42,43,44,-1,40,43,42,-1,41,43,40,-1,44,45,46,-1,43,45,44,-1,45,47,46,-1,46,48,49,-1,47,48,46,-1,50,51,0,-1,49,51,50,-1,48,51,49,-1,51,3,0,-1]
coord Coordinate { point [-0.649605 0 -0.55118,-0.630729 -0.155461 1.5748,-0.630729 -0.155461 -0.55118,-0.649605 0 1.5748,-0.575197 -0.301886 1.5748,-0.575197 -0.301886 -0.55118,-0.486236 -0.430768 1.5748,-0.486236 -0.430768 -0.55118,-0.369018 -0.534614 -0.55118,-0.369018 -0.534614 1.5748,-0.230353 -0.607391 -0.55118,-0.230353 -0.607391 1.5748,-0.0783012 -0.644869 1.5748,-0.0783012 -0.644869 -0.55118,0.0783012 -0.644869 1.5748,0.0783012 -0.644869 -0.55118,0.230353 -0.607391 1.5748,0.230353 -0.607391 -0.55118,0.369018 -0.534614 -0.55118,0.369018 -0.534614 1.5748,0.486236 -0.430768 -0.55118,0.486236 -0.430768 1.5748,0.575197 -0.301886 1.5748,0.575197 -0.301886 -0.55118,0.630729 -0.155461 1.5748,0.630729 -0.155461 -0.55118,0.649605 6.56519e-16 -0.55118,0.649605 6.56519e-16 1.5748,0.630729 0.155461 1.5748,0.630729 0.155461 -0.55118,0.575197 0.301886 -0.55118,0.575197 0.301886 1.5748,0.486236 0.430768 -0.55118,0.486236 0.430768 1.5748,0.369018 0.534614 -0.55118,0.369018 0.534614 1.5748,0.230353 0.607391 -0.55118,0.230353 0.607391 1.5748,0.0783012 0.644869 -0.55118,0.0783012 0.644869 1.5748,-0.0783012 0.644869 -0.55118,-0.0783012 0.644869 1.5748,-0.230353 0.607391 -0.55118,-0.230353 0.607391 1.5748,-0.369018 0.534614 -0.55118,-0.369018 0.534614 1.5748,-0.486236 0.430768 -0.55118,-0.486236 0.430768 1.5748,-0.575197 0.301886 1.5748,-0.575197 0.301886 -0.55118,-0.630729 0.155461 -0.55118,-0.630729 0.155461 1.5748]
}}
appearance Appearance{material USE MET-ALUMINUM }}
