ISO-10303-21;
HEADER;
FILE_DESCRIPTION(('FreeCAD Model'),'2;1');
FILE_NAME(
'/home/mrclnz/cvswork/kicad-lib/drafting/Libreria/Parti/Wurth/WE-FAMI-10
12.step','2020-07-27T14:09:09',('kicad StepUp'),('ksu MCAD'),
  'Open CASCADE STEP processor 7.4','FreeCAD','Unknown');
FILE_SCHEMA(('AUTOMOTIVE_DESIGN { 1 0 10303 214 1 1 1 1 }'));
ENDSEC;
DATA;
#1 = APPLICATION_PROTOCOL_DEFINITION('international standard',
  'automotive_design',2000,#2);
#2 = APPLICATION_CONTEXT(
  'core data for automotive mechanical design processes');
#3 = SHAPE_DEFINITION_REPRESENTATION(#4,#10);
#4 = PRODUCT_DEFINITION_SHAPE('','',#5);
#5 = PRODUCT_DEFINITION('design','',#6,#9);
#6 = PRODUCT_DEFINITION_FORMATION('','',#7);
#7 = PRODUCT('WE-FAMI-1012','WE-FAMI-1012','',(#8));
#8 = PRODUCT_CONTEXT('',#2,'mechanical');
#9 = PRODUCT_DEFINITION_CONTEXT('part definition',#2,'design');
#10 = SHAPE_REPRESENTATION('',(#11,#15,#184,#272,#360,#764,#773,#782,
    #791,#799,#808,#816,#824,#833,#841,#850,#859,#868,#877,#886,#895,
    #903,#912,#920,#928,#937,#945,#954,#963,#972,#981,#990,#999,#1008,
    #1017,#1026,#1035,#1044,#1053,#1062,#1071,#1080,#1089,#1097,#1106,
    #1114,#1123,#1131,#1140,#1148,#1157,#1165,#1174,#1182,#1191,#1200,
    #1209,#1218,#1226,#1235,#1243,#1252,#1261,#1270,#1278,#1287,#1295,
    #1304,#1313,#1322,#1331,#1340,#1348,#1357,#1365,#1374,#1383,#1392,
    #1401,#1410,#1419,#1428,#1437,#1446,#1455,#1464,#1473,#1482,#1491),
  #1500);
#11 = AXIS2_PLACEMENT_3D('',#12,#13,#14);
#12 = CARTESIAN_POINT('',(0.,0.,0.));
#13 = DIRECTION('',(0.,0.,1.));
#14 = DIRECTION('',(1.,0.,-0.));
#15 = GEOMETRIC_CURVE_SET('',(#16,#17,#18,#19,#20,#21,#22,#23,#24,#25,
    #26,#27,#28,#29,#30,#31,#32,#33,#34,#35,#36,#37,#38,#39,#40,#41,#42,
    #43,#44,#45,#46,#47,#48,#49,#50,#51,#52,#53,#54,#55,#56,#57,#58,#59,
    #60,#61,#62,#63,#64,#65,#66,#67,#68,#69,#70,#71,#72,#73,#74,#75,#76,
    #77,#78,#79,#80,#81,#82,#83,#84,#85,#86,#87,#88,#89,#90,#91,#92,#93,
    #94,#95,#96,#97,#98,#99,#100,#101,#102,#103,#104,#105,#106,#107,#108
    ,#109,#110,#111,#112,#113,#114,#115,#116,#117,#118,#119,#120,#121,
    #122,#123,#124,#125,#126,#127,#128,#129,#130,#131,#132,#133,#134,
    #135,#136,#137,#138,#139,#140,#141,#142,#143,#144,#145,#146,#147,
    #148,#149,#150,#151,#152,#153,#154,#155,#156,#157,#158,#159,#160,
    #161,#162,#163,#164,#165,#166,#167,#168,#169,#170,#171,#172,#173,
    #174,#175,#176,#177,#178,#179,#180,#181,#182,#183));
#16 = CARTESIAN_POINT('',(-4.,-0.35,0.));
#17 = CARTESIAN_POINT('',(-4.,0.35,0.));
#18 = CARTESIAN_POINT('',(-4.,0.35,0.));
#19 = CARTESIAN_POINT('',(-4.,-0.35,0.));
#20 = CARTESIAN_POINT('',(-4.,0.35,-2.));
#21 = CARTESIAN_POINT('',(-4.,-0.35,-2.));
#22 = CARTESIAN_POINT('',(-4.,0.35,-2.));
#23 = CARTESIAN_POINT('',(-4.,0.35,0.));
#24 = CARTESIAN_POINT('',(-4.,0.35,0.));
#25 = CARTESIAN_POINT('',(-4.,-0.35,0.));
#26 = CARTESIAN_POINT('',(-4.,-0.35,-2.));
#27 = CARTESIAN_POINT('',(-4.,-0.35,0.));
#28 = CARTESIAN_POINT('',(-4.,0.35,-2.));
#29 = CARTESIAN_POINT('',(-4.,0.35,0.));
#30 = CARTESIAN_POINT('',(-4.,-0.35,-2.));
#31 = CARTESIAN_POINT('',(-4.,0.35,-2.));
#32 = CARTESIAN_POINT('',(-4.,-0.35,-2.));
#33 = CARTESIAN_POINT('',(-4.,-0.35,0.));
#34 = CARTESIAN_POINT('',(-4.,-0.35,0.));
#35 = CARTESIAN_POINT('',(-4.,0.35,0.));
#36 = CARTESIAN_POINT('',(-4.,-0.35,-2.));
#37 = CARTESIAN_POINT('',(-4.,0.35,-2.));
#38 = CARTESIAN_POINT('',(-4.,0.35,-2.));
#39 = CARTESIAN_POINT('',(-4.,-0.35,-2.));
#40 = CARTESIAN_POINT('',(4.,-0.35,0.));
#41 = CARTESIAN_POINT('',(4.,0.35,0.));
#42 = CARTESIAN_POINT('',(4.,0.35,0.));
#43 = CARTESIAN_POINT('',(4.,-0.35,0.));
#44 = CARTESIAN_POINT('',(4.,0.35,-2.));
#45 = CARTESIAN_POINT('',(4.,-0.35,-2.));
#46 = CARTESIAN_POINT('',(4.,0.35,-2.));
#47 = CARTESIAN_POINT('',(4.,0.35,0.));
#48 = CARTESIAN_POINT('',(4.,0.35,0.));
#49 = CARTESIAN_POINT('',(4.,-0.35,0.));
#50 = CARTESIAN_POINT('',(4.,-0.35,-2.));
#51 = CARTESIAN_POINT('',(4.,-0.35,0.));
#52 = CARTESIAN_POINT('',(4.,0.35,-2.));
#53 = CARTESIAN_POINT('',(4.,0.35,0.));
#54 = CARTESIAN_POINT('',(4.,-0.35,-2.));
#55 = CARTESIAN_POINT('',(4.,0.35,-2.));
#56 = CARTESIAN_POINT('',(4.,-0.35,-2.));
#57 = CARTESIAN_POINT('',(4.,-0.35,0.));
#58 = CARTESIAN_POINT('',(4.,-0.35,0.));
#59 = CARTESIAN_POINT('',(4.,0.35,0.));
#60 = CARTESIAN_POINT('',(4.,-0.35,-2.));
#61 = CARTESIAN_POINT('',(4.,0.35,-2.));
#62 = CARTESIAN_POINT('',(4.,0.35,-2.));
#63 = CARTESIAN_POINT('',(4.,-0.35,-2.));
#64 = CARTESIAN_POINT('',(0.,4.9,11.));
#65 = CARTESIAN_POINT('',(0.,-4.9,11.));
#66 = CARTESIAN_POINT('',(0.,4.9,11.));
#67 = CARTESIAN_POINT('',(0.,5.4,11.5));
#68 = CARTESIAN_POINT('',(0.,-5.4,11.5));
#69 = CARTESIAN_POINT('',(0.,5.4,11.5));
#70 = CARTESIAN_POINT('',(0.,-4.9,11.));
#71 = CARTESIAN_POINT('',(0.,-5.4,11.5));
#72 = CARTESIAN_POINT('',(0.,5.4,1.5));
#73 = CARTESIAN_POINT('',(0.,-5.4,1.5));
#74 = CARTESIAN_POINT('',(0.,5.4,1.5));
#75 = CARTESIAN_POINT('',(0.,4.9,2.));
#76 = CARTESIAN_POINT('',(0.,-4.9,2.));
#77 = CARTESIAN_POINT('',(0.,4.9,2.));
#78 = CARTESIAN_POINT('',(0.,-5.4,1.5));
#79 = CARTESIAN_POINT('',(0.,-4.9,2.));
#80 = CARTESIAN_POINT('',(0.,5.4,12.5));
#81 = CARTESIAN_POINT('',(0.,-5.4,12.5));
#82 = CARTESIAN_POINT('',(0.,5.4,12.5));
#83 = CARTESIAN_POINT('',(0.,4.9,13.));
#84 = CARTESIAN_POINT('',(0.,-4.9,13.));
#85 = CARTESIAN_POINT('',(0.,4.9,13.));
#86 = CARTESIAN_POINT('',(0.,-5.4,12.5));
#87 = CARTESIAN_POINT('',(0.,-4.9,13.));
#88 = CARTESIAN_POINT('',(0.,5.4,12.5));
#89 = CARTESIAN_POINT('',(0.,-5.4,12.5));
#90 = CARTESIAN_POINT('',(0.,-5.4,12.5));
#91 = CARTESIAN_POINT('',(0.,-5.4,11.5));
#92 = CARTESIAN_POINT('',(0.,-5.4,11.5));
#93 = CARTESIAN_POINT('',(0.,5.4,11.5));
#94 = CARTESIAN_POINT('',(0.,5.4,12.5));
#95 = CARTESIAN_POINT('',(0.,5.4,11.5));
#96 = CARTESIAN_POINT('',(0.,-4.4,11.));
#97 = CARTESIAN_POINT('',(0.,4.4,11.));
#98 = CARTESIAN_POINT('',(0.,-4.4,11.));
#99 = CARTESIAN_POINT('',(0.,-4.4,2.));
#100 = CARTESIAN_POINT('',(0.,-4.4,2.));
#101 = CARTESIAN_POINT('',(0.,4.4,2.));
#102 = CARTESIAN_POINT('',(0.,4.4,11.));
#103 = CARTESIAN_POINT('',(0.,4.4,2.));
#104 = CARTESIAN_POINT('',(0.,5.4,1.5));
#105 = CARTESIAN_POINT('',(0.,-5.4,1.5));
#106 = CARTESIAN_POINT('',(0.,-5.4,1.5));
#107 = CARTESIAN_POINT('',(0.,-5.4,0.));
#108 = CARTESIAN_POINT('',(0.,-5.4,0.));
#109 = CARTESIAN_POINT('',(0.,5.4,0.));
#110 = CARTESIAN_POINT('',(0.,5.4,1.5));
#111 = CARTESIAN_POINT('',(0.,5.4,0.));
#112 = CARTESIAN_POINT('',(0.,-4.9,2.));
#113 = CARTESIAN_POINT('',(0.,4.9,2.));
#114 = CARTESIAN_POINT('',(0.,4.9,2.));
#115 = CARTESIAN_POINT('',(0.,-4.9,2.));
#116 = CARTESIAN_POINT('',(0.,4.4,2.));
#117 = CARTESIAN_POINT('',(0.,-4.4,2.));
#118 = CARTESIAN_POINT('',(0.,-4.4,2.));
#119 = CARTESIAN_POINT('',(0.,4.4,2.));
#120 = CARTESIAN_POINT('',(0.,-5.4,1.5));
#121 = CARTESIAN_POINT('',(0.,-5.4,0.));
#122 = CARTESIAN_POINT('',(0.,-5.4,1.5));
#123 = CARTESIAN_POINT('',(0.,5.4,1.5));
#124 = CARTESIAN_POINT('',(0.,5.4,1.5));
#125 = CARTESIAN_POINT('',(0.,5.4,0.));
#126 = CARTESIAN_POINT('',(0.,5.4,0.));
#127 = CARTESIAN_POINT('',(0.,-5.4,0.));
#128 = CARTESIAN_POINT('',(0.,5.4,0.));
#129 = CARTESIAN_POINT('',(0.,-5.4,0.));
#130 = CARTESIAN_POINT('',(0.,-5.4,0.));
#131 = CARTESIAN_POINT('',(0.,5.4,0.));
#132 = CARTESIAN_POINT('',(0.,-4.4,11.));
#133 = CARTESIAN_POINT('',(0.,-4.4,2.));
#134 = CARTESIAN_POINT('',(0.,4.4,11.));
#135 = CARTESIAN_POINT('',(0.,-4.4,11.));
#136 = CARTESIAN_POINT('',(0.,4.4,11.));
#137 = CARTESIAN_POINT('',(0.,4.4,2.));
#138 = CARTESIAN_POINT('',(0.,4.4,2.));
#139 = CARTESIAN_POINT('',(0.,-4.4,2.));
#140 = CARTESIAN_POINT('',(0.,-4.9,11.));
#141 = CARTESIAN_POINT('',(0.,4.9,11.));
#142 = CARTESIAN_POINT('',(0.,4.9,11.));
#143 = CARTESIAN_POINT('',(0.,-4.9,11.));
#144 = CARTESIAN_POINT('',(0.,4.4,11.));
#145 = CARTESIAN_POINT('',(0.,-4.4,11.));
#146 = CARTESIAN_POINT('',(0.,-4.4,11.));
#147 = CARTESIAN_POINT('',(0.,4.4,11.));
#148 = CARTESIAN_POINT('',(0.,-5.4,12.5));
#149 = CARTESIAN_POINT('',(0.,-5.4,11.5));
#150 = CARTESIAN_POINT('',(0.,-5.4,12.5));
#151 = CARTESIAN_POINT('',(0.,5.4,12.5));
#152 = CARTESIAN_POINT('',(0.,5.4,12.5));
#153 = CARTESIAN_POINT('',(0.,5.4,11.5));
#154 = CARTESIAN_POINT('',(0.,5.4,11.5));
#155 = CARTESIAN_POINT('',(0.,-5.4,11.5));
#156 = CARTESIAN_POINT('',(0.,-4.9,13.));
#157 = CARTESIAN_POINT('',(0.,4.9,13.));
#158 = CARTESIAN_POINT('',(0.,4.9,13.));
#159 = CARTESIAN_POINT('',(0.,-4.9,13.));
#160 = CARTESIAN_POINT('',(0.,5.4,12.5));
#161 = CARTESIAN_POINT('',(0.,4.9,13.));
#162 = CARTESIAN_POINT('',(0.,-5.4,12.5));
#163 = CARTESIAN_POINT('',(0.,5.4,12.5));
#164 = CARTESIAN_POINT('',(0.,-5.4,12.5));
#165 = CARTESIAN_POINT('',(0.,-4.9,13.));
#166 = CARTESIAN_POINT('',(0.,4.9,13.));
#167 = CARTESIAN_POINT('',(0.,-4.9,13.));
#168 = CARTESIAN_POINT('',(0.,5.4,1.5));
#169 = CARTESIAN_POINT('',(0.,4.9,2.));
#170 = CARTESIAN_POINT('',(0.,-5.4,1.5));
#171 = CARTESIAN_POINT('',(0.,5.4,1.5));
#172 = CARTESIAN_POINT('',(0.,-5.4,1.5));
#173 = CARTESIAN_POINT('',(0.,-4.9,2.));
#174 = CARTESIAN_POINT('',(0.,4.9,2.));
#175 = CARTESIAN_POINT('',(0.,-4.9,2.));
#176 = CARTESIAN_POINT('',(0.,4.9,11.));
#177 = CARTESIAN_POINT('',(0.,5.4,11.5));
#178 = CARTESIAN_POINT('',(0.,-4.9,11.));
#179 = CARTESIAN_POINT('',(0.,4.9,11.));
#180 = CARTESIAN_POINT('',(0.,-4.9,11.));
#181 = CARTESIAN_POINT('',(0.,-5.4,11.5));
#182 = CARTESIAN_POINT('',(0.,5.4,11.5));
#183 = CARTESIAN_POINT('',(0.,-5.4,11.5));
#184 = MANIFOLD_SOLID_BREP('',#185);
#185 = CLOSED_SHELL('',(#186,#212,#244,#262));
#186 = ADVANCED_FACE('',(#187),#207,.F.);
#187 = FACE_BOUND('',#188,.T.);
#188 = EDGE_LOOP('',(#189,#200));
#189 = ORIENTED_EDGE('',*,*,#190,.F.);
#190 = EDGE_CURVE('',#191,#193,#195,.T.);
#191 = VERTEX_POINT('',#192);
#192 = CARTESIAN_POINT('',(-4.,-0.35,0.));
#193 = VERTEX_POINT('',#194);
#194 = CARTESIAN_POINT('',(-4.,0.35,0.));
#195 = CIRCLE('',#196,0.35);
#196 = AXIS2_PLACEMENT_3D('',#197,#198,#199);
#197 = CARTESIAN_POINT('',(-4.,0.,0.));
#198 = DIRECTION('',(0.,0.,-1.));
#199 = DIRECTION('',(0.,1.,0.));
#200 = ORIENTED_EDGE('',*,*,#201,.F.);
#201 = EDGE_CURVE('',#193,#191,#202,.T.);
#202 = CIRCLE('',#203,0.35);
#203 = AXIS2_PLACEMENT_3D('',#204,#205,#206);
#204 = CARTESIAN_POINT('',(-4.,0.,0.));
#205 = DIRECTION('',(0.,0.,-1.));
#206 = DIRECTION('',(0.,1.,0.));
#207 = PLANE('',#208);
#208 = AXIS2_PLACEMENT_3D('',#209,#210,#211);
#209 = CARTESIAN_POINT('',(-4.,0.,0.));
#210 = DIRECTION('',(0.,0.,-1.));
#211 = DIRECTION('',(0.,1.,0.));
#212 = ADVANCED_FACE('',(#213),#239,.T.);
#213 = FACE_BOUND('',#214,.T.);
#214 = EDGE_LOOP('',(#215,#226,#232,#233));
#215 = ORIENTED_EDGE('',*,*,#216,.F.);
#216 = EDGE_CURVE('',#217,#219,#221,.T.);
#217 = VERTEX_POINT('',#218);
#218 = CARTESIAN_POINT('',(-4.,0.35,-2.));
#219 = VERTEX_POINT('',#220);
#220 = CARTESIAN_POINT('',(-4.,-0.35,-2.));
#221 = CIRCLE('',#222,0.35);
#222 = AXIS2_PLACEMENT_3D('',#223,#224,#225);
#223 = CARTESIAN_POINT('',(-4.,0.,-2.));
#224 = DIRECTION('',(0.,0.,-1.));
#225 = DIRECTION('',(0.,1.,0.));
#226 = ORIENTED_EDGE('',*,*,#227,.T.);
#227 = EDGE_CURVE('',#217,#193,#228,.T.);
#228 = LINE('',#229,#230);
#229 = CARTESIAN_POINT('',(-4.,0.35,-2.));
#230 = VECTOR('',#231,1.);
#231 = DIRECTION('',(0.,0.,1.));
#232 = ORIENTED_EDGE('',*,*,#201,.T.);
#233 = ORIENTED_EDGE('',*,*,#234,.F.);
#234 = EDGE_CURVE('',#219,#191,#235,.T.);
#235 = LINE('',#236,#237);
#236 = CARTESIAN_POINT('',(-4.,-0.35,-2.));
#237 = VECTOR('',#238,1.);
#238 = DIRECTION('',(0.,0.,1.));
#239 = CYLINDRICAL_SURFACE('',#240,0.35);
#240 = AXIS2_PLACEMENT_3D('',#241,#242,#243);
#241 = CARTESIAN_POINT('',(-4.,0.,-2.));
#242 = DIRECTION('',(0.,0.,1.));
#243 = DIRECTION('',(0.,-1.,0.));
#244 = ADVANCED_FACE('',(#245),#257,.T.);
#245 = FACE_BOUND('',#246,.T.);
#246 = EDGE_LOOP('',(#247,#248,#255,#256));
#247 = ORIENTED_EDGE('',*,*,#227,.F.);
#248 = ORIENTED_EDGE('',*,*,#249,.F.);
#249 = EDGE_CURVE('',#219,#217,#250,.T.);
#250 = CIRCLE('',#251,0.35);
#251 = AXIS2_PLACEMENT_3D('',#252,#253,#254);
#252 = CARTESIAN_POINT('',(-4.,0.,-2.));
#253 = DIRECTION('',(0.,0.,-1.));
#254 = DIRECTION('',(0.,1.,0.));
#255 = ORIENTED_EDGE('',*,*,#234,.T.);
#256 = ORIENTED_EDGE('',*,*,#190,.T.);
#257 = CYLINDRICAL_SURFACE('',#258,0.35);
#258 = AXIS2_PLACEMENT_3D('',#259,#260,#261);
#259 = CARTESIAN_POINT('',(-4.,0.,-2.));
#260 = DIRECTION('',(0.,0.,1.));
#261 = DIRECTION('',(0.,-1.,0.));
#262 = ADVANCED_FACE('',(#263),#267,.T.);
#263 = FACE_BOUND('',#264,.T.);
#264 = EDGE_LOOP('',(#265,#266));
#265 = ORIENTED_EDGE('',*,*,#249,.T.);
#266 = ORIENTED_EDGE('',*,*,#216,.T.);
#267 = PLANE('',#268);
#268 = AXIS2_PLACEMENT_3D('',#269,#270,#271);
#269 = CARTESIAN_POINT('',(-4.,0.,-2.));
#270 = DIRECTION('',(0.,0.,-1.));
#271 = DIRECTION('',(0.,1.,0.));
#272 = MANIFOLD_SOLID_BREP('',#273);
#273 = CLOSED_SHELL('',(#274,#300,#332,#350));
#274 = ADVANCED_FACE('',(#275),#295,.F.);
#275 = FACE_BOUND('',#276,.T.);
#276 = EDGE_LOOP('',(#277,#288));
#277 = ORIENTED_EDGE('',*,*,#278,.F.);
#278 = EDGE_CURVE('',#279,#281,#283,.T.);
#279 = VERTEX_POINT('',#280);
#280 = CARTESIAN_POINT('',(4.,-0.35,0.));
#281 = VERTEX_POINT('',#282);
#282 = CARTESIAN_POINT('',(4.,0.35,0.));
#283 = CIRCLE('',#284,0.35);
#284 = AXIS2_PLACEMENT_3D('',#285,#286,#287);
#285 = CARTESIAN_POINT('',(4.,0.,0.));
#286 = DIRECTION('',(0.,0.,-1.));
#287 = DIRECTION('',(0.,1.,0.));
#288 = ORIENTED_EDGE('',*,*,#289,.F.);
#289 = EDGE_CURVE('',#281,#279,#290,.T.);
#290 = CIRCLE('',#291,0.35);
#291 = AXIS2_PLACEMENT_3D('',#292,#293,#294);
#292 = CARTESIAN_POINT('',(4.,0.,0.));
#293 = DIRECTION('',(0.,0.,-1.));
#294 = DIRECTION('',(0.,1.,0.));
#295 = PLANE('',#296);
#296 = AXIS2_PLACEMENT_3D('',#297,#298,#299);
#297 = CARTESIAN_POINT('',(4.,0.,0.));
#298 = DIRECTION('',(0.,0.,-1.));
#299 = DIRECTION('',(0.,1.,0.));
#300 = ADVANCED_FACE('',(#301),#327,.T.);
#301 = FACE_BOUND('',#302,.T.);
#302 = EDGE_LOOP('',(#303,#314,#320,#321));
#303 = ORIENTED_EDGE('',*,*,#304,.F.);
#304 = EDGE_CURVE('',#305,#307,#309,.T.);
#305 = VERTEX_POINT('',#306);
#306 = CARTESIAN_POINT('',(4.,0.35,-2.));
#307 = VERTEX_POINT('',#308);
#308 = CARTESIAN_POINT('',(4.,-0.35,-2.));
#309 = CIRCLE('',#310,0.35);
#310 = AXIS2_PLACEMENT_3D('',#311,#312,#313);
#311 = CARTESIAN_POINT('',(4.,0.,-2.));
#312 = DIRECTION('',(0.,0.,-1.));
#313 = DIRECTION('',(0.,1.,0.));
#314 = ORIENTED_EDGE('',*,*,#315,.T.);
#315 = EDGE_CURVE('',#305,#281,#316,.T.);
#316 = LINE('',#317,#318);
#317 = CARTESIAN_POINT('',(4.,0.35,-2.));
#318 = VECTOR('',#319,1.);
#319 = DIRECTION('',(0.,0.,1.));
#320 = ORIENTED_EDGE('',*,*,#289,.T.);
#321 = ORIENTED_EDGE('',*,*,#322,.F.);
#322 = EDGE_CURVE('',#307,#279,#323,.T.);
#323 = LINE('',#324,#325);
#324 = CARTESIAN_POINT('',(4.,-0.35,-2.));
#325 = VECTOR('',#326,1.);
#326 = DIRECTION('',(0.,0.,1.));
#327 = CYLINDRICAL_SURFACE('',#328,0.35);
#328 = AXIS2_PLACEMENT_3D('',#329,#330,#331);
#329 = CARTESIAN_POINT('',(4.,0.,-2.));
#330 = DIRECTION('',(0.,0.,1.));
#331 = DIRECTION('',(0.,-1.,0.));
#332 = ADVANCED_FACE('',(#333),#345,.T.);
#333 = FACE_BOUND('',#334,.T.);
#334 = EDGE_LOOP('',(#335,#336,#343,#344));
#335 = ORIENTED_EDGE('',*,*,#315,.F.);
#336 = ORIENTED_EDGE('',*,*,#337,.F.);
#337 = EDGE_CURVE('',#307,#305,#338,.T.);
#338 = CIRCLE('',#339,0.35);
#339 = AXIS2_PLACEMENT_3D('',#340,#341,#342);
#340 = CARTESIAN_POINT('',(4.,0.,-2.));
#341 = DIRECTION('',(0.,0.,-1.));
#342 = DIRECTION('',(0.,1.,0.));
#343 = ORIENTED_EDGE('',*,*,#322,.T.);
#344 = ORIENTED_EDGE('',*,*,#278,.T.);
#345 = CYLINDRICAL_SURFACE('',#346,0.35);
#346 = AXIS2_PLACEMENT_3D('',#347,#348,#349);
#347 = CARTESIAN_POINT('',(4.,0.,-2.));
#348 = DIRECTION('',(0.,0.,1.));
#349 = DIRECTION('',(0.,-1.,0.));
#350 = ADVANCED_FACE('',(#351),#355,.T.);
#351 = FACE_BOUND('',#352,.T.);
#352 = EDGE_LOOP('',(#353,#354));
#353 = ORIENTED_EDGE('',*,*,#337,.T.);
#354 = ORIENTED_EDGE('',*,*,#304,.T.);
#355 = PLANE('',#356);
#356 = AXIS2_PLACEMENT_3D('',#357,#358,#359);
#357 = CARTESIAN_POINT('',(4.,0.,-2.));
#358 = DIRECTION('',(0.,0.,-1.));
#359 = DIRECTION('',(0.,1.,0.));
#360 = MANIFOLD_SOLID_BREP('',#361);
#361 = CLOSED_SHELL('',(#362,#406,#450,#494,#516,#558,#590,#616,#640,
    #650,#668,#688,#712,#728,#740,#752));
#362 = ADVANCED_FACE('',(#363),#401,.T.);
#363 = FACE_BOUND('',#364,.T.);
#364 = EDGE_LOOP('',(#365,#376,#385,#394));
#365 = ORIENTED_EDGE('',*,*,#366,.F.);
#366 = EDGE_CURVE('',#367,#369,#371,.T.);
#367 = VERTEX_POINT('',#368);
#368 = CARTESIAN_POINT('',(0.,4.9,11.));
#369 = VERTEX_POINT('',#370);
#370 = CARTESIAN_POINT('',(0.,-4.9,11.));
#371 = CIRCLE('',#372,4.9);
#372 = AXIS2_PLACEMENT_3D('',#373,#374,#375);
#373 = CARTESIAN_POINT('',(0.,0.,11.));
#374 = DIRECTION('',(0.,0.,-1.));
#375 = DIRECTION('',(0.,-1.,0.));
#376 = ORIENTED_EDGE('',*,*,#377,.T.);
#377 = EDGE_CURVE('',#367,#378,#380,.T.);
#378 = VERTEX_POINT('',#379);
#379 = CARTESIAN_POINT('',(0.,5.4,11.5));
#380 = CIRCLE('',#381,0.5);
#381 = AXIS2_PLACEMENT_3D('',#382,#383,#384);
#382 = CARTESIAN_POINT('',(0.,4.9,11.5));
#383 = DIRECTION('',(1.,0.,0.));
#384 = DIRECTION('',(0.,1.,0.));
#385 = ORIENTED_EDGE('',*,*,#386,.F.);
#386 = EDGE_CURVE('',#387,#378,#389,.T.);
#387 = VERTEX_POINT('',#388);
#388 = CARTESIAN_POINT('',(0.,-5.4,11.5));
#389 = CIRCLE('',#390,5.4);
#390 = AXIS2_PLACEMENT_3D('',#391,#392,#393);
#391 = CARTESIAN_POINT('',(0.,0.,11.5));
#392 = DIRECTION('',(-0.,0.,1.));
#393 = DIRECTION('',(0.,-1.,0.));
#394 = ORIENTED_EDGE('',*,*,#395,.F.);
#395 = EDGE_CURVE('',#369,#387,#396,.T.);
#396 = CIRCLE('',#397,0.5);
#397 = AXIS2_PLACEMENT_3D('',#398,#399,#400);
#398 = CARTESIAN_POINT('',(0.,-4.9,11.5));
#399 = DIRECTION('',(-1.,0.,0.));
#400 = DIRECTION('',(0.,-1.,0.));
#401 = TOROIDAL_SURFACE('',#402,4.9,0.5);
#402 = AXIS2_PLACEMENT_3D('',#403,#404,#405);
#403 = CARTESIAN_POINT('',(0.,0.,11.5));
#404 = DIRECTION('',(0.,0.,1.));
#405 = DIRECTION('',(0.,-1.,0.));
#406 = ADVANCED_FACE('',(#407),#445,.T.);
#407 = FACE_BOUND('',#408,.T.);
#408 = EDGE_LOOP('',(#409,#420,#429,#438));
#409 = ORIENTED_EDGE('',*,*,#410,.F.);
#410 = EDGE_CURVE('',#411,#413,#415,.T.);
#411 = VERTEX_POINT('',#412);
#412 = CARTESIAN_POINT('',(0.,5.4,1.5));
#413 = VERTEX_POINT('',#414);
#414 = CARTESIAN_POINT('',(0.,-5.4,1.5));
#415 = CIRCLE('',#416,5.4);
#416 = AXIS2_PLACEMENT_3D('',#417,#418,#419);
#417 = CARTESIAN_POINT('',(0.,0.,1.5));
#418 = DIRECTION('',(0.,0.,-1.));
#419 = DIRECTION('',(0.,-1.,0.));
#420 = ORIENTED_EDGE('',*,*,#421,.T.);
#421 = EDGE_CURVE('',#411,#422,#424,.T.);
#422 = VERTEX_POINT('',#423);
#423 = CARTESIAN_POINT('',(0.,4.9,2.));
#424 = CIRCLE('',#425,0.5);
#425 = AXIS2_PLACEMENT_3D('',#426,#427,#428);
#426 = CARTESIAN_POINT('',(0.,4.9,1.5));
#427 = DIRECTION('',(1.,0.,0.));
#428 = DIRECTION('',(0.,1.,0.));
#429 = ORIENTED_EDGE('',*,*,#430,.F.);
#430 = EDGE_CURVE('',#431,#422,#433,.T.);
#431 = VERTEX_POINT('',#432);
#432 = CARTESIAN_POINT('',(0.,-4.9,2.));
#433 = CIRCLE('',#434,4.9);
#434 = AXIS2_PLACEMENT_3D('',#435,#436,#437);
#435 = CARTESIAN_POINT('',(0.,0.,2.));
#436 = DIRECTION('',(-0.,0.,1.));
#437 = DIRECTION('',(0.,-1.,0.));
#438 = ORIENTED_EDGE('',*,*,#439,.F.);
#439 = EDGE_CURVE('',#413,#431,#440,.T.);
#440 = CIRCLE('',#441,0.5);
#441 = AXIS2_PLACEMENT_3D('',#442,#443,#444);
#442 = CARTESIAN_POINT('',(0.,-4.9,1.5));
#443 = DIRECTION('',(-1.,0.,0.));
#444 = DIRECTION('',(0.,-1.,0.));
#445 = TOROIDAL_SURFACE('',#446,4.9,0.5);
#446 = AXIS2_PLACEMENT_3D('',#447,#448,#449);
#447 = CARTESIAN_POINT('',(0.,0.,1.5));
#448 = DIRECTION('',(0.,0.,1.));
#449 = DIRECTION('',(0.,-1.,0.));
#450 = ADVANCED_FACE('',(#451),#489,.T.);
#451 = FACE_BOUND('',#452,.T.);
#452 = EDGE_LOOP('',(#453,#464,#473,#482));
#453 = ORIENTED_EDGE('',*,*,#454,.F.);
#454 = EDGE_CURVE('',#455,#457,#459,.T.);
#455 = VERTEX_POINT('',#456);
#456 = CARTESIAN_POINT('',(0.,5.4,12.5));
#457 = VERTEX_POINT('',#458);
#458 = CARTESIAN_POINT('',(0.,-5.4,12.5));
#459 = CIRCLE('',#460,5.4);
#460 = AXIS2_PLACEMENT_3D('',#461,#462,#463);
#461 = CARTESIAN_POINT('',(0.,0.,12.5));
#462 = DIRECTION('',(0.,0.,-1.));
#463 = DIRECTION('',(0.,-1.,0.));
#464 = ORIENTED_EDGE('',*,*,#465,.T.);
#465 = EDGE_CURVE('',#455,#466,#468,.T.);
#466 = VERTEX_POINT('',#467);
#467 = CARTESIAN_POINT('',(0.,4.9,13.));
#468 = CIRCLE('',#469,0.5);
#469 = AXIS2_PLACEMENT_3D('',#470,#471,#472);
#470 = CARTESIAN_POINT('',(0.,4.9,12.5));
#471 = DIRECTION('',(1.,0.,0.));
#472 = DIRECTION('',(0.,1.,0.));
#473 = ORIENTED_EDGE('',*,*,#474,.F.);
#474 = EDGE_CURVE('',#475,#466,#477,.T.);
#475 = VERTEX_POINT('',#476);
#476 = CARTESIAN_POINT('',(0.,-4.9,13.));
#477 = CIRCLE('',#478,4.9);
#478 = AXIS2_PLACEMENT_3D('',#479,#480,#481);
#479 = CARTESIAN_POINT('',(0.,0.,13.));
#480 = DIRECTION('',(-0.,0.,1.));
#481 = DIRECTION('',(0.,-1.,0.));
#482 = ORIENTED_EDGE('',*,*,#483,.F.);
#483 = EDGE_CURVE('',#457,#475,#484,.T.);
#484 = CIRCLE('',#485,0.5);
#485 = AXIS2_PLACEMENT_3D('',#486,#487,#488);
#486 = CARTESIAN_POINT('',(0.,-4.9,12.5));
#487 = DIRECTION('',(-1.,0.,0.));
#488 = DIRECTION('',(0.,-1.,0.));
#489 = TOROIDAL_SURFACE('',#490,4.9,0.5);
#490 = AXIS2_PLACEMENT_3D('',#491,#492,#493);
#491 = CARTESIAN_POINT('',(0.,0.,12.5));
#492 = DIRECTION('',(0.,0.,1.));
#493 = DIRECTION('',(0.,-1.,0.));
#494 = ADVANCED_FACE('',(#495),#511,.T.);
#495 = FACE_BOUND('',#496,.T.);
#496 = EDGE_LOOP('',(#497,#498,#504,#505));
#497 = ORIENTED_EDGE('',*,*,#454,.T.);
#498 = ORIENTED_EDGE('',*,*,#499,.T.);
#499 = EDGE_CURVE('',#457,#387,#500,.T.);
#500 = LINE('',#501,#502);
#501 = CARTESIAN_POINT('',(0.,-5.4,13.));
#502 = VECTOR('',#503,1.);
#503 = DIRECTION('',(0.,0.,-1.));
#504 = ORIENTED_EDGE('',*,*,#386,.T.);
#505 = ORIENTED_EDGE('',*,*,#506,.F.);
#506 = EDGE_CURVE('',#455,#378,#507,.T.);
#507 = LINE('',#508,#509);
#508 = CARTESIAN_POINT('',(0.,5.4,13.));
#509 = VECTOR('',#510,1.);
#510 = DIRECTION('',(0.,0.,-1.));
#511 = CYLINDRICAL_SURFACE('',#512,5.4);
#512 = AXIS2_PLACEMENT_3D('',#513,#514,#515);
#513 = CARTESIAN_POINT('',(0.,0.,13.));
#514 = DIRECTION('',(0.,0.,-1.));
#515 = DIRECTION('',(0.,1.,0.));
#516 = ADVANCED_FACE('',(#517),#553,.T.);
#517 = FACE_BOUND('',#518,.T.);
#518 = EDGE_LOOP('',(#519,#530,#538,#547));
#519 = ORIENTED_EDGE('',*,*,#520,.F.);
#520 = EDGE_CURVE('',#521,#523,#525,.T.);
#521 = VERTEX_POINT('',#522);
#522 = CARTESIAN_POINT('',(0.,-4.4,11.));
#523 = VERTEX_POINT('',#524);
#524 = CARTESIAN_POINT('',(0.,4.4,11.));
#525 = CIRCLE('',#526,4.4);
#526 = AXIS2_PLACEMENT_3D('',#527,#528,#529);
#527 = CARTESIAN_POINT('',(0.,0.,11.));
#528 = DIRECTION('',(-0.,0.,1.));
#529 = DIRECTION('',(0.,-1.,0.));
#530 = ORIENTED_EDGE('',*,*,#531,.T.);
#531 = EDGE_CURVE('',#521,#532,#534,.T.);
#532 = VERTEX_POINT('',#533);
#533 = CARTESIAN_POINT('',(0.,-4.4,2.));
#534 = LINE('',#535,#536);
#535 = CARTESIAN_POINT('',(0.,-4.4,11.));
#536 = VECTOR('',#537,1.);
#537 = DIRECTION('',(0.,0.,-1.));
#538 = ORIENTED_EDGE('',*,*,#539,.T.);
#539 = EDGE_CURVE('',#532,#540,#542,.T.);
#540 = VERTEX_POINT('',#541);
#541 = CARTESIAN_POINT('',(0.,4.4,2.));
#542 = CIRCLE('',#543,4.4);
#543 = AXIS2_PLACEMENT_3D('',#544,#545,#546);
#544 = CARTESIAN_POINT('',(0.,0.,2.));
#545 = DIRECTION('',(-0.,0.,1.));
#546 = DIRECTION('',(0.,-1.,0.));
#547 = ORIENTED_EDGE('',*,*,#548,.F.);
#548 = EDGE_CURVE('',#523,#540,#549,.T.);
#549 = LINE('',#550,#551);
#550 = CARTESIAN_POINT('',(0.,4.4,11.));
#551 = VECTOR('',#552,1.);
#552 = DIRECTION('',(0.,0.,-1.));
#553 = CYLINDRICAL_SURFACE('',#554,4.4);
#554 = AXIS2_PLACEMENT_3D('',#555,#556,#557);
#555 = CARTESIAN_POINT('',(0.,0.,11.));
#556 = DIRECTION('',(0.,0.,-1.));
#557 = DIRECTION('',(0.,1.,0.));
#558 = ADVANCED_FACE('',(#559),#585,.T.);
#559 = FACE_BOUND('',#560,.T.);
#560 = EDGE_LOOP('',(#561,#562,#570,#579));
#561 = ORIENTED_EDGE('',*,*,#410,.T.);
#562 = ORIENTED_EDGE('',*,*,#563,.T.);
#563 = EDGE_CURVE('',#413,#564,#566,.T.);
#564 = VERTEX_POINT('',#565);
#565 = CARTESIAN_POINT('',(0.,-5.4,0.));
#566 = LINE('',#567,#568);
#567 = CARTESIAN_POINT('',(0.,-5.4,2.));
#568 = VECTOR('',#569,1.);
#569 = DIRECTION('',(0.,0.,-1.));
#570 = ORIENTED_EDGE('',*,*,#571,.T.);
#571 = EDGE_CURVE('',#564,#572,#574,.T.);
#572 = VERTEX_POINT('',#573);
#573 = CARTESIAN_POINT('',(0.,5.4,0.));
#574 = CIRCLE('',#575,5.4);
#575 = AXIS2_PLACEMENT_3D('',#576,#577,#578);
#576 = CARTESIAN_POINT('',(0.,0.,0.));
#577 = DIRECTION('',(-0.,0.,1.));
#578 = DIRECTION('',(0.,-1.,0.));
#579 = ORIENTED_EDGE('',*,*,#580,.F.);
#580 = EDGE_CURVE('',#411,#572,#581,.T.);
#581 = LINE('',#582,#583);
#582 = CARTESIAN_POINT('',(0.,5.4,2.));
#583 = VECTOR('',#584,1.);
#584 = DIRECTION('',(0.,0.,-1.));
#585 = CYLINDRICAL_SURFACE('',#586,5.4);
#586 = AXIS2_PLACEMENT_3D('',#587,#588,#589);
#587 = CARTESIAN_POINT('',(0.,0.,2.));
#588 = DIRECTION('',(0.,0.,-1.));
#589 = DIRECTION('',(0.,1.,0.));
#590 = ADVANCED_FACE('',(#591,#601),#611,.T.);
#591 = FACE_BOUND('',#592,.T.);
#592 = EDGE_LOOP('',(#593,#594));
#593 = ORIENTED_EDGE('',*,*,#430,.T.);
#594 = ORIENTED_EDGE('',*,*,#595,.T.);
#595 = EDGE_CURVE('',#422,#431,#596,.T.);
#596 = CIRCLE('',#597,4.9);
#597 = AXIS2_PLACEMENT_3D('',#598,#599,#600);
#598 = CARTESIAN_POINT('',(0.,0.,2.));
#599 = DIRECTION('',(-0.,0.,1.));
#600 = DIRECTION('',(0.,-1.,0.));
#601 = FACE_BOUND('',#602,.T.);
#602 = EDGE_LOOP('',(#603,#610));
#603 = ORIENTED_EDGE('',*,*,#604,.F.);
#604 = EDGE_CURVE('',#540,#532,#605,.T.);
#605 = CIRCLE('',#606,4.4);
#606 = AXIS2_PLACEMENT_3D('',#607,#608,#609);
#607 = CARTESIAN_POINT('',(0.,0.,2.));
#608 = DIRECTION('',(-0.,0.,1.));
#609 = DIRECTION('',(0.,-1.,0.));
#610 = ORIENTED_EDGE('',*,*,#539,.F.);
#611 = PLANE('',#612);
#612 = AXIS2_PLACEMENT_3D('',#613,#614,#615);
#613 = CARTESIAN_POINT('',(0.,0.,2.));
#614 = DIRECTION('',(0.,0.,1.));
#615 = DIRECTION('',(0.,-1.,0.));
#616 = ADVANCED_FACE('',(#617),#635,.T.);
#617 = FACE_BOUND('',#618,.T.);
#618 = EDGE_LOOP('',(#619,#620,#627,#628));
#619 = ORIENTED_EDGE('',*,*,#563,.F.);
#620 = ORIENTED_EDGE('',*,*,#621,.T.);
#621 = EDGE_CURVE('',#413,#411,#622,.T.);
#622 = CIRCLE('',#623,5.4);
#623 = AXIS2_PLACEMENT_3D('',#624,#625,#626);
#624 = CARTESIAN_POINT('',(0.,0.,1.5));
#625 = DIRECTION('',(0.,0.,-1.));
#626 = DIRECTION('',(0.,-1.,0.));
#627 = ORIENTED_EDGE('',*,*,#580,.T.);
#628 = ORIENTED_EDGE('',*,*,#629,.T.);
#629 = EDGE_CURVE('',#572,#564,#630,.T.);
#630 = CIRCLE('',#631,5.4);
#631 = AXIS2_PLACEMENT_3D('',#632,#633,#634);
#632 = CARTESIAN_POINT('',(0.,0.,0.));
#633 = DIRECTION('',(-0.,0.,1.));
#634 = DIRECTION('',(0.,-1.,0.));
#635 = CYLINDRICAL_SURFACE('',#636,5.4);
#636 = AXIS2_PLACEMENT_3D('',#637,#638,#639);
#637 = CARTESIAN_POINT('',(0.,0.,2.));
#638 = DIRECTION('',(0.,0.,-1.));
#639 = DIRECTION('',(0.,1.,0.));
#640 = ADVANCED_FACE('',(#641),#645,.F.);
#641 = FACE_BOUND('',#642,.T.);
#642 = EDGE_LOOP('',(#643,#644));
#643 = ORIENTED_EDGE('',*,*,#629,.F.);
#644 = ORIENTED_EDGE('',*,*,#571,.F.);
#645 = PLANE('',#646);
#646 = AXIS2_PLACEMENT_3D('',#647,#648,#649);
#647 = CARTESIAN_POINT('',(0.,0.,0.));
#648 = DIRECTION('',(0.,0.,1.));
#649 = DIRECTION('',(0.,-1.,0.));
#650 = ADVANCED_FACE('',(#651),#663,.T.);
#651 = FACE_BOUND('',#652,.T.);
#652 = EDGE_LOOP('',(#653,#654,#661,#662));
#653 = ORIENTED_EDGE('',*,*,#531,.F.);
#654 = ORIENTED_EDGE('',*,*,#655,.F.);
#655 = EDGE_CURVE('',#523,#521,#656,.T.);
#656 = CIRCLE('',#657,4.4);
#657 = AXIS2_PLACEMENT_3D('',#658,#659,#660);
#658 = CARTESIAN_POINT('',(0.,0.,11.));
#659 = DIRECTION('',(-0.,0.,1.));
#660 = DIRECTION('',(0.,-1.,0.));
#661 = ORIENTED_EDGE('',*,*,#548,.T.);
#662 = ORIENTED_EDGE('',*,*,#604,.T.);
#663 = CYLINDRICAL_SURFACE('',#664,4.4);
#664 = AXIS2_PLACEMENT_3D('',#665,#666,#667);
#665 = CARTESIAN_POINT('',(0.,0.,11.));
#666 = DIRECTION('',(0.,0.,-1.));
#667 = DIRECTION('',(0.,1.,0.));
#668 = ADVANCED_FACE('',(#669,#679),#683,.F.);
#669 = FACE_BOUND('',#670,.T.);
#670 = EDGE_LOOP('',(#671,#678));
#671 = ORIENTED_EDGE('',*,*,#672,.T.);
#672 = EDGE_CURVE('',#369,#367,#673,.T.);
#673 = CIRCLE('',#674,4.9);
#674 = AXIS2_PLACEMENT_3D('',#675,#676,#677);
#675 = CARTESIAN_POINT('',(0.,0.,11.));
#676 = DIRECTION('',(0.,0.,-1.));
#677 = DIRECTION('',(0.,-1.,0.));
#678 = ORIENTED_EDGE('',*,*,#366,.T.);
#679 = FACE_BOUND('',#680,.T.);
#680 = EDGE_LOOP('',(#681,#682));
#681 = ORIENTED_EDGE('',*,*,#655,.T.);
#682 = ORIENTED_EDGE('',*,*,#520,.T.);
#683 = PLANE('',#684);
#684 = AXIS2_PLACEMENT_3D('',#685,#686,#687);
#685 = CARTESIAN_POINT('',(0.,0.,11.));
#686 = DIRECTION('',(0.,0.,1.));
#687 = DIRECTION('',(0.,-1.,0.));
#688 = ADVANCED_FACE('',(#689),#707,.T.);
#689 = FACE_BOUND('',#690,.T.);
#690 = EDGE_LOOP('',(#691,#692,#699,#700));
#691 = ORIENTED_EDGE('',*,*,#499,.F.);
#692 = ORIENTED_EDGE('',*,*,#693,.T.);
#693 = EDGE_CURVE('',#457,#455,#694,.T.);
#694 = CIRCLE('',#695,5.4);
#695 = AXIS2_PLACEMENT_3D('',#696,#697,#698);
#696 = CARTESIAN_POINT('',(0.,0.,12.5));
#697 = DIRECTION('',(0.,0.,-1.));
#698 = DIRECTION('',(0.,-1.,0.));
#699 = ORIENTED_EDGE('',*,*,#506,.T.);
#700 = ORIENTED_EDGE('',*,*,#701,.T.);
#701 = EDGE_CURVE('',#378,#387,#702,.T.);
#702 = CIRCLE('',#703,5.4);
#703 = AXIS2_PLACEMENT_3D('',#704,#705,#706);
#704 = CARTESIAN_POINT('',(0.,0.,11.5));
#705 = DIRECTION('',(-0.,0.,1.));
#706 = DIRECTION('',(0.,-1.,0.));
#707 = CYLINDRICAL_SURFACE('',#708,5.4);
#708 = AXIS2_PLACEMENT_3D('',#709,#710,#711);
#709 = CARTESIAN_POINT('',(0.,0.,13.));
#710 = DIRECTION('',(0.,0.,-1.));
#711 = DIRECTION('',(0.,1.,0.));
#712 = ADVANCED_FACE('',(#713),#723,.T.);
#713 = FACE_BOUND('',#714,.T.);
#714 = EDGE_LOOP('',(#715,#716));
#715 = ORIENTED_EDGE('',*,*,#474,.T.);
#716 = ORIENTED_EDGE('',*,*,#717,.T.);
#717 = EDGE_CURVE('',#466,#475,#718,.T.);
#718 = CIRCLE('',#719,4.9);
#719 = AXIS2_PLACEMENT_3D('',#720,#721,#722);
#720 = CARTESIAN_POINT('',(0.,0.,13.));
#721 = DIRECTION('',(-0.,0.,1.));
#722 = DIRECTION('',(0.,-1.,0.));
#723 = PLANE('',#724);
#724 = AXIS2_PLACEMENT_3D('',#725,#726,#727);
#725 = CARTESIAN_POINT('',(0.,0.,13.));
#726 = DIRECTION('',(0.,0.,1.));
#727 = DIRECTION('',(0.,-1.,0.));
#728 = ADVANCED_FACE('',(#729),#735,.T.);
#729 = FACE_BOUND('',#730,.T.);
#730 = EDGE_LOOP('',(#731,#732,#733,#734));
#731 = ORIENTED_EDGE('',*,*,#465,.F.);
#732 = ORIENTED_EDGE('',*,*,#693,.F.);
#733 = ORIENTED_EDGE('',*,*,#483,.T.);
#734 = ORIENTED_EDGE('',*,*,#717,.F.);
#735 = TOROIDAL_SURFACE('',#736,4.9,0.5);
#736 = AXIS2_PLACEMENT_3D('',#737,#738,#739);
#737 = CARTESIAN_POINT('',(0.,0.,12.5));
#738 = DIRECTION('',(0.,0.,1.));
#739 = DIRECTION('',(0.,-1.,0.));
#740 = ADVANCED_FACE('',(#741),#747,.T.);
#741 = FACE_BOUND('',#742,.T.);
#742 = EDGE_LOOP('',(#743,#744,#745,#746));
#743 = ORIENTED_EDGE('',*,*,#421,.F.);
#744 = ORIENTED_EDGE('',*,*,#621,.F.);
#745 = ORIENTED_EDGE('',*,*,#439,.T.);
#746 = ORIENTED_EDGE('',*,*,#595,.F.);
#747 = TOROIDAL_SURFACE('',#748,4.9,0.5);
#748 = AXIS2_PLACEMENT_3D('',#749,#750,#751);
#749 = CARTESIAN_POINT('',(0.,0.,1.5));
#750 = DIRECTION('',(0.,0.,1.));
#751 = DIRECTION('',(0.,-1.,0.));
#752 = ADVANCED_FACE('',(#753),#759,.T.);
#753 = FACE_BOUND('',#754,.T.);
#754 = EDGE_LOOP('',(#755,#756,#757,#758));
#755 = ORIENTED_EDGE('',*,*,#377,.F.);
#756 = ORIENTED_EDGE('',*,*,#672,.F.);
#757 = ORIENTED_EDGE('',*,*,#395,.T.);
#758 = ORIENTED_EDGE('',*,*,#701,.F.);
#759 = TOROIDAL_SURFACE('',#760,4.9,0.5);
#760 = AXIS2_PLACEMENT_3D('',#761,#762,#763);
#761 = CARTESIAN_POINT('',(0.,0.,11.5));
#762 = DIRECTION('',(0.,0.,1.));
#763 = DIRECTION('',(0.,-1.,0.));
#764 = GEOMETRIC_CURVE_SET('',(#765));
#765 = TRIMMED_CURVE('',#766,(#771,PARAMETER_VALUE(3.14159265359)),(#772
    ,PARAMETER_VALUE(6.28318530718)),.T.,.PARAMETER.);
#766 = CIRCLE('',#767,0.35);
#767 = AXIS2_PLACEMENT_3D('',#768,#769,#770);
#768 = CARTESIAN_POINT('',(-4.,0.,0.));
#769 = DIRECTION('',(0.,0.,-1.));
#770 = DIRECTION('',(0.,1.,0.));
#771 = CARTESIAN_POINT('',(-4.,-0.35,0.));
#772 = CARTESIAN_POINT('',(-4.,0.35,0.));
#773 = GEOMETRIC_CURVE_SET('',(#774));
#774 = TRIMMED_CURVE('',#775,(#780,PARAMETER_VALUE(0.)),(#781,
    PARAMETER_VALUE(3.14159265359)),.T.,.PARAMETER.);
#775 = CIRCLE('',#776,0.35);
#776 = AXIS2_PLACEMENT_3D('',#777,#778,#779);
#777 = CARTESIAN_POINT('',(-4.,0.,0.));
#778 = DIRECTION('',(0.,0.,-1.));
#779 = DIRECTION('',(0.,1.,0.));
#780 = CARTESIAN_POINT('',(-4.,0.35,0.));
#781 = CARTESIAN_POINT('',(-4.,-0.35,0.));
#782 = GEOMETRIC_CURVE_SET('',(#783));
#783 = TRIMMED_CURVE('',#784,(#789,PARAMETER_VALUE(0.)),(#790,
    PARAMETER_VALUE(3.14159265359)),.T.,.PARAMETER.);
#784 = CIRCLE('',#785,0.35);
#785 = AXIS2_PLACEMENT_3D('',#786,#787,#788);
#786 = CARTESIAN_POINT('',(-4.,0.,-2.));
#787 = DIRECTION('',(0.,0.,-1.));
#788 = DIRECTION('',(0.,1.,0.));
#789 = CARTESIAN_POINT('',(-4.,0.35,-2.));
#790 = CARTESIAN_POINT('',(-4.,-0.35,-2.));
#791 = GEOMETRIC_CURVE_SET('',(#792));
#792 = TRIMMED_CURVE('',#793,(#797,PARAMETER_VALUE(0.)),(#798,
    PARAMETER_VALUE(2.)),.T.,.PARAMETER.);
#793 = LINE('',#794,#795);
#794 = CARTESIAN_POINT('',(-4.,0.35,-2.));
#795 = VECTOR('',#796,1.);
#796 = DIRECTION('',(0.,0.,1.));
#797 = CARTESIAN_POINT('',(-4.,0.35,-2.));
#798 = CARTESIAN_POINT('',(-4.,0.35,0.));
#799 = GEOMETRIC_CURVE_SET('',(#800));
#800 = TRIMMED_CURVE('',#801,(#806,PARAMETER_VALUE(0.)),(#807,
    PARAMETER_VALUE(3.14159265359)),.T.,.PARAMETER.);
#801 = CIRCLE('',#802,0.35);
#802 = AXIS2_PLACEMENT_3D('',#803,#804,#805);
#803 = CARTESIAN_POINT('',(-4.,0.,0.));
#804 = DIRECTION('',(0.,0.,-1.));
#805 = DIRECTION('',(0.,1.,0.));
#806 = CARTESIAN_POINT('',(-4.,0.35,0.));
#807 = CARTESIAN_POINT('',(-4.,-0.35,0.));
#808 = GEOMETRIC_CURVE_SET('',(#809));
#809 = TRIMMED_CURVE('',#810,(#814,PARAMETER_VALUE(0.)),(#815,
    PARAMETER_VALUE(2.)),.T.,.PARAMETER.);
#810 = LINE('',#811,#812);
#811 = CARTESIAN_POINT('',(-4.,-0.35,-2.));
#812 = VECTOR('',#813,1.);
#813 = DIRECTION('',(0.,0.,1.));
#814 = CARTESIAN_POINT('',(-4.,-0.35,-2.));
#815 = CARTESIAN_POINT('',(-4.,-0.35,0.));
#816 = GEOMETRIC_CURVE_SET('',(#817));
#817 = TRIMMED_CURVE('',#818,(#822,PARAMETER_VALUE(0.)),(#823,
    PARAMETER_VALUE(2.)),.T.,.PARAMETER.);
#818 = LINE('',#819,#820);
#819 = CARTESIAN_POINT('',(-4.,0.35,-2.));
#820 = VECTOR('',#821,1.);
#821 = DIRECTION('',(0.,0.,1.));
#822 = CARTESIAN_POINT('',(-4.,0.35,-2.));
#823 = CARTESIAN_POINT('',(-4.,0.35,0.));
#824 = GEOMETRIC_CURVE_SET('',(#825));
#825 = TRIMMED_CURVE('',#826,(#831,PARAMETER_VALUE(3.14159265359)),(#832
    ,PARAMETER_VALUE(6.28318530718)),.T.,.PARAMETER.);
#826 = CIRCLE('',#827,0.35);
#827 = AXIS2_PLACEMENT_3D('',#828,#829,#830);
#828 = CARTESIAN_POINT('',(-4.,0.,-2.));
#829 = DIRECTION('',(0.,0.,-1.));
#830 = DIRECTION('',(0.,1.,0.));
#831 = CARTESIAN_POINT('',(-4.,-0.35,-2.));
#832 = CARTESIAN_POINT('',(-4.,0.35,-2.));
#833 = GEOMETRIC_CURVE_SET('',(#834));
#834 = TRIMMED_CURVE('',#835,(#839,PARAMETER_VALUE(0.)),(#840,
    PARAMETER_VALUE(2.)),.T.,.PARAMETER.);
#835 = LINE('',#836,#837);
#836 = CARTESIAN_POINT('',(-4.,-0.35,-2.));
#837 = VECTOR('',#838,1.);
#838 = DIRECTION('',(0.,0.,1.));
#839 = CARTESIAN_POINT('',(-4.,-0.35,-2.));
#840 = CARTESIAN_POINT('',(-4.,-0.35,0.));
#841 = GEOMETRIC_CURVE_SET('',(#842));
#842 = TRIMMED_CURVE('',#843,(#848,PARAMETER_VALUE(3.14159265359)),(#849
    ,PARAMETER_VALUE(6.28318530718)),.T.,.PARAMETER.);
#843 = CIRCLE('',#844,0.35);
#844 = AXIS2_PLACEMENT_3D('',#845,#846,#847);
#845 = CARTESIAN_POINT('',(-4.,0.,0.));
#846 = DIRECTION('',(0.,0.,-1.));
#847 = DIRECTION('',(0.,1.,0.));
#848 = CARTESIAN_POINT('',(-4.,-0.35,0.));
#849 = CARTESIAN_POINT('',(-4.,0.35,0.));
#850 = GEOMETRIC_CURVE_SET('',(#851));
#851 = TRIMMED_CURVE('',#852,(#857,PARAMETER_VALUE(3.14159265359)),(#858
    ,PARAMETER_VALUE(6.28318530718)),.T.,.PARAMETER.);
#852 = CIRCLE('',#853,0.35);
#853 = AXIS2_PLACEMENT_3D('',#854,#855,#856);
#854 = CARTESIAN_POINT('',(-4.,0.,-2.));
#855 = DIRECTION('',(0.,0.,-1.));
#856 = DIRECTION('',(0.,1.,0.));
#857 = CARTESIAN_POINT('',(-4.,-0.35,-2.));
#858 = CARTESIAN_POINT('',(-4.,0.35,-2.));
#859 = GEOMETRIC_CURVE_SET('',(#860));
#860 = TRIMMED_CURVE('',#861,(#866,PARAMETER_VALUE(0.)),(#867,
    PARAMETER_VALUE(3.14159265359)),.T.,.PARAMETER.);
#861 = CIRCLE('',#862,0.35);
#862 = AXIS2_PLACEMENT_3D('',#863,#864,#865);
#863 = CARTESIAN_POINT('',(-4.,0.,-2.));
#864 = DIRECTION('',(0.,0.,-1.));
#865 = DIRECTION('',(0.,1.,0.));
#866 = CARTESIAN_POINT('',(-4.,0.35,-2.));
#867 = CARTESIAN_POINT('',(-4.,-0.35,-2.));
#868 = GEOMETRIC_CURVE_SET('',(#869));
#869 = TRIMMED_CURVE('',#870,(#875,PARAMETER_VALUE(3.14159265359)),(#876
    ,PARAMETER_VALUE(6.28318530718)),.T.,.PARAMETER.);
#870 = CIRCLE('',#871,0.35);
#871 = AXIS2_PLACEMENT_3D('',#872,#873,#874);
#872 = CARTESIAN_POINT('',(4.,0.,0.));
#873 = DIRECTION('',(0.,0.,-1.));
#874 = DIRECTION('',(0.,1.,0.));
#875 = CARTESIAN_POINT('',(4.,-0.35,0.));
#876 = CARTESIAN_POINT('',(4.,0.35,0.));
#877 = GEOMETRIC_CURVE_SET('',(#878));
#878 = TRIMMED_CURVE('',#879,(#884,PARAMETER_VALUE(0.)),(#885,
    PARAMETER_VALUE(3.14159265359)),.T.,.PARAMETER.);
#879 = CIRCLE('',#880,0.35);
#880 = AXIS2_PLACEMENT_3D('',#881,#882,#883);
#881 = CARTESIAN_POINT('',(4.,0.,0.));
#882 = DIRECTION('',(0.,0.,-1.));
#883 = DIRECTION('',(0.,1.,0.));
#884 = CARTESIAN_POINT('',(4.,0.35,0.));
#885 = CARTESIAN_POINT('',(4.,-0.35,0.));
#886 = GEOMETRIC_CURVE_SET('',(#887));
#887 = TRIMMED_CURVE('',#888,(#893,PARAMETER_VALUE(0.)),(#894,
    PARAMETER_VALUE(3.14159265359)),.T.,.PARAMETER.);
#888 = CIRCLE('',#889,0.35);
#889 = AXIS2_PLACEMENT_3D('',#890,#891,#892);
#890 = CARTESIAN_POINT('',(4.,0.,-2.));
#891 = DIRECTION('',(0.,0.,-1.));
#892 = DIRECTION('',(0.,1.,0.));
#893 = CARTESIAN_POINT('',(4.,0.35,-2.));
#894 = CARTESIAN_POINT('',(4.,-0.35,-2.));
#895 = GEOMETRIC_CURVE_SET('',(#896));
#896 = TRIMMED_CURVE('',#897,(#901,PARAMETER_VALUE(0.)),(#902,
    PARAMETER_VALUE(2.)),.T.,.PARAMETER.);
#897 = LINE('',#898,#899);
#898 = CARTESIAN_POINT('',(4.,0.35,-2.));
#899 = VECTOR('',#900,1.);
#900 = DIRECTION('',(0.,0.,1.));
#901 = CARTESIAN_POINT('',(4.,0.35,-2.));
#902 = CARTESIAN_POINT('',(4.,0.35,0.));
#903 = GEOMETRIC_CURVE_SET('',(#904));
#904 = TRIMMED_CURVE('',#905,(#910,PARAMETER_VALUE(0.)),(#911,
    PARAMETER_VALUE(3.14159265359)),.T.,.PARAMETER.);
#905 = CIRCLE('',#906,0.35);
#906 = AXIS2_PLACEMENT_3D('',#907,#908,#909);
#907 = CARTESIAN_POINT('',(4.,0.,0.));
#908 = DIRECTION('',(0.,0.,-1.));
#909 = DIRECTION('',(0.,1.,0.));
#910 = CARTESIAN_POINT('',(4.,0.35,0.));
#911 = CARTESIAN_POINT('',(4.,-0.35,0.));
#912 = GEOMETRIC_CURVE_SET('',(#913));
#913 = TRIMMED_CURVE('',#914,(#918,PARAMETER_VALUE(0.)),(#919,
    PARAMETER_VALUE(2.)),.T.,.PARAMETER.);
#914 = LINE('',#915,#916);
#915 = CARTESIAN_POINT('',(4.,-0.35,-2.));
#916 = VECTOR('',#917,1.);
#917 = DIRECTION('',(0.,0.,1.));
#918 = CARTESIAN_POINT('',(4.,-0.35,-2.));
#919 = CARTESIAN_POINT('',(4.,-0.35,0.));
#920 = GEOMETRIC_CURVE_SET('',(#921));
#921 = TRIMMED_CURVE('',#922,(#926,PARAMETER_VALUE(0.)),(#927,
    PARAMETER_VALUE(2.)),.T.,.PARAMETER.);
#922 = LINE('',#923,#924);
#923 = CARTESIAN_POINT('',(4.,0.35,-2.));
#924 = VECTOR('',#925,1.);
#925 = DIRECTION('',(0.,0.,1.));
#926 = CARTESIAN_POINT('',(4.,0.35,-2.));
#927 = CARTESIAN_POINT('',(4.,0.35,0.));
#928 = GEOMETRIC_CURVE_SET('',(#929));
#929 = TRIMMED_CURVE('',#930,(#935,PARAMETER_VALUE(3.14159265359)),(#936
    ,PARAMETER_VALUE(6.28318530718)),.T.,.PARAMETER.);
#930 = CIRCLE('',#931,0.35);
#931 = AXIS2_PLACEMENT_3D('',#932,#933,#934);
#932 = CARTESIAN_POINT('',(4.,0.,-2.));
#933 = DIRECTION('',(0.,0.,-1.));
#934 = DIRECTION('',(0.,1.,0.));
#935 = CARTESIAN_POINT('',(4.,-0.35,-2.));
#936 = CARTESIAN_POINT('',(4.,0.35,-2.));
#937 = GEOMETRIC_CURVE_SET('',(#938));
#938 = TRIMMED_CURVE('',#939,(#943,PARAMETER_VALUE(0.)),(#944,
    PARAMETER_VALUE(2.)),.T.,.PARAMETER.);
#939 = LINE('',#940,#941);
#940 = CARTESIAN_POINT('',(4.,-0.35,-2.));
#941 = VECTOR('',#942,1.);
#942 = DIRECTION('',(0.,0.,1.));
#943 = CARTESIAN_POINT('',(4.,-0.35,-2.));
#944 = CARTESIAN_POINT('',(4.,-0.35,0.));
#945 = GEOMETRIC_CURVE_SET('',(#946));
#946 = TRIMMED_CURVE('',#947,(#952,PARAMETER_VALUE(3.14159265359)),(#953
    ,PARAMETER_VALUE(6.28318530718)),.T.,.PARAMETER.);
#947 = CIRCLE('',#948,0.35);
#948 = AXIS2_PLACEMENT_3D('',#949,#950,#951);
#949 = CARTESIAN_POINT('',(4.,0.,0.));
#950 = DIRECTION('',(0.,0.,-1.));
#951 = DIRECTION('',(0.,1.,0.));
#952 = CARTESIAN_POINT('',(4.,-0.35,0.));
#953 = CARTESIAN_POINT('',(4.,0.35,0.));
#954 = GEOMETRIC_CURVE_SET('',(#955));
#955 = TRIMMED_CURVE('',#956,(#961,PARAMETER_VALUE(3.14159265359)),(#962
    ,PARAMETER_VALUE(6.28318530718)),.T.,.PARAMETER.);
#956 = CIRCLE('',#957,0.35);
#957 = AXIS2_PLACEMENT_3D('',#958,#959,#960);
#958 = CARTESIAN_POINT('',(4.,0.,-2.));
#959 = DIRECTION('',(0.,0.,-1.));
#960 = DIRECTION('',(0.,1.,0.));
#961 = CARTESIAN_POINT('',(4.,-0.35,-2.));
#962 = CARTESIAN_POINT('',(4.,0.35,-2.));
#963 = GEOMETRIC_CURVE_SET('',(#964));
#964 = TRIMMED_CURVE('',#965,(#970,PARAMETER_VALUE(0.)),(#971,
    PARAMETER_VALUE(3.14159265359)),.T.,.PARAMETER.);
#965 = CIRCLE('',#966,0.35);
#966 = AXIS2_PLACEMENT_3D('',#967,#968,#969);
#967 = CARTESIAN_POINT('',(4.,0.,-2.));
#968 = DIRECTION('',(0.,0.,-1.));
#969 = DIRECTION('',(0.,1.,0.));
#970 = CARTESIAN_POINT('',(4.,0.35,-2.));
#971 = CARTESIAN_POINT('',(4.,-0.35,-2.));
#972 = GEOMETRIC_CURVE_SET('',(#973));
#973 = TRIMMED_CURVE('',#974,(#979,PARAMETER_VALUE(3.14159265359)),(#980
    ,PARAMETER_VALUE(6.28318530718)),.T.,.PARAMETER.);
#974 = CIRCLE('',#975,4.9);
#975 = AXIS2_PLACEMENT_3D('',#976,#977,#978);
#976 = CARTESIAN_POINT('',(0.,0.,11.));
#977 = DIRECTION('',(0.,0.,-1.));
#978 = DIRECTION('',(0.,-1.,0.));
#979 = CARTESIAN_POINT('',(0.,4.9,11.));
#980 = CARTESIAN_POINT('',(0.,-4.9,11.));
#981 = GEOMETRIC_CURVE_SET('',(#982));
#982 = TRIMMED_CURVE('',#983,(#988,PARAMETER_VALUE(4.712388980385)),(
    #989,PARAMETER_VALUE(6.28318530718)),.T.,.PARAMETER.);
#983 = CIRCLE('',#984,0.5);
#984 = AXIS2_PLACEMENT_3D('',#985,#986,#987);
#985 = CARTESIAN_POINT('',(0.,4.9,11.5));
#986 = DIRECTION('',(1.,0.,0.));
#987 = DIRECTION('',(0.,1.,0.));
#988 = CARTESIAN_POINT('',(0.,4.9,11.));
#989 = CARTESIAN_POINT('',(0.,5.4,11.5));
#990 = GEOMETRIC_CURVE_SET('',(#991));
#991 = TRIMMED_CURVE('',#992,(#997,PARAMETER_VALUE(0.)),(#998,
    PARAMETER_VALUE(3.14159265359)),.T.,.PARAMETER.);
#992 = CIRCLE('',#993,5.4);
#993 = AXIS2_PLACEMENT_3D('',#994,#995,#996);
#994 = CARTESIAN_POINT('',(0.,0.,11.5));
#995 = DIRECTION('',(-0.,0.,1.));
#996 = DIRECTION('',(0.,-1.,0.));
#997 = CARTESIAN_POINT('',(0.,-5.4,11.5));
#998 = CARTESIAN_POINT('',(0.,5.4,11.5));
#999 = GEOMETRIC_CURVE_SET('',(#1000));
#1000 = TRIMMED_CURVE('',#1001,(#1006,PARAMETER_VALUE(4.712388980385)),(
    #1007,PARAMETER_VALUE(6.28318530718)),.T.,.PARAMETER.);
#1001 = CIRCLE('',#1002,0.5);
#1002 = AXIS2_PLACEMENT_3D('',#1003,#1004,#1005);
#1003 = CARTESIAN_POINT('',(0.,-4.9,11.5));
#1004 = DIRECTION('',(-1.,0.,0.));
#1005 = DIRECTION('',(0.,-1.,0.));
#1006 = CARTESIAN_POINT('',(0.,-4.9,11.));
#1007 = CARTESIAN_POINT('',(0.,-5.4,11.5));
#1008 = GEOMETRIC_CURVE_SET('',(#1009));
#1009 = TRIMMED_CURVE('',#1010,(#1015,PARAMETER_VALUE(3.14159265359)),(
    #1016,PARAMETER_VALUE(6.28318530718)),.T.,.PARAMETER.);
#1010 = CIRCLE('',#1011,5.4);
#1011 = AXIS2_PLACEMENT_3D('',#1012,#1013,#1014);
#1012 = CARTESIAN_POINT('',(0.,0.,1.5));
#1013 = DIRECTION('',(0.,0.,-1.));
#1014 = DIRECTION('',(0.,-1.,0.));
#1015 = CARTESIAN_POINT('',(0.,5.4,1.5));
#1016 = CARTESIAN_POINT('',(0.,-5.4,1.5));
#1017 = GEOMETRIC_CURVE_SET('',(#1018));
#1018 = TRIMMED_CURVE('',#1019,(#1024,PARAMETER_VALUE(0.)),(#1025,
    PARAMETER_VALUE(1.570796326795)),.T.,.PARAMETER.);
#1019 = CIRCLE('',#1020,0.5);
#1020 = AXIS2_PLACEMENT_3D('',#1021,#1022,#1023);
#1021 = CARTESIAN_POINT('',(0.,4.9,1.5));
#1022 = DIRECTION('',(1.,0.,0.));
#1023 = DIRECTION('',(0.,1.,0.));
#1024 = CARTESIAN_POINT('',(0.,5.4,1.5));
#1025 = CARTESIAN_POINT('',(0.,4.9,2.));
#1026 = GEOMETRIC_CURVE_SET('',(#1027));
#1027 = TRIMMED_CURVE('',#1028,(#1033,PARAMETER_VALUE(0.)),(#1034,
    PARAMETER_VALUE(3.14159265359)),.T.,.PARAMETER.);
#1028 = CIRCLE('',#1029,4.9);
#1029 = AXIS2_PLACEMENT_3D('',#1030,#1031,#1032);
#1030 = CARTESIAN_POINT('',(0.,0.,2.));
#1031 = DIRECTION('',(-0.,0.,1.));
#1032 = DIRECTION('',(0.,-1.,0.));
#1033 = CARTESIAN_POINT('',(0.,-4.9,2.));
#1034 = CARTESIAN_POINT('',(0.,4.9,2.));
#1035 = GEOMETRIC_CURVE_SET('',(#1036));
#1036 = TRIMMED_CURVE('',#1037,(#1042,PARAMETER_VALUE(0.)),(#1043,
    PARAMETER_VALUE(1.570796326795)),.T.,.PARAMETER.);
#1037 = CIRCLE('',#1038,0.5);
#1038 = AXIS2_PLACEMENT_3D('',#1039,#1040,#1041);
#1039 = CARTESIAN_POINT('',(0.,-4.9,1.5));
#1040 = DIRECTION('',(-1.,0.,0.));
#1041 = DIRECTION('',(0.,-1.,0.));
#1042 = CARTESIAN_POINT('',(0.,-5.4,1.5));
#1043 = CARTESIAN_POINT('',(0.,-4.9,2.));
#1044 = GEOMETRIC_CURVE_SET('',(#1045));
#1045 = TRIMMED_CURVE('',#1046,(#1051,PARAMETER_VALUE(3.14159265359)),(
    #1052,PARAMETER_VALUE(6.28318530718)),.T.,.PARAMETER.);
#1046 = CIRCLE('',#1047,5.4);
#1047 = AXIS2_PLACEMENT_3D('',#1048,#1049,#1050);
#1048 = CARTESIAN_POINT('',(0.,0.,12.5));
#1049 = DIRECTION('',(0.,0.,-1.));
#1050 = DIRECTION('',(0.,-1.,0.));
#1051 = CARTESIAN_POINT('',(0.,5.4,12.5));
#1052 = CARTESIAN_POINT('',(0.,-5.4,12.5));
#1053 = GEOMETRIC_CURVE_SET('',(#1054));
#1054 = TRIMMED_CURVE('',#1055,(#1060,PARAMETER_VALUE(0.)),(#1061,
    PARAMETER_VALUE(1.570796326795)),.T.,.PARAMETER.);
#1055 = CIRCLE('',#1056,0.5);
#1056 = AXIS2_PLACEMENT_3D('',#1057,#1058,#1059);
#1057 = CARTESIAN_POINT('',(0.,4.9,12.5));
#1058 = DIRECTION('',(1.,0.,0.));
#1059 = DIRECTION('',(0.,1.,0.));
#1060 = CARTESIAN_POINT('',(0.,5.4,12.5));
#1061 = CARTESIAN_POINT('',(0.,4.9,13.));
#1062 = GEOMETRIC_CURVE_SET('',(#1063));
#1063 = TRIMMED_CURVE('',#1064,(#1069,PARAMETER_VALUE(0.)),(#1070,
    PARAMETER_VALUE(3.14159265359)),.T.,.PARAMETER.);
#1064 = CIRCLE('',#1065,4.9);
#1065 = AXIS2_PLACEMENT_3D('',#1066,#1067,#1068);
#1066 = CARTESIAN_POINT('',(0.,0.,13.));
#1067 = DIRECTION('',(-0.,0.,1.));
#1068 = DIRECTION('',(0.,-1.,0.));
#1069 = CARTESIAN_POINT('',(0.,-4.9,13.));
#1070 = CARTESIAN_POINT('',(0.,4.9,13.));
#1071 = GEOMETRIC_CURVE_SET('',(#1072));
#1072 = TRIMMED_CURVE('',#1073,(#1078,PARAMETER_VALUE(0.)),(#1079,
    PARAMETER_VALUE(1.570796326795)),.T.,.PARAMETER.);
#1073 = CIRCLE('',#1074,0.5);
#1074 = AXIS2_PLACEMENT_3D('',#1075,#1076,#1077);
#1075 = CARTESIAN_POINT('',(0.,-4.9,12.5));
#1076 = DIRECTION('',(-1.,0.,0.));
#1077 = DIRECTION('',(0.,-1.,0.));
#1078 = CARTESIAN_POINT('',(0.,-5.4,12.5));
#1079 = CARTESIAN_POINT('',(0.,-4.9,13.));
#1080 = GEOMETRIC_CURVE_SET('',(#1081));
#1081 = TRIMMED_CURVE('',#1082,(#1087,PARAMETER_VALUE(3.14159265359)),(
    #1088,PARAMETER_VALUE(6.28318530718)),.T.,.PARAMETER.);
#1082 = CIRCLE('',#1083,5.4);
#1083 = AXIS2_PLACEMENT_3D('',#1084,#1085,#1086);
#1084 = CARTESIAN_POINT('',(0.,0.,12.5));
#1085 = DIRECTION('',(0.,0.,-1.));
#1086 = DIRECTION('',(0.,-1.,0.));
#1087 = CARTESIAN_POINT('',(0.,5.4,12.5));
#1088 = CARTESIAN_POINT('',(0.,-5.4,12.5));
#1089 = GEOMETRIC_CURVE_SET('',(#1090));
#1090 = TRIMMED_CURVE('',#1091,(#1095,PARAMETER_VALUE(0.5)),(#1096,
    PARAMETER_VALUE(1.5)),.T.,.PARAMETER.);
#1091 = LINE('',#1092,#1093);
#1092 = CARTESIAN_POINT('',(0.,-5.4,13.));
#1093 = VECTOR('',#1094,1.);
#1094 = DIRECTION('',(0.,0.,-1.));
#1095 = CARTESIAN_POINT('',(0.,-5.4,12.5));
#1096 = CARTESIAN_POINT('',(0.,-5.4,11.5));
#1097 = GEOMETRIC_CURVE_SET('',(#1098));
#1098 = TRIMMED_CURVE('',#1099,(#1104,PARAMETER_VALUE(0.)),(#1105,
    PARAMETER_VALUE(3.14159265359)),.T.,.PARAMETER.);
#1099 = CIRCLE('',#1100,5.4);
#1100 = AXIS2_PLACEMENT_3D('',#1101,#1102,#1103);
#1101 = CARTESIAN_POINT('',(0.,0.,11.5));
#1102 = DIRECTION('',(-0.,0.,1.));
#1103 = DIRECTION('',(0.,-1.,0.));
#1104 = CARTESIAN_POINT('',(0.,-5.4,11.5));
#1105 = CARTESIAN_POINT('',(0.,5.4,11.5));
#1106 = GEOMETRIC_CURVE_SET('',(#1107));
#1107 = TRIMMED_CURVE('',#1108,(#1112,PARAMETER_VALUE(0.5)),(#1113,
    PARAMETER_VALUE(1.5)),.T.,.PARAMETER.);
#1108 = LINE('',#1109,#1110);
#1109 = CARTESIAN_POINT('',(0.,5.4,13.));
#1110 = VECTOR('',#1111,1.);
#1111 = DIRECTION('',(0.,0.,-1.));
#1112 = CARTESIAN_POINT('',(0.,5.4,12.5));
#1113 = CARTESIAN_POINT('',(0.,5.4,11.5));
#1114 = GEOMETRIC_CURVE_SET('',(#1115));
#1115 = TRIMMED_CURVE('',#1116,(#1121,PARAMETER_VALUE(0.)),(#1122,
    PARAMETER_VALUE(3.14159265359)),.T.,.PARAMETER.);
#1116 = CIRCLE('',#1117,4.4);
#1117 = AXIS2_PLACEMENT_3D('',#1118,#1119,#1120);
#1118 = CARTESIAN_POINT('',(0.,0.,11.));
#1119 = DIRECTION('',(-0.,0.,1.));
#1120 = DIRECTION('',(0.,-1.,0.));
#1121 = CARTESIAN_POINT('',(0.,-4.4,11.));
#1122 = CARTESIAN_POINT('',(0.,4.4,11.));
#1123 = GEOMETRIC_CURVE_SET('',(#1124));
#1124 = TRIMMED_CURVE('',#1125,(#1129,PARAMETER_VALUE(0.)),(#1130,
    PARAMETER_VALUE(9.)),.T.,.PARAMETER.);
#1125 = LINE('',#1126,#1127);
#1126 = CARTESIAN_POINT('',(0.,-4.4,11.));
#1127 = VECTOR('',#1128,1.);
#1128 = DIRECTION('',(0.,0.,-1.));
#1129 = CARTESIAN_POINT('',(0.,-4.4,11.));
#1130 = CARTESIAN_POINT('',(0.,-4.4,2.));
#1131 = GEOMETRIC_CURVE_SET('',(#1132));
#1132 = TRIMMED_CURVE('',#1133,(#1138,PARAMETER_VALUE(0.)),(#1139,
    PARAMETER_VALUE(3.14159265359)),.T.,.PARAMETER.);
#1133 = CIRCLE('',#1134,4.4);
#1134 = AXIS2_PLACEMENT_3D('',#1135,#1136,#1137);
#1135 = CARTESIAN_POINT('',(0.,0.,2.));
#1136 = DIRECTION('',(-0.,0.,1.));
#1137 = DIRECTION('',(0.,-1.,0.));
#1138 = CARTESIAN_POINT('',(0.,-4.4,2.));
#1139 = CARTESIAN_POINT('',(0.,4.4,2.));
#1140 = GEOMETRIC_CURVE_SET('',(#1141));
#1141 = TRIMMED_CURVE('',#1142,(#1146,PARAMETER_VALUE(0.)),(#1147,
    PARAMETER_VALUE(9.)),.T.,.PARAMETER.);
#1142 = LINE('',#1143,#1144);
#1143 = CARTESIAN_POINT('',(0.,4.4,11.));
#1144 = VECTOR('',#1145,1.);
#1145 = DIRECTION('',(0.,0.,-1.));
#1146 = CARTESIAN_POINT('',(0.,4.4,11.));
#1147 = CARTESIAN_POINT('',(0.,4.4,2.));
#1148 = GEOMETRIC_CURVE_SET('',(#1149));
#1149 = TRIMMED_CURVE('',#1150,(#1155,PARAMETER_VALUE(3.14159265359)),(
    #1156,PARAMETER_VALUE(6.28318530718)),.T.,.PARAMETER.);
#1150 = CIRCLE('',#1151,5.4);
#1151 = AXIS2_PLACEMENT_3D('',#1152,#1153,#1154);
#1152 = CARTESIAN_POINT('',(0.,0.,1.5));
#1153 = DIRECTION('',(0.,0.,-1.));
#1154 = DIRECTION('',(0.,-1.,0.));
#1155 = CARTESIAN_POINT('',(0.,5.4,1.5));
#1156 = CARTESIAN_POINT('',(0.,-5.4,1.5));
#1157 = GEOMETRIC_CURVE_SET('',(#1158));
#1158 = TRIMMED_CURVE('',#1159,(#1163,PARAMETER_VALUE(0.5)),(#1164,
    PARAMETER_VALUE(2.)),.T.,.PARAMETER.);
#1159 = LINE('',#1160,#1161);
#1160 = CARTESIAN_POINT('',(0.,-5.4,2.));
#1161 = VECTOR('',#1162,1.);
#1162 = DIRECTION('',(0.,0.,-1.));
#1163 = CARTESIAN_POINT('',(0.,-5.4,1.5));
#1164 = CARTESIAN_POINT('',(0.,-5.4,0.));
#1165 = GEOMETRIC_CURVE_SET('',(#1166));
#1166 = TRIMMED_CURVE('',#1167,(#1172,PARAMETER_VALUE(0.)),(#1173,
    PARAMETER_VALUE(3.14159265359)),.T.,.PARAMETER.);
#1167 = CIRCLE('',#1168,5.4);
#1168 = AXIS2_PLACEMENT_3D('',#1169,#1170,#1171);
#1169 = CARTESIAN_POINT('',(0.,0.,0.));
#1170 = DIRECTION('',(-0.,0.,1.));
#1171 = DIRECTION('',(0.,-1.,0.));
#1172 = CARTESIAN_POINT('',(0.,-5.4,0.));
#1173 = CARTESIAN_POINT('',(0.,5.4,0.));
#1174 = GEOMETRIC_CURVE_SET('',(#1175));
#1175 = TRIMMED_CURVE('',#1176,(#1180,PARAMETER_VALUE(0.5)),(#1181,
    PARAMETER_VALUE(2.)),.T.,.PARAMETER.);
#1176 = LINE('',#1177,#1178);
#1177 = CARTESIAN_POINT('',(0.,5.4,2.));
#1178 = VECTOR('',#1179,1.);
#1179 = DIRECTION('',(0.,0.,-1.));
#1180 = CARTESIAN_POINT('',(0.,5.4,1.5));
#1181 = CARTESIAN_POINT('',(0.,5.4,0.));
#1182 = GEOMETRIC_CURVE_SET('',(#1183));
#1183 = TRIMMED_CURVE('',#1184,(#1189,PARAMETER_VALUE(0.)),(#1190,
    PARAMETER_VALUE(3.14159265359)),.T.,.PARAMETER.);
#1184 = CIRCLE('',#1185,4.9);
#1185 = AXIS2_PLACEMENT_3D('',#1186,#1187,#1188);
#1186 = CARTESIAN_POINT('',(0.,0.,2.));
#1187 = DIRECTION('',(-0.,0.,1.));
#1188 = DIRECTION('',(0.,-1.,0.));
#1189 = CARTESIAN_POINT('',(0.,-4.9,2.));
#1190 = CARTESIAN_POINT('',(0.,4.9,2.));
#1191 = GEOMETRIC_CURVE_SET('',(#1192));
#1192 = TRIMMED_CURVE('',#1193,(#1198,PARAMETER_VALUE(3.14159265359)),(
    #1199,PARAMETER_VALUE(6.28318530718)),.T.,.PARAMETER.);
#1193 = CIRCLE('',#1194,4.9);
#1194 = AXIS2_PLACEMENT_3D('',#1195,#1196,#1197);
#1195 = CARTESIAN_POINT('',(0.,0.,2.));
#1196 = DIRECTION('',(-0.,0.,1.));
#1197 = DIRECTION('',(0.,-1.,0.));
#1198 = CARTESIAN_POINT('',(0.,4.9,2.));
#1199 = CARTESIAN_POINT('',(0.,-4.9,2.));
#1200 = GEOMETRIC_CURVE_SET('',(#1201));
#1201 = TRIMMED_CURVE('',#1202,(#1207,PARAMETER_VALUE(3.14159265359)),(
    #1208,PARAMETER_VALUE(6.28318530718)),.T.,.PARAMETER.);
#1202 = CIRCLE('',#1203,4.4);
#1203 = AXIS2_PLACEMENT_3D('',#1204,#1205,#1206);
#1204 = CARTESIAN_POINT('',(0.,0.,2.));
#1205 = DIRECTION('',(-0.,0.,1.));
#1206 = DIRECTION('',(0.,-1.,0.));
#1207 = CARTESIAN_POINT('',(0.,4.4,2.));
#1208 = CARTESIAN_POINT('',(0.,-4.4,2.));
#1209 = GEOMETRIC_CURVE_SET('',(#1210));
#1210 = TRIMMED_CURVE('',#1211,(#1216,PARAMETER_VALUE(0.)),(#1217,
    PARAMETER_VALUE(3.14159265359)),.T.,.PARAMETER.);
#1211 = CIRCLE('',#1212,4.4);
#1212 = AXIS2_PLACEMENT_3D('',#1213,#1214,#1215);
#1213 = CARTESIAN_POINT('',(0.,0.,2.));
#1214 = DIRECTION('',(-0.,0.,1.));
#1215 = DIRECTION('',(0.,-1.,0.));
#1216 = CARTESIAN_POINT('',(0.,-4.4,2.));
#1217 = CARTESIAN_POINT('',(0.,4.4,2.));
#1218 = GEOMETRIC_CURVE_SET('',(#1219));
#1219 = TRIMMED_CURVE('',#1220,(#1224,PARAMETER_VALUE(0.5)),(#1225,
    PARAMETER_VALUE(2.)),.T.,.PARAMETER.);
#1220 = LINE('',#1221,#1222);
#1221 = CARTESIAN_POINT('',(0.,-5.4,2.));
#1222 = VECTOR('',#1223,1.);
#1223 = DIRECTION('',(0.,0.,-1.));
#1224 = CARTESIAN_POINT('',(0.,-5.4,1.5));
#1225 = CARTESIAN_POINT('',(0.,-5.4,0.));
#1226 = GEOMETRIC_CURVE_SET('',(#1227));
#1227 = TRIMMED_CURVE('',#1228,(#1233,PARAMETER_VALUE(0.)),(#1234,
    PARAMETER_VALUE(3.14159265359)),.T.,.PARAMETER.);
#1228 = CIRCLE('',#1229,5.4);
#1229 = AXIS2_PLACEMENT_3D('',#1230,#1231,#1232);
#1230 = CARTESIAN_POINT('',(0.,0.,1.5));
#1231 = DIRECTION('',(0.,0.,-1.));
#1232 = DIRECTION('',(0.,-1.,0.));
#1233 = CARTESIAN_POINT('',(0.,-5.4,1.5));
#1234 = CARTESIAN_POINT('',(0.,5.4,1.5));
#1235 = GEOMETRIC_CURVE_SET('',(#1236));
#1236 = TRIMMED_CURVE('',#1237,(#1241,PARAMETER_VALUE(0.5)),(#1242,
    PARAMETER_VALUE(2.)),.T.,.PARAMETER.);
#1237 = LINE('',#1238,#1239);
#1238 = CARTESIAN_POINT('',(0.,5.4,2.));
#1239 = VECTOR('',#1240,1.);
#1240 = DIRECTION('',(0.,0.,-1.));
#1241 = CARTESIAN_POINT('',(0.,5.4,1.5));
#1242 = CARTESIAN_POINT('',(0.,5.4,0.));
#1243 = GEOMETRIC_CURVE_SET('',(#1244));
#1244 = TRIMMED_CURVE('',#1245,(#1250,PARAMETER_VALUE(3.14159265359)),(
    #1251,PARAMETER_VALUE(6.28318530718)),.T.,.PARAMETER.);
#1245 = CIRCLE('',#1246,5.4);
#1246 = AXIS2_PLACEMENT_3D('',#1247,#1248,#1249);
#1247 = CARTESIAN_POINT('',(0.,0.,0.));
#1248 = DIRECTION('',(-0.,0.,1.));
#1249 = DIRECTION('',(0.,-1.,0.));
#1250 = CARTESIAN_POINT('',(0.,5.4,0.));
#1251 = CARTESIAN_POINT('',(0.,-5.4,0.));
#1252 = GEOMETRIC_CURVE_SET('',(#1253));
#1253 = TRIMMED_CURVE('',#1254,(#1259,PARAMETER_VALUE(3.14159265359)),(
    #1260,PARAMETER_VALUE(6.28318530718)),.T.,.PARAMETER.);
#1254 = CIRCLE('',#1255,5.4);
#1255 = AXIS2_PLACEMENT_3D('',#1256,#1257,#1258);
#1256 = CARTESIAN_POINT('',(0.,0.,0.));
#1257 = DIRECTION('',(-0.,0.,1.));
#1258 = DIRECTION('',(0.,-1.,0.));
#1259 = CARTESIAN_POINT('',(0.,5.4,0.));
#1260 = CARTESIAN_POINT('',(0.,-5.4,0.));
#1261 = GEOMETRIC_CURVE_SET('',(#1262));
#1262 = TRIMMED_CURVE('',#1263,(#1268,PARAMETER_VALUE(0.)),(#1269,
    PARAMETER_VALUE(3.14159265359)),.T.,.PARAMETER.);
#1263 = CIRCLE('',#1264,5.4);
#1264 = AXIS2_PLACEMENT_3D('',#1265,#1266,#1267);
#1265 = CARTESIAN_POINT('',(0.,0.,0.));
#1266 = DIRECTION('',(-0.,0.,1.));
#1267 = DIRECTION('',(0.,-1.,0.));
#1268 = CARTESIAN_POINT('',(0.,-5.4,0.));
#1269 = CARTESIAN_POINT('',(0.,5.4,0.));
#1270 = GEOMETRIC_CURVE_SET('',(#1271));
#1271 = TRIMMED_CURVE('',#1272,(#1276,PARAMETER_VALUE(0.)),(#1277,
    PARAMETER_VALUE(9.)),.T.,.PARAMETER.);
#1272 = LINE('',#1273,#1274);
#1273 = CARTESIAN_POINT('',(0.,-4.4,11.));
#1274 = VECTOR('',#1275,1.);
#1275 = DIRECTION('',(0.,0.,-1.));
#1276 = CARTESIAN_POINT('',(0.,-4.4,11.));
#1277 = CARTESIAN_POINT('',(0.,-4.4,2.));
#1278 = GEOMETRIC_CURVE_SET('',(#1279));
#1279 = TRIMMED_CURVE('',#1280,(#1285,PARAMETER_VALUE(3.14159265359)),(
    #1286,PARAMETER_VALUE(6.28318530718)),.T.,.PARAMETER.);
#1280 = CIRCLE('',#1281,4.4);
#1281 = AXIS2_PLACEMENT_3D('',#1282,#1283,#1284);
#1282 = CARTESIAN_POINT('',(0.,0.,11.));
#1283 = DIRECTION('',(-0.,0.,1.));
#1284 = DIRECTION('',(0.,-1.,0.));
#1285 = CARTESIAN_POINT('',(0.,4.4,11.));
#1286 = CARTESIAN_POINT('',(0.,-4.4,11.));
#1287 = GEOMETRIC_CURVE_SET('',(#1288));
#1288 = TRIMMED_CURVE('',#1289,(#1293,PARAMETER_VALUE(0.)),(#1294,
    PARAMETER_VALUE(9.)),.T.,.PARAMETER.);
#1289 = LINE('',#1290,#1291);
#1290 = CARTESIAN_POINT('',(0.,4.4,11.));
#1291 = VECTOR('',#1292,1.);
#1292 = DIRECTION('',(0.,0.,-1.));
#1293 = CARTESIAN_POINT('',(0.,4.4,11.));
#1294 = CARTESIAN_POINT('',(0.,4.4,2.));
#1295 = GEOMETRIC_CURVE_SET('',(#1296));
#1296 = TRIMMED_CURVE('',#1297,(#1302,PARAMETER_VALUE(3.14159265359)),(
    #1303,PARAMETER_VALUE(6.28318530718)),.T.,.PARAMETER.);
#1297 = CIRCLE('',#1298,4.4);
#1298 = AXIS2_PLACEMENT_3D('',#1299,#1300,#1301);
#1299 = CARTESIAN_POINT('',(0.,0.,2.));
#1300 = DIRECTION('',(-0.,0.,1.));
#1301 = DIRECTION('',(0.,-1.,0.));
#1302 = CARTESIAN_POINT('',(0.,4.4,2.));
#1303 = CARTESIAN_POINT('',(0.,-4.4,2.));
#1304 = GEOMETRIC_CURVE_SET('',(#1305));
#1305 = TRIMMED_CURVE('',#1306,(#1311,PARAMETER_VALUE(0.)),(#1312,
    PARAMETER_VALUE(3.14159265359)),.T.,.PARAMETER.);
#1306 = CIRCLE('',#1307,4.9);
#1307 = AXIS2_PLACEMENT_3D('',#1308,#1309,#1310);
#1308 = CARTESIAN_POINT('',(0.,0.,11.));
#1309 = DIRECTION('',(0.,0.,-1.));
#1310 = DIRECTION('',(0.,-1.,0.));
#1311 = CARTESIAN_POINT('',(0.,-4.9,11.));
#1312 = CARTESIAN_POINT('',(0.,4.9,11.));
#1313 = GEOMETRIC_CURVE_SET('',(#1314));
#1314 = TRIMMED_CURVE('',#1315,(#1320,PARAMETER_VALUE(3.14159265359)),(
    #1321,PARAMETER_VALUE(6.28318530718)),.T.,.PARAMETER.);
#1315 = CIRCLE('',#1316,4.9);
#1316 = AXIS2_PLACEMENT_3D('',#1317,#1318,#1319);
#1317 = CARTESIAN_POINT('',(0.,0.,11.));
#1318 = DIRECTION('',(0.,0.,-1.));
#1319 = DIRECTION('',(0.,-1.,0.));
#1320 = CARTESIAN_POINT('',(0.,4.9,11.));
#1321 = CARTESIAN_POINT('',(0.,-4.9,11.));
#1322 = GEOMETRIC_CURVE_SET('',(#1323));
#1323 = TRIMMED_CURVE('',#1324,(#1329,PARAMETER_VALUE(3.14159265359)),(
    #1330,PARAMETER_VALUE(6.28318530718)),.T.,.PARAMETER.);
#1324 = CIRCLE('',#1325,4.4);
#1325 = AXIS2_PLACEMENT_3D('',#1326,#1327,#1328);
#1326 = CARTESIAN_POINT('',(0.,0.,11.));
#1327 = DIRECTION('',(-0.,0.,1.));
#1328 = DIRECTION('',(0.,-1.,0.));
#1329 = CARTESIAN_POINT('',(0.,4.4,11.));
#1330 = CARTESIAN_POINT('',(0.,-4.4,11.));
#1331 = GEOMETRIC_CURVE_SET('',(#1332));
#1332 = TRIMMED_CURVE('',#1333,(#1338,PARAMETER_VALUE(0.)),(#1339,
    PARAMETER_VALUE(3.14159265359)),.T.,.PARAMETER.);
#1333 = CIRCLE('',#1334,4.4);
#1334 = AXIS2_PLACEMENT_3D('',#1335,#1336,#1337);
#1335 = CARTESIAN_POINT('',(0.,0.,11.));
#1336 = DIRECTION('',(-0.,0.,1.));
#1337 = DIRECTION('',(0.,-1.,0.));
#1338 = CARTESIAN_POINT('',(0.,-4.4,11.));
#1339 = CARTESIAN_POINT('',(0.,4.4,11.));
#1340 = GEOMETRIC_CURVE_SET('',(#1341));
#1341 = TRIMMED_CURVE('',#1342,(#1346,PARAMETER_VALUE(0.5)),(#1347,
    PARAMETER_VALUE(1.5)),.T.,.PARAMETER.);
#1342 = LINE('',#1343,#1344);
#1343 = CARTESIAN_POINT('',(0.,-5.4,13.));
#1344 = VECTOR('',#1345,1.);
#1345 = DIRECTION('',(0.,0.,-1.));
#1346 = CARTESIAN_POINT('',(0.,-5.4,12.5));
#1347 = CARTESIAN_POINT('',(0.,-5.4,11.5));
#1348 = GEOMETRIC_CURVE_SET('',(#1349));
#1349 = TRIMMED_CURVE('',#1350,(#1355,PARAMETER_VALUE(0.)),(#1356,
    PARAMETER_VALUE(3.14159265359)),.T.,.PARAMETER.);
#1350 = CIRCLE('',#1351,5.4);
#1351 = AXIS2_PLACEMENT_3D('',#1352,#1353,#1354);
#1352 = CARTESIAN_POINT('',(0.,0.,12.5));
#1353 = DIRECTION('',(0.,0.,-1.));
#1354 = DIRECTION('',(0.,-1.,0.));
#1355 = CARTESIAN_POINT('',(0.,-5.4,12.5));
#1356 = CARTESIAN_POINT('',(0.,5.4,12.5));
#1357 = GEOMETRIC_CURVE_SET('',(#1358));
#1358 = TRIMMED_CURVE('',#1359,(#1363,PARAMETER_VALUE(0.5)),(#1364,
    PARAMETER_VALUE(1.5)),.T.,.PARAMETER.);
#1359 = LINE('',#1360,#1361);
#1360 = CARTESIAN_POINT('',(0.,5.4,13.));
#1361 = VECTOR('',#1362,1.);
#1362 = DIRECTION('',(0.,0.,-1.));
#1363 = CARTESIAN_POINT('',(0.,5.4,12.5));
#1364 = CARTESIAN_POINT('',(0.,5.4,11.5));
#1365 = GEOMETRIC_CURVE_SET('',(#1366));
#1366 = TRIMMED_CURVE('',#1367,(#1372,PARAMETER_VALUE(3.14159265359)),(
    #1373,PARAMETER_VALUE(6.28318530718)),.T.,.PARAMETER.);
#1367 = CIRCLE('',#1368,5.4);
#1368 = AXIS2_PLACEMENT_3D('',#1369,#1370,#1371);
#1369 = CARTESIAN_POINT('',(0.,0.,11.5));
#1370 = DIRECTION('',(-0.,0.,1.));
#1371 = DIRECTION('',(0.,-1.,0.));
#1372 = CARTESIAN_POINT('',(0.,5.4,11.5));
#1373 = CARTESIAN_POINT('',(0.,-5.4,11.5));
#1374 = GEOMETRIC_CURVE_SET('',(#1375));
#1375 = TRIMMED_CURVE('',#1376,(#1381,PARAMETER_VALUE(0.)),(#1382,
    PARAMETER_VALUE(3.14159265359)),.T.,.PARAMETER.);
#1376 = CIRCLE('',#1377,4.9);
#1377 = AXIS2_PLACEMENT_3D('',#1378,#1379,#1380);
#1378 = CARTESIAN_POINT('',(0.,0.,13.));
#1379 = DIRECTION('',(-0.,0.,1.));
#1380 = DIRECTION('',(0.,-1.,0.));
#1381 = CARTESIAN_POINT('',(0.,-4.9,13.));
#1382 = CARTESIAN_POINT('',(0.,4.9,13.));
#1383 = GEOMETRIC_CURVE_SET('',(#1384));
#1384 = TRIMMED_CURVE('',#1385,(#1390,PARAMETER_VALUE(3.14159265359)),(
    #1391,PARAMETER_VALUE(6.28318530718)),.T.,.PARAMETER.);
#1385 = CIRCLE('',#1386,4.9);
#1386 = AXIS2_PLACEMENT_3D('',#1387,#1388,#1389);
#1387 = CARTESIAN_POINT('',(0.,0.,13.));
#1388 = DIRECTION('',(-0.,0.,1.));
#1389 = DIRECTION('',(0.,-1.,0.));
#1390 = CARTESIAN_POINT('',(0.,4.9,13.));
#1391 = CARTESIAN_POINT('',(0.,-4.9,13.));
#1392 = GEOMETRIC_CURVE_SET('',(#1393));
#1393 = TRIMMED_CURVE('',#1394,(#1399,PARAMETER_VALUE(0.)),(#1400,
    PARAMETER_VALUE(1.570796326795)),.T.,.PARAMETER.);
#1394 = CIRCLE('',#1395,0.5);
#1395 = AXIS2_PLACEMENT_3D('',#1396,#1397,#1398);
#1396 = CARTESIAN_POINT('',(0.,4.9,12.5));
#1397 = DIRECTION('',(1.,0.,0.));
#1398 = DIRECTION('',(0.,1.,0.));
#1399 = CARTESIAN_POINT('',(0.,5.4,12.5));
#1400 = CARTESIAN_POINT('',(0.,4.9,13.));
#1401 = GEOMETRIC_CURVE_SET('',(#1402));
#1402 = TRIMMED_CURVE('',#1403,(#1408,PARAMETER_VALUE(0.)),(#1409,
    PARAMETER_VALUE(3.14159265359)),.T.,.PARAMETER.);
#1403 = CIRCLE('',#1404,5.4);
#1404 = AXIS2_PLACEMENT_3D('',#1405,#1406,#1407);
#1405 = CARTESIAN_POINT('',(0.,0.,12.5));
#1406 = DIRECTION('',(0.,0.,-1.));
#1407 = DIRECTION('',(0.,-1.,0.));
#1408 = CARTESIAN_POINT('',(0.,-5.4,12.5));
#1409 = CARTESIAN_POINT('',(0.,5.4,12.5));
#1410 = GEOMETRIC_CURVE_SET('',(#1411));
#1411 = TRIMMED_CURVE('',#1412,(#1417,PARAMETER_VALUE(0.)),(#1418,
    PARAMETER_VALUE(1.570796326795)),.T.,.PARAMETER.);
#1412 = CIRCLE('',#1413,0.5);
#1413 = AXIS2_PLACEMENT_3D('',#1414,#1415,#1416);
#1414 = CARTESIAN_POINT('',(0.,-4.9,12.5));
#1415 = DIRECTION('',(-1.,0.,0.));
#1416 = DIRECTION('',(0.,-1.,0.));
#1417 = CARTESIAN_POINT('',(0.,-5.4,12.5));
#1418 = CARTESIAN_POINT('',(0.,-4.9,13.));
#1419 = GEOMETRIC_CURVE_SET('',(#1420));
#1420 = TRIMMED_CURVE('',#1421,(#1426,PARAMETER_VALUE(3.14159265359)),(
    #1427,PARAMETER_VALUE(6.28318530718)),.T.,.PARAMETER.);
#1421 = CIRCLE('',#1422,4.9);
#1422 = AXIS2_PLACEMENT_3D('',#1423,#1424,#1425);
#1423 = CARTESIAN_POINT('',(0.,0.,13.));
#1424 = DIRECTION('',(-0.,0.,1.));
#1425 = DIRECTION('',(0.,-1.,0.));
#1426 = CARTESIAN_POINT('',(0.,4.9,13.));
#1427 = CARTESIAN_POINT('',(0.,-4.9,13.));
#1428 = GEOMETRIC_CURVE_SET('',(#1429));
#1429 = TRIMMED_CURVE('',#1430,(#1435,PARAMETER_VALUE(0.)),(#1436,
    PARAMETER_VALUE(1.570796326795)),.T.,.PARAMETER.);
#1430 = CIRCLE('',#1431,0.5);
#1431 = AXIS2_PLACEMENT_3D('',#1432,#1433,#1434);
#1432 = CARTESIAN_POINT('',(0.,4.9,1.5));
#1433 = DIRECTION('',(1.,0.,0.));
#1434 = DIRECTION('',(0.,1.,0.));
#1435 = CARTESIAN_POINT('',(0.,5.4,1.5));
#1436 = CARTESIAN_POINT('',(0.,4.9,2.));
#1437 = GEOMETRIC_CURVE_SET('',(#1438));
#1438 = TRIMMED_CURVE('',#1439,(#1444,PARAMETER_VALUE(0.)),(#1445,
    PARAMETER_VALUE(3.14159265359)),.T.,.PARAMETER.);
#1439 = CIRCLE('',#1440,5.4);
#1440 = AXIS2_PLACEMENT_3D('',#1441,#1442,#1443);
#1441 = CARTESIAN_POINT('',(0.,0.,1.5));
#1442 = DIRECTION('',(0.,0.,-1.));
#1443 = DIRECTION('',(0.,-1.,0.));
#1444 = CARTESIAN_POINT('',(0.,-5.4,1.5));
#1445 = CARTESIAN_POINT('',(0.,5.4,1.5));
#1446 = GEOMETRIC_CURVE_SET('',(#1447));
#1447 = TRIMMED_CURVE('',#1448,(#1453,PARAMETER_VALUE(0.)),(#1454,
    PARAMETER_VALUE(1.570796326795)),.T.,.PARAMETER.);
#1448 = CIRCLE('',#1449,0.5);
#1449 = AXIS2_PLACEMENT_3D('',#1450,#1451,#1452);
#1450 = CARTESIAN_POINT('',(0.,-4.9,1.5));
#1451 = DIRECTION('',(-1.,0.,0.));
#1452 = DIRECTION('',(0.,-1.,0.));
#1453 = CARTESIAN_POINT('',(0.,-5.4,1.5));
#1454 = CARTESIAN_POINT('',(0.,-4.9,2.));
#1455 = GEOMETRIC_CURVE_SET('',(#1456));
#1456 = TRIMMED_CURVE('',#1457,(#1462,PARAMETER_VALUE(3.14159265359)),(
    #1463,PARAMETER_VALUE(6.28318530718)),.T.,.PARAMETER.);
#1457 = CIRCLE('',#1458,4.9);
#1458 = AXIS2_PLACEMENT_3D('',#1459,#1460,#1461);
#1459 = CARTESIAN_POINT('',(0.,0.,2.));
#1460 = DIRECTION('',(-0.,0.,1.));
#1461 = DIRECTION('',(0.,-1.,0.));
#1462 = CARTESIAN_POINT('',(0.,4.9,2.));
#1463 = CARTESIAN_POINT('',(0.,-4.9,2.));
#1464 = GEOMETRIC_CURVE_SET('',(#1465));
#1465 = TRIMMED_CURVE('',#1466,(#1471,PARAMETER_VALUE(4.712388980385)),(
    #1472,PARAMETER_VALUE(6.28318530718)),.T.,.PARAMETER.);
#1466 = CIRCLE('',#1467,0.5);
#1467 = AXIS2_PLACEMENT_3D('',#1468,#1469,#1470);
#1468 = CARTESIAN_POINT('',(0.,4.9,11.5));
#1469 = DIRECTION('',(1.,0.,0.));
#1470 = DIRECTION('',(0.,1.,0.));
#1471 = CARTESIAN_POINT('',(0.,4.9,11.));
#1472 = CARTESIAN_POINT('',(0.,5.4,11.5));
#1473 = GEOMETRIC_CURVE_SET('',(#1474));
#1474 = TRIMMED_CURVE('',#1475,(#1480,PARAMETER_VALUE(0.)),(#1481,
    PARAMETER_VALUE(3.14159265359)),.T.,.PARAMETER.);
#1475 = CIRCLE('',#1476,4.9);
#1476 = AXIS2_PLACEMENT_3D('',#1477,#1478,#1479);
#1477 = CARTESIAN_POINT('',(0.,0.,11.));
#1478 = DIRECTION('',(0.,0.,-1.));
#1479 = DIRECTION('',(0.,-1.,0.));
#1480 = CARTESIAN_POINT('',(0.,-4.9,11.));
#1481 = CARTESIAN_POINT('',(0.,4.9,11.));
#1482 = GEOMETRIC_CURVE_SET('',(#1483));
#1483 = TRIMMED_CURVE('',#1484,(#1489,PARAMETER_VALUE(4.712388980385)),(
    #1490,PARAMETER_VALUE(6.28318530718)),.T.,.PARAMETER.);
#1484 = CIRCLE('',#1485,0.5);
#1485 = AXIS2_PLACEMENT_3D('',#1486,#1487,#1488);
#1486 = CARTESIAN_POINT('',(0.,-4.9,11.5));
#1487 = DIRECTION('',(-1.,0.,0.));
#1488 = DIRECTION('',(0.,-1.,0.));
#1489 = CARTESIAN_POINT('',(0.,-4.9,11.));
#1490 = CARTESIAN_POINT('',(0.,-5.4,11.5));
#1491 = GEOMETRIC_CURVE_SET('',(#1492));
#1492 = TRIMMED_CURVE('',#1493,(#1498,PARAMETER_VALUE(3.14159265359)),(
    #1499,PARAMETER_VALUE(6.28318530718)),.T.,.PARAMETER.);
#1493 = CIRCLE('',#1494,5.4);
#1494 = AXIS2_PLACEMENT_3D('',#1495,#1496,#1497);
#1495 = CARTESIAN_POINT('',(0.,0.,11.5));
#1496 = DIRECTION('',(-0.,0.,1.));
#1497 = DIRECTION('',(0.,-1.,0.));
#1498 = CARTESIAN_POINT('',(0.,5.4,11.5));
#1499 = CARTESIAN_POINT('',(0.,-5.4,11.5));
#1500 = ( GEOMETRIC_REPRESENTATION_CONTEXT(3) 
GLOBAL_UNCERTAINTY_ASSIGNED_CONTEXT((#1504)) 
GLOBAL_UNIT_ASSIGNED_CONTEXT((#1501,#1502,#1503)) REPRESENTATION_CONTEXT
('Context #1','3D Context with UNIT and UNCERTAINTY') );
#1501 = ( LENGTH_UNIT() NAMED_UNIT(*) SI_UNIT(.MILLI.,.METRE.) );
#1502 = ( NAMED_UNIT(*) PLANE_ANGLE_UNIT() SI_UNIT($,.RADIAN.) );
#1503 = ( NAMED_UNIT(*) SI_UNIT($,.STERADIAN.) SOLID_ANGLE_UNIT() );
#1504 = UNCERTAINTY_MEASURE_WITH_UNIT(LENGTH_MEASURE(1.E-07),#1501,
  'distance_accuracy_value','confusion accuracy');
#1505 = PRODUCT_RELATED_PRODUCT_CATEGORY('part',$,(#7));
#1506 = MECHANICAL_DESIGN_GEOMETRIC_PRESENTATION_REPRESENTATION('',(
    #1507,#1518,#1526,#1533,#1540,#1547,#1556,#1563,#1570,#1577,#1584,
    #1593,#1601,#1608,#1615,#1622,#1630,#1637,#1644,#1651,#1658,#1665,
    #1672,#1679,#1686,#1693,#1700,#1707,#1716,#1725,#1734,#1743,#1752,
    #1761,#1770,#1779,#1788,#1797,#1806,#1815,#1824,#1833,#1842,#1851,
    #1860,#1869,#1878,#1887,#1896,#1905,#1914,#1923,#1932,#1941,#1950,
    #1959,#1968,#1977,#1986,#1995,#2004,#2013,#2022,#2031,#2040,#2049,
    #2058,#2067,#2076),#1500);
#1507 = STYLED_ITEM('color',(#1508),#184);
#1508 = PRESENTATION_STYLE_ASSIGNMENT((#1509,#1515));
#1509 = SURFACE_STYLE_USAGE(.BOTH.,#1510);
#1510 = SURFACE_SIDE_STYLE('',(#1511));
#1511 = SURFACE_STYLE_FILL_AREA(#1512);
#1512 = FILL_AREA_STYLE('',(#1513));
#1513 = FILL_AREA_STYLE_COLOUR('',#1514);
#1514 = COLOUR_RGB('',0.250980407,0.250980407,0.250980407);
#1515 = CURVE_STYLE('',#1516,POSITIVE_LENGTH_MEASURE(0.1),#1517);
#1516 = DRAUGHTING_PRE_DEFINED_CURVE_FONT('continuous');
#1517 = COLOUR_RGB('',9.803921729326E-02,9.803921729326E-02,
  9.803921729326E-02);
#1518 = OVER_RIDING_STYLED_ITEM('overriding color',(#1519),#186,#1507);
#1519 = PRESENTATION_STYLE_ASSIGNMENT((#1520));
#1520 = SURFACE_STYLE_USAGE(.BOTH.,#1521);
#1521 = SURFACE_SIDE_STYLE('',(#1522));
#1522 = SURFACE_STYLE_FILL_AREA(#1523);
#1523 = FILL_AREA_STYLE('',(#1524));
#1524 = FILL_AREA_STYLE_COLOUR('',#1525);
#1525 = COLOUR_RGB('',0.824000000954,0.819999992847,0.78100001812);
#1526 = OVER_RIDING_STYLED_ITEM('overriding color',(#1527),#212,#1507);
#1527 = PRESENTATION_STYLE_ASSIGNMENT((#1528));
#1528 = SURFACE_STYLE_USAGE(.BOTH.,#1529);
#1529 = SURFACE_SIDE_STYLE('',(#1530));
#1530 = SURFACE_STYLE_FILL_AREA(#1531);
#1531 = FILL_AREA_STYLE('',(#1532));
#1532 = FILL_AREA_STYLE_COLOUR('',#1525);
#1533 = OVER_RIDING_STYLED_ITEM('overriding color',(#1534),#244,#1507);
#1534 = PRESENTATION_STYLE_ASSIGNMENT((#1535));
#1535 = SURFACE_STYLE_USAGE(.BOTH.,#1536);
#1536 = SURFACE_SIDE_STYLE('',(#1537));
#1537 = SURFACE_STYLE_FILL_AREA(#1538);
#1538 = FILL_AREA_STYLE('',(#1539));
#1539 = FILL_AREA_STYLE_COLOUR('',#1525);
#1540 = OVER_RIDING_STYLED_ITEM('overriding color',(#1541),#262,#1507);
#1541 = PRESENTATION_STYLE_ASSIGNMENT((#1542));
#1542 = SURFACE_STYLE_USAGE(.BOTH.,#1543);
#1543 = SURFACE_SIDE_STYLE('',(#1544));
#1544 = SURFACE_STYLE_FILL_AREA(#1545);
#1545 = FILL_AREA_STYLE('',(#1546));
#1546 = FILL_AREA_STYLE_COLOUR('',#1525);
#1547 = STYLED_ITEM('color',(#1548),#272);
#1548 = PRESENTATION_STYLE_ASSIGNMENT((#1549,#1554));
#1549 = SURFACE_STYLE_USAGE(.BOTH.,#1550);
#1550 = SURFACE_SIDE_STYLE('',(#1551));
#1551 = SURFACE_STYLE_FILL_AREA(#1552);
#1552 = FILL_AREA_STYLE('',(#1553));
#1553 = FILL_AREA_STYLE_COLOUR('',#1514);
#1554 = CURVE_STYLE('',#1555,POSITIVE_LENGTH_MEASURE(0.1),#1517);
#1555 = DRAUGHTING_PRE_DEFINED_CURVE_FONT('continuous');
#1556 = OVER_RIDING_STYLED_ITEM('overriding color',(#1557),#274,#1547);
#1557 = PRESENTATION_STYLE_ASSIGNMENT((#1558));
#1558 = SURFACE_STYLE_USAGE(.BOTH.,#1559);
#1559 = SURFACE_SIDE_STYLE('',(#1560));
#1560 = SURFACE_STYLE_FILL_AREA(#1561);
#1561 = FILL_AREA_STYLE('',(#1562));
#1562 = FILL_AREA_STYLE_COLOUR('',#1525);
#1563 = OVER_RIDING_STYLED_ITEM('overriding color',(#1564),#300,#1547);
#1564 = PRESENTATION_STYLE_ASSIGNMENT((#1565));
#1565 = SURFACE_STYLE_USAGE(.BOTH.,#1566);
#1566 = SURFACE_SIDE_STYLE('',(#1567));
#1567 = SURFACE_STYLE_FILL_AREA(#1568);
#1568 = FILL_AREA_STYLE('',(#1569));
#1569 = FILL_AREA_STYLE_COLOUR('',#1525);
#1570 = OVER_RIDING_STYLED_ITEM('overriding color',(#1571),#332,#1547);
#1571 = PRESENTATION_STYLE_ASSIGNMENT((#1572));
#1572 = SURFACE_STYLE_USAGE(.BOTH.,#1573);
#1573 = SURFACE_SIDE_STYLE('',(#1574));
#1574 = SURFACE_STYLE_FILL_AREA(#1575);
#1575 = FILL_AREA_STYLE('',(#1576));
#1576 = FILL_AREA_STYLE_COLOUR('',#1525);
#1577 = OVER_RIDING_STYLED_ITEM('overriding color',(#1578),#350,#1547);
#1578 = PRESENTATION_STYLE_ASSIGNMENT((#1579));
#1579 = SURFACE_STYLE_USAGE(.BOTH.,#1580);
#1580 = SURFACE_SIDE_STYLE('',(#1581));
#1581 = SURFACE_STYLE_FILL_AREA(#1582);
#1582 = FILL_AREA_STYLE('',(#1583));
#1583 = FILL_AREA_STYLE_COLOUR('',#1525);
#1584 = STYLED_ITEM('color',(#1585),#360);
#1585 = PRESENTATION_STYLE_ASSIGNMENT((#1586,#1591));
#1586 = SURFACE_STYLE_USAGE(.BOTH.,#1587);
#1587 = SURFACE_SIDE_STYLE('',(#1588));
#1588 = SURFACE_STYLE_FILL_AREA(#1589);
#1589 = FILL_AREA_STYLE('',(#1590));
#1590 = FILL_AREA_STYLE_COLOUR('',#1514);
#1591 = CURVE_STYLE('',#1592,POSITIVE_LENGTH_MEASURE(0.1),#1517);
#1592 = DRAUGHTING_PRE_DEFINED_CURVE_FONT('continuous');
#1593 = OVER_RIDING_STYLED_ITEM('overriding color',(#1594),#362,#1584);
#1594 = PRESENTATION_STYLE_ASSIGNMENT((#1595));
#1595 = SURFACE_STYLE_USAGE(.BOTH.,#1596);
#1596 = SURFACE_SIDE_STYLE('',(#1597));
#1597 = SURFACE_STYLE_FILL_AREA(#1598);
#1598 = FILL_AREA_STYLE('',(#1599));
#1599 = FILL_AREA_STYLE_COLOUR('',#1600);
#1600 = COLOUR_RGB('',0.273000001907,0.273000001907,0.273000001907);
#1601 = OVER_RIDING_STYLED_ITEM('overriding color',(#1602),#406,#1584);
#1602 = PRESENTATION_STYLE_ASSIGNMENT((#1603));
#1603 = SURFACE_STYLE_USAGE(.BOTH.,#1604);
#1604 = SURFACE_SIDE_STYLE('',(#1605));
#1605 = SURFACE_STYLE_FILL_AREA(#1606);
#1606 = FILL_AREA_STYLE('',(#1607));
#1607 = FILL_AREA_STYLE_COLOUR('',#1600);
#1608 = OVER_RIDING_STYLED_ITEM('overriding color',(#1609),#450,#1584);
#1609 = PRESENTATION_STYLE_ASSIGNMENT((#1610));
#1610 = SURFACE_STYLE_USAGE(.BOTH.,#1611);
#1611 = SURFACE_SIDE_STYLE('',(#1612));
#1612 = SURFACE_STYLE_FILL_AREA(#1613);
#1613 = FILL_AREA_STYLE('',(#1614));
#1614 = FILL_AREA_STYLE_COLOUR('',#1600);
#1615 = OVER_RIDING_STYLED_ITEM('overriding color',(#1616),#494,#1584);
#1616 = PRESENTATION_STYLE_ASSIGNMENT((#1617));
#1617 = SURFACE_STYLE_USAGE(.BOTH.,#1618);
#1618 = SURFACE_SIDE_STYLE('',(#1619));
#1619 = SURFACE_STYLE_FILL_AREA(#1620);
#1620 = FILL_AREA_STYLE('',(#1621));
#1621 = FILL_AREA_STYLE_COLOUR('',#1600);
#1622 = OVER_RIDING_STYLED_ITEM('overriding color',(#1623),#516,#1584);
#1623 = PRESENTATION_STYLE_ASSIGNMENT((#1624));
#1624 = SURFACE_STYLE_USAGE(.BOTH.,#1625);
#1625 = SURFACE_SIDE_STYLE('',(#1626));
#1626 = SURFACE_STYLE_FILL_AREA(#1627);
#1627 = FILL_AREA_STYLE('',(#1628));
#1628 = FILL_AREA_STYLE_COLOUR('',#1629);
#1629 = COLOUR_RGB('',0.703800022602,0.270480006933,8.280000090599E-02);
#1630 = OVER_RIDING_STYLED_ITEM('overriding color',(#1631),#558,#1584);
#1631 = PRESENTATION_STYLE_ASSIGNMENT((#1632));
#1632 = SURFACE_STYLE_USAGE(.BOTH.,#1633);
#1633 = SURFACE_SIDE_STYLE('',(#1634));
#1634 = SURFACE_STYLE_FILL_AREA(#1635);
#1635 = FILL_AREA_STYLE('',(#1636));
#1636 = FILL_AREA_STYLE_COLOUR('',#1600);
#1637 = OVER_RIDING_STYLED_ITEM('overriding color',(#1638),#590,#1584);
#1638 = PRESENTATION_STYLE_ASSIGNMENT((#1639));
#1639 = SURFACE_STYLE_USAGE(.BOTH.,#1640);
#1640 = SURFACE_SIDE_STYLE('',(#1641));
#1641 = SURFACE_STYLE_FILL_AREA(#1642);
#1642 = FILL_AREA_STYLE('',(#1643));
#1643 = FILL_AREA_STYLE_COLOUR('',#1600);
#1644 = OVER_RIDING_STYLED_ITEM('overriding color',(#1645),#616,#1584);
#1645 = PRESENTATION_STYLE_ASSIGNMENT((#1646));
#1646 = SURFACE_STYLE_USAGE(.BOTH.,#1647);
#1647 = SURFACE_SIDE_STYLE('',(#1648));
#1648 = SURFACE_STYLE_FILL_AREA(#1649);
#1649 = FILL_AREA_STYLE('',(#1650));
#1650 = FILL_AREA_STYLE_COLOUR('',#1600);
#1651 = OVER_RIDING_STYLED_ITEM('overriding color',(#1652),#640,#1584);
#1652 = PRESENTATION_STYLE_ASSIGNMENT((#1653));
#1653 = SURFACE_STYLE_USAGE(.BOTH.,#1654);
#1654 = SURFACE_SIDE_STYLE('',(#1655));
#1655 = SURFACE_STYLE_FILL_AREA(#1656);
#1656 = FILL_AREA_STYLE('',(#1657));
#1657 = FILL_AREA_STYLE_COLOUR('',#1600);
#1658 = OVER_RIDING_STYLED_ITEM('overriding color',(#1659),#650,#1584);
#1659 = PRESENTATION_STYLE_ASSIGNMENT((#1660));
#1660 = SURFACE_STYLE_USAGE(.BOTH.,#1661);
#1661 = SURFACE_SIDE_STYLE('',(#1662));
#1662 = SURFACE_STYLE_FILL_AREA(#1663);
#1663 = FILL_AREA_STYLE('',(#1664));
#1664 = FILL_AREA_STYLE_COLOUR('',#1629);
#1665 = OVER_RIDING_STYLED_ITEM('overriding color',(#1666),#668,#1584);
#1666 = PRESENTATION_STYLE_ASSIGNMENT((#1667));
#1667 = SURFACE_STYLE_USAGE(.BOTH.,#1668);
#1668 = SURFACE_SIDE_STYLE('',(#1669));
#1669 = SURFACE_STYLE_FILL_AREA(#1670);
#1670 = FILL_AREA_STYLE('',(#1671));
#1671 = FILL_AREA_STYLE_COLOUR('',#1600);
#1672 = OVER_RIDING_STYLED_ITEM('overriding color',(#1673),#688,#1584);
#1673 = PRESENTATION_STYLE_ASSIGNMENT((#1674));
#1674 = SURFACE_STYLE_USAGE(.BOTH.,#1675);
#1675 = SURFACE_SIDE_STYLE('',(#1676));
#1676 = SURFACE_STYLE_FILL_AREA(#1677);
#1677 = FILL_AREA_STYLE('',(#1678));
#1678 = FILL_AREA_STYLE_COLOUR('',#1600);
#1679 = OVER_RIDING_STYLED_ITEM('overriding color',(#1680),#712,#1584);
#1680 = PRESENTATION_STYLE_ASSIGNMENT((#1681));
#1681 = SURFACE_STYLE_USAGE(.BOTH.,#1682);
#1682 = SURFACE_SIDE_STYLE('',(#1683));
#1683 = SURFACE_STYLE_FILL_AREA(#1684);
#1684 = FILL_AREA_STYLE('',(#1685));
#1685 = FILL_AREA_STYLE_COLOUR('',#1600);
#1686 = OVER_RIDING_STYLED_ITEM('overriding color',(#1687),#728,#1584);
#1687 = PRESENTATION_STYLE_ASSIGNMENT((#1688));
#1688 = SURFACE_STYLE_USAGE(.BOTH.,#1689);
#1689 = SURFACE_SIDE_STYLE('',(#1690));
#1690 = SURFACE_STYLE_FILL_AREA(#1691);
#1691 = FILL_AREA_STYLE('',(#1692));
#1692 = FILL_AREA_STYLE_COLOUR('',#1600);
#1693 = OVER_RIDING_STYLED_ITEM('overriding color',(#1694),#740,#1584);
#1694 = PRESENTATION_STYLE_ASSIGNMENT((#1695));
#1695 = SURFACE_STYLE_USAGE(.BOTH.,#1696);
#1696 = SURFACE_SIDE_STYLE('',(#1697));
#1697 = SURFACE_STYLE_FILL_AREA(#1698);
#1698 = FILL_AREA_STYLE('',(#1699));
#1699 = FILL_AREA_STYLE_COLOUR('',#1600);
#1700 = OVER_RIDING_STYLED_ITEM('overriding color',(#1701),#752,#1584);
#1701 = PRESENTATION_STYLE_ASSIGNMENT((#1702));
#1702 = SURFACE_STYLE_USAGE(.BOTH.,#1703);
#1703 = SURFACE_SIDE_STYLE('',(#1704));
#1704 = SURFACE_STYLE_FILL_AREA(#1705);
#1705 = FILL_AREA_STYLE('',(#1706));
#1706 = FILL_AREA_STYLE_COLOUR('',#1600);
#1707 = STYLED_ITEM('color',(#1708),#764);
#1708 = PRESENTATION_STYLE_ASSIGNMENT((#1709,#1714));
#1709 = SURFACE_STYLE_USAGE(.BOTH.,#1710);
#1710 = SURFACE_SIDE_STYLE('',(#1711));
#1711 = SURFACE_STYLE_FILL_AREA(#1712);
#1712 = FILL_AREA_STYLE('',(#1713));
#1713 = FILL_AREA_STYLE_COLOUR('',#1514);
#1714 = CURVE_STYLE('',#1715,POSITIVE_LENGTH_MEASURE(0.1),#1517);
#1715 = DRAUGHTING_PRE_DEFINED_CURVE_FONT('continuous');
#1716 = STYLED_ITEM('color',(#1717),#773);
#1717 = PRESENTATION_STYLE_ASSIGNMENT((#1718,#1723));
#1718 = SURFACE_STYLE_USAGE(.BOTH.,#1719);
#1719 = SURFACE_SIDE_STYLE('',(#1720));
#1720 = SURFACE_STYLE_FILL_AREA(#1721);
#1721 = FILL_AREA_STYLE('',(#1722));
#1722 = FILL_AREA_STYLE_COLOUR('',#1514);
#1723 = CURVE_STYLE('',#1724,POSITIVE_LENGTH_MEASURE(0.1),#1517);
#1724 = DRAUGHTING_PRE_DEFINED_CURVE_FONT('continuous');
#1725 = STYLED_ITEM('color',(#1726),#782);
#1726 = PRESENTATION_STYLE_ASSIGNMENT((#1727,#1732));
#1727 = SURFACE_STYLE_USAGE(.BOTH.,#1728);
#1728 = SURFACE_SIDE_STYLE('',(#1729));
#1729 = SURFACE_STYLE_FILL_AREA(#1730);
#1730 = FILL_AREA_STYLE('',(#1731));
#1731 = FILL_AREA_STYLE_COLOUR('',#1514);
#1732 = CURVE_STYLE('',#1733,POSITIVE_LENGTH_MEASURE(0.1),#1517);
#1733 = DRAUGHTING_PRE_DEFINED_CURVE_FONT('continuous');
#1734 = STYLED_ITEM('color',(#1735),#791);
#1735 = PRESENTATION_STYLE_ASSIGNMENT((#1736,#1741));
#1736 = SURFACE_STYLE_USAGE(.BOTH.,#1737);
#1737 = SURFACE_SIDE_STYLE('',(#1738));
#1738 = SURFACE_STYLE_FILL_AREA(#1739);
#1739 = FILL_AREA_STYLE('',(#1740));
#1740 = FILL_AREA_STYLE_COLOUR('',#1514);
#1741 = CURVE_STYLE('',#1742,POSITIVE_LENGTH_MEASURE(0.1),#1517);
#1742 = DRAUGHTING_PRE_DEFINED_CURVE_FONT('continuous');
#1743 = STYLED_ITEM('color',(#1744),#808);
#1744 = PRESENTATION_STYLE_ASSIGNMENT((#1745,#1750));
#1745 = SURFACE_STYLE_USAGE(.BOTH.,#1746);
#1746 = SURFACE_SIDE_STYLE('',(#1747));
#1747 = SURFACE_STYLE_FILL_AREA(#1748);
#1748 = FILL_AREA_STYLE('',(#1749));
#1749 = FILL_AREA_STYLE_COLOUR('',#1514);
#1750 = CURVE_STYLE('',#1751,POSITIVE_LENGTH_MEASURE(0.1),#1517);
#1751 = DRAUGHTING_PRE_DEFINED_CURVE_FONT('continuous');
#1752 = STYLED_ITEM('color',(#1753),#824);
#1753 = PRESENTATION_STYLE_ASSIGNMENT((#1754,#1759));
#1754 = SURFACE_STYLE_USAGE(.BOTH.,#1755);
#1755 = SURFACE_SIDE_STYLE('',(#1756));
#1756 = SURFACE_STYLE_FILL_AREA(#1757);
#1757 = FILL_AREA_STYLE('',(#1758));
#1758 = FILL_AREA_STYLE_COLOUR('',#1514);
#1759 = CURVE_STYLE('',#1760,POSITIVE_LENGTH_MEASURE(0.1),#1517);
#1760 = DRAUGHTING_PRE_DEFINED_CURVE_FONT('continuous');
#1761 = STYLED_ITEM('color',(#1762),#868);
#1762 = PRESENTATION_STYLE_ASSIGNMENT((#1763,#1768));
#1763 = SURFACE_STYLE_USAGE(.BOTH.,#1764);
#1764 = SURFACE_SIDE_STYLE('',(#1765));
#1765 = SURFACE_STYLE_FILL_AREA(#1766);
#1766 = FILL_AREA_STYLE('',(#1767));
#1767 = FILL_AREA_STYLE_COLOUR('',#1514);
#1768 = CURVE_STYLE('',#1769,POSITIVE_LENGTH_MEASURE(0.1),#1517);
#1769 = DRAUGHTING_PRE_DEFINED_CURVE_FONT('continuous');
#1770 = STYLED_ITEM('color',(#1771),#877);
#1771 = PRESENTATION_STYLE_ASSIGNMENT((#1772,#1777));
#1772 = SURFACE_STYLE_USAGE(.BOTH.,#1773);
#1773 = SURFACE_SIDE_STYLE('',(#1774));
#1774 = SURFACE_STYLE_FILL_AREA(#1775);
#1775 = FILL_AREA_STYLE('',(#1776));
#1776 = FILL_AREA_STYLE_COLOUR('',#1514);
#1777 = CURVE_STYLE('',#1778,POSITIVE_LENGTH_MEASURE(0.1),#1517);
#1778 = DRAUGHTING_PRE_DEFINED_CURVE_FONT('continuous');
#1779 = STYLED_ITEM('color',(#1780),#886);
#1780 = PRESENTATION_STYLE_ASSIGNMENT((#1781,#1786));
#1781 = SURFACE_STYLE_USAGE(.BOTH.,#1782);
#1782 = SURFACE_SIDE_STYLE('',(#1783));
#1783 = SURFACE_STYLE_FILL_AREA(#1784);
#1784 = FILL_AREA_STYLE('',(#1785));
#1785 = FILL_AREA_STYLE_COLOUR('',#1514);
#1786 = CURVE_STYLE('',#1787,POSITIVE_LENGTH_MEASURE(0.1),#1517);
#1787 = DRAUGHTING_PRE_DEFINED_CURVE_FONT('continuous');
#1788 = STYLED_ITEM('color',(#1789),#895);
#1789 = PRESENTATION_STYLE_ASSIGNMENT((#1790,#1795));
#1790 = SURFACE_STYLE_USAGE(.BOTH.,#1791);
#1791 = SURFACE_SIDE_STYLE('',(#1792));
#1792 = SURFACE_STYLE_FILL_AREA(#1793);
#1793 = FILL_AREA_STYLE('',(#1794));
#1794 = FILL_AREA_STYLE_COLOUR('',#1514);
#1795 = CURVE_STYLE('',#1796,POSITIVE_LENGTH_MEASURE(0.1),#1517);
#1796 = DRAUGHTING_PRE_DEFINED_CURVE_FONT('continuous');
#1797 = STYLED_ITEM('color',(#1798),#912);
#1798 = PRESENTATION_STYLE_ASSIGNMENT((#1799,#1804));
#1799 = SURFACE_STYLE_USAGE(.BOTH.,#1800);
#1800 = SURFACE_SIDE_STYLE('',(#1801));
#1801 = SURFACE_STYLE_FILL_AREA(#1802);
#1802 = FILL_AREA_STYLE('',(#1803));
#1803 = FILL_AREA_STYLE_COLOUR('',#1514);
#1804 = CURVE_STYLE('',#1805,POSITIVE_LENGTH_MEASURE(0.1),#1517);
#1805 = DRAUGHTING_PRE_DEFINED_CURVE_FONT('continuous');
#1806 = STYLED_ITEM('color',(#1807),#928);
#1807 = PRESENTATION_STYLE_ASSIGNMENT((#1808,#1813));
#1808 = SURFACE_STYLE_USAGE(.BOTH.,#1809);
#1809 = SURFACE_SIDE_STYLE('',(#1810));
#1810 = SURFACE_STYLE_FILL_AREA(#1811);
#1811 = FILL_AREA_STYLE('',(#1812));
#1812 = FILL_AREA_STYLE_COLOUR('',#1514);
#1813 = CURVE_STYLE('',#1814,POSITIVE_LENGTH_MEASURE(0.1),#1517);
#1814 = DRAUGHTING_PRE_DEFINED_CURVE_FONT('continuous');
#1815 = STYLED_ITEM('color',(#1816),#972);
#1816 = PRESENTATION_STYLE_ASSIGNMENT((#1817,#1822));
#1817 = SURFACE_STYLE_USAGE(.BOTH.,#1818);
#1818 = SURFACE_SIDE_STYLE('',(#1819));
#1819 = SURFACE_STYLE_FILL_AREA(#1820);
#1820 = FILL_AREA_STYLE('',(#1821));
#1821 = FILL_AREA_STYLE_COLOUR('',#1514);
#1822 = CURVE_STYLE('',#1823,POSITIVE_LENGTH_MEASURE(0.1),#1517);
#1823 = DRAUGHTING_PRE_DEFINED_CURVE_FONT('continuous');
#1824 = STYLED_ITEM('color',(#1825),#981);
#1825 = PRESENTATION_STYLE_ASSIGNMENT((#1826,#1831));
#1826 = SURFACE_STYLE_USAGE(.BOTH.,#1827);
#1827 = SURFACE_SIDE_STYLE('',(#1828));
#1828 = SURFACE_STYLE_FILL_AREA(#1829);
#1829 = FILL_AREA_STYLE('',(#1830));
#1830 = FILL_AREA_STYLE_COLOUR('',#1514);
#1831 = CURVE_STYLE('',#1832,POSITIVE_LENGTH_MEASURE(0.1),#1517);
#1832 = DRAUGHTING_PRE_DEFINED_CURVE_FONT('continuous');
#1833 = STYLED_ITEM('color',(#1834),#990);
#1834 = PRESENTATION_STYLE_ASSIGNMENT((#1835,#1840));
#1835 = SURFACE_STYLE_USAGE(.BOTH.,#1836);
#1836 = SURFACE_SIDE_STYLE('',(#1837));
#1837 = SURFACE_STYLE_FILL_AREA(#1838);
#1838 = FILL_AREA_STYLE('',(#1839));
#1839 = FILL_AREA_STYLE_COLOUR('',#1514);
#1840 = CURVE_STYLE('',#1841,POSITIVE_LENGTH_MEASURE(0.1),#1517);
#1841 = DRAUGHTING_PRE_DEFINED_CURVE_FONT('continuous');
#1842 = STYLED_ITEM('color',(#1843),#999);
#1843 = PRESENTATION_STYLE_ASSIGNMENT((#1844,#1849));
#1844 = SURFACE_STYLE_USAGE(.BOTH.,#1845);
#1845 = SURFACE_SIDE_STYLE('',(#1846));
#1846 = SURFACE_STYLE_FILL_AREA(#1847);
#1847 = FILL_AREA_STYLE('',(#1848));
#1848 = FILL_AREA_STYLE_COLOUR('',#1514);
#1849 = CURVE_STYLE('',#1850,POSITIVE_LENGTH_MEASURE(0.1),#1517);
#1850 = DRAUGHTING_PRE_DEFINED_CURVE_FONT('continuous');
#1851 = STYLED_ITEM('color',(#1852),#1008);
#1852 = PRESENTATION_STYLE_ASSIGNMENT((#1853,#1858));
#1853 = SURFACE_STYLE_USAGE(.BOTH.,#1854);
#1854 = SURFACE_SIDE_STYLE('',(#1855));
#1855 = SURFACE_STYLE_FILL_AREA(#1856);
#1856 = FILL_AREA_STYLE('',(#1857));
#1857 = FILL_AREA_STYLE_COLOUR('',#1514);
#1858 = CURVE_STYLE('',#1859,POSITIVE_LENGTH_MEASURE(0.1),#1517);
#1859 = DRAUGHTING_PRE_DEFINED_CURVE_FONT('continuous');
#1860 = STYLED_ITEM('color',(#1861),#1017);
#1861 = PRESENTATION_STYLE_ASSIGNMENT((#1862,#1867));
#1862 = SURFACE_STYLE_USAGE(.BOTH.,#1863);
#1863 = SURFACE_SIDE_STYLE('',(#1864));
#1864 = SURFACE_STYLE_FILL_AREA(#1865);
#1865 = FILL_AREA_STYLE('',(#1866));
#1866 = FILL_AREA_STYLE_COLOUR('',#1514);
#1867 = CURVE_STYLE('',#1868,POSITIVE_LENGTH_MEASURE(0.1),#1517);
#1868 = DRAUGHTING_PRE_DEFINED_CURVE_FONT('continuous');
#1869 = STYLED_ITEM('color',(#1870),#1026);
#1870 = PRESENTATION_STYLE_ASSIGNMENT((#1871,#1876));
#1871 = SURFACE_STYLE_USAGE(.BOTH.,#1872);
#1872 = SURFACE_SIDE_STYLE('',(#1873));
#1873 = SURFACE_STYLE_FILL_AREA(#1874);
#1874 = FILL_AREA_STYLE('',(#1875));
#1875 = FILL_AREA_STYLE_COLOUR('',#1514);
#1876 = CURVE_STYLE('',#1877,POSITIVE_LENGTH_MEASURE(0.1),#1517);
#1877 = DRAUGHTING_PRE_DEFINED_CURVE_FONT('continuous');
#1878 = STYLED_ITEM('color',(#1879),#1035);
#1879 = PRESENTATION_STYLE_ASSIGNMENT((#1880,#1885));
#1880 = SURFACE_STYLE_USAGE(.BOTH.,#1881);
#1881 = SURFACE_SIDE_STYLE('',(#1882));
#1882 = SURFACE_STYLE_FILL_AREA(#1883);
#1883 = FILL_AREA_STYLE('',(#1884));
#1884 = FILL_AREA_STYLE_COLOUR('',#1514);
#1885 = CURVE_STYLE('',#1886,POSITIVE_LENGTH_MEASURE(0.1),#1517);
#1886 = DRAUGHTING_PRE_DEFINED_CURVE_FONT('continuous');
#1887 = STYLED_ITEM('color',(#1888),#1044);
#1888 = PRESENTATION_STYLE_ASSIGNMENT((#1889,#1894));
#1889 = SURFACE_STYLE_USAGE(.BOTH.,#1890);
#1890 = SURFACE_SIDE_STYLE('',(#1891));
#1891 = SURFACE_STYLE_FILL_AREA(#1892);
#1892 = FILL_AREA_STYLE('',(#1893));
#1893 = FILL_AREA_STYLE_COLOUR('',#1514);
#1894 = CURVE_STYLE('',#1895,POSITIVE_LENGTH_MEASURE(0.1),#1517);
#1895 = DRAUGHTING_PRE_DEFINED_CURVE_FONT('continuous');
#1896 = STYLED_ITEM('color',(#1897),#1053);
#1897 = PRESENTATION_STYLE_ASSIGNMENT((#1898,#1903));
#1898 = SURFACE_STYLE_USAGE(.BOTH.,#1899);
#1899 = SURFACE_SIDE_STYLE('',(#1900));
#1900 = SURFACE_STYLE_FILL_AREA(#1901);
#1901 = FILL_AREA_STYLE('',(#1902));
#1902 = FILL_AREA_STYLE_COLOUR('',#1514);
#1903 = CURVE_STYLE('',#1904,POSITIVE_LENGTH_MEASURE(0.1),#1517);
#1904 = DRAUGHTING_PRE_DEFINED_CURVE_FONT('continuous');
#1905 = STYLED_ITEM('color',(#1906),#1062);
#1906 = PRESENTATION_STYLE_ASSIGNMENT((#1907,#1912));
#1907 = SURFACE_STYLE_USAGE(.BOTH.,#1908);
#1908 = SURFACE_SIDE_STYLE('',(#1909));
#1909 = SURFACE_STYLE_FILL_AREA(#1910);
#1910 = FILL_AREA_STYLE('',(#1911));
#1911 = FILL_AREA_STYLE_COLOUR('',#1514);
#1912 = CURVE_STYLE('',#1913,POSITIVE_LENGTH_MEASURE(0.1),#1517);
#1913 = DRAUGHTING_PRE_DEFINED_CURVE_FONT('continuous');
#1914 = STYLED_ITEM('color',(#1915),#1071);
#1915 = PRESENTATION_STYLE_ASSIGNMENT((#1916,#1921));
#1916 = SURFACE_STYLE_USAGE(.BOTH.,#1917);
#1917 = SURFACE_SIDE_STYLE('',(#1918));
#1918 = SURFACE_STYLE_FILL_AREA(#1919);
#1919 = FILL_AREA_STYLE('',(#1920));
#1920 = FILL_AREA_STYLE_COLOUR('',#1514);
#1921 = CURVE_STYLE('',#1922,POSITIVE_LENGTH_MEASURE(0.1),#1517);
#1922 = DRAUGHTING_PRE_DEFINED_CURVE_FONT('continuous');
#1923 = STYLED_ITEM('color',(#1924),#1089);
#1924 = PRESENTATION_STYLE_ASSIGNMENT((#1925,#1930));
#1925 = SURFACE_STYLE_USAGE(.BOTH.,#1926);
#1926 = SURFACE_SIDE_STYLE('',(#1927));
#1927 = SURFACE_STYLE_FILL_AREA(#1928);
#1928 = FILL_AREA_STYLE('',(#1929));
#1929 = FILL_AREA_STYLE_COLOUR('',#1514);
#1930 = CURVE_STYLE('',#1931,POSITIVE_LENGTH_MEASURE(0.1),#1517);
#1931 = DRAUGHTING_PRE_DEFINED_CURVE_FONT('continuous');
#1932 = STYLED_ITEM('color',(#1933),#1106);
#1933 = PRESENTATION_STYLE_ASSIGNMENT((#1934,#1939));
#1934 = SURFACE_STYLE_USAGE(.BOTH.,#1935);
#1935 = SURFACE_SIDE_STYLE('',(#1936));
#1936 = SURFACE_STYLE_FILL_AREA(#1937);
#1937 = FILL_AREA_STYLE('',(#1938));
#1938 = FILL_AREA_STYLE_COLOUR('',#1514);
#1939 = CURVE_STYLE('',#1940,POSITIVE_LENGTH_MEASURE(0.1),#1517);
#1940 = DRAUGHTING_PRE_DEFINED_CURVE_FONT('continuous');
#1941 = STYLED_ITEM('color',(#1942),#1114);
#1942 = PRESENTATION_STYLE_ASSIGNMENT((#1943,#1948));
#1943 = SURFACE_STYLE_USAGE(.BOTH.,#1944);
#1944 = SURFACE_SIDE_STYLE('',(#1945));
#1945 = SURFACE_STYLE_FILL_AREA(#1946);
#1946 = FILL_AREA_STYLE('',(#1947));
#1947 = FILL_AREA_STYLE_COLOUR('',#1514);
#1948 = CURVE_STYLE('',#1949,POSITIVE_LENGTH_MEASURE(0.1),#1517);
#1949 = DRAUGHTING_PRE_DEFINED_CURVE_FONT('continuous');
#1950 = STYLED_ITEM('color',(#1951),#1123);
#1951 = PRESENTATION_STYLE_ASSIGNMENT((#1952,#1957));
#1952 = SURFACE_STYLE_USAGE(.BOTH.,#1953);
#1953 = SURFACE_SIDE_STYLE('',(#1954));
#1954 = SURFACE_STYLE_FILL_AREA(#1955);
#1955 = FILL_AREA_STYLE('',(#1956));
#1956 = FILL_AREA_STYLE_COLOUR('',#1514);
#1957 = CURVE_STYLE('',#1958,POSITIVE_LENGTH_MEASURE(0.1),#1517);
#1958 = DRAUGHTING_PRE_DEFINED_CURVE_FONT('continuous');
#1959 = STYLED_ITEM('color',(#1960),#1131);
#1960 = PRESENTATION_STYLE_ASSIGNMENT((#1961,#1966));
#1961 = SURFACE_STYLE_USAGE(.BOTH.,#1962);
#1962 = SURFACE_SIDE_STYLE('',(#1963));
#1963 = SURFACE_STYLE_FILL_AREA(#1964);
#1964 = FILL_AREA_STYLE('',(#1965));
#1965 = FILL_AREA_STYLE_COLOUR('',#1514);
#1966 = CURVE_STYLE('',#1967,POSITIVE_LENGTH_MEASURE(0.1),#1517);
#1967 = DRAUGHTING_PRE_DEFINED_CURVE_FONT('continuous');
#1968 = STYLED_ITEM('color',(#1969),#1140);
#1969 = PRESENTATION_STYLE_ASSIGNMENT((#1970,#1975));
#1970 = SURFACE_STYLE_USAGE(.BOTH.,#1971);
#1971 = SURFACE_SIDE_STYLE('',(#1972));
#1972 = SURFACE_STYLE_FILL_AREA(#1973);
#1973 = FILL_AREA_STYLE('',(#1974));
#1974 = FILL_AREA_STYLE_COLOUR('',#1514);
#1975 = CURVE_STYLE('',#1976,POSITIVE_LENGTH_MEASURE(0.1),#1517);
#1976 = DRAUGHTING_PRE_DEFINED_CURVE_FONT('continuous');
#1977 = STYLED_ITEM('color',(#1978),#1157);
#1978 = PRESENTATION_STYLE_ASSIGNMENT((#1979,#1984));
#1979 = SURFACE_STYLE_USAGE(.BOTH.,#1980);
#1980 = SURFACE_SIDE_STYLE('',(#1981));
#1981 = SURFACE_STYLE_FILL_AREA(#1982);
#1982 = FILL_AREA_STYLE('',(#1983));
#1983 = FILL_AREA_STYLE_COLOUR('',#1514);
#1984 = CURVE_STYLE('',#1985,POSITIVE_LENGTH_MEASURE(0.1),#1517);
#1985 = DRAUGHTING_PRE_DEFINED_CURVE_FONT('continuous');
#1986 = STYLED_ITEM('color',(#1987),#1165);
#1987 = PRESENTATION_STYLE_ASSIGNMENT((#1988,#1993));
#1988 = SURFACE_STYLE_USAGE(.BOTH.,#1989);
#1989 = SURFACE_SIDE_STYLE('',(#1990));
#1990 = SURFACE_STYLE_FILL_AREA(#1991);
#1991 = FILL_AREA_STYLE('',(#1992));
#1992 = FILL_AREA_STYLE_COLOUR('',#1514);
#1993 = CURVE_STYLE('',#1994,POSITIVE_LENGTH_MEASURE(0.1),#1517);
#1994 = DRAUGHTING_PRE_DEFINED_CURVE_FONT('continuous');
#1995 = STYLED_ITEM('color',(#1996),#1174);
#1996 = PRESENTATION_STYLE_ASSIGNMENT((#1997,#2002));
#1997 = SURFACE_STYLE_USAGE(.BOTH.,#1998);
#1998 = SURFACE_SIDE_STYLE('',(#1999));
#1999 = SURFACE_STYLE_FILL_AREA(#2000);
#2000 = FILL_AREA_STYLE('',(#2001));
#2001 = FILL_AREA_STYLE_COLOUR('',#1514);
#2002 = CURVE_STYLE('',#2003,POSITIVE_LENGTH_MEASURE(0.1),#1517);
#2003 = DRAUGHTING_PRE_DEFINED_CURVE_FONT('continuous');
#2004 = STYLED_ITEM('color',(#2005),#1191);
#2005 = PRESENTATION_STYLE_ASSIGNMENT((#2006,#2011));
#2006 = SURFACE_STYLE_USAGE(.BOTH.,#2007);
#2007 = SURFACE_SIDE_STYLE('',(#2008));
#2008 = SURFACE_STYLE_FILL_AREA(#2009);
#2009 = FILL_AREA_STYLE('',(#2010));
#2010 = FILL_AREA_STYLE_COLOUR('',#1514);
#2011 = CURVE_STYLE('',#2012,POSITIVE_LENGTH_MEASURE(0.1),#1517);
#2012 = DRAUGHTING_PRE_DEFINED_CURVE_FONT('continuous');
#2013 = STYLED_ITEM('color',(#2014),#1200);
#2014 = PRESENTATION_STYLE_ASSIGNMENT((#2015,#2020));
#2015 = SURFACE_STYLE_USAGE(.BOTH.,#2016);
#2016 = SURFACE_SIDE_STYLE('',(#2017));
#2017 = SURFACE_STYLE_FILL_AREA(#2018);
#2018 = FILL_AREA_STYLE('',(#2019));
#2019 = FILL_AREA_STYLE_COLOUR('',#1514);
#2020 = CURVE_STYLE('',#2021,POSITIVE_LENGTH_MEASURE(0.1),#1517);
#2021 = DRAUGHTING_PRE_DEFINED_CURVE_FONT('continuous');
#2022 = STYLED_ITEM('color',(#2023),#1226);
#2023 = PRESENTATION_STYLE_ASSIGNMENT((#2024,#2029));
#2024 = SURFACE_STYLE_USAGE(.BOTH.,#2025);
#2025 = SURFACE_SIDE_STYLE('',(#2026));
#2026 = SURFACE_STYLE_FILL_AREA(#2027);
#2027 = FILL_AREA_STYLE('',(#2028));
#2028 = FILL_AREA_STYLE_COLOUR('',#1514);
#2029 = CURVE_STYLE('',#2030,POSITIVE_LENGTH_MEASURE(0.1),#1517);
#2030 = DRAUGHTING_PRE_DEFINED_CURVE_FONT('continuous');
#2031 = STYLED_ITEM('color',(#2032),#1243);
#2032 = PRESENTATION_STYLE_ASSIGNMENT((#2033,#2038));
#2033 = SURFACE_STYLE_USAGE(.BOTH.,#2034);
#2034 = SURFACE_SIDE_STYLE('',(#2035));
#2035 = SURFACE_STYLE_FILL_AREA(#2036);
#2036 = FILL_AREA_STYLE('',(#2037));
#2037 = FILL_AREA_STYLE_COLOUR('',#1514);
#2038 = CURVE_STYLE('',#2039,POSITIVE_LENGTH_MEASURE(0.1),#1517);
#2039 = DRAUGHTING_PRE_DEFINED_CURVE_FONT('continuous');
#2040 = STYLED_ITEM('color',(#2041),#1278);
#2041 = PRESENTATION_STYLE_ASSIGNMENT((#2042,#2047));
#2042 = SURFACE_STYLE_USAGE(.BOTH.,#2043);
#2043 = SURFACE_SIDE_STYLE('',(#2044));
#2044 = SURFACE_STYLE_FILL_AREA(#2045);
#2045 = FILL_AREA_STYLE('',(#2046));
#2046 = FILL_AREA_STYLE_COLOUR('',#1514);
#2047 = CURVE_STYLE('',#2048,POSITIVE_LENGTH_MEASURE(0.1),#1517);
#2048 = DRAUGHTING_PRE_DEFINED_CURVE_FONT('continuous');
#2049 = STYLED_ITEM('color',(#2050),#1304);
#2050 = PRESENTATION_STYLE_ASSIGNMENT((#2051,#2056));
#2051 = SURFACE_STYLE_USAGE(.BOTH.,#2052);
#2052 = SURFACE_SIDE_STYLE('',(#2053));
#2053 = SURFACE_STYLE_FILL_AREA(#2054);
#2054 = FILL_AREA_STYLE('',(#2055));
#2055 = FILL_AREA_STYLE_COLOUR('',#1514);
#2056 = CURVE_STYLE('',#2057,POSITIVE_LENGTH_MEASURE(0.1),#1517);
#2057 = DRAUGHTING_PRE_DEFINED_CURVE_FONT('continuous');
#2058 = STYLED_ITEM('color',(#2059),#1348);
#2059 = PRESENTATION_STYLE_ASSIGNMENT((#2060,#2065));
#2060 = SURFACE_STYLE_USAGE(.BOTH.,#2061);
#2061 = SURFACE_SIDE_STYLE('',(#2062));
#2062 = SURFACE_STYLE_FILL_AREA(#2063);
#2063 = FILL_AREA_STYLE('',(#2064));
#2064 = FILL_AREA_STYLE_COLOUR('',#1514);
#2065 = CURVE_STYLE('',#2066,POSITIVE_LENGTH_MEASURE(0.1),#1517);
#2066 = DRAUGHTING_PRE_DEFINED_CURVE_FONT('continuous');
#2067 = STYLED_ITEM('color',(#2068),#1365);
#2068 = PRESENTATION_STYLE_ASSIGNMENT((#2069,#2074));
#2069 = SURFACE_STYLE_USAGE(.BOTH.,#2070);
#2070 = SURFACE_SIDE_STYLE('',(#2071));
#2071 = SURFACE_STYLE_FILL_AREA(#2072);
#2072 = FILL_AREA_STYLE('',(#2073));
#2073 = FILL_AREA_STYLE_COLOUR('',#1514);
#2074 = CURVE_STYLE('',#2075,POSITIVE_LENGTH_MEASURE(0.1),#1517);
#2075 = DRAUGHTING_PRE_DEFINED_CURVE_FONT('continuous');
#2076 = STYLED_ITEM('color',(#2077),#1383);
#2077 = PRESENTATION_STYLE_ASSIGNMENT((#2078,#2083));
#2078 = SURFACE_STYLE_USAGE(.BOTH.,#2079);
#2079 = SURFACE_SIDE_STYLE('',(#2080));
#2080 = SURFACE_STYLE_FILL_AREA(#2081);
#2081 = FILL_AREA_STYLE('',(#2082));
#2082 = FILL_AREA_STYLE_COLOUR('',#1514);
#2083 = CURVE_STYLE('',#2084,POSITIVE_LENGTH_MEASURE(0.1),#1517);
#2084 = DRAUGHTING_PRE_DEFINED_CURVE_FONT('continuous');
ENDSEC;
END-ISO-10303-21;
