#VRML V2.0 utf8
#kicad StepUp wrl exported

Shape {
    appearance Appearance {material DEF PIN-01 Material {
        ambientIntensity 0.271
        diffuseColor 0.824 0.820 0.781
        specularColor 0.328 0.258 0.172
        emissiveColor 0.0 0.0 0.0
        shininess 0.70
        transparency 0.0
        }
    }
}
Shape {
    appearance Appearance {material DEF MET-01 Material {
        ambientIntensity 0.249999
        diffuseColor 0.298 0.298 0.298
        specularColor 0.398 0.398 0.398
        emissiveColor 0.0 0.0 0.0
        shininess 0.056122
        transparency 0.0
        }
    }
}
Shape {
    appearance Appearance {material DEF PIN-02 Material {
        ambientIntensity 0.379
        diffuseColor 0.859 0.738 0.496
        specularColor 0.137 0.145 0.184
        emissiveColor 0.0 0.0 0.0
        shininess 0.40
        transparency 0.0
        }
    }
}
Shape {
    appearance Appearance {material DEF IC-BODY-EPOXY-04 Material {
        ambientIntensity 0.293
        diffuseColor 0.148 0.145 0.145
        specularColor 0.180 0.168 0.160
        emissiveColor 0.0 0.0 0.0
        shininess 0.35
        transparency 0.0
        }
    }
}
Shape {
    appearance Appearance {material DEF RES-SMD-01 Material {
        diffuseColor 0.082 0.086 0.094
        emissiveColor 0.000 0.000 0.000
        specularColor 0.066 0.063 0.063
        ambientIntensity 0.638
        transparency 0.0
        shininess 0.3
        }
    }
}
Shape {
    appearance Appearance {material DEF IC-BODY-EPOXY-01 Material {
        ambientIntensity 0.117
        diffuseColor 0.250 0.262 0.281
        specularColor 0.316 0.281 0.176
        emissiveColor 0.0 0.0 0.0
        shininess 0.25
        transparency 0.0
        }
    }
}
Shape {
    appearance Appearance {material DEF CAP-CERAMIC-05 Material {
        ambientIntensity 0.179
        diffuseColor 0.273 0.273 0.273
        specularColor 0.203 0.188 0.176
        emissiveColor 0.0 0.0 0.0
        shininess 0.15
        transparency 0.0
        }
    }
}
Shape {
    appearance Appearance {material DEF CAP-CERAMIC-06 Material {
        ambientIntensity 0.453
        diffuseColor 0.379 0.270 0.215
        specularColor 0.223 0.223 0.223
        emissiveColor 0.0 0.0 0.0
        shininess 0.15
        transparency 0.0
        }
    }
}
Shape {
    appearance Appearance {material DEF RES-THT-01 Material {
        ambientIntensity 0.149
        diffuseColor 0.883 0.711 0.492
        specularColor 0.043 0.121 0.281
        emissiveColor 0.0 0.0 0.0
        shininess 0.40
        transparency 0.0
        }
    }
}
Shape {
    appearance Appearance {material DEF PLASTIC-BLUE-01 Material {
        ambientIntensity 0.565
        diffuseColor 0.137 0.402 0.727
        specularColor 0.359 0.379 0.270
        emissiveColor 0.0 0.0 0.0
        shininess 0.25
        transparency 0.0
        }
    }
}
Shape {
    appearance Appearance {material DEF PLASTIC-GREEN-01 Material {
        ambientIntensity 0.315
        diffuseColor 0.340 0.680 0.445
        specularColor 0.176 0.105 0.195
        emissiveColor 0.0 0.0 0.0
        shininess 0.25
        transparency 0.0
        }
    }
}
Shape {
    appearance Appearance {material DEF PLASTIC-ORANGE-01 Material {
        ambientIntensity 0.284
        diffuseColor 0.809 0.426 0.148
        specularColor 0.039 0.102 0.145
        emissiveColor 0.0 0.0 0.0
        shininess 0.25
        transparency 0.0
        }
    }
}
Shape {
    appearance Appearance {material DEF RED-BODY Material {
        ambientIntensity 0.683
        diffuseColor 0.700 0.100 0.050
        emissiveColor 0.000 0.000 0.000
        specularColor 0.300 0.400 0.150
        shininess 0.25
        transparency 0.0
        }
    }
}
Shape {
    appearance Appearance {material DEF CAP-CERAMIC-02 Material {
        ambientIntensity 0.683
        diffuseColor 0.578 0.336 0.352
        specularColor 0.105 0.273 0.270
        emissiveColor 0.0 0.0 0.0
        shininess 0.25
        transparency 0.0
        }
    }
}
Shape {
    appearance Appearance {material DEF PLASTIC-YELLOW-01 Material {
        ambientIntensity 0.522
        diffuseColor 0.832 0.680 0.066
        specularColor 0.160 0.203 0.320
        emissiveColor 0.0 0.0 0.0
        shininess 0.25
        transparency 0.0
        }
    }
}
Shape {
    appearance Appearance {material DEF PLASTIC-WHITE-01 Material {
        ambientIntensity 0.494
        diffuseColor 0.895 0.891 0.813
        specularColor 0.047 0.055 0.109
        emissiveColor 0.0 0.0 0.0
        shininess 0.25
        transparency 0.0
        }
    }
}
Shape {
    appearance Appearance {material DEF IC-LABEL-01 Material {
        ambientIntensity 0.082
        diffuseColor 0.691 0.664 0.598
        specularColor 0.000 0.000 0.000
        emissiveColor 0.0 0.0 0.0
        shininess 0.01
        transparency 0.0
        }
    }
}
Shape {
    appearance Appearance {material DEF LED-RED Material {
        ambientIntensity 0.789
        diffuseColor 0.700 0.100 0.050
        emissiveColor 0.000 0.000 0.000
        specularColor 0.300 0.400 0.150
        shininess 0.125
        transparency 0.10
        }
    }
}
Shape {
    appearance Appearance {material DEF LED-GREEN Material {
        ambientIntensity 0.789
        diffuseColor 0.400 0.700 0.150
        emissiveColor 0.000 0.000 0.000
        specularColor 0.600 0.300 0.100
        shininess 0.05
        transparency 0.10
        }
    }
}
Shape {
    appearance Appearance {material DEF LED-BLUE Material {
        ambientIntensity 0.789
        diffuseColor 0.100 0.250 0.700
        emissiveColor 0.000 0.000 0.000
        specularColor 0.500 0.600 0.300
        shininess 0.125
        transparency 0.10
        }
    }
}
Shape {
    appearance Appearance {material DEF LED-YELLOW Material {
        ambientIntensity 0.522
        diffuseColor 0.98 0.840 0.066
        specularColor 0.160 0.203 0.320
        emissiveColor 0.0 0.0 0.0
        shininess 0.125
        transparency 0.10
        }
    }
}
Shape {
    appearance Appearance {material DEF LED-WHITE Material {
        ambientIntensity 0.494
        diffuseColor 0.895 0.891 0.813
        specularColor 0.047 0.055 0.109
        emissiveColor 0.0 0.0 0.0
        shininess 0.125
        transparency 0.10
        }
    }
}
Shape {
    appearance Appearance {material DEF LED-GREY Material {
        ambientIntensity 0.494
        diffuseColor 0.27 0.25 0.27
        specularColor 0.5 0.5 0.6
        emissiveColor 0.0 0.0 0.0
        shininess 0.35
        transparency 0.10
        }
    }
}
Shape {
    appearance Appearance {material DEF LED-BLACK Material {
        ambientIntensity 0.494
        diffuseColor 0.1 0.05 0.1
        specularColor 0.6 0.5 0.6
        emissiveColor 0.0 0.0 0.0
        shininess 0.5
        transparency 0.0
        }
    }
}
Shape {
    appearance Appearance {material DEF GLASS-19 Material {
        ambientIntensity 2.018212
        diffuseColor 0.400769 0.441922 0.459091
        specularColor 0.573887 0.649271 0.810811
        emissiveColor 0.000000 0.000000 0.000000
        shininess 0.127273
        transparency 0.37
        }
    }
}
Shape {
    appearance Appearance {material DEF GLASS-29 Material {
        ambientIntensity 0.234375
        diffuseColor 0.566681 0.580872 0.580874
        specularColor 0.617761 0.429816 0.400140
        emissiveColor 0.000000 0.000000 0.000000
        shininess 0.072727
        transparency 0.38
        }
    }
}
Shape {
    appearance Appearance {material DEF GLASS-13 Material {
        ambientIntensity 0.250000
        diffuseColor 0.000000 0.631244 0.748016
        specularColor 0.915152 0.915152 0.915152
        emissiveColor 0.000000 0.000000 0.000000
        shininess 0.642424
        transparency 0.39
        }
    }
}
Shape {
    appearance Appearance {material DEF GLASS-GREEN Material {
        ambientIntensity 0.250000
        diffuseColor 0.000000 0.75 0.44
        specularColor 0.915152 0.915152 0.915152
        emissiveColor 0.000000 0.000000 0.000000
        shininess 0.642424
        transparency 0.39
        }
    }
}
Shape {
    appearance Appearance {material DEF GLASS-ORANGE Material {
        ambientIntensity 0.250000
        diffuseColor 0.75 0.44 0.000000
        specularColor 0.915152 0.915152 0.915152
        emissiveColor 0.000000 0.000000 0.000000
        shininess 0.642424
        transparency 0.39
        }
    }
}
Shape {
    appearance Appearance {material DEF BOARD-GREEN-02 Material {
        ambientIntensity 1
        diffuseColor 0.07 0.3 0.12
        specularColor 0.07 0.3 0.12
        emissiveColor 0.0 0.0 0.0
        shininess 0.40
        transparency 0.0
        }
    }
}
Shape {
    appearance Appearance {material DEF BOARD-BLUE-01 Material {
        ambientIntensity 1
        diffuseColor 0.07 0.12 0.3
        specularColor 0.07 0.12 0.3
        emissiveColor 0.0 0.0 0.0
        shininess 0.40
        transparency 0.0
        }
    }
}
Shape {
    appearance Appearance {material DEF BOARD-BLACK-03 Material {
        ambientIntensity 1
        diffuseColor 0.16 0.16 0.16
        specularColor 0.16 0.16 0.16
        emissiveColor 0.0 0.0 0.0
        shininess 0.40
        transparency 0.0
        }
    }
}
Shape {
    appearance Appearance {material DEF MET-ALUMINUM Material {
        ambientIntensity 0.256000
        diffuseColor 0.372322 0.371574 0.373173
        specularColor 0.556122 0.554201 0.556122
        emissiveColor 0.0 0.0 0.0
        shininess 0.127551
        transparency 0.0
        }
    }
}
Shape {
    appearance Appearance {material DEF MET-BRONZE Material {
        ambientIntensity 0.022727
        diffuseColor 0.714 0.4284 0.18144
        specularColor 0.393548 0.271906 0.166721
        emissiveColor 0.000000 0.000000 0.000000
        shininess 0.2
        transparency 0.0
        }
    }
}
Shape {
    appearance Appearance {material DEF MET-SILVER Material {
        ambientIntensity 0.022727
        diffuseColor 0.50754 0.50754 0.50754
        specularColor 0.508273 0.508273 0.508273
        emissiveColor 0.000000 0.000000 0.000000
        shininess 0.4
        transparency 0.0
        }
    }
}
Shape {
    appearance Appearance {material DEF MET-COPPER Material {
        ambientIntensity 0.022727
        diffuseColor 0.7038 0.27048 0.0828
        specularColor 0.780612 0.37 0.000000
        emissiveColor 0.000000 0.000000 0.000000
        shininess 0.2
        transparency 0.0
        }
    }
}
Shape { geometry IndexedFaceSet 
{ creaseAngle 0.50 coordIndex [0,1,2,-1,0,3,1,-1]
coord Coordinate { point [-1.95275 0.047244 3.3622,-1.87401 -0.125984 3.28346,-1.87401 0.125984 3.28346,-1.95275 -0.047244 3.3622]
}}
appearance Appearance{material USE PIN-01 }}
Shape { geometry IndexedFaceSet 
{ creaseAngle 0.50 coordIndex [0,1,2,-1,3,1,0,-1]
coord Coordinate { point [-2.12598 0.125984 3.28346,-1.95275 0.047244 3.3622,-1.87401 0.125984 3.28346,-2.04724 0.047244 3.3622]
}}
appearance Appearance{material USE PIN-01 }}
Shape { geometry IndexedFaceSet 
{ creaseAngle 0.50 coordIndex [0,1,2,-1,3,1,0,-1]
coord Coordinate { point [-2.04724 0.047244 3.3622,-2.12598 -0.125984 3.28346,-2.04724 -0.047244 3.3622,-2.12598 0.125984 3.28346]
}}
appearance Appearance{material USE PIN-01 }}
Shape { geometry IndexedFaceSet 
{ creaseAngle 0.50 coordIndex [0,1,2,-1,2,1,3,-1]
coord Coordinate { point [-1.95275 -0.047244 -1.1811,-2.04724 -0.047244 -1.1811,-1.95275 0.047244 -1.1811,-2.04724 0.047244 -1.1811]
}}
appearance Appearance{material USE PIN-01 }}
Shape { geometry IndexedFaceSet 
{ creaseAngle 0.50 coordIndex [0,1,2,-1,3,1,0,-1]
coord Coordinate { point [-2.12598 0.125984 -1.10236,-2.12598 -0.125984 3.28346,-2.12598 0.125984 3.28346,-2.12598 -0.125984 -1.10236]
}}
appearance Appearance{material USE PIN-01 }}
Shape { geometry IndexedFaceSet 
{ creaseAngle 0.50 coordIndex [0,1,2,-1,3,1,0,-1]
coord Coordinate { point [-2.04724 0.047244 3.3622,-1.95275 -0.047244 3.3622,-1.95275 0.047244 3.3622,-2.04724 -0.047244 3.3622]
}}
appearance Appearance{material USE PIN-01 }}
Shape { geometry IndexedFaceSet 
{ creaseAngle 0.50 coordIndex [0,1,2,-1,3,1,0,-1]
coord Coordinate { point [-1.87401 0.125984 3.28346,-1.87401 -0.125984 -1.10236,-1.87401 0.125984 -1.10236,-1.87401 -0.125984 3.28346]
}}
appearance Appearance{material USE PIN-01 }}
Shape { geometry IndexedFaceSet 
{ creaseAngle 0.50 coordIndex [0,1,2,-1,3,1,0,-1]
coord Coordinate { point [-2.12598 -0.125984 -1.10236,-1.87401 -0.125984 3.28346,-2.12598 -0.125984 3.28346,-1.87401 -0.125984 -1.10236]
}}
appearance Appearance{material USE PIN-01 }}
Shape { geometry IndexedFaceSet 
{ creaseAngle 0.50 coordIndex [0,1,2,-1,0,3,1,-1]
coord Coordinate { point [-1.87401 0.125984 3.28346,-2.12598 0.125984 -1.10236,-2.12598 0.125984 3.28346,-1.87401 0.125984 -1.10236]
}}
appearance Appearance{material USE PIN-01 }}
Shape { geometry IndexedFaceSet 
{ creaseAngle 0.50 coordIndex [0,1,2,-1,3,1,0,-1]
coord Coordinate { point [-2.04724 -0.047244 3.3622,-1.87401 -0.125984 3.28346,-1.95275 -0.047244 3.3622,-2.12598 -0.125984 3.28346]
}}
appearance Appearance{material USE PIN-01 }}
Shape { geometry IndexedFaceSet 
{ creaseAngle 0.50 coordIndex [0,1,2,-1,0,2,3,-1]
coord Coordinate { point [-1.95275 0.047244 -1.1811,-2.04724 0.047244 -1.1811,-2.12598 0.125984 -1.10236,-1.87401 0.125984 -1.10236]
}}
appearance Appearance{material USE PIN-01 }}
Shape { geometry IndexedFaceSet 
{ creaseAngle 0.50 coordIndex [0,1,2,-1,2,1,3,-1]
coord Coordinate { point [-1.87401 0.125984 -1.10236,-1.87401 -0.125984 -1.10236,-1.95275 0.047244 -1.1811,-1.95275 -0.047244 -1.1811]
}}
appearance Appearance{material USE PIN-01 }}
Shape { geometry IndexedFaceSet 
{ creaseAngle 0.50 coordIndex [0,1,2,-1,0,3,1,-1]
coord Coordinate { point [-2.04724 0.047244 -1.1811,-2.12598 -0.125984 -1.10236,-2.12598 0.125984 -1.10236,-2.04724 -0.047244 -1.1811]
}}
appearance Appearance{material USE PIN-01 }}
Shape { geometry IndexedFaceSet 
{ creaseAngle 0.50 coordIndex [0,1,2,-1,0,3,1,-1]
coord Coordinate { point [-1.87401 -0.125984 -1.10236,-2.04724 -0.047244 -1.1811,-1.95275 -0.047244 -1.1811,-2.12598 -0.125984 -1.10236]
}}
appearance Appearance{material USE PIN-01 }}
Shape { geometry IndexedFaceSet 
{ creaseAngle 0.50 coordIndex [0,1,2,-1,0,3,1,-1]
coord Coordinate { point [-0.952754 0.047244 3.3622,-0.874014 -0.125984 3.28346,-0.874014 0.125984 3.28346,-0.952754 -0.047244 3.3622]
}}
appearance Appearance{material USE PIN-01 }}
Shape { geometry IndexedFaceSet 
{ creaseAngle 0.50 coordIndex [0,1,2,-1,3,1,0,-1]
coord Coordinate { point [-1.12598 0.125984 3.28346,-0.952754 0.047244 3.3622,-0.874014 0.125984 3.28346,-1.04724 0.047244 3.3622]
}}
appearance Appearance{material USE PIN-01 }}
Shape { geometry IndexedFaceSet 
{ creaseAngle 0.50 coordIndex [0,1,2,-1,3,1,0,-1]
coord Coordinate { point [-1.04724 0.047244 3.3622,-1.12598 -0.125984 3.28346,-1.04724 -0.047244 3.3622,-1.12598 0.125984 3.28346]
}}
appearance Appearance{material USE PIN-01 }}
Shape { geometry IndexedFaceSet 
{ creaseAngle 0.50 coordIndex [0,1,2,-1,2,1,3,-1]
coord Coordinate { point [-0.952754 -0.047244 -1.1811,-1.04724 -0.047244 -1.1811,-0.952754 0.047244 -1.1811,-1.04724 0.047244 -1.1811]
}}
appearance Appearance{material USE PIN-01 }}
Shape { geometry IndexedFaceSet 
{ creaseAngle 0.50 coordIndex [0,1,2,-1,3,1,0,-1]
coord Coordinate { point [-1.12598 0.125984 -1.10236,-1.12598 -0.125984 3.28346,-1.12598 0.125984 3.28346,-1.12598 -0.125984 -1.10236]
}}
appearance Appearance{material USE PIN-01 }}
Shape { geometry IndexedFaceSet 
{ creaseAngle 0.50 coordIndex [0,1,2,-1,3,1,0,-1]
coord Coordinate { point [-1.04724 0.047244 3.3622,-0.952754 -0.047244 3.3622,-0.952754 0.047244 3.3622,-1.04724 -0.047244 3.3622]
}}
appearance Appearance{material USE PIN-01 }}
Shape { geometry IndexedFaceSet 
{ creaseAngle 0.50 coordIndex [0,1,2,-1,3,1,0,-1]
coord Coordinate { point [-0.874014 0.125984 3.28346,-0.874014 -0.125984 -1.10236,-0.874014 0.125984 -1.10236,-0.874014 -0.125984 3.28346]
}}
appearance Appearance{material USE PIN-01 }}
Shape { geometry IndexedFaceSet 
{ creaseAngle 0.50 coordIndex [0,1,2,-1,3,1,0,-1]
coord Coordinate { point [-1.12598 -0.125984 -1.10236,-0.874014 -0.125984 3.28346,-1.12598 -0.125984 3.28346,-0.874014 -0.125984 -1.10236]
}}
appearance Appearance{material USE PIN-01 }}
Shape { geometry IndexedFaceSet 
{ creaseAngle 0.50 coordIndex [0,1,2,-1,0,3,1,-1]
coord Coordinate { point [-0.874014 0.125984 3.28346,-1.12598 0.125984 -1.10236,-1.12598 0.125984 3.28346,-0.874014 0.125984 -1.10236]
}}
appearance Appearance{material USE PIN-01 }}
Shape { geometry IndexedFaceSet 
{ creaseAngle 0.50 coordIndex [0,1,2,-1,3,1,0,-1]
coord Coordinate { point [-1.04724 -0.047244 3.3622,-0.874014 -0.125984 3.28346,-0.952754 -0.047244 3.3622,-1.12598 -0.125984 3.28346]
}}
appearance Appearance{material USE PIN-01 }}
Shape { geometry IndexedFaceSet 
{ creaseAngle 0.50 coordIndex [0,1,2,-1,0,2,3,-1]
coord Coordinate { point [-0.952754 0.047244 -1.1811,-1.04724 0.047244 -1.1811,-1.12598 0.125984 -1.10236,-0.874014 0.125984 -1.10236]
}}
appearance Appearance{material USE PIN-01 }}
Shape { geometry IndexedFaceSet 
{ creaseAngle 0.50 coordIndex [0,1,2,-1,2,1,3,-1]
coord Coordinate { point [-0.874014 0.125984 -1.10236,-0.874014 -0.125984 -1.10236,-0.952754 0.047244 -1.1811,-0.952754 -0.047244 -1.1811]
}}
appearance Appearance{material USE PIN-01 }}
Shape { geometry IndexedFaceSet 
{ creaseAngle 0.50 coordIndex [0,1,2,-1,0,3,1,-1]
coord Coordinate { point [-1.04724 0.047244 -1.1811,-1.12598 -0.125984 -1.10236,-1.12598 0.125984 -1.10236,-1.04724 -0.047244 -1.1811]
}}
appearance Appearance{material USE PIN-01 }}
Shape { geometry IndexedFaceSet 
{ creaseAngle 0.50 coordIndex [0,1,2,-1,0,3,1,-1]
coord Coordinate { point [-0.874014 -0.125984 -1.10236,-1.04724 -0.047244 -1.1811,-0.952754 -0.047244 -1.1811,-1.12598 -0.125984 -1.10236]
}}
appearance Appearance{material USE PIN-01 }}
Shape { geometry IndexedFaceSet 
{ creaseAngle 0.50 coordIndex [0,1,2,-1,0,3,1,-1]
coord Coordinate { point [0.047244 0.047244 3.3622,0.125984 -0.125984 3.28346,0.125984 0.125984 3.28346,0.047244 -0.047244 3.3622]
}}
appearance Appearance{material USE PIN-01 }}
Shape { geometry IndexedFaceSet 
{ creaseAngle 0.50 coordIndex [0,1,2,-1,3,1,0,-1]
coord Coordinate { point [-0.125984 0.125984 3.28346,0.047244 0.047244 3.3622,0.125984 0.125984 3.28346,-0.047244 0.047244 3.3622]
}}
appearance Appearance{material USE PIN-01 }}
Shape { geometry IndexedFaceSet 
{ creaseAngle 0.50 coordIndex [0,1,2,-1,3,1,0,-1]
coord Coordinate { point [-0.047244 0.047244 3.3622,-0.125984 -0.125984 3.28346,-0.047244 -0.047244 3.3622,-0.125984 0.125984 3.28346]
}}
appearance Appearance{material USE PIN-01 }}
Shape { geometry IndexedFaceSet 
{ creaseAngle 0.50 coordIndex [0,1,2,-1,2,1,3,-1]
coord Coordinate { point [0.047244 -0.047244 -1.1811,-0.047244 -0.047244 -1.1811,0.047244 0.047244 -1.1811,-0.047244 0.047244 -1.1811]
}}
appearance Appearance{material USE PIN-01 }}
Shape { geometry IndexedFaceSet 
{ creaseAngle 0.50 coordIndex [0,1,2,-1,3,1,0,-1]
coord Coordinate { point [-0.125984 0.125984 -1.10236,-0.125984 -0.125984 3.28346,-0.125984 0.125984 3.28346,-0.125984 -0.125984 -1.10236]
}}
appearance Appearance{material USE PIN-01 }}
Shape { geometry IndexedFaceSet 
{ creaseAngle 0.50 coordIndex [0,1,2,-1,3,1,0,-1]
coord Coordinate { point [-0.047244 0.047244 3.3622,0.047244 -0.047244 3.3622,0.047244 0.047244 3.3622,-0.047244 -0.047244 3.3622]
}}
appearance Appearance{material USE PIN-01 }}
Shape { geometry IndexedFaceSet 
{ creaseAngle 0.50 coordIndex [0,1,2,-1,3,1,0,-1]
coord Coordinate { point [0.125984 0.125984 3.28346,0.125984 -0.125984 -1.10236,0.125984 0.125984 -1.10236,0.125984 -0.125984 3.28346]
}}
appearance Appearance{material USE PIN-01 }}
Shape { geometry IndexedFaceSet 
{ creaseAngle 0.50 coordIndex [0,1,2,-1,3,1,0,-1]
coord Coordinate { point [-0.125984 -0.125984 -1.10236,0.125984 -0.125984 3.28346,-0.125984 -0.125984 3.28346,0.125984 -0.125984 -1.10236]
}}
appearance Appearance{material USE PIN-01 }}
Shape { geometry IndexedFaceSet 
{ creaseAngle 0.50 coordIndex [0,1,2,-1,0,3,1,-1]
coord Coordinate { point [0.125984 0.125984 3.28346,-0.125984 0.125984 -1.10236,-0.125984 0.125984 3.28346,0.125984 0.125984 -1.10236]
}}
appearance Appearance{material USE PIN-01 }}
Shape { geometry IndexedFaceSet 
{ creaseAngle 0.50 coordIndex [0,1,2,-1,3,1,0,-1]
coord Coordinate { point [-0.047244 -0.047244 3.3622,0.125984 -0.125984 3.28346,0.047244 -0.047244 3.3622,-0.125984 -0.125984 3.28346]
}}
appearance Appearance{material USE PIN-01 }}
Shape { geometry IndexedFaceSet 
{ creaseAngle 0.50 coordIndex [0,1,2,-1,0,2,3,-1]
coord Coordinate { point [0.047244 0.047244 -1.1811,-0.047244 0.047244 -1.1811,-0.125984 0.125984 -1.10236,0.125984 0.125984 -1.10236]
}}
appearance Appearance{material USE PIN-01 }}
Shape { geometry IndexedFaceSet 
{ creaseAngle 0.50 coordIndex [0,1,2,-1,2,1,3,-1]
coord Coordinate { point [0.125984 0.125984 -1.10236,0.125984 -0.125984 -1.10236,0.047244 0.047244 -1.1811,0.047244 -0.047244 -1.1811]
}}
appearance Appearance{material USE PIN-01 }}
Shape { geometry IndexedFaceSet 
{ creaseAngle 0.50 coordIndex [0,1,2,-1,0,3,1,-1]
coord Coordinate { point [-0.047244 0.047244 -1.1811,-0.125984 -0.125984 -1.10236,-0.125984 0.125984 -1.10236,-0.047244 -0.047244 -1.1811]
}}
appearance Appearance{material USE PIN-01 }}
Shape { geometry IndexedFaceSet 
{ creaseAngle 0.50 coordIndex [0,1,2,-1,0,3,1,-1]
coord Coordinate { point [0.125984 -0.125984 -1.10236,-0.047244 -0.047244 -1.1811,0.047244 -0.047244 -1.1811,-0.125984 -0.125984 -1.10236]
}}
appearance Appearance{material USE PIN-01 }}
Shape { geometry IndexedFaceSet 
{ creaseAngle 0.50 coordIndex [0,1,2,-1,0,3,1,-1]
coord Coordinate { point [1.04724 0.047244 3.3622,1.12598 -0.125984 3.28346,1.12598 0.125984 3.28346,1.04724 -0.047244 3.3622]
}}
appearance Appearance{material USE PIN-01 }}
Shape { geometry IndexedFaceSet 
{ creaseAngle 0.50 coordIndex [0,1,2,-1,3,1,0,-1]
coord Coordinate { point [0.874014 0.125984 3.28346,1.04724 0.047244 3.3622,1.12598 0.125984 3.28346,0.952754 0.047244 3.3622]
}}
appearance Appearance{material USE PIN-01 }}
Shape { geometry IndexedFaceSet 
{ creaseAngle 0.50 coordIndex [0,1,2,-1,3,1,0,-1]
coord Coordinate { point [0.952754 0.047244 3.3622,0.874014 -0.125984 3.28346,0.952754 -0.047244 3.3622,0.874014 0.125984 3.28346]
}}
appearance Appearance{material USE PIN-01 }}
Shape { geometry IndexedFaceSet 
{ creaseAngle 0.50 coordIndex [0,1,2,-1,2,1,3,-1]
coord Coordinate { point [1.04724 -0.047244 -1.1811,0.952754 -0.047244 -1.1811,1.04724 0.047244 -1.1811,0.952754 0.047244 -1.1811]
}}
appearance Appearance{material USE PIN-01 }}
Shape { geometry IndexedFaceSet 
{ creaseAngle 0.50 coordIndex [0,1,2,-1,3,1,0,-1]
coord Coordinate { point [0.874014 0.125984 -1.10236,0.874014 -0.125984 3.28346,0.874014 0.125984 3.28346,0.874014 -0.125984 -1.10236]
}}
appearance Appearance{material USE PIN-01 }}
Shape { geometry IndexedFaceSet 
{ creaseAngle 0.50 coordIndex [0,1,2,-1,3,1,0,-1]
coord Coordinate { point [0.952754 0.047244 3.3622,1.04724 -0.047244 3.3622,1.04724 0.047244 3.3622,0.952754 -0.047244 3.3622]
}}
appearance Appearance{material USE PIN-01 }}
Shape { geometry IndexedFaceSet 
{ creaseAngle 0.50 coordIndex [0,1,2,-1,3,1,0,-1]
coord Coordinate { point [1.12598 0.125984 3.28346,1.12598 -0.125984 -1.10236,1.12598 0.125984 -1.10236,1.12598 -0.125984 3.28346]
}}
appearance Appearance{material USE PIN-01 }}
Shape { geometry IndexedFaceSet 
{ creaseAngle 0.50 coordIndex [0,1,2,-1,3,1,0,-1]
coord Coordinate { point [0.874014 -0.125984 -1.10236,1.12598 -0.125984 3.28346,0.874014 -0.125984 3.28346,1.12598 -0.125984 -1.10236]
}}
appearance Appearance{material USE PIN-01 }}
Shape { geometry IndexedFaceSet 
{ creaseAngle 0.50 coordIndex [0,1,2,-1,0,3,1,-1]
coord Coordinate { point [1.12598 0.125984 3.28346,0.874014 0.125984 -1.10236,0.874014 0.125984 3.28346,1.12598 0.125984 -1.10236]
}}
appearance Appearance{material USE PIN-01 }}
Shape { geometry IndexedFaceSet 
{ creaseAngle 0.50 coordIndex [0,1,2,-1,3,1,0,-1]
coord Coordinate { point [0.952754 -0.047244 3.3622,1.12598 -0.125984 3.28346,1.04724 -0.047244 3.3622,0.874014 -0.125984 3.28346]
}}
appearance Appearance{material USE PIN-01 }}
Shape { geometry IndexedFaceSet 
{ creaseAngle 0.50 coordIndex [0,1,2,-1,0,2,3,-1]
coord Coordinate { point [1.04724 0.047244 -1.1811,0.952754 0.047244 -1.1811,0.874014 0.125984 -1.10236,1.12598 0.125984 -1.10236]
}}
appearance Appearance{material USE PIN-01 }}
Shape { geometry IndexedFaceSet 
{ creaseAngle 0.50 coordIndex [0,1,2,-1,2,1,3,-1]
coord Coordinate { point [1.12598 0.125984 -1.10236,1.12598 -0.125984 -1.10236,1.04724 0.047244 -1.1811,1.04724 -0.047244 -1.1811]
}}
appearance Appearance{material USE PIN-01 }}
Shape { geometry IndexedFaceSet 
{ creaseAngle 0.50 coordIndex [0,1,2,-1,0,3,1,-1]
coord Coordinate { point [0.952754 0.047244 -1.1811,0.874014 -0.125984 -1.10236,0.874014 0.125984 -1.10236,0.952754 -0.047244 -1.1811]
}}
appearance Appearance{material USE PIN-01 }}
Shape { geometry IndexedFaceSet 
{ creaseAngle 0.50 coordIndex [0,1,2,-1,0,3,1,-1]
coord Coordinate { point [1.12598 -0.125984 -1.10236,0.952754 -0.047244 -1.1811,1.04724 -0.047244 -1.1811,0.874014 -0.125984 -1.10236]
}}
appearance Appearance{material USE PIN-01 }}
Shape { geometry IndexedFaceSet 
{ creaseAngle 0.50 coordIndex [0,1,2,-1,0,3,1,-1]
coord Coordinate { point [2.04724 0.047244 3.3622,2.12598 -0.125984 3.28346,2.12598 0.125984 3.28346,2.04724 -0.047244 3.3622]
}}
appearance Appearance{material USE PIN-01 }}
Shape { geometry IndexedFaceSet 
{ creaseAngle 0.50 coordIndex [0,1,2,-1,3,1,0,-1]
coord Coordinate { point [1.87401 0.125984 3.28346,2.04724 0.047244 3.3622,2.12598 0.125984 3.28346,1.95275 0.047244 3.3622]
}}
appearance Appearance{material USE PIN-01 }}
Shape { geometry IndexedFaceSet 
{ creaseAngle 0.50 coordIndex [0,1,2,-1,3,1,0,-1]
coord Coordinate { point [1.95275 0.047244 3.3622,1.87401 -0.125984 3.28346,1.95275 -0.047244 3.3622,1.87401 0.125984 3.28346]
}}
appearance Appearance{material USE PIN-01 }}
Shape { geometry IndexedFaceSet 
{ creaseAngle 0.50 coordIndex [0,1,2,-1,2,1,3,-1]
coord Coordinate { point [2.04724 -0.047244 -1.1811,1.95275 -0.047244 -1.1811,2.04724 0.047244 -1.1811,1.95275 0.047244 -1.1811]
}}
appearance Appearance{material USE PIN-01 }}
Shape { geometry IndexedFaceSet 
{ creaseAngle 0.50 coordIndex [0,1,2,-1,3,1,0,-1]
coord Coordinate { point [1.87401 0.125984 -1.10236,1.87401 -0.125984 3.28346,1.87401 0.125984 3.28346,1.87401 -0.125984 -1.10236]
}}
appearance Appearance{material USE PIN-01 }}
Shape { geometry IndexedFaceSet 
{ creaseAngle 0.50 coordIndex [0,1,2,-1,3,1,0,-1]
coord Coordinate { point [1.95275 0.047244 3.3622,2.04724 -0.047244 3.3622,2.04724 0.047244 3.3622,1.95275 -0.047244 3.3622]
}}
appearance Appearance{material USE PIN-01 }}
Shape { geometry IndexedFaceSet 
{ creaseAngle 0.50 coordIndex [0,1,2,-1,3,1,0,-1]
coord Coordinate { point [2.12598 0.125984 3.28346,2.12598 -0.125984 -1.10236,2.12598 0.125984 -1.10236,2.12598 -0.125984 3.28346]
}}
appearance Appearance{material USE PIN-01 }}
Shape { geometry IndexedFaceSet 
{ creaseAngle 0.50 coordIndex [0,1,2,-1,3,1,0,-1]
coord Coordinate { point [1.87401 -0.125984 -1.10236,2.12598 -0.125984 3.28346,1.87401 -0.125984 3.28346,2.12598 -0.125984 -1.10236]
}}
appearance Appearance{material USE PIN-01 }}
Shape { geometry IndexedFaceSet 
{ creaseAngle 0.50 coordIndex [0,1,2,-1,0,3,1,-1]
coord Coordinate { point [2.12598 0.125984 3.28346,1.87401 0.125984 -1.10236,1.87401 0.125984 3.28346,2.12598 0.125984 -1.10236]
}}
appearance Appearance{material USE PIN-01 }}
Shape { geometry IndexedFaceSet 
{ creaseAngle 0.50 coordIndex [0,1,2,-1,3,1,0,-1]
coord Coordinate { point [1.95275 -0.047244 3.3622,2.12598 -0.125984 3.28346,2.04724 -0.047244 3.3622,1.87401 -0.125984 3.28346]
}}
appearance Appearance{material USE PIN-01 }}
Shape { geometry IndexedFaceSet 
{ creaseAngle 0.50 coordIndex [0,1,2,-1,0,2,3,-1]
coord Coordinate { point [2.04724 0.047244 -1.1811,1.95275 0.047244 -1.1811,1.87401 0.125984 -1.10236,2.12598 0.125984 -1.10236]
}}
appearance Appearance{material USE PIN-01 }}
Shape { geometry IndexedFaceSet 
{ creaseAngle 0.50 coordIndex [0,1,2,-1,2,1,3,-1]
coord Coordinate { point [2.12598 0.125984 -1.10236,2.12598 -0.125984 -1.10236,2.04724 0.047244 -1.1811,2.04724 -0.047244 -1.1811]
}}
appearance Appearance{material USE PIN-01 }}
Shape { geometry IndexedFaceSet 
{ creaseAngle 0.50 coordIndex [0,1,2,-1,0,3,1,-1]
coord Coordinate { point [1.95275 0.047244 -1.1811,1.87401 -0.125984 -1.10236,1.87401 0.125984 -1.10236,1.95275 -0.047244 -1.1811]
}}
appearance Appearance{material USE PIN-01 }}
Shape { geometry IndexedFaceSet 
{ creaseAngle 0.50 coordIndex [0,1,2,-1,0,3,1,-1]
coord Coordinate { point [2.12598 -0.125984 -1.10236,1.95275 -0.047244 -1.1811,2.04724 -0.047244 -1.1811,1.87401 -0.125984 -1.10236]
}}
appearance Appearance{material USE PIN-01 }}
Shape { geometry IndexedFaceSet 
{ creaseAngle 0.50 coordIndex [0,1,2,-1,0,2,3,-1]
coord Coordinate { point [2.12598 -0.125984 0.999998,2.12598 0.125984 0.999998,2.12598 0.125984 0.19685,2.12598 -0.125984 0.19685]
}}
appearance Appearance{material USE IC-BODY-EPOXY-04 }}
Shape { geometry IndexedFaceSet 
{ creaseAngle 0.50 coordIndex [0,1,2,-1,0,2,3,-1]
coord Coordinate { point [1.87401 -0.125984 0.999998,2.12598 -0.125984 0.999998,2.12598 -0.125984 0.19685,1.87401 -0.125984 0.19685]
}}
appearance Appearance{material USE IC-BODY-EPOXY-04 }}
Shape { geometry IndexedFaceSet 
{ creaseAngle 0.50 coordIndex [0,1,2,-1,0,2,3,-1]
coord Coordinate { point [1.12598 0.125984 0.999998,0.874014 0.125984 0.999998,0.874014 0.125984 0.19685,1.12598 0.125984 0.19685]
}}
appearance Appearance{material USE IC-BODY-EPOXY-04 }}
Shape { geometry IndexedFaceSet 
{ creaseAngle 0.50 coordIndex [0,1,2,-1,3,2,4,-1,3,4,5,-1,6,7,8,-1,9,0,2,-1,10,3,5,-1,11,12,7,-1,13,0,9,-1,11,7,6,-1,14,8,15,-1,14,6,8,-1,16,17,13,-1,18,9,19,-1,20,14,15,-1,18,13,9,-1,21,12,11,-1,22,19,3,-1,22,3,10,-1,22,18,19,-1,23,24,21,-1,25,26,17,-1,25,17,16,-1,27,11,28,-1,29,16,13,-1,29,13,18,-1,27,21,11,-1,30,28,14,-1,31,29,18,-1,30,14,20,-1,30,27,28,-1,32,26,25,-1,33,23,21,-1,33,21,27,-1,34,25,35,-1,36,37,24,-1,34,32,25,-1,36,24,23,-1,38,35,29,-1,38,29,31,-1,38,34,35,-1,39,33,27,-1,40,37,36,-1,41,42,40,-1,43,36,44,-1,43,40,36,-1,43,41,40,-1,45,43,44,-1,45,44,33,-1,45,33,39,-1,46,47,42,-1,46,42,41,-1,48,41,43,-1,49,48,43,-1,4,47,46,-1,50,4,46,-1,2,1,4,-1,5,4,50,-1,51,5,50,-1,51,50,48,-1,51,48,49,-1]
coord Coordinate { point [1.40157 0.499999 0.999998,0.598424 0.499999 0.999998,0.874014 0.125984 0.999998,0.874014 -0.125984 0.999998,0.499999 0.303149 0.999998,0.499999 -0.303149 0.999998,-2.12598 0.125984 0.999998,-2.40157 0.499999 0.999998,-2.49999 0.303149 0.999998,1.12598 0.125984 0.999998,0.598424 -0.499999 0.999998,-1.87401 0.125984 0.999998,-1.59842 0.499999 0.999998,1.5 0.303149 0.999998,-2.12598 -0.125984 0.999998,-2.49999 -0.303149 0.999998,1.87401 0.125984 0.999998,1.59842 0.499999 0.999998,1.5 -0.303149 0.999998,1.12598 -0.125984 0.999998,-2.40157 -0.499999 0.999998,-1.5 0.303149 0.999998,1.40157 -0.499999 0.999998,-1.12598 0.125984 0.999998,-1.40157 0.499999 0.999998,2.12598 0.125984 0.999998,2.40157 0.499999 0.999998,-1.5 -0.303149 0.999998,-1.87401 -0.125984 0.999998,1.87401 -0.125984 0.999998,-1.59842 -0.499999 0.999998,1.59842 -0.499999 0.999998,2.49999 0.303149 0.999998,-1.12598 -0.125984 0.999998,2.49999 -0.303149 0.999998,2.12598 -0.125984 0.999998,-0.874014 0.125984 0.999998,-0.598424 0.499999 0.999998,2.40157 -0.499999 0.999998,-1.40157 -0.499999 0.999998,-0.499999 0.303149 0.999998,-0.125984 0.125984 0.999998,-0.401574 0.499999 0.999998,-0.499999 -0.303149 0.999998,-0.874014 -0.125984 0.999998,-0.598424 -0.499999 0.999998,0.125984 0.125984 0.999998,0.401574 0.499999 0.999998,-0.125984 -0.125984 0.999998,-0.401574 -0.499999 0.999998,0.125984 -0.125984 0.999998,0.401574 -0.499999 0.999998]
}}
appearance Appearance{material USE IC-BODY-EPOXY-04 }}
Shape { geometry IndexedFaceSet 
{ creaseAngle 0.50 coordIndex [0,1,2,-1,0,2,3,-1,0,3,4,-1,5,6,7,-1,8,1,9,-1,8,10,1,-1,11,7,12,-1,13,8,9,-1,11,12,14,-1,11,5,7,-1,15,0,4,-1,16,5,17,-1,18,19,13,-1,20,9,15,-1,16,6,5,-1,20,13,9,-1,21,15,4,-1,21,20,15,-1,22,16,17,-1,23,20,24,-1,23,13,20,-1,23,18,13,-1,25,26,22,-1,27,17,28,-1,29,19,18,-1,29,18,30,-1,27,22,17,-1,31,28,11,-1,32,29,30,-1,33,23,24,-1,31,11,14,-1,31,27,28,-1,34,30,33,-1,35,27,36,-1,34,32,30,-1,37,34,33,-1,35,25,22,-1,35,22,27,-1,37,33,24,-1,38,25,39,-1,38,26,25,-1,40,38,39,-1,41,35,36,-1,42,43,40,-1,44,39,41,-1,44,40,39,-1,45,41,36,-1,45,44,41,-1,46,40,44,-1,46,44,47,-1,46,42,40,-1,48,43,42,-1,49,43,48,-1,2,49,48,-1,50,46,47,-1,1,10,2,-1,3,2,48,-1,3,48,50,-1,51,50,47,-1,51,3,50,-1]
coord Coordinate { point [0.874014 0.125984 0.19685,0.874014 -0.125984 0.19685,0.499999 -0.303149 0.19685,0.499999 0.303149 0.19685,0.525589 0.35433 0.19685,-2.12598 -0.125984 0.19685,-2.4744 -0.35433 0.19685,-2.49999 -0.303149 0.19685,1.47441 -0.35433 0.19685,1.12598 -0.125984 0.19685,0.525589 -0.35433 0.19685,-2.12598 0.125984 0.19685,-2.49999 0.303149 0.19685,1.5 -0.303149 0.19685,-2.4744 0.35433 0.19685,1.12598 0.125984 0.19685,-1.52559 -0.35433 0.19685,-1.87401 -0.125984 0.19685,1.87401 -0.125984 0.19685,1.52559 -0.35433 0.19685,1.5 0.303149 0.19685,1.47441 0.35433 0.19685,-1.5 -0.303149 0.19685,1.87401 0.125984 0.19685,1.52559 0.35433 0.19685,-1.12598 -0.125984 0.19685,-1.47441 -0.35433 0.19685,-1.5 0.303149 0.19685,-1.87401 0.125984 0.19685,2.4744 -0.35433 0.19685,2.12598 -0.125984 0.19685,-1.52559 0.35433 0.19685,2.49999 -0.303149 0.19685,2.12598 0.125984 0.19685,2.49999 0.303149 0.19685,-1.12598 0.125984 0.19685,-1.47441 0.35433 0.19685,2.4744 0.35433 0.19685,-0.525589 -0.35433 0.19685,-0.874014 -0.125984 0.19685,-0.499999 -0.303149 0.19685,-0.874014 0.125984 0.19685,-0.125984 -0.125984 0.19685,-0.474409 -0.35433 0.19685,-0.499999 0.303149 0.19685,-0.525589 0.35433 0.19685,-0.125984 0.125984 0.19685,-0.474409 0.35433 0.19685,0.125984 -0.125984 0.19685,0.474409 -0.35433 0.19685,0.125984 0.125984 0.19685,0.474409 0.35433 0.19685]
}}
appearance Appearance{material USE IC-BODY-EPOXY-04 }}
Shape { geometry IndexedFaceSet 
{ creaseAngle 0.50 coordIndex [0,1,2,-1,0,2,3,-1]
coord Coordinate { point [-0.125984 0.125984 0.999998,-0.125984 -0.125984 0.999998,-0.125984 -0.125984 0.19685,-0.125984 0.125984 0.19685]
}}
appearance Appearance{material USE IC-BODY-EPOXY-04 }}
Shape { geometry IndexedFaceSet 
{ creaseAngle 0.50 coordIndex [0,1,2,-1,0,2,3,-1]
coord Coordinate { point [0.125984 0.125984 0.999998,-0.125984 0.125984 0.999998,-0.125984 0.125984 0.19685,0.125984 0.125984 0.19685]
}}
appearance Appearance{material USE IC-BODY-EPOXY-04 }}
Shape { geometry IndexedFaceSet 
{ creaseAngle 0.50 coordIndex [0,1,2,-1,0,2,3,-1]
coord Coordinate { point [-0.125984 -0.125984 0.999998,0.125984 -0.125984 0.999998,0.125984 -0.125984 0.19685,-0.125984 -0.125984 0.19685]
}}
appearance Appearance{material USE IC-BODY-EPOXY-04 }}
Shape { geometry IndexedFaceSet 
{ creaseAngle 0.50 coordIndex [0,1,2,-1,0,2,3,-1]
coord Coordinate { point [0.125984 -0.125984 0.999998,0.125984 0.125984 0.999998,0.125984 0.125984 0.19685,0.125984 -0.125984 0.19685]
}}
appearance Appearance{material USE IC-BODY-EPOXY-04 }}
Shape { geometry IndexedFaceSet 
{ creaseAngle 0.50 coordIndex [0,1,2,-1,0,2,3,-1]
coord Coordinate { point [-0.874014 0.125984 0.999998,-1.12598 0.125984 0.999998,-1.12598 0.125984 0.19685,-0.874014 0.125984 0.19685]
}}
appearance Appearance{material USE IC-BODY-EPOXY-04 }}
Shape { geometry IndexedFaceSet 
{ creaseAngle 0.50 coordIndex [0,1,2,-1,0,2,3,-1]
coord Coordinate { point [-1.12598 0.125984 0.999998,-1.12598 -0.125984 0.999998,-1.12598 -0.125984 0.19685,-1.12598 0.125984 0.19685]
}}
appearance Appearance{material USE IC-BODY-EPOXY-04 }}
Shape { geometry IndexedFaceSet 
{ creaseAngle 0.50 coordIndex [0,1,2,-1,0,2,3,-1]
coord Coordinate { point [-1.12598 -0.125984 0.999998,-0.874014 -0.125984 0.999998,-0.874014 -0.125984 0.19685,-1.12598 -0.125984 0.19685]
}}
appearance Appearance{material USE IC-BODY-EPOXY-04 }}
Shape { geometry IndexedFaceSet 
{ creaseAngle 0.50 coordIndex [0,1,2,-1,0,2,3,-1]
coord Coordinate { point [-0.874014 -0.125984 0.999998,-0.874014 0.125984 0.999998,-0.874014 0.125984 0.19685,-0.874014 -0.125984 0.19685]
}}
appearance Appearance{material USE IC-BODY-EPOXY-04 }}
Shape { geometry IndexedFaceSet 
{ creaseAngle 0.50 coordIndex [0,1,2,-1,0,2,3,-1]
coord Coordinate { point [-1.52559 0.35433 -3.49676e-16,-1.52559 0.35433 0.19685,-2.4744 0.35433 0.19685,-2.4744 0.35433 -3.49676e-16]
}}
appearance Appearance{material USE IC-BODY-EPOXY-04 }}
Shape { geometry IndexedFaceSet 
{ creaseAngle 0.50 coordIndex [0,1,2,-1,0,2,3,-1]
coord Coordinate { point [-1.52559 -0.35433 0.19685,-1.52559 -0.35433 0,-2.4744 -0.35433 0,-2.4744 -0.35433 0.19685]
}}
appearance Appearance{material USE IC-BODY-EPOXY-04 }}
Shape { geometry IndexedFaceSet 
{ creaseAngle 0.50 coordIndex [0,1,2,-1,0,2,3,-1]
coord Coordinate { point [-1.87401 0.125984 0.999998,-2.12598 0.125984 0.999998,-2.12598 0.125984 0.19685,-1.87401 0.125984 0.19685]
}}
appearance Appearance{material USE IC-BODY-EPOXY-04 }}
Shape { geometry IndexedFaceSet 
{ creaseAngle 0.50 coordIndex [0,1,2,-1,0,2,3,-1]
coord Coordinate { point [-2.12598 0.125984 0.999998,-2.12598 -0.125984 0.999998,-2.12598 -0.125984 0.19685,-2.12598 0.125984 0.19685]
}}
appearance Appearance{material USE IC-BODY-EPOXY-04 }}
Shape { geometry IndexedFaceSet 
{ creaseAngle 0.50 coordIndex [0,1,2,-1,0,2,3,-1]
coord Coordinate { point [-2.12598 -0.125984 0.999998,-1.87401 -0.125984 0.999998,-1.87401 -0.125984 0.19685,-2.12598 -0.125984 0.19685]
}}
appearance Appearance{material USE IC-BODY-EPOXY-04 }}
Shape { geometry IndexedFaceSet 
{ creaseAngle 0.50 coordIndex [0,1,2,-1,0,2,3,-1]
coord Coordinate { point [-1.87401 -0.125984 0.999998,-1.87401 0.125984 0.999998,-1.87401 0.125984 0.19685,-1.87401 -0.125984 0.19685]
}}
appearance Appearance{material USE IC-BODY-EPOXY-04 }}
Shape { geometry IndexedFaceSet 
{ creaseAngle 0.50 coordIndex [0,1,2,-1,3,4,0,-1,5,3,0,-1,5,0,2,-1]
coord Coordinate { point [2.4744 0.35433 0.19685,2.4744 0.35433 -3.49676e-16,2.40157 0.499999 -3.49676e-16,2.49999 0.303149 0.999998,2.49999 0.303149 0.19685,2.40157 0.499999 0.999998]
}}
appearance Appearance{material USE IC-BODY-EPOXY-04 }}
Shape { geometry IndexedFaceSet 
{ creaseAngle 0.50 coordIndex [0,1,2,-1,3,4,0,-1,5,3,0,-1,5,0,2,-1]
coord Coordinate { point [1.47441 0.35433 0.19685,1.47441 0.35433 -3.49676e-16,1.40157 0.499999 -3.49676e-16,1.5 0.303149 0.999998,1.5 0.303149 0.19685,1.40157 0.499999 0.999998]
}}
appearance Appearance{material USE IC-BODY-EPOXY-04 }}
Shape { geometry IndexedFaceSet 
{ creaseAngle 0.50 coordIndex [0,1,2,-1,3,1,0,-1,4,0,5,-1,4,3,0,-1]
coord Coordinate { point [1.52559 0.35433 0.19685,1.59842 0.499999 -3.49676e-16,1.52559 0.35433 -3.49676e-16,1.59842 0.499999 0.999998,1.5 0.303149 0.999998,1.5 0.303149 0.19685]
}}
appearance Appearance{material USE IC-BODY-EPOXY-04 }}
Shape { geometry IndexedFaceSet 
{ creaseAngle 0.50 coordIndex [0,1,2,-1,3,4,0,-1,5,3,0,-1,5,0,2,-1]
coord Coordinate { point [0.474409 0.35433 0.19685,0.474409 0.35433 -3.49676e-16,0.401574 0.499999 -3.49676e-16,0.499999 0.303149 0.999998,0.499999 0.303149 0.19685,0.401574 0.499999 0.999998]
}}
appearance Appearance{material USE IC-BODY-EPOXY-04 }}
Shape { geometry IndexedFaceSet 
{ creaseAngle 0.50 coordIndex [0,1,2,-1,3,1,0,-1,4,0,5,-1,4,3,0,-1]
coord Coordinate { point [0.525589 0.35433 0.19685,0.598424 0.499999 -3.49676e-16,0.525589 0.35433 -3.49676e-16,0.598424 0.499999 0.999998,0.499999 0.303149 0.999998,0.499999 0.303149 0.19685]
}}
appearance Appearance{material USE IC-BODY-EPOXY-04 }}
Shape { geometry IndexedFaceSet 
{ creaseAngle 0.50 coordIndex [0,1,2,-1,3,4,0,-1,5,3,0,-1,5,0,2,-1]
coord Coordinate { point [-0.525589 0.35433 0.19685,-0.525589 0.35433 -3.49676e-16,-0.598424 0.499999 -3.49676e-16,-0.499999 0.303149 0.999998,-0.499999 0.303149 0.19685,-0.598424 0.499999 0.999998]
}}
appearance Appearance{material USE IC-BODY-EPOXY-04 }}
Shape { geometry IndexedFaceSet 
{ creaseAngle 0.50 coordIndex [0,1,2,-1,3,1,0,-1,4,0,5,-1,4,3,0,-1]
coord Coordinate { point [-0.474409 0.35433 0.19685,-0.401574 0.499999 -3.49676e-16,-0.474409 0.35433 -3.49676e-16,-0.401574 0.499999 0.999998,-0.499999 0.303149 0.999998,-0.499999 0.303149 0.19685]
}}
appearance Appearance{material USE IC-BODY-EPOXY-04 }}
Shape { geometry IndexedFaceSet 
{ creaseAngle 0.50 coordIndex [0,1,2,-1,3,4,0,-1,5,3,0,-1,5,0,2,-1]
coord Coordinate { point [-1.52559 0.35433 0.19685,-1.52559 0.35433 -3.49676e-16,-1.59842 0.499999 -3.49676e-16,-1.5 0.303149 0.999998,-1.5 0.303149 0.19685,-1.59842 0.499999 0.999998]
}}
appearance Appearance{material USE IC-BODY-EPOXY-04 }}
Shape { geometry IndexedFaceSet 
{ creaseAngle 0.50 coordIndex [0,1,2,-1,3,1,0,-1,4,0,5,-1,4,3,0,-1]
coord Coordinate { point [-1.47441 0.35433 0.19685,-1.40157 0.499999 -3.49676e-16,-1.47441 0.35433 -3.49676e-16,-1.40157 0.499999 0.999998,-1.5 0.303149 0.999998,-1.5 0.303149 0.19685]
}}
appearance Appearance{material USE IC-BODY-EPOXY-04 }}
Shape { geometry IndexedFaceSet 
{ creaseAngle 0.50 coordIndex [0,1,2,-1,3,1,0,-1,4,0,5,-1,4,3,0,-1]
coord Coordinate { point [-2.4744 0.35433 0.19685,-2.40157 0.499999 -3.49676e-16,-2.4744 0.35433 -3.49676e-16,-2.40157 0.499999 0.999998,-2.49999 0.303149 0.999998,-2.49999 0.303149 0.19685]
}}
appearance Appearance{material USE IC-BODY-EPOXY-04 }}
Shape { geometry IndexedFaceSet 
{ creaseAngle 0.50 coordIndex [0,1,2,-1,3,1,0,-1,4,0,5,-1,4,3,0,-1]
coord Coordinate { point [2.4744 -0.35433 0.19685,2.40157 -0.499999 0,2.4744 -0.35433 0,2.40157 -0.499999 0.999998,2.49999 -0.303149 0.999998,2.49999 -0.303149 0.19685]
}}
appearance Appearance{material USE IC-BODY-EPOXY-04 }}
Shape { geometry IndexedFaceSet 
{ creaseAngle 0.50 coordIndex [0,1,2,-1,3,4,0,-1,5,3,0,-1,5,0,2,-1]
coord Coordinate { point [1.52559 -0.35433 0.19685,1.52559 -0.35433 0,1.59842 -0.499999 0,1.5 -0.303149 0.999998,1.5 -0.303149 0.19685,1.59842 -0.499999 0.999998]
}}
appearance Appearance{material USE IC-BODY-EPOXY-04 }}
Shape { geometry IndexedFaceSet 
{ creaseAngle 0.50 coordIndex [0,1,2,-1,3,1,0,-1,4,0,5,-1,4,3,0,-1]
coord Coordinate { point [1.47441 -0.35433 0.19685,1.40157 -0.499999 0,1.47441 -0.35433 0,1.40157 -0.499999 0.999998,1.5 -0.303149 0.999998,1.5 -0.303149 0.19685]
}}
appearance Appearance{material USE IC-BODY-EPOXY-04 }}
Shape { geometry IndexedFaceSet 
{ creaseAngle 0.50 coordIndex [0,1,2,-1,3,4,0,-1,5,3,0,-1,5,0,2,-1]
coord Coordinate { point [0.525589 -0.35433 0.19685,0.525589 -0.35433 0,0.598424 -0.499999 0,0.499999 -0.303149 0.999998,0.499999 -0.303149 0.19685,0.598424 -0.499999 0.999998]
}}
appearance Appearance{material USE IC-BODY-EPOXY-04 }}
Shape { geometry IndexedFaceSet 
{ creaseAngle 0.50 coordIndex [0,1,2,-1,3,1,0,-1,4,0,5,-1,4,3,0,-1]
coord Coordinate { point [0.474409 -0.35433 0.19685,0.401574 -0.499999 0,0.474409 -0.35433 0,0.401574 -0.499999 0.999998,0.499999 -0.303149 0.999998,0.499999 -0.303149 0.19685]
}}
appearance Appearance{material USE IC-BODY-EPOXY-04 }}
Shape { geometry IndexedFaceSet 
{ creaseAngle 0.50 coordIndex [0,1,2,-1,3,4,0,-1,5,3,0,-1,5,0,2,-1]
coord Coordinate { point [-0.474409 -0.35433 0.19685,-0.474409 -0.35433 0,-0.401574 -0.499999 0,-0.499999 -0.303149 0.999998,-0.499999 -0.303149 0.19685,-0.401574 -0.499999 0.999998]
}}
appearance Appearance{material USE IC-BODY-EPOXY-04 }}
Shape { geometry IndexedFaceSet 
{ creaseAngle 0.50 coordIndex [0,1,2,-1,3,1,0,-1,4,0,5,-1,4,3,0,-1]
coord Coordinate { point [-0.525589 -0.35433 0.19685,-0.598424 -0.499999 0,-0.525589 -0.35433 0,-0.598424 -0.499999 0.999998,-0.499999 -0.303149 0.999998,-0.499999 -0.303149 0.19685]
}}
appearance Appearance{material USE IC-BODY-EPOXY-04 }}
Shape { geometry IndexedFaceSet 
{ creaseAngle 0.50 coordIndex [0,1,2,-1,3,4,0,-1,5,3,0,-1,5,0,2,-1]
coord Coordinate { point [-1.47441 -0.35433 0.19685,-1.47441 -0.35433 0,-1.40157 -0.499999 0,-1.5 -0.303149 0.999998,-1.5 -0.303149 0.19685,-1.40157 -0.499999 0.999998]
}}
appearance Appearance{material USE IC-BODY-EPOXY-04 }}
Shape { geometry IndexedFaceSet 
{ creaseAngle 0.50 coordIndex [0,1,2,-1,3,1,0,-1,4,0,5,-1,4,3,0,-1]
coord Coordinate { point [-1.52559 -0.35433 0.19685,-1.59842 -0.499999 0,-1.52559 -0.35433 0,-1.59842 -0.499999 0.999998,-1.5 -0.303149 0.999998,-1.5 -0.303149 0.19685]
}}
appearance Appearance{material USE IC-BODY-EPOXY-04 }}
Shape { geometry IndexedFaceSet 
{ creaseAngle 0.50 coordIndex [0,1,2,-1,3,4,0,-1,5,3,0,-1,5,0,2,-1]
coord Coordinate { point [-2.4744 -0.35433 0.19685,-2.4744 -0.35433 0,-2.40157 -0.499999 0,-2.49999 -0.303149 0.999998,-2.49999 -0.303149 0.19685,-2.40157 -0.499999 0.999998]
}}
appearance Appearance{material USE IC-BODY-EPOXY-04 }}
Shape { geometry IndexedFaceSet 
{ creaseAngle 0.50 coordIndex [0,1,2,-1,3,1,0,-1]
coord Coordinate { point [2.49999 0.303149 0.19685,2.49999 -0.303149 0.999998,2.49999 -0.303149 0.19685,2.49999 0.303149 0.999998]
}}
appearance Appearance{material USE IC-BODY-EPOXY-04 }}
Shape { geometry IndexedFaceSet 
{ creaseAngle 0.50 coordIndex [0,1,2,-1,0,2,3,-1]
coord Coordinate { point [-2.49999 -0.303149 0.999998,-2.49999 0.303149 0.999998,-2.49999 0.303149 0.19685,-2.49999 -0.303149 0.19685]
}}
appearance Appearance{material USE IC-BODY-EPOXY-04 }}
Shape { geometry IndexedFaceSet 
{ creaseAngle 0.50 coordIndex [0,1,2,-1,0,2,3,-1]
coord Coordinate { point [-1.59842 -0.499999 0,-1.59842 -0.499999 0.999998,-2.40157 -0.499999 0.999998,-2.40157 -0.499999 0]
}}
appearance Appearance{material USE IC-BODY-EPOXY-04 }}
Shape { geometry IndexedFaceSet 
{ creaseAngle 0.50 coordIndex [0,1,2,-1,0,3,1,-1]
coord Coordinate { point [-1.52559 -0.35433 0,-2.40157 -0.499999 0,-2.4744 -0.35433 0,-1.59842 -0.499999 0]
}}
appearance Appearance{material USE IC-BODY-EPOXY-04 }}
Shape { geometry IndexedFaceSet 
{ creaseAngle 0.50 coordIndex [0,1,2,-1,0,2,3,-1]
coord Coordinate { point [1.59842 0.499999 0.999998,2.40157 0.499999 0.999998,2.40157 0.499999 -3.49676e-16,1.59842 0.499999 -3.49676e-16]
}}
appearance Appearance{material USE IC-BODY-EPOXY-04 }}
Shape { geometry IndexedFaceSet 
{ creaseAngle 0.50 coordIndex [0,1,2,-1,0,2,3,-1]
coord Coordinate { point [0.598424 0.499999 0.999998,1.40157 0.499999 0.999998,1.40157 0.499999 -3.49676e-16,0.598424 0.499999 -3.49676e-16]
}}
appearance Appearance{material USE IC-BODY-EPOXY-04 }}
Shape { geometry IndexedFaceSet 
{ creaseAngle 0.50 coordIndex [0,1,2,-1,0,2,3,-1]
coord Coordinate { point [-2.40157 0.499999 0.999998,-1.59842 0.499999 0.999998,-1.59842 0.499999 -3.49676e-16,-2.40157 0.499999 -3.49676e-16]
}}
appearance Appearance{material USE IC-BODY-EPOXY-04 }}
Shape { geometry IndexedFaceSet 
{ creaseAngle 0.50 coordIndex [0,1,2,-1,3,1,0,-1]
coord Coordinate { point [1.59842 -0.499999 0,2.40157 -0.499999 0.999998,1.59842 -0.499999 0.999998,2.40157 -0.499999 0]
}}
appearance Appearance{material USE IC-BODY-EPOXY-04 }}
Shape { geometry IndexedFaceSet 
{ creaseAngle 0.50 coordIndex [0,1,2,-1,0,2,3,-1]
coord Coordinate { point [-1.40157 0.499999 0.999998,-0.598424 0.499999 0.999998,-0.598424 0.499999 -3.49676e-16,-1.40157 0.499999 -3.49676e-16]
}}
appearance Appearance{material USE IC-BODY-EPOXY-04 }}
Shape { geometry IndexedFaceSet 
{ creaseAngle 0.50 coordIndex [0,1,2,-1,0,2,3,-1]
coord Coordinate { point [-0.598424 -0.499999 0,-0.598424 -0.499999 0.999998,-1.40157 -0.499999 0.999998,-1.40157 -0.499999 0]
}}
appearance Appearance{material USE IC-BODY-EPOXY-04 }}
Shape { geometry IndexedFaceSet 
{ creaseAngle 0.50 coordIndex [0,1,2,-1,0,2,3,-1]
coord Coordinate { point [0.401574 -0.499999 0,0.401574 -0.499999 0.999998,-0.401574 -0.499999 0.999998,-0.401574 -0.499999 0]
}}
appearance Appearance{material USE IC-BODY-EPOXY-04 }}
Shape { geometry IndexedFaceSet 
{ creaseAngle 0.50 coordIndex [0,1,2,-1,0,2,3,-1]
coord Coordinate { point [1.40157 -0.499999 0,1.40157 -0.499999 0.999998,0.598424 -0.499999 0.999998,0.598424 -0.499999 0]
}}
appearance Appearance{material USE IC-BODY-EPOXY-04 }}
Shape { geometry IndexedFaceSet 
{ creaseAngle 0.50 coordIndex [0,1,2,-1,0,2,3,-1]
coord Coordinate { point [-0.401574 0.499999 0.999998,0.401574 0.499999 0.999998,0.401574 0.499999 -3.49676e-16,-0.401574 0.499999 -3.49676e-16]
}}
appearance Appearance{material USE IC-BODY-EPOXY-04 }}
Shape { geometry IndexedFaceSet 
{ creaseAngle 0.50 coordIndex [0,1,2,-1,0,2,3,-1]
coord Coordinate { point [-1.59842 0.499999 -3.49676e-16,-1.52559 0.35433 -3.49676e-16,-2.4744 0.35433 -3.49676e-16,-2.40157 0.499999 -3.49676e-16]
}}
appearance Appearance{material USE IC-BODY-EPOXY-04 }}
Shape { geometry IndexedFaceSet 
{ creaseAngle 0.50 coordIndex [0,1,2,-1,0,2,3,-1]
coord Coordinate { point [-0.598424 0.499999 -3.49676e-16,-0.525589 0.35433 -3.49676e-16,-1.47441 0.35433 -3.49676e-16,-1.40157 0.499999 -3.49676e-16]
}}
appearance Appearance{material USE IC-BODY-EPOXY-04 }}
Shape { geometry IndexedFaceSet 
{ creaseAngle 0.50 coordIndex [0,1,2,-1,0,2,3,-1]
coord Coordinate { point [0.401574 0.499999 -3.49676e-16,0.474409 0.35433 -3.49676e-16,-0.474409 0.35433 -3.49676e-16,-0.401574 0.499999 -3.49676e-16]
}}
appearance Appearance{material USE IC-BODY-EPOXY-04 }}
Shape { geometry IndexedFaceSet 
{ creaseAngle 0.50 coordIndex [0,1,2,-1,3,0,2,-1]
coord Coordinate { point [1.47441 0.35433 -3.49676e-16,0.525589 0.35433 -3.49676e-16,0.598424 0.499999 -3.49676e-16,1.40157 0.499999 -3.49676e-16]
}}
appearance Appearance{material USE IC-BODY-EPOXY-04 }}
Shape { geometry IndexedFaceSet 
{ creaseAngle 0.50 coordIndex [0,1,2,-1,0,2,3,-1]
coord Coordinate { point [2.40157 0.499999 -3.49676e-16,2.4744 0.35433 -3.49676e-16,1.52559 0.35433 -3.49676e-16,1.59842 0.499999 -3.49676e-16]
}}
appearance Appearance{material USE IC-BODY-EPOXY-04 }}
Shape { geometry IndexedFaceSet 
{ creaseAngle 0.50 coordIndex [0,1,2,-1,0,3,1,-1]
coord Coordinate { point [2.4744 -0.35433 0,1.59842 -0.499999 0,1.52559 -0.35433 0,2.40157 -0.499999 0]
}}
appearance Appearance{material USE IC-BODY-EPOXY-04 }}
Shape { geometry IndexedFaceSet 
{ creaseAngle 0.50 coordIndex [0,1,2,-1,0,3,1,-1]
coord Coordinate { point [1.47441 -0.35433 0,0.598424 -0.499999 0,0.525589 -0.35433 0,1.40157 -0.499999 0]
}}
appearance Appearance{material USE IC-BODY-EPOXY-04 }}
Shape { geometry IndexedFaceSet 
{ creaseAngle 0.50 coordIndex [0,1,2,-1,3,0,2,-1]
coord Coordinate { point [0.401574 -0.499999 0,-0.401574 -0.499999 0,-0.474409 -0.35433 0,0.474409 -0.35433 0]
}}
appearance Appearance{material USE IC-BODY-EPOXY-04 }}
Shape { geometry IndexedFaceSet 
{ creaseAngle 0.50 coordIndex [0,1,2,-1,0,3,1,-1]
coord Coordinate { point [-0.525589 -0.35433 0,-1.40157 -0.499999 0,-1.47441 -0.35433 0,-0.598424 -0.499999 0]
}}
appearance Appearance{material USE IC-BODY-EPOXY-04 }}
Shape { geometry IndexedFaceSet 
{ creaseAngle 0.50 coordIndex [0,1,2,-1,0,2,3,-1]
coord Coordinate { point [-0.525589 -0.35433 0.19685,-0.525589 -0.35433 0,-1.47441 -0.35433 0,-1.47441 -0.35433 0.19685]
}}
appearance Appearance{material USE IC-BODY-EPOXY-04 }}
Shape { geometry IndexedFaceSet 
{ creaseAngle 0.50 coordIndex [0,1,2,-1,0,2,3,-1]
coord Coordinate { point [0.474409 -0.35433 0.19685,0.474409 -0.35433 0,-0.474409 -0.35433 0,-0.474409 -0.35433 0.19685]
}}
appearance Appearance{material USE IC-BODY-EPOXY-04 }}
Shape { geometry IndexedFaceSet 
{ creaseAngle 0.50 coordIndex [0,1,2,-1,0,2,3,-1]
coord Coordinate { point [1.47441 -0.35433 0.19685,1.47441 -0.35433 0,0.525589 -0.35433 0,0.525589 -0.35433 0.19685]
}}
appearance Appearance{material USE IC-BODY-EPOXY-04 }}
Shape { geometry IndexedFaceSet 
{ creaseAngle 0.50 coordIndex [0,1,2,-1,0,2,3,-1]
coord Coordinate { point [2.4744 -0.35433 0.19685,2.4744 -0.35433 0,1.52559 -0.35433 0,1.52559 -0.35433 0.19685]
}}
appearance Appearance{material USE IC-BODY-EPOXY-04 }}
Shape { geometry IndexedFaceSet 
{ creaseAngle 0.50 coordIndex [0,1,2,-1,0,2,3,-1]
coord Coordinate { point [-0.525589 0.35433 -3.49676e-16,-0.525589 0.35433 0.19685,-1.47441 0.35433 0.19685,-1.47441 0.35433 -3.49676e-16]
}}
appearance Appearance{material USE IC-BODY-EPOXY-04 }}
Shape { geometry IndexedFaceSet 
{ creaseAngle 0.50 coordIndex [0,1,2,-1,0,2,3,-1]
coord Coordinate { point [0.474409 0.35433 -3.49676e-16,0.474409 0.35433 0.19685,-0.474409 0.35433 0.19685,-0.474409 0.35433 -3.49676e-16]
}}
appearance Appearance{material USE IC-BODY-EPOXY-04 }}
Shape { geometry IndexedFaceSet 
{ creaseAngle 0.50 coordIndex [0,1,2,-1,0,2,3,-1]
coord Coordinate { point [1.47441 0.35433 -3.49676e-16,1.47441 0.35433 0.19685,0.525589 0.35433 0.19685,0.525589 0.35433 -3.49676e-16]
}}
appearance Appearance{material USE IC-BODY-EPOXY-04 }}
Shape { geometry IndexedFaceSet 
{ creaseAngle 0.50 coordIndex [0,1,2,-1,0,2,3,-1]
coord Coordinate { point [2.4744 0.35433 -3.49676e-16,2.4744 0.35433 0.19685,1.52559 0.35433 0.19685,1.52559 0.35433 -3.49676e-16]
}}
appearance Appearance{material USE IC-BODY-EPOXY-04 }}
Shape { geometry IndexedFaceSet 
{ creaseAngle 0.50 coordIndex [0,1,2,-1,0,2,3,-1]
coord Coordinate { point [1.12598 -0.125984 0.999998,1.12598 0.125984 0.999998,1.12598 0.125984 0.19685,1.12598 -0.125984 0.19685]
}}
appearance Appearance{material USE IC-BODY-EPOXY-04 }}
Shape { geometry IndexedFaceSet 
{ creaseAngle 0.50 coordIndex [0,1,2,-1,0,2,3,-1]
coord Coordinate { point [0.874014 -0.125984 0.999998,1.12598 -0.125984 0.999998,1.12598 -0.125984 0.19685,0.874014 -0.125984 0.19685]
}}
appearance Appearance{material USE IC-BODY-EPOXY-04 }}
Shape { geometry IndexedFaceSet 
{ creaseAngle 0.50 coordIndex [0,1,2,-1,0,2,3,-1]
coord Coordinate { point [0.874014 0.125984 0.999998,0.874014 -0.125984 0.999998,0.874014 -0.125984 0.19685,0.874014 0.125984 0.19685]
}}
appearance Appearance{material USE IC-BODY-EPOXY-04 }}
Shape { geometry IndexedFaceSet 
{ creaseAngle 0.50 coordIndex [0,1,2,-1,0,2,3,-1]
coord Coordinate { point [1.87401 0.125984 0.999998,1.87401 -0.125984 0.999998,1.87401 -0.125984 0.19685,1.87401 0.125984 0.19685]
}}
appearance Appearance{material USE IC-BODY-EPOXY-04 }}
Shape { geometry IndexedFaceSet 
{ creaseAngle 0.50 coordIndex [0,1,2,-1,0,2,3,-1]
coord Coordinate { point [2.12598 0.125984 0.999998,1.87401 0.125984 0.999998,1.87401 0.125984 0.19685,2.12598 0.125984 0.19685]
}}
appearance Appearance{material USE IC-BODY-EPOXY-04 }}
