ISO-10303-21;
HEADER;
FILE_DESCRIPTION(('FreeCAD Model'),'2;1');
FILE_NAME('Open CASCADE Shape Model','2022-01-23T10:41:25',(
    'kicad StepUp'),('ksu MCAD'),'Open CASCADE STEP processor 7.4',
  'FreeCAD','Unknown');
FILE_SCHEMA(('AUTOMOTIVE_DESIGN { 1 0 10303 214 1 1 1 1 }'));
ENDSEC;
DATA;
#1 = APPLICATION_PROTOCOL_DEFINITION('international standard',
  'automotive_design',2000,#2);
#2 = APPLICATION_CONTEXT(
  'core data for automotive mechanical design processes');
#3 = SHAPE_DEFINITION_REPRESENTATION(#4,#10);
#4 = PRODUCT_DEFINITION_SHAPE('','',#5);
#5 = PRODUCT_DEFINITION('design','',#6,#9);
#6 = PRODUCT_DEFINITION_FORMATION('','',#7);
#7 = PRODUCT('R2010','R2010','',(#8));
#8 = PRODUCT_CONTEXT('',#2,'mechanical');
#9 = PRODUCT_DEFINITION_CONTEXT('part definition',#2,'design');
#10 = SHAPE_REPRESENTATION('',(#11,#15,#165,#315,#597),#879);
#11 = AXIS2_PLACEMENT_3D('',#12,#13,#14);
#12 = CARTESIAN_POINT('',(0.,0.,0.));
#13 = DIRECTION('',(0.,0.,1.));
#14 = DIRECTION('',(1.,0.,-0.));
#15 = MANIFOLD_SOLID_BREP('',#16);
#16 = CLOSED_SHELL('',(#17,#57,#88,#119,#141,#153));
#17 = ADVANCED_FACE('',(#18),#52,.T.);
#18 = FACE_BOUND('',#19,.T.);
#19 = EDGE_LOOP('',(#20,#30,#38,#46));
#20 = ORIENTED_EDGE('',*,*,#21,.T.);
#21 = EDGE_CURVE('',#22,#24,#26,.T.);
#22 = VERTEX_POINT('',#23);
#23 = CARTESIAN_POINT('',(-2.5543,1.2446,0.662));
#24 = VERTEX_POINT('',#25);
#25 = CARTESIAN_POINT('',(-2.5543,-1.2446,0.662));
#26 = LINE('',#27,#28);
#27 = CARTESIAN_POINT('',(-2.5543,1.2446,0.662));
#28 = VECTOR('',#29,1.);
#29 = DIRECTION('',(0.,-1.,-2.22044604925E-16));
#30 = ORIENTED_EDGE('',*,*,#31,.T.);
#31 = EDGE_CURVE('',#24,#32,#34,.T.);
#32 = VERTEX_POINT('',#33);
#33 = CARTESIAN_POINT('',(2.5543,-1.2446,0.662));
#34 = LINE('',#35,#36);
#35 = CARTESIAN_POINT('',(-2.5543,-1.2446,0.662));
#36 = VECTOR('',#37,1.);
#37 = DIRECTION('',(1.,0.,0.));
#38 = ORIENTED_EDGE('',*,*,#39,.F.);
#39 = EDGE_CURVE('',#40,#32,#42,.T.);
#40 = VERTEX_POINT('',#41);
#41 = CARTESIAN_POINT('',(2.5543,1.2446,0.662));
#42 = LINE('',#43,#44);
#43 = CARTESIAN_POINT('',(2.5543,1.2446,0.662));
#44 = VECTOR('',#45,1.);
#45 = DIRECTION('',(0.,-1.,-2.22044604925E-16));
#46 = ORIENTED_EDGE('',*,*,#47,.F.);
#47 = EDGE_CURVE('',#22,#40,#48,.T.);
#48 = LINE('',#49,#50);
#49 = CARTESIAN_POINT('',(-2.5543,1.2446,0.662));
#50 = VECTOR('',#51,1.);
#51 = DIRECTION('',(1.,0.,0.));
#52 = PLANE('',#53);
#53 = AXIS2_PLACEMENT_3D('',#54,#55,#56);
#54 = CARTESIAN_POINT('',(-2.5543,1.2446,0.662));
#55 = DIRECTION('',(0.,-2.22044604925E-16,1.));
#56 = DIRECTION('',(1.,0.,0.));
#57 = ADVANCED_FACE('',(#58),#83,.T.);
#58 = FACE_BOUND('',#59,.T.);
#59 = EDGE_LOOP('',(#60,#61,#69,#77));
#60 = ORIENTED_EDGE('',*,*,#39,.T.);
#61 = ORIENTED_EDGE('',*,*,#62,.T.);
#62 = EDGE_CURVE('',#32,#63,#65,.T.);
#63 = VERTEX_POINT('',#64);
#64 = CARTESIAN_POINT('',(2.5543,-1.2446,1.E-01));
#65 = LINE('',#66,#67);
#66 = CARTESIAN_POINT('',(2.5543,-1.2446,0.662));
#67 = VECTOR('',#68,1.);
#68 = DIRECTION('',(0.,2.22044604925E-16,-1.));
#69 = ORIENTED_EDGE('',*,*,#70,.F.);
#70 = EDGE_CURVE('',#71,#63,#73,.T.);
#71 = VERTEX_POINT('',#72);
#72 = CARTESIAN_POINT('',(2.5543,1.2446,0.1));
#73 = LINE('',#74,#75);
#74 = CARTESIAN_POINT('',(2.5543,1.2446,0.1));
#75 = VECTOR('',#76,1.);
#76 = DIRECTION('',(0.,-1.,-2.22044604925E-16));
#77 = ORIENTED_EDGE('',*,*,#78,.F.);
#78 = EDGE_CURVE('',#40,#71,#79,.T.);
#79 = LINE('',#80,#81);
#80 = CARTESIAN_POINT('',(2.5543,1.2446,0.662));
#81 = VECTOR('',#82,1.);
#82 = DIRECTION('',(0.,2.22044604925E-16,-1.));
#83 = PLANE('',#84);
#84 = AXIS2_PLACEMENT_3D('',#85,#86,#87);
#85 = CARTESIAN_POINT('',(2.5543,1.2446,0.662));
#86 = DIRECTION('',(1.,0.,0.));
#87 = DIRECTION('',(0.,2.22044604925E-16,-1.));
#88 = ADVANCED_FACE('',(#89),#114,.T.);
#89 = FACE_BOUND('',#90,.T.);
#90 = EDGE_LOOP('',(#91,#92,#100,#108));
#91 = ORIENTED_EDGE('',*,*,#70,.T.);
#92 = ORIENTED_EDGE('',*,*,#93,.T.);
#93 = EDGE_CURVE('',#63,#94,#96,.T.);
#94 = VERTEX_POINT('',#95);
#95 = CARTESIAN_POINT('',(-2.5543,-1.2446,1.E-01));
#96 = LINE('',#97,#98);
#97 = CARTESIAN_POINT('',(2.5543,-1.2446,1.E-01));
#98 = VECTOR('',#99,1.);
#99 = DIRECTION('',(-1.,0.,0.));
#100 = ORIENTED_EDGE('',*,*,#101,.F.);
#101 = EDGE_CURVE('',#102,#94,#104,.T.);
#102 = VERTEX_POINT('',#103);
#103 = CARTESIAN_POINT('',(-2.5543,1.2446,0.1));
#104 = LINE('',#105,#106);
#105 = CARTESIAN_POINT('',(-2.5543,1.2446,0.1));
#106 = VECTOR('',#107,1.);
#107 = DIRECTION('',(0.,-1.,-2.22044604925E-16));
#108 = ORIENTED_EDGE('',*,*,#109,.F.);
#109 = EDGE_CURVE('',#71,#102,#110,.T.);
#110 = LINE('',#111,#112);
#111 = CARTESIAN_POINT('',(2.5543,1.2446,0.1));
#112 = VECTOR('',#113,1.);
#113 = DIRECTION('',(-1.,0.,0.));
#114 = PLANE('',#115);
#115 = AXIS2_PLACEMENT_3D('',#116,#117,#118);
#116 = CARTESIAN_POINT('',(2.5543,1.2446,0.1));
#117 = DIRECTION('',(0.,2.22044604925E-16,-1.));
#118 = DIRECTION('',(-1.,0.,0.));
#119 = ADVANCED_FACE('',(#120),#136,.T.);
#120 = FACE_BOUND('',#121,.T.);
#121 = EDGE_LOOP('',(#122,#123,#129,#130));
#122 = ORIENTED_EDGE('',*,*,#101,.T.);
#123 = ORIENTED_EDGE('',*,*,#124,.T.);
#124 = EDGE_CURVE('',#94,#24,#125,.T.);
#125 = LINE('',#126,#127);
#126 = CARTESIAN_POINT('',(-2.5543,-1.2446,1.E-01));
#127 = VECTOR('',#128,1.);
#128 = DIRECTION('',(0.,-2.22044604925E-16,1.));
#129 = ORIENTED_EDGE('',*,*,#21,.F.);
#130 = ORIENTED_EDGE('',*,*,#131,.F.);
#131 = EDGE_CURVE('',#102,#22,#132,.T.);
#132 = LINE('',#133,#134);
#133 = CARTESIAN_POINT('',(-2.5543,1.2446,0.1));
#134 = VECTOR('',#135,1.);
#135 = DIRECTION('',(0.,-2.22044604925E-16,1.));
#136 = PLANE('',#137);
#137 = AXIS2_PLACEMENT_3D('',#138,#139,#140);
#138 = CARTESIAN_POINT('',(-2.5543,1.2446,0.1));
#139 = DIRECTION('',(-1.,0.,0.));
#140 = DIRECTION('',(0.,-2.22044604925E-16,1.));
#141 = ADVANCED_FACE('',(#142),#148,.T.);
#142 = FACE_BOUND('',#143,.T.);
#143 = EDGE_LOOP('',(#144,#145,#146,#147));
#144 = ORIENTED_EDGE('',*,*,#47,.T.);
#145 = ORIENTED_EDGE('',*,*,#78,.T.);
#146 = ORIENTED_EDGE('',*,*,#109,.T.);
#147 = ORIENTED_EDGE('',*,*,#131,.T.);
#148 = PLANE('',#149);
#149 = AXIS2_PLACEMENT_3D('',#150,#151,#152);
#150 = CARTESIAN_POINT('',(3.915716236819E-17,1.2446,0.381));
#151 = DIRECTION('',(1.03153494459E-100,1.,2.22044604925E-16));
#152 = DIRECTION('',(0.,-2.22044604925E-16,1.));
#153 = ADVANCED_FACE('',(#154),#160,.F.);
#154 = FACE_BOUND('',#155,.F.);
#155 = EDGE_LOOP('',(#156,#157,#158,#159));
#156 = ORIENTED_EDGE('',*,*,#31,.T.);
#157 = ORIENTED_EDGE('',*,*,#62,.T.);
#158 = ORIENTED_EDGE('',*,*,#93,.T.);
#159 = ORIENTED_EDGE('',*,*,#124,.T.);
#160 = PLANE('',#161);
#161 = AXIS2_PLACEMENT_3D('',#162,#163,#164);
#162 = CARTESIAN_POINT('',(3.915716236819E-17,-1.2446,0.381));
#163 = DIRECTION('',(1.03153494459E-100,1.,2.22044604925E-16));
#164 = DIRECTION('',(0.,-2.22044604925E-16,1.));
#165 = MANIFOLD_SOLID_BREP('',#166);
#166 = CLOSED_SHELL('',(#167,#207,#238,#269,#291,#303));
#167 = ADVANCED_FACE('',(#168),#202,.T.);
#168 = FACE_BOUND('',#169,.T.);
#169 = EDGE_LOOP('',(#170,#180,#188,#196));
#170 = ORIENTED_EDGE('',*,*,#171,.T.);
#171 = EDGE_CURVE('',#172,#174,#176,.T.);
#172 = VERTEX_POINT('',#173);
#173 = CARTESIAN_POINT('',(-2.1463,1.2446,0.762));
#174 = VERTEX_POINT('',#175);
#175 = CARTESIAN_POINT('',(-2.1463,-1.2446,0.762));
#176 = LINE('',#177,#178);
#177 = CARTESIAN_POINT('',(-2.1463,1.2446,0.762));
#178 = VECTOR('',#179,1.);
#179 = DIRECTION('',(0.,-1.,-2.22044604925E-16));
#180 = ORIENTED_EDGE('',*,*,#181,.T.);
#181 = EDGE_CURVE('',#174,#182,#184,.T.);
#182 = VERTEX_POINT('',#183);
#183 = CARTESIAN_POINT('',(2.1463,-1.2446,0.762));
#184 = LINE('',#185,#186);
#185 = CARTESIAN_POINT('',(-2.1463,-1.2446,0.762));
#186 = VECTOR('',#187,1.);
#187 = DIRECTION('',(1.,0.,0.));
#188 = ORIENTED_EDGE('',*,*,#189,.F.);
#189 = EDGE_CURVE('',#190,#182,#192,.T.);
#190 = VERTEX_POINT('',#191);
#191 = CARTESIAN_POINT('',(2.1463,1.2446,0.762));
#192 = LINE('',#193,#194);
#193 = CARTESIAN_POINT('',(2.1463,1.2446,0.762));
#194 = VECTOR('',#195,1.);
#195 = DIRECTION('',(0.,-1.,-2.22044604925E-16));
#196 = ORIENTED_EDGE('',*,*,#197,.F.);
#197 = EDGE_CURVE('',#172,#190,#198,.T.);
#198 = LINE('',#199,#200);
#199 = CARTESIAN_POINT('',(-2.1463,1.2446,0.762));
#200 = VECTOR('',#201,1.);
#201 = DIRECTION('',(1.,0.,0.));
#202 = PLANE('',#203);
#203 = AXIS2_PLACEMENT_3D('',#204,#205,#206);
#204 = CARTESIAN_POINT('',(-2.1463,1.2446,0.762));
#205 = DIRECTION('',(0.,-2.22044604925E-16,1.));
#206 = DIRECTION('',(1.,0.,0.));
#207 = ADVANCED_FACE('',(#208),#233,.T.);
#208 = FACE_BOUND('',#209,.T.);
#209 = EDGE_LOOP('',(#210,#211,#219,#227));
#210 = ORIENTED_EDGE('',*,*,#189,.T.);
#211 = ORIENTED_EDGE('',*,*,#212,.T.);
#212 = EDGE_CURVE('',#182,#213,#215,.T.);
#213 = VERTEX_POINT('',#214);
#214 = CARTESIAN_POINT('',(2.1463,-1.2446,0.662));
#215 = LINE('',#216,#217);
#216 = CARTESIAN_POINT('',(2.1463,-1.2446,0.762));
#217 = VECTOR('',#218,1.);
#218 = DIRECTION('',(0.,2.22044604925E-16,-1.));
#219 = ORIENTED_EDGE('',*,*,#220,.F.);
#220 = EDGE_CURVE('',#221,#213,#223,.T.);
#221 = VERTEX_POINT('',#222);
#222 = CARTESIAN_POINT('',(2.1463,1.2446,0.662));
#223 = LINE('',#224,#225);
#224 = CARTESIAN_POINT('',(2.1463,1.2446,0.662));
#225 = VECTOR('',#226,1.);
#226 = DIRECTION('',(0.,-1.,-2.22044604925E-16));
#227 = ORIENTED_EDGE('',*,*,#228,.F.);
#228 = EDGE_CURVE('',#190,#221,#229,.T.);
#229 = LINE('',#230,#231);
#230 = CARTESIAN_POINT('',(2.1463,1.2446,0.762));
#231 = VECTOR('',#232,1.);
#232 = DIRECTION('',(0.,2.22044604925E-16,-1.));
#233 = PLANE('',#234);
#234 = AXIS2_PLACEMENT_3D('',#235,#236,#237);
#235 = CARTESIAN_POINT('',(2.1463,1.2446,0.762));
#236 = DIRECTION('',(1.,0.,0.));
#237 = DIRECTION('',(0.,2.22044604925E-16,-1.));
#238 = ADVANCED_FACE('',(#239),#264,.T.);
#239 = FACE_BOUND('',#240,.T.);
#240 = EDGE_LOOP('',(#241,#242,#250,#258));
#241 = ORIENTED_EDGE('',*,*,#220,.T.);
#242 = ORIENTED_EDGE('',*,*,#243,.T.);
#243 = EDGE_CURVE('',#213,#244,#246,.T.);
#244 = VERTEX_POINT('',#245);
#245 = CARTESIAN_POINT('',(-2.1463,-1.2446,0.662));
#246 = LINE('',#247,#248);
#247 = CARTESIAN_POINT('',(2.1463,-1.2446,0.662));
#248 = VECTOR('',#249,1.);
#249 = DIRECTION('',(-1.,0.,0.));
#250 = ORIENTED_EDGE('',*,*,#251,.F.);
#251 = EDGE_CURVE('',#252,#244,#254,.T.);
#252 = VERTEX_POINT('',#253);
#253 = CARTESIAN_POINT('',(-2.1463,1.2446,0.662));
#254 = LINE('',#255,#256);
#255 = CARTESIAN_POINT('',(-2.1463,1.2446,0.662));
#256 = VECTOR('',#257,1.);
#257 = DIRECTION('',(0.,-1.,-2.22044604925E-16));
#258 = ORIENTED_EDGE('',*,*,#259,.F.);
#259 = EDGE_CURVE('',#221,#252,#260,.T.);
#260 = LINE('',#261,#262);
#261 = CARTESIAN_POINT('',(2.1463,1.2446,0.662));
#262 = VECTOR('',#263,1.);
#263 = DIRECTION('',(-1.,0.,0.));
#264 = PLANE('',#265);
#265 = AXIS2_PLACEMENT_3D('',#266,#267,#268);
#266 = CARTESIAN_POINT('',(2.1463,1.2446,0.662));
#267 = DIRECTION('',(0.,2.22044604925E-16,-1.));
#268 = DIRECTION('',(-1.,0.,0.));
#269 = ADVANCED_FACE('',(#270),#286,.T.);
#270 = FACE_BOUND('',#271,.T.);
#271 = EDGE_LOOP('',(#272,#273,#279,#280));
#272 = ORIENTED_EDGE('',*,*,#251,.T.);
#273 = ORIENTED_EDGE('',*,*,#274,.T.);
#274 = EDGE_CURVE('',#244,#174,#275,.T.);
#275 = LINE('',#276,#277);
#276 = CARTESIAN_POINT('',(-2.1463,-1.2446,0.662));
#277 = VECTOR('',#278,1.);
#278 = DIRECTION('',(0.,-2.22044604925E-16,1.));
#279 = ORIENTED_EDGE('',*,*,#171,.F.);
#280 = ORIENTED_EDGE('',*,*,#281,.F.);
#281 = EDGE_CURVE('',#252,#172,#282,.T.);
#282 = LINE('',#283,#284);
#283 = CARTESIAN_POINT('',(-2.1463,1.2446,0.662));
#284 = VECTOR('',#285,1.);
#285 = DIRECTION('',(0.,-2.22044604925E-16,1.));
#286 = PLANE('',#287);
#287 = AXIS2_PLACEMENT_3D('',#288,#289,#290);
#288 = CARTESIAN_POINT('',(-2.1463,1.2446,0.662));
#289 = DIRECTION('',(-1.,0.,0.));
#290 = DIRECTION('',(0.,-2.22044604925E-16,1.));
#291 = ADVANCED_FACE('',(#292),#298,.T.);
#292 = FACE_BOUND('',#293,.T.);
#293 = EDGE_LOOP('',(#294,#295,#296,#297));
#294 = ORIENTED_EDGE('',*,*,#197,.T.);
#295 = ORIENTED_EDGE('',*,*,#228,.T.);
#296 = ORIENTED_EDGE('',*,*,#259,.T.);
#297 = ORIENTED_EDGE('',*,*,#281,.T.);
#298 = PLANE('',#299);
#299 = AXIS2_PLACEMENT_3D('',#300,#301,#302);
#300 = CARTESIAN_POINT('',(-3.475291760824E-17,1.2446,0.712));
#301 = DIRECTION('',(1.069105884037E-50,1.,2.22044604925E-16));
#302 = DIRECTION('',(0.,-2.22044604925E-16,1.));
#303 = ADVANCED_FACE('',(#304),#310,.F.);
#304 = FACE_BOUND('',#305,.F.);
#305 = EDGE_LOOP('',(#306,#307,#308,#309));
#306 = ORIENTED_EDGE('',*,*,#181,.T.);
#307 = ORIENTED_EDGE('',*,*,#212,.T.);
#308 = ORIENTED_EDGE('',*,*,#243,.T.);
#309 = ORIENTED_EDGE('',*,*,#274,.T.);
#310 = PLANE('',#311);
#311 = AXIS2_PLACEMENT_3D('',#312,#313,#314);
#312 = CARTESIAN_POINT('',(-3.475291760824E-17,-1.2446,0.712));
#313 = DIRECTION('',(1.069105884037E-50,1.,2.22044604925E-16));
#314 = DIRECTION('',(0.,-2.22044604925E-16,1.));
#315 = MANIFOLD_SOLID_BREP('',#316);
#316 = CLOSED_SHELL('',(#317,#357,#388,#419,#450,#481,#512,#543,#565,
    #581));
#317 = ADVANCED_FACE('',(#318),#352,.T.);
#318 = FACE_BOUND('',#319,.F.);
#319 = EDGE_LOOP('',(#320,#330,#338,#346));
#320 = ORIENTED_EDGE('',*,*,#321,.T.);
#321 = EDGE_CURVE('',#322,#324,#326,.T.);
#322 = VERTEX_POINT('',#323);
#323 = CARTESIAN_POINT('',(2.1463,1.2446,0.1));
#324 = VERTEX_POINT('',#325);
#325 = CARTESIAN_POINT('',(2.1463,-1.2446,1.E-01));
#326 = LINE('',#327,#328);
#327 = CARTESIAN_POINT('',(2.1463,1.2446,0.1));
#328 = VECTOR('',#329,1.);
#329 = DIRECTION('',(-0.,-1.,-2.22044604925E-16));
#330 = ORIENTED_EDGE('',*,*,#331,.T.);
#331 = EDGE_CURVE('',#324,#332,#334,.T.);
#332 = VERTEX_POINT('',#333);
#333 = CARTESIAN_POINT('',(2.1463,-1.2446,-2.765635690337E-16));
#334 = LINE('',#335,#336);
#335 = CARTESIAN_POINT('',(2.1463,-1.2446,1.E-01));
#336 = VECTOR('',#337,1.);
#337 = DIRECTION('',(0.,2.22044604925E-16,-1.));
#338 = ORIENTED_EDGE('',*,*,#339,.F.);
#339 = EDGE_CURVE('',#340,#332,#342,.T.);
#340 = VERTEX_POINT('',#341);
#341 = CARTESIAN_POINT('',(2.1463,1.2446,2.761498615457E-16));
#342 = LINE('',#343,#344);
#343 = CARTESIAN_POINT('',(2.1463,1.2446,2.761498615457E-16));
#344 = VECTOR('',#345,1.);
#345 = DIRECTION('',(-0.,-1.,-2.22044604925E-16));
#346 = ORIENTED_EDGE('',*,*,#347,.F.);
#347 = EDGE_CURVE('',#322,#340,#348,.T.);
#348 = LINE('',#349,#350);
#349 = CARTESIAN_POINT('',(2.1463,1.2446,0.1));
#350 = VECTOR('',#351,1.);
#351 = DIRECTION('',(0.,2.22044604925E-16,-1.));
#352 = PLANE('',#353);
#353 = AXIS2_PLACEMENT_3D('',#354,#355,#356);
#354 = CARTESIAN_POINT('',(2.1463,1.2446,0.1));
#355 = DIRECTION('',(-1.,-0.,-0.));
#356 = DIRECTION('',(0.,-2.22044604925E-16,1.));
#357 = ADVANCED_FACE('',(#358),#383,.T.);
#358 = FACE_BOUND('',#359,.F.);
#359 = EDGE_LOOP('',(#360,#361,#369,#377));
#360 = ORIENTED_EDGE('',*,*,#339,.T.);
#361 = ORIENTED_EDGE('',*,*,#362,.T.);
#362 = EDGE_CURVE('',#332,#363,#365,.T.);
#363 = VERTEX_POINT('',#364);
#364 = CARTESIAN_POINT('',(2.6543,-1.2446,-2.767704171264E-16));
#365 = LINE('',#366,#367);
#366 = CARTESIAN_POINT('',(2.1463,-1.2446,-2.22044604925E-16));
#367 = VECTOR('',#368,1.);
#368 = DIRECTION('',(1.,0.,0.));
#369 = ORIENTED_EDGE('',*,*,#370,.F.);
#370 = EDGE_CURVE('',#371,#363,#373,.T.);
#371 = VERTEX_POINT('',#372);
#372 = CARTESIAN_POINT('',(2.6543,1.2446,2.75943013453E-16));
#373 = LINE('',#374,#375);
#374 = CARTESIAN_POINT('',(2.6543,1.2446,2.75943013453E-16));
#375 = VECTOR('',#376,1.);
#376 = DIRECTION('',(-0.,-1.,-2.22044604925E-16));
#377 = ORIENTED_EDGE('',*,*,#378,.F.);
#378 = EDGE_CURVE('',#340,#371,#379,.T.);
#379 = LINE('',#380,#381);
#380 = CARTESIAN_POINT('',(2.1463,1.2446,2.22044604925E-16));
#381 = VECTOR('',#382,1.);
#382 = DIRECTION('',(1.,0.,0.));
#383 = PLANE('',#384);
#384 = AXIS2_PLACEMENT_3D('',#385,#386,#387);
#385 = CARTESIAN_POINT('',(2.1463,1.2446,2.75943013453E-16));
#386 = DIRECTION('',(0.,2.22044604925E-16,-1.));
#387 = DIRECTION('',(-1.,0.,0.));
#388 = ADVANCED_FACE('',(#389),#414,.T.);
#389 = FACE_BOUND('',#390,.F.);
#390 = EDGE_LOOP('',(#391,#392,#400,#408));
#391 = ORIENTED_EDGE('',*,*,#370,.T.);
#392 = ORIENTED_EDGE('',*,*,#393,.T.);
#393 = EDGE_CURVE('',#363,#394,#396,.T.);
#394 = VERTEX_POINT('',#395);
#395 = CARTESIAN_POINT('',(2.6543,-1.2446,0.762));
#396 = LINE('',#397,#398);
#397 = CARTESIAN_POINT('',(2.6543,-1.2446,-2.22044604925E-16));
#398 = VECTOR('',#399,1.);
#399 = DIRECTION('',(0.,-2.22044604925E-16,1.));
#400 = ORIENTED_EDGE('',*,*,#401,.F.);
#401 = EDGE_CURVE('',#402,#394,#404,.T.);
#402 = VERTEX_POINT('',#403);
#403 = CARTESIAN_POINT('',(2.6543,1.2446,0.762));
#404 = LINE('',#405,#406);
#405 = CARTESIAN_POINT('',(2.6543,1.2446,0.762));
#406 = VECTOR('',#407,1.);
#407 = DIRECTION('',(-0.,-1.,-2.22044604925E-16));
#408 = ORIENTED_EDGE('',*,*,#409,.F.);
#409 = EDGE_CURVE('',#371,#402,#410,.T.);
#410 = LINE('',#411,#412);
#411 = CARTESIAN_POINT('',(2.6543,1.2446,2.22044604925E-16));
#412 = VECTOR('',#413,1.);
#413 = DIRECTION('',(0.,-2.22044604925E-16,1.));
#414 = PLANE('',#415);
#415 = AXIS2_PLACEMENT_3D('',#416,#417,#418);
#416 = CARTESIAN_POINT('',(2.6543,1.2446,2.75943013453E-16));
#417 = DIRECTION('',(1.,0.,0.));
#418 = DIRECTION('',(0.,2.22044604925E-16,-1.));
#419 = ADVANCED_FACE('',(#420),#445,.T.);
#420 = FACE_BOUND('',#421,.F.);
#421 = EDGE_LOOP('',(#422,#423,#431,#439));
#422 = ORIENTED_EDGE('',*,*,#401,.T.);
#423 = ORIENTED_EDGE('',*,*,#424,.T.);
#424 = EDGE_CURVE('',#394,#425,#427,.T.);
#425 = VERTEX_POINT('',#426);
#426 = CARTESIAN_POINT('',(2.1463,-1.2446,0.762));
#427 = LINE('',#428,#429);
#428 = CARTESIAN_POINT('',(2.6543,-1.2446,0.762));
#429 = VECTOR('',#430,1.);
#430 = DIRECTION('',(-1.,-0.,-0.));
#431 = ORIENTED_EDGE('',*,*,#432,.F.);
#432 = EDGE_CURVE('',#433,#425,#435,.T.);
#433 = VERTEX_POINT('',#434);
#434 = CARTESIAN_POINT('',(2.1463,1.2446,0.762));
#435 = LINE('',#436,#437);
#436 = CARTESIAN_POINT('',(2.1463,1.2446,0.762));
#437 = VECTOR('',#438,1.);
#438 = DIRECTION('',(-0.,-1.,-2.22044604925E-16));
#439 = ORIENTED_EDGE('',*,*,#440,.F.);
#440 = EDGE_CURVE('',#402,#433,#441,.T.);
#441 = LINE('',#442,#443);
#442 = CARTESIAN_POINT('',(2.6543,1.2446,0.762));
#443 = VECTOR('',#444,1.);
#444 = DIRECTION('',(-1.,-0.,-0.));
#445 = PLANE('',#446);
#446 = AXIS2_PLACEMENT_3D('',#447,#448,#449);
#447 = CARTESIAN_POINT('',(2.6543,1.2446,0.762));
#448 = DIRECTION('',(0.,-2.22044604925E-16,1.));
#449 = DIRECTION('',(1.,0.,0.));
#450 = ADVANCED_FACE('',(#451),#476,.T.);
#451 = FACE_BOUND('',#452,.F.);
#452 = EDGE_LOOP('',(#453,#454,#462,#470));
#453 = ORIENTED_EDGE('',*,*,#432,.T.);
#454 = ORIENTED_EDGE('',*,*,#455,.T.);
#455 = EDGE_CURVE('',#425,#456,#458,.T.);
#456 = VERTEX_POINT('',#457);
#457 = CARTESIAN_POINT('',(2.1463,-1.2446,0.662));
#458 = LINE('',#459,#460);
#459 = CARTESIAN_POINT('',(2.1463,-1.2446,0.762));
#460 = VECTOR('',#461,1.);
#461 = DIRECTION('',(0.,2.22044604925E-16,-1.));
#462 = ORIENTED_EDGE('',*,*,#463,.F.);
#463 = EDGE_CURVE('',#464,#456,#466,.T.);
#464 = VERTEX_POINT('',#465);
#465 = CARTESIAN_POINT('',(2.1463,1.2446,0.662));
#466 = LINE('',#467,#468);
#467 = CARTESIAN_POINT('',(2.1463,1.2446,0.662));
#468 = VECTOR('',#469,1.);
#469 = DIRECTION('',(-0.,-1.,-2.22044604925E-16));
#470 = ORIENTED_EDGE('',*,*,#471,.F.);
#471 = EDGE_CURVE('',#433,#464,#472,.T.);
#472 = LINE('',#473,#474);
#473 = CARTESIAN_POINT('',(2.1463,1.2446,0.762));
#474 = VECTOR('',#475,1.);
#475 = DIRECTION('',(0.,2.22044604925E-16,-1.));
#476 = PLANE('',#477);
#477 = AXIS2_PLACEMENT_3D('',#478,#479,#480);
#478 = CARTESIAN_POINT('',(2.1463,1.2446,0.762));
#479 = DIRECTION('',(-1.,-0.,-0.));
#480 = DIRECTION('',(0.,-2.22044604925E-16,1.));
#481 = ADVANCED_FACE('',(#482),#507,.T.);
#482 = FACE_BOUND('',#483,.F.);
#483 = EDGE_LOOP('',(#484,#485,#493,#501));
#484 = ORIENTED_EDGE('',*,*,#463,.T.);
#485 = ORIENTED_EDGE('',*,*,#486,.T.);
#486 = EDGE_CURVE('',#456,#487,#489,.T.);
#487 = VERTEX_POINT('',#488);
#488 = CARTESIAN_POINT('',(2.5543,-1.2446,0.662));
#489 = LINE('',#490,#491);
#490 = CARTESIAN_POINT('',(2.1463,-1.2446,0.662));
#491 = VECTOR('',#492,1.);
#492 = DIRECTION('',(1.,0.,0.));
#493 = ORIENTED_EDGE('',*,*,#494,.F.);
#494 = EDGE_CURVE('',#495,#487,#497,.T.);
#495 = VERTEX_POINT('',#496);
#496 = CARTESIAN_POINT('',(2.5543,1.2446,0.662));
#497 = LINE('',#498,#499);
#498 = CARTESIAN_POINT('',(2.5543,1.2446,0.662));
#499 = VECTOR('',#500,1.);
#500 = DIRECTION('',(-0.,-1.,-2.22044604925E-16));
#501 = ORIENTED_EDGE('',*,*,#502,.F.);
#502 = EDGE_CURVE('',#464,#495,#503,.T.);
#503 = LINE('',#504,#505);
#504 = CARTESIAN_POINT('',(2.1463,1.2446,0.662));
#505 = VECTOR('',#506,1.);
#506 = DIRECTION('',(1.,0.,0.));
#507 = PLANE('',#508);
#508 = AXIS2_PLACEMENT_3D('',#509,#510,#511);
#509 = CARTESIAN_POINT('',(2.1463,1.2446,0.662));
#510 = DIRECTION('',(0.,2.22044604925E-16,-1.));
#511 = DIRECTION('',(-1.,0.,0.));
#512 = ADVANCED_FACE('',(#513),#538,.T.);
#513 = FACE_BOUND('',#514,.F.);
#514 = EDGE_LOOP('',(#515,#516,#524,#532));
#515 = ORIENTED_EDGE('',*,*,#494,.T.);
#516 = ORIENTED_EDGE('',*,*,#517,.T.);
#517 = EDGE_CURVE('',#487,#518,#520,.T.);
#518 = VERTEX_POINT('',#519);
#519 = CARTESIAN_POINT('',(2.5543,-1.2446,1.E-01));
#520 = LINE('',#521,#522);
#521 = CARTESIAN_POINT('',(2.5543,-1.2446,0.662));
#522 = VECTOR('',#523,1.);
#523 = DIRECTION('',(0.,2.22044604925E-16,-1.));
#524 = ORIENTED_EDGE('',*,*,#525,.F.);
#525 = EDGE_CURVE('',#526,#518,#528,.T.);
#526 = VERTEX_POINT('',#527);
#527 = CARTESIAN_POINT('',(2.5543,1.2446,0.1));
#528 = LINE('',#529,#530);
#529 = CARTESIAN_POINT('',(2.5543,1.2446,0.1));
#530 = VECTOR('',#531,1.);
#531 = DIRECTION('',(-0.,-1.,-2.22044604925E-16));
#532 = ORIENTED_EDGE('',*,*,#533,.F.);
#533 = EDGE_CURVE('',#495,#526,#534,.T.);
#534 = LINE('',#535,#536);
#535 = CARTESIAN_POINT('',(2.5543,1.2446,0.662));
#536 = VECTOR('',#537,1.);
#537 = DIRECTION('',(0.,2.22044604925E-16,-1.));
#538 = PLANE('',#539);
#539 = AXIS2_PLACEMENT_3D('',#540,#541,#542);
#540 = CARTESIAN_POINT('',(2.5543,1.2446,0.662));
#541 = DIRECTION('',(-1.,-0.,-0.));
#542 = DIRECTION('',(0.,-2.22044604925E-16,1.));
#543 = ADVANCED_FACE('',(#544),#560,.T.);
#544 = FACE_BOUND('',#545,.F.);
#545 = EDGE_LOOP('',(#546,#547,#553,#554));
#546 = ORIENTED_EDGE('',*,*,#525,.T.);
#547 = ORIENTED_EDGE('',*,*,#548,.T.);
#548 = EDGE_CURVE('',#518,#324,#549,.T.);
#549 = LINE('',#550,#551);
#550 = CARTESIAN_POINT('',(2.5543,-1.2446,1.E-01));
#551 = VECTOR('',#552,1.);
#552 = DIRECTION('',(-1.,-0.,-0.));
#553 = ORIENTED_EDGE('',*,*,#321,.F.);
#554 = ORIENTED_EDGE('',*,*,#555,.F.);
#555 = EDGE_CURVE('',#526,#322,#556,.T.);
#556 = LINE('',#557,#558);
#557 = CARTESIAN_POINT('',(2.5543,1.2446,0.1));
#558 = VECTOR('',#559,1.);
#559 = DIRECTION('',(-1.,-0.,-0.));
#560 = PLANE('',#561);
#561 = AXIS2_PLACEMENT_3D('',#562,#563,#564);
#562 = CARTESIAN_POINT('',(2.5543,1.2446,0.1));
#563 = DIRECTION('',(0.,-2.22044604925E-16,1.));
#564 = DIRECTION('',(1.,0.,0.));
#565 = ADVANCED_FACE('',(#566),#576,.T.);
#566 = FACE_BOUND('',#567,.F.);
#567 = EDGE_LOOP('',(#568,#569,#570,#571,#572,#573,#574,#575));
#568 = ORIENTED_EDGE('',*,*,#347,.T.);
#569 = ORIENTED_EDGE('',*,*,#378,.T.);
#570 = ORIENTED_EDGE('',*,*,#409,.T.);
#571 = ORIENTED_EDGE('',*,*,#440,.T.);
#572 = ORIENTED_EDGE('',*,*,#471,.T.);
#573 = ORIENTED_EDGE('',*,*,#502,.T.);
#574 = ORIENTED_EDGE('',*,*,#533,.T.);
#575 = ORIENTED_EDGE('',*,*,#555,.T.);
#576 = PLANE('',#577);
#577 = AXIS2_PLACEMENT_3D('',#578,#579,#580);
#578 = CARTESIAN_POINT('',(2.456466865316,1.2446,0.381));
#579 = DIRECTION('',(-7.79806479414E-99,1.,2.22044604925E-16));
#580 = DIRECTION('',(0.,2.22044604925E-16,-1.));
#581 = ADVANCED_FACE('',(#582),#592,.F.);
#582 = FACE_BOUND('',#583,.T.);
#583 = EDGE_LOOP('',(#584,#585,#586,#587,#588,#589,#590,#591));
#584 = ORIENTED_EDGE('',*,*,#331,.T.);
#585 = ORIENTED_EDGE('',*,*,#362,.T.);
#586 = ORIENTED_EDGE('',*,*,#393,.T.);
#587 = ORIENTED_EDGE('',*,*,#424,.T.);
#588 = ORIENTED_EDGE('',*,*,#455,.T.);
#589 = ORIENTED_EDGE('',*,*,#486,.T.);
#590 = ORIENTED_EDGE('',*,*,#517,.T.);
#591 = ORIENTED_EDGE('',*,*,#548,.T.);
#592 = PLANE('',#593);
#593 = AXIS2_PLACEMENT_3D('',#594,#595,#596);
#594 = CARTESIAN_POINT('',(2.456466865316,-1.2446,0.381));
#595 = DIRECTION('',(-7.79806479414E-99,1.,2.22044604925E-16));
#596 = DIRECTION('',(0.,2.22044604925E-16,-1.));
#597 = MANIFOLD_SOLID_BREP('',#598);
#598 = CLOSED_SHELL('',(#599,#639,#670,#701,#732,#763,#794,#825,#847,
    #863));
#599 = ADVANCED_FACE('',(#600),#634,.T.);
#600 = FACE_BOUND('',#601,.T.);
#601 = EDGE_LOOP('',(#602,#612,#620,#628));
#602 = ORIENTED_EDGE('',*,*,#603,.T.);
#603 = EDGE_CURVE('',#604,#606,#608,.T.);
#604 = VERTEX_POINT('',#605);
#605 = CARTESIAN_POINT('',(-2.1463,1.2446,0.1));
#606 = VERTEX_POINT('',#607);
#607 = CARTESIAN_POINT('',(-2.1463,-1.2446,1.E-01));
#608 = LINE('',#609,#610);
#609 = CARTESIAN_POINT('',(-2.1463,1.2446,0.1));
#610 = VECTOR('',#611,1.);
#611 = DIRECTION('',(0.,-1.,-2.22044604925E-16));
#612 = ORIENTED_EDGE('',*,*,#613,.T.);
#613 = EDGE_CURVE('',#606,#614,#616,.T.);
#614 = VERTEX_POINT('',#615);
#615 = CARTESIAN_POINT('',(-2.1463,-1.2446,-2.765635690337E-16));
#616 = LINE('',#617,#618);
#617 = CARTESIAN_POINT('',(-2.1463,-1.2446,1.E-01));
#618 = VECTOR('',#619,1.);
#619 = DIRECTION('',(0.,2.22044604925E-16,-1.));
#620 = ORIENTED_EDGE('',*,*,#621,.F.);
#621 = EDGE_CURVE('',#622,#614,#624,.T.);
#622 = VERTEX_POINT('',#623);
#623 = CARTESIAN_POINT('',(-2.1463,1.2446,2.761498615457E-16));
#624 = LINE('',#625,#626);
#625 = CARTESIAN_POINT('',(-2.1463,1.2446,2.761498615457E-16));
#626 = VECTOR('',#627,1.);
#627 = DIRECTION('',(0.,-1.,-2.22044604925E-16));
#628 = ORIENTED_EDGE('',*,*,#629,.F.);
#629 = EDGE_CURVE('',#604,#622,#630,.T.);
#630 = LINE('',#631,#632);
#631 = CARTESIAN_POINT('',(-2.1463,1.2446,0.1));
#632 = VECTOR('',#633,1.);
#633 = DIRECTION('',(0.,2.22044604925E-16,-1.));
#634 = PLANE('',#635);
#635 = AXIS2_PLACEMENT_3D('',#636,#637,#638);
#636 = CARTESIAN_POINT('',(-2.1463,1.2446,0.1));
#637 = DIRECTION('',(1.,0.,0.));
#638 = DIRECTION('',(0.,2.22044604925E-16,-1.));
#639 = ADVANCED_FACE('',(#640),#665,.T.);
#640 = FACE_BOUND('',#641,.T.);
#641 = EDGE_LOOP('',(#642,#643,#651,#659));
#642 = ORIENTED_EDGE('',*,*,#621,.T.);
#643 = ORIENTED_EDGE('',*,*,#644,.T.);
#644 = EDGE_CURVE('',#614,#645,#647,.T.);
#645 = VERTEX_POINT('',#646);
#646 = CARTESIAN_POINT('',(-2.6543,-1.2446,-2.767704171264E-16));
#647 = LINE('',#648,#649);
#648 = CARTESIAN_POINT('',(-2.1463,-1.2446,-2.22044604925E-16));
#649 = VECTOR('',#650,1.);
#650 = DIRECTION('',(-1.,0.,0.));
#651 = ORIENTED_EDGE('',*,*,#652,.F.);
#652 = EDGE_CURVE('',#653,#645,#655,.T.);
#653 = VERTEX_POINT('',#654);
#654 = CARTESIAN_POINT('',(-2.6543,1.2446,2.75943013453E-16));
#655 = LINE('',#656,#657);
#656 = CARTESIAN_POINT('',(-2.6543,1.2446,2.75943013453E-16));
#657 = VECTOR('',#658,1.);
#658 = DIRECTION('',(0.,-1.,-2.22044604925E-16));
#659 = ORIENTED_EDGE('',*,*,#660,.F.);
#660 = EDGE_CURVE('',#622,#653,#661,.T.);
#661 = LINE('',#662,#663);
#662 = CARTESIAN_POINT('',(-2.1463,1.2446,2.22044604925E-16));
#663 = VECTOR('',#664,1.);
#664 = DIRECTION('',(-1.,0.,0.));
#665 = PLANE('',#666);
#666 = AXIS2_PLACEMENT_3D('',#667,#668,#669);
#667 = CARTESIAN_POINT('',(-2.1463,1.2446,2.75943013453E-16));
#668 = DIRECTION('',(0.,2.22044604925E-16,-1.));
#669 = DIRECTION('',(-1.,0.,0.));
#670 = ADVANCED_FACE('',(#671),#696,.T.);
#671 = FACE_BOUND('',#672,.T.);
#672 = EDGE_LOOP('',(#673,#674,#682,#690));
#673 = ORIENTED_EDGE('',*,*,#652,.T.);
#674 = ORIENTED_EDGE('',*,*,#675,.T.);
#675 = EDGE_CURVE('',#645,#676,#678,.T.);
#676 = VERTEX_POINT('',#677);
#677 = CARTESIAN_POINT('',(-2.6543,-1.2446,0.762));
#678 = LINE('',#679,#680);
#679 = CARTESIAN_POINT('',(-2.6543,-1.2446,-2.22044604925E-16));
#680 = VECTOR('',#681,1.);
#681 = DIRECTION('',(0.,-2.22044604925E-16,1.));
#682 = ORIENTED_EDGE('',*,*,#683,.F.);
#683 = EDGE_CURVE('',#684,#676,#686,.T.);
#684 = VERTEX_POINT('',#685);
#685 = CARTESIAN_POINT('',(-2.6543,1.2446,0.762));
#686 = LINE('',#687,#688);
#687 = CARTESIAN_POINT('',(-2.6543,1.2446,0.762));
#688 = VECTOR('',#689,1.);
#689 = DIRECTION('',(0.,-1.,-2.22044604925E-16));
#690 = ORIENTED_EDGE('',*,*,#691,.F.);
#691 = EDGE_CURVE('',#653,#684,#692,.T.);
#692 = LINE('',#693,#694);
#693 = CARTESIAN_POINT('',(-2.6543,1.2446,2.22044604925E-16));
#694 = VECTOR('',#695,1.);
#695 = DIRECTION('',(0.,-2.22044604925E-16,1.));
#696 = PLANE('',#697);
#697 = AXIS2_PLACEMENT_3D('',#698,#699,#700);
#698 = CARTESIAN_POINT('',(-2.6543,1.2446,2.75943013453E-16));
#699 = DIRECTION('',(-1.,0.,0.));
#700 = DIRECTION('',(0.,-2.22044604925E-16,1.));
#701 = ADVANCED_FACE('',(#702),#727,.T.);
#702 = FACE_BOUND('',#703,.T.);
#703 = EDGE_LOOP('',(#704,#705,#713,#721));
#704 = ORIENTED_EDGE('',*,*,#683,.T.);
#705 = ORIENTED_EDGE('',*,*,#706,.T.);
#706 = EDGE_CURVE('',#676,#707,#709,.T.);
#707 = VERTEX_POINT('',#708);
#708 = CARTESIAN_POINT('',(-2.1463,-1.2446,0.762));
#709 = LINE('',#710,#711);
#710 = CARTESIAN_POINT('',(-2.6543,-1.2446,0.762));
#711 = VECTOR('',#712,1.);
#712 = DIRECTION('',(1.,0.,0.));
#713 = ORIENTED_EDGE('',*,*,#714,.F.);
#714 = EDGE_CURVE('',#715,#707,#717,.T.);
#715 = VERTEX_POINT('',#716);
#716 = CARTESIAN_POINT('',(-2.1463,1.2446,0.762));
#717 = LINE('',#718,#719);
#718 = CARTESIAN_POINT('',(-2.1463,1.2446,0.762));
#719 = VECTOR('',#720,1.);
#720 = DIRECTION('',(0.,-1.,-2.22044604925E-16));
#721 = ORIENTED_EDGE('',*,*,#722,.F.);
#722 = EDGE_CURVE('',#684,#715,#723,.T.);
#723 = LINE('',#724,#725);
#724 = CARTESIAN_POINT('',(-2.6543,1.2446,0.762));
#725 = VECTOR('',#726,1.);
#726 = DIRECTION('',(1.,0.,0.));
#727 = PLANE('',#728);
#728 = AXIS2_PLACEMENT_3D('',#729,#730,#731);
#729 = CARTESIAN_POINT('',(-2.6543,1.2446,0.762));
#730 = DIRECTION('',(0.,-2.22044604925E-16,1.));
#731 = DIRECTION('',(1.,0.,0.));
#732 = ADVANCED_FACE('',(#733),#758,.T.);
#733 = FACE_BOUND('',#734,.T.);
#734 = EDGE_LOOP('',(#735,#736,#744,#752));
#735 = ORIENTED_EDGE('',*,*,#714,.T.);
#736 = ORIENTED_EDGE('',*,*,#737,.T.);
#737 = EDGE_CURVE('',#707,#738,#740,.T.);
#738 = VERTEX_POINT('',#739);
#739 = CARTESIAN_POINT('',(-2.1463,-1.2446,0.662));
#740 = LINE('',#741,#742);
#741 = CARTESIAN_POINT('',(-2.1463,-1.2446,0.762));
#742 = VECTOR('',#743,1.);
#743 = DIRECTION('',(0.,2.22044604925E-16,-1.));
#744 = ORIENTED_EDGE('',*,*,#745,.F.);
#745 = EDGE_CURVE('',#746,#738,#748,.T.);
#746 = VERTEX_POINT('',#747);
#747 = CARTESIAN_POINT('',(-2.1463,1.2446,0.662));
#748 = LINE('',#749,#750);
#749 = CARTESIAN_POINT('',(-2.1463,1.2446,0.662));
#750 = VECTOR('',#751,1.);
#751 = DIRECTION('',(0.,-1.,-2.22044604925E-16));
#752 = ORIENTED_EDGE('',*,*,#753,.F.);
#753 = EDGE_CURVE('',#715,#746,#754,.T.);
#754 = LINE('',#755,#756);
#755 = CARTESIAN_POINT('',(-2.1463,1.2446,0.762));
#756 = VECTOR('',#757,1.);
#757 = DIRECTION('',(0.,2.22044604925E-16,-1.));
#758 = PLANE('',#759);
#759 = AXIS2_PLACEMENT_3D('',#760,#761,#762);
#760 = CARTESIAN_POINT('',(-2.1463,1.2446,0.762));
#761 = DIRECTION('',(1.,0.,0.));
#762 = DIRECTION('',(0.,2.22044604925E-16,-1.));
#763 = ADVANCED_FACE('',(#764),#789,.T.);
#764 = FACE_BOUND('',#765,.T.);
#765 = EDGE_LOOP('',(#766,#767,#775,#783));
#766 = ORIENTED_EDGE('',*,*,#745,.T.);
#767 = ORIENTED_EDGE('',*,*,#768,.T.);
#768 = EDGE_CURVE('',#738,#769,#771,.T.);
#769 = VERTEX_POINT('',#770);
#770 = CARTESIAN_POINT('',(-2.5543,-1.2446,0.662));
#771 = LINE('',#772,#773);
#772 = CARTESIAN_POINT('',(-2.1463,-1.2446,0.662));
#773 = VECTOR('',#774,1.);
#774 = DIRECTION('',(-1.,0.,0.));
#775 = ORIENTED_EDGE('',*,*,#776,.F.);
#776 = EDGE_CURVE('',#777,#769,#779,.T.);
#777 = VERTEX_POINT('',#778);
#778 = CARTESIAN_POINT('',(-2.5543,1.2446,0.662));
#779 = LINE('',#780,#781);
#780 = CARTESIAN_POINT('',(-2.5543,1.2446,0.662));
#781 = VECTOR('',#782,1.);
#782 = DIRECTION('',(0.,-1.,-2.22044604925E-16));
#783 = ORIENTED_EDGE('',*,*,#784,.F.);
#784 = EDGE_CURVE('',#746,#777,#785,.T.);
#785 = LINE('',#786,#787);
#786 = CARTESIAN_POINT('',(-2.1463,1.2446,0.662));
#787 = VECTOR('',#788,1.);
#788 = DIRECTION('',(-1.,0.,0.));
#789 = PLANE('',#790);
#790 = AXIS2_PLACEMENT_3D('',#791,#792,#793);
#791 = CARTESIAN_POINT('',(-2.1463,1.2446,0.662));
#792 = DIRECTION('',(0.,2.22044604925E-16,-1.));
#793 = DIRECTION('',(-1.,0.,0.));
#794 = ADVANCED_FACE('',(#795),#820,.T.);
#795 = FACE_BOUND('',#796,.T.);
#796 = EDGE_LOOP('',(#797,#798,#806,#814));
#797 = ORIENTED_EDGE('',*,*,#776,.T.);
#798 = ORIENTED_EDGE('',*,*,#799,.T.);
#799 = EDGE_CURVE('',#769,#800,#802,.T.);
#800 = VERTEX_POINT('',#801);
#801 = CARTESIAN_POINT('',(-2.5543,-1.2446,1.E-01));
#802 = LINE('',#803,#804);
#803 = CARTESIAN_POINT('',(-2.5543,-1.2446,0.662));
#804 = VECTOR('',#805,1.);
#805 = DIRECTION('',(0.,2.22044604925E-16,-1.));
#806 = ORIENTED_EDGE('',*,*,#807,.F.);
#807 = EDGE_CURVE('',#808,#800,#810,.T.);
#808 = VERTEX_POINT('',#809);
#809 = CARTESIAN_POINT('',(-2.5543,1.2446,0.1));
#810 = LINE('',#811,#812);
#811 = CARTESIAN_POINT('',(-2.5543,1.2446,0.1));
#812 = VECTOR('',#813,1.);
#813 = DIRECTION('',(0.,-1.,-2.22044604925E-16));
#814 = ORIENTED_EDGE('',*,*,#815,.F.);
#815 = EDGE_CURVE('',#777,#808,#816,.T.);
#816 = LINE('',#817,#818);
#817 = CARTESIAN_POINT('',(-2.5543,1.2446,0.662));
#818 = VECTOR('',#819,1.);
#819 = DIRECTION('',(0.,2.22044604925E-16,-1.));
#820 = PLANE('',#821);
#821 = AXIS2_PLACEMENT_3D('',#822,#823,#824);
#822 = CARTESIAN_POINT('',(-2.5543,1.2446,0.662));
#823 = DIRECTION('',(1.,0.,0.));
#824 = DIRECTION('',(0.,2.22044604925E-16,-1.));
#825 = ADVANCED_FACE('',(#826),#842,.T.);
#826 = FACE_BOUND('',#827,.T.);
#827 = EDGE_LOOP('',(#828,#829,#835,#836));
#828 = ORIENTED_EDGE('',*,*,#807,.T.);
#829 = ORIENTED_EDGE('',*,*,#830,.T.);
#830 = EDGE_CURVE('',#800,#606,#831,.T.);
#831 = LINE('',#832,#833);
#832 = CARTESIAN_POINT('',(-2.5543,-1.2446,1.E-01));
#833 = VECTOR('',#834,1.);
#834 = DIRECTION('',(1.,0.,0.));
#835 = ORIENTED_EDGE('',*,*,#603,.F.);
#836 = ORIENTED_EDGE('',*,*,#837,.F.);
#837 = EDGE_CURVE('',#808,#604,#838,.T.);
#838 = LINE('',#839,#840);
#839 = CARTESIAN_POINT('',(-2.5543,1.2446,0.1));
#840 = VECTOR('',#841,1.);
#841 = DIRECTION('',(1.,0.,0.));
#842 = PLANE('',#843);
#843 = AXIS2_PLACEMENT_3D('',#844,#845,#846);
#844 = CARTESIAN_POINT('',(-2.5543,1.2446,0.1));
#845 = DIRECTION('',(0.,-2.22044604925E-16,1.));
#846 = DIRECTION('',(1.,0.,0.));
#847 = ADVANCED_FACE('',(#848),#858,.T.);
#848 = FACE_BOUND('',#849,.T.);
#849 = EDGE_LOOP('',(#850,#851,#852,#853,#854,#855,#856,#857));
#850 = ORIENTED_EDGE('',*,*,#629,.T.);
#851 = ORIENTED_EDGE('',*,*,#660,.T.);
#852 = ORIENTED_EDGE('',*,*,#691,.T.);
#853 = ORIENTED_EDGE('',*,*,#722,.T.);
#854 = ORIENTED_EDGE('',*,*,#753,.T.);
#855 = ORIENTED_EDGE('',*,*,#784,.T.);
#856 = ORIENTED_EDGE('',*,*,#815,.T.);
#857 = ORIENTED_EDGE('',*,*,#837,.T.);
#858 = PLANE('',#859);
#859 = AXIS2_PLACEMENT_3D('',#860,#861,#862);
#860 = CARTESIAN_POINT('',(-2.456466865316,1.2446,0.381));
#861 = DIRECTION('',(7.79806479414E-99,1.,2.22044604925E-16));
#862 = DIRECTION('',(0.,-2.22044604925E-16,1.));
#863 = ADVANCED_FACE('',(#864),#874,.F.);
#864 = FACE_BOUND('',#865,.F.);
#865 = EDGE_LOOP('',(#866,#867,#868,#869,#870,#871,#872,#873));
#866 = ORIENTED_EDGE('',*,*,#613,.T.);
#867 = ORIENTED_EDGE('',*,*,#644,.T.);
#868 = ORIENTED_EDGE('',*,*,#675,.T.);
#869 = ORIENTED_EDGE('',*,*,#706,.T.);
#870 = ORIENTED_EDGE('',*,*,#737,.T.);
#871 = ORIENTED_EDGE('',*,*,#768,.T.);
#872 = ORIENTED_EDGE('',*,*,#799,.T.);
#873 = ORIENTED_EDGE('',*,*,#830,.T.);
#874 = PLANE('',#875);
#875 = AXIS2_PLACEMENT_3D('',#876,#877,#878);
#876 = CARTESIAN_POINT('',(-2.456466865316,-1.2446,0.381));
#877 = DIRECTION('',(7.79806479414E-99,1.,2.22044604925E-16));
#878 = DIRECTION('',(0.,-2.22044604925E-16,1.));
#879 = ( GEOMETRIC_REPRESENTATION_CONTEXT(3) 
GLOBAL_UNCERTAINTY_ASSIGNED_CONTEXT((#883)) GLOBAL_UNIT_ASSIGNED_CONTEXT
((#880,#881,#882)) REPRESENTATION_CONTEXT('Context #1',
  '3D Context with UNIT and UNCERTAINTY') );
#880 = ( LENGTH_UNIT() NAMED_UNIT(*) SI_UNIT(.MILLI.,.METRE.) );
#881 = ( NAMED_UNIT(*) PLANE_ANGLE_UNIT() SI_UNIT($,.RADIAN.) );
#882 = ( NAMED_UNIT(*) SI_UNIT($,.STERADIAN.) SOLID_ANGLE_UNIT() );
#883 = UNCERTAINTY_MEASURE_WITH_UNIT(LENGTH_MEASURE(1.E-07),#880,
  'distance_accuracy_value','confusion accuracy');
#884 = PRODUCT_RELATED_PRODUCT_CATEGORY('part',$,(#7));
#885 = MECHANICAL_DESIGN_GEOMETRIC_PRESENTATION_REPRESENTATION('',(#886,
    #897,#905,#912,#919,#926,#933,#940,#949,#957,#964,#971,#978,#985,
    #992,#1001,#1009,#1016,#1023,#1030,#1037,#1044,#1051,#1058,#1065,
    #1072,#1081,#1088,#1095,#1102,#1109,#1116,#1123,#1130,#1137,#1144),
  #879);
#886 = STYLED_ITEM('color',(#887),#15);
#887 = PRESENTATION_STYLE_ASSIGNMENT((#888,#894));
#888 = SURFACE_STYLE_USAGE(.BOTH.,#889);
#889 = SURFACE_SIDE_STYLE('',(#890));
#890 = SURFACE_STYLE_FILL_AREA(#891);
#891 = FILL_AREA_STYLE('',(#892));
#892 = FILL_AREA_STYLE_COLOUR('',#893);
#893 = COLOUR_RGB('',0.800000011921,0.800000011921,0.800000011921);
#894 = CURVE_STYLE('',#895,POSITIVE_LENGTH_MEASURE(0.1),#896);
#895 = DRAUGHTING_PRE_DEFINED_CURVE_FONT('continuous');
#896 = COLOUR_RGB('',9.803921729326E-02,9.803921729326E-02,
  9.803921729326E-02);
#897 = OVER_RIDING_STYLED_ITEM('overriding color',(#898),#17,#886);
#898 = PRESENTATION_STYLE_ASSIGNMENT((#899));
#899 = SURFACE_STYLE_USAGE(.BOTH.,#900);
#900 = SURFACE_SIDE_STYLE('',(#901));
#901 = SURFACE_STYLE_FILL_AREA(#902);
#902 = FILL_AREA_STYLE('',(#903));
#903 = FILL_AREA_STYLE_COLOUR('',#904);
#904 = COLOUR_RGB('',0.894999980927,0.89099997282,0.813000023365);
#905 = OVER_RIDING_STYLED_ITEM('overriding color',(#906),#57,#886);
#906 = PRESENTATION_STYLE_ASSIGNMENT((#907));
#907 = SURFACE_STYLE_USAGE(.BOTH.,#908);
#908 = SURFACE_SIDE_STYLE('',(#909));
#909 = SURFACE_STYLE_FILL_AREA(#910);
#910 = FILL_AREA_STYLE('',(#911));
#911 = FILL_AREA_STYLE_COLOUR('',#904);
#912 = OVER_RIDING_STYLED_ITEM('overriding color',(#913),#88,#886);
#913 = PRESENTATION_STYLE_ASSIGNMENT((#914));
#914 = SURFACE_STYLE_USAGE(.BOTH.,#915);
#915 = SURFACE_SIDE_STYLE('',(#916));
#916 = SURFACE_STYLE_FILL_AREA(#917);
#917 = FILL_AREA_STYLE('',(#918));
#918 = FILL_AREA_STYLE_COLOUR('',#904);
#919 = OVER_RIDING_STYLED_ITEM('overriding color',(#920),#119,#886);
#920 = PRESENTATION_STYLE_ASSIGNMENT((#921));
#921 = SURFACE_STYLE_USAGE(.BOTH.,#922);
#922 = SURFACE_SIDE_STYLE('',(#923));
#923 = SURFACE_STYLE_FILL_AREA(#924);
#924 = FILL_AREA_STYLE('',(#925));
#925 = FILL_AREA_STYLE_COLOUR('',#904);
#926 = OVER_RIDING_STYLED_ITEM('overriding color',(#927),#141,#886);
#927 = PRESENTATION_STYLE_ASSIGNMENT((#928));
#928 = SURFACE_STYLE_USAGE(.BOTH.,#929);
#929 = SURFACE_SIDE_STYLE('',(#930));
#930 = SURFACE_STYLE_FILL_AREA(#931);
#931 = FILL_AREA_STYLE('',(#932));
#932 = FILL_AREA_STYLE_COLOUR('',#904);
#933 = OVER_RIDING_STYLED_ITEM('overriding color',(#934),#153,#886);
#934 = PRESENTATION_STYLE_ASSIGNMENT((#935));
#935 = SURFACE_STYLE_USAGE(.BOTH.,#936);
#936 = SURFACE_SIDE_STYLE('',(#937));
#937 = SURFACE_STYLE_FILL_AREA(#938);
#938 = FILL_AREA_STYLE('',(#939));
#939 = FILL_AREA_STYLE_COLOUR('',#904);
#940 = STYLED_ITEM('color',(#941),#165);
#941 = PRESENTATION_STYLE_ASSIGNMENT((#942,#947));
#942 = SURFACE_STYLE_USAGE(.BOTH.,#943);
#943 = SURFACE_SIDE_STYLE('',(#944));
#944 = SURFACE_STYLE_FILL_AREA(#945);
#945 = FILL_AREA_STYLE('',(#946));
#946 = FILL_AREA_STYLE_COLOUR('',#893);
#947 = CURVE_STYLE('',#948,POSITIVE_LENGTH_MEASURE(0.1),#896);
#948 = DRAUGHTING_PRE_DEFINED_CURVE_FONT('continuous');
#949 = OVER_RIDING_STYLED_ITEM('overriding color',(#950),#167,#940);
#950 = PRESENTATION_STYLE_ASSIGNMENT((#951));
#951 = SURFACE_STYLE_USAGE(.BOTH.,#952);
#952 = SURFACE_SIDE_STYLE('',(#953));
#953 = SURFACE_STYLE_FILL_AREA(#954);
#954 = FILL_AREA_STYLE('',(#955));
#955 = FILL_AREA_STYLE_COLOUR('',#956);
#956 = COLOUR_RGB('',0.148000001907,0.144999995828,0.144999995828);
#957 = OVER_RIDING_STYLED_ITEM('overriding color',(#958),#207,#940);
#958 = PRESENTATION_STYLE_ASSIGNMENT((#959));
#959 = SURFACE_STYLE_USAGE(.BOTH.,#960);
#960 = SURFACE_SIDE_STYLE('',(#961));
#961 = SURFACE_STYLE_FILL_AREA(#962);
#962 = FILL_AREA_STYLE('',(#963));
#963 = FILL_AREA_STYLE_COLOUR('',#956);
#964 = OVER_RIDING_STYLED_ITEM('overriding color',(#965),#238,#940);
#965 = PRESENTATION_STYLE_ASSIGNMENT((#966));
#966 = SURFACE_STYLE_USAGE(.BOTH.,#967);
#967 = SURFACE_SIDE_STYLE('',(#968));
#968 = SURFACE_STYLE_FILL_AREA(#969);
#969 = FILL_AREA_STYLE('',(#970));
#970 = FILL_AREA_STYLE_COLOUR('',#956);
#971 = OVER_RIDING_STYLED_ITEM('overriding color',(#972),#269,#940);
#972 = PRESENTATION_STYLE_ASSIGNMENT((#973));
#973 = SURFACE_STYLE_USAGE(.BOTH.,#974);
#974 = SURFACE_SIDE_STYLE('',(#975));
#975 = SURFACE_STYLE_FILL_AREA(#976);
#976 = FILL_AREA_STYLE('',(#977));
#977 = FILL_AREA_STYLE_COLOUR('',#956);
#978 = OVER_RIDING_STYLED_ITEM('overriding color',(#979),#291,#940);
#979 = PRESENTATION_STYLE_ASSIGNMENT((#980));
#980 = SURFACE_STYLE_USAGE(.BOTH.,#981);
#981 = SURFACE_SIDE_STYLE('',(#982));
#982 = SURFACE_STYLE_FILL_AREA(#983);
#983 = FILL_AREA_STYLE('',(#984));
#984 = FILL_AREA_STYLE_COLOUR('',#956);
#985 = OVER_RIDING_STYLED_ITEM('overriding color',(#986),#303,#940);
#986 = PRESENTATION_STYLE_ASSIGNMENT((#987));
#987 = SURFACE_STYLE_USAGE(.BOTH.,#988);
#988 = SURFACE_SIDE_STYLE('',(#989));
#989 = SURFACE_STYLE_FILL_AREA(#990);
#990 = FILL_AREA_STYLE('',(#991));
#991 = FILL_AREA_STYLE_COLOUR('',#956);
#992 = STYLED_ITEM('color',(#993),#315);
#993 = PRESENTATION_STYLE_ASSIGNMENT((#994,#999));
#994 = SURFACE_STYLE_USAGE(.BOTH.,#995);
#995 = SURFACE_SIDE_STYLE('',(#996));
#996 = SURFACE_STYLE_FILL_AREA(#997);
#997 = FILL_AREA_STYLE('',(#998));
#998 = FILL_AREA_STYLE_COLOUR('',#893);
#999 = CURVE_STYLE('',#1000,POSITIVE_LENGTH_MEASURE(0.1),#896);
#1000 = DRAUGHTING_PRE_DEFINED_CURVE_FONT('continuous');
#1001 = OVER_RIDING_STYLED_ITEM('overriding color',(#1002),#317,#992);
#1002 = PRESENTATION_STYLE_ASSIGNMENT((#1003));
#1003 = SURFACE_STYLE_USAGE(.BOTH.,#1004);
#1004 = SURFACE_SIDE_STYLE('',(#1005));
#1005 = SURFACE_STYLE_FILL_AREA(#1006);
#1006 = FILL_AREA_STYLE('',(#1007));
#1007 = FILL_AREA_STYLE_COLOUR('',#1008);
#1008 = COLOUR_RGB('',0.824000000954,0.819999992847,0.78100001812);
#1009 = OVER_RIDING_STYLED_ITEM('overriding color',(#1010),#357,#992);
#1010 = PRESENTATION_STYLE_ASSIGNMENT((#1011));
#1011 = SURFACE_STYLE_USAGE(.BOTH.,#1012);
#1012 = SURFACE_SIDE_STYLE('',(#1013));
#1013 = SURFACE_STYLE_FILL_AREA(#1014);
#1014 = FILL_AREA_STYLE('',(#1015));
#1015 = FILL_AREA_STYLE_COLOUR('',#1008);
#1016 = OVER_RIDING_STYLED_ITEM('overriding color',(#1017),#388,#992);
#1017 = PRESENTATION_STYLE_ASSIGNMENT((#1018));
#1018 = SURFACE_STYLE_USAGE(.BOTH.,#1019);
#1019 = SURFACE_SIDE_STYLE('',(#1020));
#1020 = SURFACE_STYLE_FILL_AREA(#1021);
#1021 = FILL_AREA_STYLE('',(#1022));
#1022 = FILL_AREA_STYLE_COLOUR('',#1008);
#1023 = OVER_RIDING_STYLED_ITEM('overriding color',(#1024),#419,#992);
#1024 = PRESENTATION_STYLE_ASSIGNMENT((#1025));
#1025 = SURFACE_STYLE_USAGE(.BOTH.,#1026);
#1026 = SURFACE_SIDE_STYLE('',(#1027));
#1027 = SURFACE_STYLE_FILL_AREA(#1028);
#1028 = FILL_AREA_STYLE('',(#1029));
#1029 = FILL_AREA_STYLE_COLOUR('',#1008);
#1030 = OVER_RIDING_STYLED_ITEM('overriding color',(#1031),#450,#992);
#1031 = PRESENTATION_STYLE_ASSIGNMENT((#1032));
#1032 = SURFACE_STYLE_USAGE(.BOTH.,#1033);
#1033 = SURFACE_SIDE_STYLE('',(#1034));
#1034 = SURFACE_STYLE_FILL_AREA(#1035);
#1035 = FILL_AREA_STYLE('',(#1036));
#1036 = FILL_AREA_STYLE_COLOUR('',#1008);
#1037 = OVER_RIDING_STYLED_ITEM('overriding color',(#1038),#481,#992);
#1038 = PRESENTATION_STYLE_ASSIGNMENT((#1039));
#1039 = SURFACE_STYLE_USAGE(.BOTH.,#1040);
#1040 = SURFACE_SIDE_STYLE('',(#1041));
#1041 = SURFACE_STYLE_FILL_AREA(#1042);
#1042 = FILL_AREA_STYLE('',(#1043));
#1043 = FILL_AREA_STYLE_COLOUR('',#1008);
#1044 = OVER_RIDING_STYLED_ITEM('overriding color',(#1045),#512,#992);
#1045 = PRESENTATION_STYLE_ASSIGNMENT((#1046));
#1046 = SURFACE_STYLE_USAGE(.BOTH.,#1047);
#1047 = SURFACE_SIDE_STYLE('',(#1048));
#1048 = SURFACE_STYLE_FILL_AREA(#1049);
#1049 = FILL_AREA_STYLE('',(#1050));
#1050 = FILL_AREA_STYLE_COLOUR('',#1008);
#1051 = OVER_RIDING_STYLED_ITEM('overriding color',(#1052),#543,#992);
#1052 = PRESENTATION_STYLE_ASSIGNMENT((#1053));
#1053 = SURFACE_STYLE_USAGE(.BOTH.,#1054);
#1054 = SURFACE_SIDE_STYLE('',(#1055));
#1055 = SURFACE_STYLE_FILL_AREA(#1056);
#1056 = FILL_AREA_STYLE('',(#1057));
#1057 = FILL_AREA_STYLE_COLOUR('',#1008);
#1058 = OVER_RIDING_STYLED_ITEM('overriding color',(#1059),#565,#992);
#1059 = PRESENTATION_STYLE_ASSIGNMENT((#1060));
#1060 = SURFACE_STYLE_USAGE(.BOTH.,#1061);
#1061 = SURFACE_SIDE_STYLE('',(#1062));
#1062 = SURFACE_STYLE_FILL_AREA(#1063);
#1063 = FILL_AREA_STYLE('',(#1064));
#1064 = FILL_AREA_STYLE_COLOUR('',#1008);
#1065 = OVER_RIDING_STYLED_ITEM('overriding color',(#1066),#581,#992);
#1066 = PRESENTATION_STYLE_ASSIGNMENT((#1067));
#1067 = SURFACE_STYLE_USAGE(.BOTH.,#1068);
#1068 = SURFACE_SIDE_STYLE('',(#1069));
#1069 = SURFACE_STYLE_FILL_AREA(#1070);
#1070 = FILL_AREA_STYLE('',(#1071));
#1071 = FILL_AREA_STYLE_COLOUR('',#1008);
#1072 = STYLED_ITEM('color',(#1073),#597);
#1073 = PRESENTATION_STYLE_ASSIGNMENT((#1074,#1079));
#1074 = SURFACE_STYLE_USAGE(.BOTH.,#1075);
#1075 = SURFACE_SIDE_STYLE('',(#1076));
#1076 = SURFACE_STYLE_FILL_AREA(#1077);
#1077 = FILL_AREA_STYLE('',(#1078));
#1078 = FILL_AREA_STYLE_COLOUR('',#893);
#1079 = CURVE_STYLE('',#1080,POSITIVE_LENGTH_MEASURE(0.1),#896);
#1080 = DRAUGHTING_PRE_DEFINED_CURVE_FONT('continuous');
#1081 = OVER_RIDING_STYLED_ITEM('overriding color',(#1082),#599,#1072);
#1082 = PRESENTATION_STYLE_ASSIGNMENT((#1083));
#1083 = SURFACE_STYLE_USAGE(.BOTH.,#1084);
#1084 = SURFACE_SIDE_STYLE('',(#1085));
#1085 = SURFACE_STYLE_FILL_AREA(#1086);
#1086 = FILL_AREA_STYLE('',(#1087));
#1087 = FILL_AREA_STYLE_COLOUR('',#1008);
#1088 = OVER_RIDING_STYLED_ITEM('overriding color',(#1089),#639,#1072);
#1089 = PRESENTATION_STYLE_ASSIGNMENT((#1090));
#1090 = SURFACE_STYLE_USAGE(.BOTH.,#1091);
#1091 = SURFACE_SIDE_STYLE('',(#1092));
#1092 = SURFACE_STYLE_FILL_AREA(#1093);
#1093 = FILL_AREA_STYLE('',(#1094));
#1094 = FILL_AREA_STYLE_COLOUR('',#1008);
#1095 = OVER_RIDING_STYLED_ITEM('overriding color',(#1096),#670,#1072);
#1096 = PRESENTATION_STYLE_ASSIGNMENT((#1097));
#1097 = SURFACE_STYLE_USAGE(.BOTH.,#1098);
#1098 = SURFACE_SIDE_STYLE('',(#1099));
#1099 = SURFACE_STYLE_FILL_AREA(#1100);
#1100 = FILL_AREA_STYLE('',(#1101));
#1101 = FILL_AREA_STYLE_COLOUR('',#1008);
#1102 = OVER_RIDING_STYLED_ITEM('overriding color',(#1103),#701,#1072);
#1103 = PRESENTATION_STYLE_ASSIGNMENT((#1104));
#1104 = SURFACE_STYLE_USAGE(.BOTH.,#1105);
#1105 = SURFACE_SIDE_STYLE('',(#1106));
#1106 = SURFACE_STYLE_FILL_AREA(#1107);
#1107 = FILL_AREA_STYLE('',(#1108));
#1108 = FILL_AREA_STYLE_COLOUR('',#1008);
#1109 = OVER_RIDING_STYLED_ITEM('overriding color',(#1110),#732,#1072);
#1110 = PRESENTATION_STYLE_ASSIGNMENT((#1111));
#1111 = SURFACE_STYLE_USAGE(.BOTH.,#1112);
#1112 = SURFACE_SIDE_STYLE('',(#1113));
#1113 = SURFACE_STYLE_FILL_AREA(#1114);
#1114 = FILL_AREA_STYLE('',(#1115));
#1115 = FILL_AREA_STYLE_COLOUR('',#1008);
#1116 = OVER_RIDING_STYLED_ITEM('overriding color',(#1117),#763,#1072);
#1117 = PRESENTATION_STYLE_ASSIGNMENT((#1118));
#1118 = SURFACE_STYLE_USAGE(.BOTH.,#1119);
#1119 = SURFACE_SIDE_STYLE('',(#1120));
#1120 = SURFACE_STYLE_FILL_AREA(#1121);
#1121 = FILL_AREA_STYLE('',(#1122));
#1122 = FILL_AREA_STYLE_COLOUR('',#1008);
#1123 = OVER_RIDING_STYLED_ITEM('overriding color',(#1124),#794,#1072);
#1124 = PRESENTATION_STYLE_ASSIGNMENT((#1125));
#1125 = SURFACE_STYLE_USAGE(.BOTH.,#1126);
#1126 = SURFACE_SIDE_STYLE('',(#1127));
#1127 = SURFACE_STYLE_FILL_AREA(#1128);
#1128 = FILL_AREA_STYLE('',(#1129));
#1129 = FILL_AREA_STYLE_COLOUR('',#1008);
#1130 = OVER_RIDING_STYLED_ITEM('overriding color',(#1131),#825,#1072);
#1131 = PRESENTATION_STYLE_ASSIGNMENT((#1132));
#1132 = SURFACE_STYLE_USAGE(.BOTH.,#1133);
#1133 = SURFACE_SIDE_STYLE('',(#1134));
#1134 = SURFACE_STYLE_FILL_AREA(#1135);
#1135 = FILL_AREA_STYLE('',(#1136));
#1136 = FILL_AREA_STYLE_COLOUR('',#1008);
#1137 = OVER_RIDING_STYLED_ITEM('overriding color',(#1138),#847,#1072);
#1138 = PRESENTATION_STYLE_ASSIGNMENT((#1139));
#1139 = SURFACE_STYLE_USAGE(.BOTH.,#1140);
#1140 = SURFACE_SIDE_STYLE('',(#1141));
#1141 = SURFACE_STYLE_FILL_AREA(#1142);
#1142 = FILL_AREA_STYLE('',(#1143));
#1143 = FILL_AREA_STYLE_COLOUR('',#1008);
#1144 = OVER_RIDING_STYLED_ITEM('overriding color',(#1145),#863,#1072);
#1145 = PRESENTATION_STYLE_ASSIGNMENT((#1146));
#1146 = SURFACE_STYLE_USAGE(.BOTH.,#1147);
#1147 = SURFACE_SIDE_STYLE('',(#1148));
#1148 = SURFACE_STYLE_FILL_AREA(#1149);
#1149 = FILL_AREA_STYLE('',(#1150));
#1150 = FILL_AREA_STYLE_COLOUR('',#1008);
ENDSEC;
END-ISO-10303-21;
