(footprint "MS026AFB"
	(version 20240108)
	(generator "pcbnew")
	(generator_version "8.0")
	(layer "F.Cu")
	(descr "0.50mm pitch 144-pin QFP, 20×20×1mm Body")
	(property "Reference" "MS026AFB"
		(at 0 0 0)
		(layer "F.Fab")
		(uuid "62087e07-5c21-4b49-9260-cdb36dba3b9c")
		(effects
			(font
				(size 1.2 1.2)
				(thickness 0.12)
			)
		)
	)
	(property "Value" "MS026AFB"
		(at 0 0 0)
		(layer "F.Fab")
		(hide yes)
		(uuid "b15394f7-ee24-42f2-b0b1-43862cc13dcc")
		(effects
			(font
				(size 1.2 1.2)
				(thickness 0.12)
			)
		)
	)
	(property "Footprint" ""
		(at 0 0 -90)
		(layer "F.Fab")
		(hide yes)
		(uuid "8e0f1feb-b3cb-43fb-a681-f2847e8ea8d2")
		(effects
			(font
				(size 1.27 1.27)
				(thickness 0.15)
			)
		)
	)
	(property "Datasheet" ""
		(at 0 0 -90)
		(layer "F.Fab")
		(hide yes)
		(uuid "3fac98f1-8df2-45f1-8ed5-cf72a05967a2")
		(effects
			(font
				(size 1.27 1.27)
				(thickness 0.15)
			)
		)
	)
	(property "Description" ""
		(at 0 0 -90)
		(layer "F.Fab")
		(hide yes)
		(uuid "f46a7794-1535-4a10-a907-6228a6060073")
		(effects
			(font
				(size 1.27 1.27)
				(thickness 0.15)
			)
		)
	)
	(attr smd)
	(fp_line
		(start -10.1 -10.1)
		(end -10.1 -9.1)
		(stroke
			(width 0.12)
			(type solid)
		)
		(layer "F.SilkS")
		(uuid "ce7873b2-1148-4217-bf5d-f0138695bc51")
	)
	(fp_line
		(start -10.1 -10.1)
		(end -9.1 -10.1)
		(stroke
			(width 0.12)
			(type solid)
		)
		(layer "F.SilkS")
		(uuid "ce0b689a-ef64-4387-879b-7cdd0defa710")
	)
	(fp_line
		(start -10.1 -9.1)
		(end -11.5 -9.1)
		(stroke
			(width 0.12)
			(type solid)
		)
		(layer "F.SilkS")
		(uuid "e23f34e7-9698-4771-adab-55766dba885e")
	)
	(fp_line
		(start -10.1 10.1)
		(end -10.1 9.1)
		(stroke
			(width 0.12)
			(type solid)
		)
		(layer "F.SilkS")
		(uuid "9fe90b4d-5251-4ec1-bafb-ff372fcff3d7")
	)
	(fp_line
		(start -10.1 10.1)
		(end -9.1 10.1)
		(stroke
			(width 0.12)
			(type solid)
		)
		(layer "F.SilkS")
		(uuid "9bf68587-5812-4ff5-b4c7-6c0d446202f4")
	)
	(fp_line
		(start 10.1 -10.1)
		(end 9.1 -10.1)
		(stroke
			(width 0.12)
			(type solid)
		)
		(layer "F.SilkS")
		(uuid "2913a7fa-0fd4-464f-ba82-52670c624af6")
	)
	(fp_line
		(start 10.1 -10.1)
		(end 10.1 -9.1)
		(stroke
			(width 0.12)
			(type solid)
		)
		(layer "F.SilkS")
		(uuid "57bad474-b8d2-4647-a2b5-1ee71d73f79e")
	)
	(fp_line
		(start 10.1 10.1)
		(end 9.1 10.1)
		(stroke
			(width 0.12)
			(type solid)
		)
		(layer "F.SilkS")
		(uuid "c1969918-8b42-45f0-aea5-914d13710201")
	)
	(fp_line
		(start 10.1 10.1)
		(end 10.1 9.1)
		(stroke
			(width 0.12)
			(type solid)
		)
		(layer "F.SilkS")
		(uuid "f8b84b79-1d27-41dd-8bfe-5efdb483673d")
	)
	(fp_line
		(start -11.75 -11.75)
		(end -11.75 11.75)
		(stroke
			(width 0.01)
			(type solid)
		)
		(layer "F.CrtYd")
		(uuid "e1be96a0-ab45-4d5e-b0c5-87ece166d9e7")
	)
	(fp_line
		(start 11.75 -11.75)
		(end -11.75 -11.75)
		(stroke
			(width 0.01)
			(type solid)
		)
		(layer "F.CrtYd")
		(uuid "d22dcd7b-d51e-4d8c-94b5-1c706e975671")
	)
	(fp_line
		(start 11.75 -11.75)
		(end 11.75 11.75)
		(stroke
			(width 0.01)
			(type solid)
		)
		(layer "F.CrtYd")
		(uuid "6f0457d8-c632-413e-82e2-307f1a77f07f")
	)
	(fp_line
		(start 11.75 11.75)
		(end -11.75 11.75)
		(stroke
			(width 0.01)
			(type solid)
		)
		(layer "F.CrtYd")
		(uuid "6ae0446c-08c0-4c3b-aef2-6c6ea811b310")
	)
	(fp_line
		(start -10.1 -10.1)
		(end -10.1 10.1)
		(stroke
			(width 0.12)
			(type solid)
		)
		(layer "F.Fab")
		(uuid "5177b0af-ebc5-4643-a52a-1b803291a6a7")
	)
	(fp_line
		(start -9.1 -10.1)
		(end -10.1 -9.1)
		(stroke
			(width 0.12)
			(type solid)
		)
		(layer "F.Fab")
		(uuid "a2785a76-012f-48b6-afd4-b2158bc1283f")
	)
	(fp_line
		(start 10.1 -10.1)
		(end -10.1 -10.1)
		(stroke
			(width 0.12)
			(type solid)
		)
		(layer "F.Fab")
		(uuid "3eb3c946-aa84-4324-9e44-c4581647befa")
	)
	(fp_line
		(start 10.1 -10.1)
		(end 10.1 10.1)
		(stroke
			(width 0.12)
			(type solid)
		)
		(layer "F.Fab")
		(uuid "1d5d20a8-7ebe-4b5b-baa7-a30acf0665eb")
	)
	(fp_line
		(start 10.1 10.1)
		(end -10.1 10.1)
		(stroke
			(width 0.12)
			(type solid)
		)
		(layer "F.Fab")
		(uuid "27089e17-6d93-43a9-ac96-d09be46b0105")
	)
	(pad "1" smd rect
		(at -10.75 -8.75 270)
		(size 0.3 1.5)
		(layers "F.Cu" "F.Paste" "F.Mask")
		(uuid "421012ff-5d20-45bb-ad18-6aed9a0164b1")
	)
	(pad "2" smd rect
		(at -10.75 -8.25 270)
		(size 0.3 1.5)
		(layers "F.Cu" "F.Paste" "F.Mask")
		(uuid "9c97575f-cd1e-4b55-8385-6c3b011d250f")
	)
	(pad "3" smd rect
		(at -10.75 -7.75 270)
		(size 0.3 1.5)
		(layers "F.Cu" "F.Paste" "F.Mask")
		(uuid "b1530249-93d1-4d00-acd1-a667e5bd90dd")
	)
	(pad "4" smd rect
		(at -10.75 -7.25 270)
		(size 0.3 1.5)
		(layers "F.Cu" "F.Paste" "F.Mask")
		(uuid "12b08930-61ba-4baa-80f5-8e55185c7910")
	)
	(pad "5" smd rect
		(at -10.75 -6.75 270)
		(size 0.3 1.5)
		(layers "F.Cu" "F.Paste" "F.Mask")
		(uuid "21aaa911-a57b-4e0d-9a30-5cff07187f7c")
	)
	(pad "6" smd rect
		(at -10.75 -6.25 270)
		(size 0.3 1.5)
		(layers "F.Cu" "F.Paste" "F.Mask")
		(uuid "ab34fdd2-5ab7-494b-8879-753033960f07")
	)
	(pad "7" smd rect
		(at -10.75 -5.75 270)
		(size 0.3 1.5)
		(layers "F.Cu" "F.Paste" "F.Mask")
		(uuid "06f29361-e3c3-4dff-aeb0-bdfe438e1a45")
	)
	(pad "8" smd rect
		(at -10.75 -5.25 270)
		(size 0.3 1.5)
		(layers "F.Cu" "F.Paste" "F.Mask")
		(uuid "82ac9091-14f0-41da-8e3f-63a23786ee17")
	)
	(pad "9" smd rect
		(at -10.75 -4.75 270)
		(size 0.3 1.5)
		(layers "F.Cu" "F.Paste" "F.Mask")
		(uuid "66976762-5c96-49fa-81a6-c644e7b7cca1")
	)
	(pad "10" smd rect
		(at -10.75 -4.25 270)
		(size 0.3 1.5)
		(layers "F.Cu" "F.Paste" "F.Mask")
		(uuid "180e92c5-c434-4355-be1f-88906d34366c")
	)
	(pad "11" smd rect
		(at -10.75 -3.75 270)
		(size 0.3 1.5)
		(layers "F.Cu" "F.Paste" "F.Mask")
		(uuid "d1e523a9-75b5-48dc-9750-53b6d84c1f5b")
	)
	(pad "12" smd rect
		(at -10.75 -3.25 270)
		(size 0.3 1.5)
		(layers "F.Cu" "F.Paste" "F.Mask")
		(uuid "ac30ee41-716d-4a53-bd6d-9975d98fc190")
	)
	(pad "13" smd rect
		(at -10.75 -2.75 270)
		(size 0.3 1.5)
		(layers "F.Cu" "F.Paste" "F.Mask")
		(uuid "98636401-2797-4b22-a7a1-05b33757e721")
	)
	(pad "14" smd rect
		(at -10.75 -2.25 270)
		(size 0.3 1.5)
		(layers "F.Cu" "F.Paste" "F.Mask")
		(uuid "cc084f84-a197-47a8-a058-bb4ace0c0e5f")
	)
	(pad "15" smd rect
		(at -10.75 -1.75 270)
		(size 0.3 1.5)
		(layers "F.Cu" "F.Paste" "F.Mask")
		(uuid "5f2fe16f-cb29-48fe-b87a-9d9ef4c58b19")
	)
	(pad "16" smd rect
		(at -10.75 -1.25 270)
		(size 0.3 1.5)
		(layers "F.Cu" "F.Paste" "F.Mask")
		(uuid "cbc0f6d1-813f-4378-a3d5-041e2264efa3")
	)
	(pad "17" smd rect
		(at -10.75 -0.75 270)
		(size 0.3 1.5)
		(layers "F.Cu" "F.Paste" "F.Mask")
		(uuid "63ccec60-b2f3-4288-a256-5f3c74059765")
	)
	(pad "18" smd rect
		(at -10.75 -0.25 270)
		(size 0.3 1.5)
		(layers "F.Cu" "F.Paste" "F.Mask")
		(uuid "5582bd92-c11a-4de1-b09f-5188897f6135")
	)
	(pad "19" smd rect
		(at -10.75 0.25 270)
		(size 0.3 1.5)
		(layers "F.Cu" "F.Paste" "F.Mask")
		(uuid "09e6ab63-05f0-493f-b642-adb2f9d7d658")
	)
	(pad "20" smd rect
		(at -10.75 0.75 270)
		(size 0.3 1.5)
		(layers "F.Cu" "F.Paste" "F.Mask")
		(uuid "1fe53cb3-64a5-4fef-94fe-0df9d051c84c")
	)
	(pad "21" smd rect
		(at -10.75 1.25 270)
		(size 0.3 1.5)
		(layers "F.Cu" "F.Paste" "F.Mask")
		(uuid "c0e2a8d8-d8d5-4c89-84be-4a82574da523")
	)
	(pad "22" smd rect
		(at -10.75 1.75 270)
		(size 0.3 1.5)
		(layers "F.Cu" "F.Paste" "F.Mask")
		(uuid "819fc01f-e217-4b8f-ad95-59225a1c0232")
	)
	(pad "23" smd rect
		(at -10.75 2.25 270)
		(size 0.3 1.5)
		(layers "F.Cu" "F.Paste" "F.Mask")
		(uuid "829216f3-261d-4570-8b4e-77aea445ad83")
	)
	(pad "24" smd rect
		(at -10.75 2.75 270)
		(size 0.3 1.5)
		(layers "F.Cu" "F.Paste" "F.Mask")
		(uuid "54bc6630-ae7d-4561-900f-213d972eb236")
	)
	(pad "25" smd rect
		(at -10.75 3.25 270)
		(size 0.3 1.5)
		(layers "F.Cu" "F.Paste" "F.Mask")
		(uuid "0922c62f-29fc-4174-bb72-52cd77198fea")
	)
	(pad "26" smd rect
		(at -10.75 3.75 270)
		(size 0.3 1.5)
		(layers "F.Cu" "F.Paste" "F.Mask")
		(uuid "d9cce787-f4ce-4962-9582-f7a625bb9edb")
	)
	(pad "27" smd rect
		(at -10.75 4.25 270)
		(size 0.3 1.5)
		(layers "F.Cu" "F.Paste" "F.Mask")
		(uuid "611003cc-4645-4c31-93b8-6622011263ab")
	)
	(pad "28" smd rect
		(at -10.75 4.75 270)
		(size 0.3 1.5)
		(layers "F.Cu" "F.Paste" "F.Mask")
		(uuid "aafdbb4f-d55c-4295-9aa2-ecfdebe4746e")
	)
	(pad "29" smd rect
		(at -10.75 5.25 270)
		(size 0.3 1.5)
		(layers "F.Cu" "F.Paste" "F.Mask")
		(uuid "b0d495a8-c812-4c10-b8ca-4cc0fc9498d5")
	)
	(pad "30" smd rect
		(at -10.75 5.75 270)
		(size 0.3 1.5)
		(layers "F.Cu" "F.Paste" "F.Mask")
		(uuid "f1e53ddb-56f9-488f-914e-b029f2024831")
	)
	(pad "31" smd rect
		(at -10.75 6.25 270)
		(size 0.3 1.5)
		(layers "F.Cu" "F.Paste" "F.Mask")
		(uuid "fe18c434-7884-4907-a68d-463a4daf2e93")
	)
	(pad "32" smd rect
		(at -10.75 6.75 270)
		(size 0.3 1.5)
		(layers "F.Cu" "F.Paste" "F.Mask")
		(uuid "8617cde1-df29-4fcd-b660-44e28ec44245")
	)
	(pad "33" smd rect
		(at -10.75 7.25 270)
		(size 0.3 1.5)
		(layers "F.Cu" "F.Paste" "F.Mask")
		(uuid "cdef7eb0-2c24-4c6e-bf1a-edce3b6e6158")
	)
	(pad "34" smd rect
		(at -10.75 7.75 270)
		(size 0.3 1.5)
		(layers "F.Cu" "F.Paste" "F.Mask")
		(uuid "12980b62-2bc0-47a0-8483-8c2a09abd49f")
	)
	(pad "35" smd rect
		(at -10.75 8.25 270)
		(size 0.3 1.5)
		(layers "F.Cu" "F.Paste" "F.Mask")
		(uuid "44d00981-c6cc-4522-966a-c5b7093d10c7")
	)
	(pad "36" smd rect
		(at -10.75 8.75 270)
		(size 0.3 1.5)
		(layers "F.Cu" "F.Paste" "F.Mask")
		(uuid "e079820d-a2ac-4f52-8b65-9341f4004957")
	)
	(pad "37" smd rect
		(at -8.75 10.75)
		(size 0.3 1.5)
		(layers "F.Cu" "F.Paste" "F.Mask")
		(uuid "c8a69202-bfdf-4c36-8232-b13181c7dc2d")
	)
	(pad "38" smd rect
		(at -8.25 10.75)
		(size 0.3 1.5)
		(layers "F.Cu" "F.Paste" "F.Mask")
		(uuid "a09f01d6-6e60-4f42-a005-86f386cb7c9b")
	)
	(pad "39" smd rect
		(at -7.75 10.75)
		(size 0.3 1.5)
		(layers "F.Cu" "F.Paste" "F.Mask")
		(uuid "5d84b6fd-d568-4562-ac8a-feebba2b2983")
	)
	(pad "40" smd rect
		(at -7.25 10.75)
		(size 0.3 1.5)
		(layers "F.Cu" "F.Paste" "F.Mask")
		(uuid "4d6c832e-d98e-4fb1-bde7-a8f9b535e131")
	)
	(pad "41" smd rect
		(at -6.75 10.75)
		(size 0.3 1.5)
		(layers "F.Cu" "F.Paste" "F.Mask")
		(uuid "72a7338b-a649-4c4b-86bf-d07cf9ae77eb")
	)
	(pad "42" smd rect
		(at -6.25 10.75)
		(size 0.3 1.5)
		(layers "F.Cu" "F.Paste" "F.Mask")
		(uuid "e04f9452-cd22-4651-b6a7-c6dfe98d427e")
	)
	(pad "43" smd rect
		(at -5.75 10.75)
		(size 0.3 1.5)
		(layers "F.Cu" "F.Paste" "F.Mask")
		(uuid "85af1dd1-9ab8-4415-9fef-5bbd601c0715")
	)
	(pad "44" smd rect
		(at -5.25 10.75)
		(size 0.3 1.5)
		(layers "F.Cu" "F.Paste" "F.Mask")
		(uuid "72478644-fe76-46ca-aba9-4d968a04b14d")
	)
	(pad "45" smd rect
		(at -4.75 10.75)
		(size 0.3 1.5)
		(layers "F.Cu" "F.Paste" "F.Mask")
		(uuid "960f381f-e778-49c6-9759-4816a0a00eb6")
	)
	(pad "46" smd rect
		(at -4.25 10.75)
		(size 0.3 1.5)
		(layers "F.Cu" "F.Paste" "F.Mask")
		(uuid "3df82cb3-2e4e-4c48-be0d-ebc208637f95")
	)
	(pad "47" smd rect
		(at -3.75 10.75)
		(size 0.3 1.5)
		(layers "F.Cu" "F.Paste" "F.Mask")
		(uuid "4ff12af7-1d0f-4f95-a23c-ccf6df82bb61")
	)
	(pad "48" smd rect
		(at -3.25 10.75)
		(size 0.3 1.5)
		(layers "F.Cu" "F.Paste" "F.Mask")
		(uuid "76c00a4a-9fe7-4c6f-b40b-5772e9d17a1d")
	)
	(pad "49" smd rect
		(at -2.75 10.75)
		(size 0.3 1.5)
		(layers "F.Cu" "F.Paste" "F.Mask")
		(uuid "97b8d139-f805-4d35-a1c4-e0d7555c3c59")
	)
	(pad "50" smd rect
		(at -2.25 10.75)
		(size 0.3 1.5)
		(layers "F.Cu" "F.Paste" "F.Mask")
		(uuid "48b16d46-0c86-475c-a23b-8f27caedfdac")
	)
	(pad "51" smd rect
		(at -1.75 10.75)
		(size 0.3 1.5)
		(layers "F.Cu" "F.Paste" "F.Mask")
		(uuid "83ef45a5-50c8-46ff-ab4f-c2a59b8cf07b")
	)
	(pad "52" smd rect
		(at -1.25 10.75)
		(size 0.3 1.5)
		(layers "F.Cu" "F.Paste" "F.Mask")
		(uuid "13c709c6-bdf8-4cae-9b4f-d9bf2a380581")
	)
	(pad "53" smd rect
		(at -0.75 10.75)
		(size 0.3 1.5)
		(layers "F.Cu" "F.Paste" "F.Mask")
		(uuid "488066fb-0c47-432f-b6f2-2ec09bef9962")
	)
	(pad "54" smd rect
		(at -0.25 10.75)
		(size 0.3 1.5)
		(layers "F.Cu" "F.Paste" "F.Mask")
		(uuid "762e3940-70a9-452c-9724-83d4d3e1451d")
	)
	(pad "55" smd rect
		(at 0.25 10.75)
		(size 0.3 1.5)
		(layers "F.Cu" "F.Paste" "F.Mask")
		(uuid "6cdcb97b-5196-4753-9b3a-ffbb16f49f33")
	)
	(pad "56" smd rect
		(at 0.75 10.75)
		(size 0.3 1.5)
		(layers "F.Cu" "F.Paste" "F.Mask")
		(uuid "31ff23ef-333a-4acd-ba89-c8304ecdca82")
	)
	(pad "57" smd rect
		(at 1.25 10.75)
		(size 0.3 1.5)
		(layers "F.Cu" "F.Paste" "F.Mask")
		(uuid "fe7e177f-5738-4035-843a-d1d9848a3314")
	)
	(pad "58" smd rect
		(at 1.75 10.75)
		(size 0.3 1.5)
		(layers "F.Cu" "F.Paste" "F.Mask")
		(uuid "5d97a1fe-fd54-4c3b-8758-5b07f237b929")
	)
	(pad "59" smd rect
		(at 2.25 10.75)
		(size 0.3 1.5)
		(layers "F.Cu" "F.Paste" "F.Mask")
		(uuid "dfae4e50-933b-44c8-acb1-dae1c4a5baec")
	)
	(pad "60" smd rect
		(at 2.75 10.75)
		(size 0.3 1.5)
		(layers "F.Cu" "F.Paste" "F.Mask")
		(uuid "54dbd964-2b58-4823-817b-39ec2d35860d")
	)
	(pad "61" smd rect
		(at 3.25 10.75)
		(size 0.3 1.5)
		(layers "F.Cu" "F.Paste" "F.Mask")
		(uuid "159f44b0-1237-4987-9fbb-378ffdeaaad2")
	)
	(pad "62" smd rect
		(at 3.75 10.75)
		(size 0.3 1.5)
		(layers "F.Cu" "F.Paste" "F.Mask")
		(uuid "0f0754ff-318d-4777-90be-f5193ba7b6ef")
	)
	(pad "63" smd rect
		(at 4.25 10.75)
		(size 0.3 1.5)
		(layers "F.Cu" "F.Paste" "F.Mask")
		(uuid "334e14bb-a720-4a4c-ada5-5c09d9cfaf4a")
	)
	(pad "64" smd rect
		(at 4.75 10.75)
		(size 0.3 1.5)
		(layers "F.Cu" "F.Paste" "F.Mask")
		(uuid "fbf64281-d625-4cc0-8067-e5757983212d")
	)
	(pad "65" smd rect
		(at 5.25 10.75)
		(size 0.3 1.5)
		(layers "F.Cu" "F.Paste" "F.Mask")
		(uuid "e458f84d-a114-4b69-adaa-0dc30aa799c7")
	)
	(pad "66" smd rect
		(at 5.75 10.75)
		(size 0.3 1.5)
		(layers "F.Cu" "F.Paste" "F.Mask")
		(uuid "9308596e-d540-4150-8e58-112a151b5237")
	)
	(pad "67" smd rect
		(at 6.25 10.75)
		(size 0.3 1.5)
		(layers "F.Cu" "F.Paste" "F.Mask")
		(uuid "34d92522-be71-48a4-b641-c64daf19b69f")
	)
	(pad "68" smd rect
		(at 6.75 10.75)
		(size 0.3 1.5)
		(layers "F.Cu" "F.Paste" "F.Mask")
		(uuid "79c69a57-94e7-4c00-851b-f7e7a63e2cbe")
	)
	(pad "69" smd rect
		(at 7.25 10.75)
		(size 0.3 1.5)
		(layers "F.Cu" "F.Paste" "F.Mask")
		(uuid "06398fae-9148-4602-89e2-d5c4f6d524f7")
	)
	(pad "70" smd rect
		(at 7.75 10.75)
		(size 0.3 1.5)
		(layers "F.Cu" "F.Paste" "F.Mask")
		(uuid "a3311074-ff3d-48ab-b699-075facf51503")
	)
	(pad "71" smd rect
		(at 8.25 10.75)
		(size 0.3 1.5)
		(layers "F.Cu" "F.Paste" "F.Mask")
		(uuid "42dc5ed4-c42a-4844-8b2c-67c2bd1ed90e")
	)
	(pad "72" smd rect
		(at 8.75 10.75)
		(size 0.3 1.5)
		(layers "F.Cu" "F.Paste" "F.Mask")
		(uuid "f9ffb528-558e-498c-8027-a2af9c6cd207")
	)
	(pad "73" smd rect
		(at 10.75 8.75 270)
		(size 0.3 1.5)
		(layers "F.Cu" "F.Paste" "F.Mask")
		(uuid "f3d2b141-9dfb-40db-9d36-73bdea823bd4")
	)
	(pad "74" smd rect
		(at 10.75 8.25 270)
		(size 0.3 1.5)
		(layers "F.Cu" "F.Paste" "F.Mask")
		(uuid "9c0f6316-44be-49ee-8465-bd95f1d197d2")
	)
	(pad "75" smd rect
		(at 10.75 7.75 270)
		(size 0.3 1.5)
		(layers "F.Cu" "F.Paste" "F.Mask")
		(uuid "f3ac6c72-33ca-4433-a54d-040f540d7ca5")
	)
	(pad "76" smd rect
		(at 10.75 7.25 270)
		(size 0.3 1.5)
		(layers "F.Cu" "F.Paste" "F.Mask")
		(uuid "195ac50b-64bc-4f2e-95da-923cc3ee753d")
	)
	(pad "77" smd rect
		(at 10.75 6.75 270)
		(size 0.3 1.5)
		(layers "F.Cu" "F.Paste" "F.Mask")
		(uuid "5d7db490-0f95-42f4-8bde-7531ad95006d")
	)
	(pad "78" smd rect
		(at 10.75 6.25 270)
		(size 0.3 1.5)
		(layers "F.Cu" "F.Paste" "F.Mask")
		(uuid "c6055ff6-4924-49e4-8a15-2de43da735b2")
	)
	(pad "79" smd rect
		(at 10.75 5.75 270)
		(size 0.3 1.5)
		(layers "F.Cu" "F.Paste" "F.Mask")
		(uuid "d0259ce7-47cd-4871-bba0-dc1c5435b744")
	)
	(pad "80" smd rect
		(at 10.75 5.25 270)
		(size 0.3 1.5)
		(layers "F.Cu" "F.Paste" "F.Mask")
		(uuid "2d4ecb2c-f609-4465-b582-51ba6ac85045")
	)
	(pad "81" smd rect
		(at 10.75 4.75 270)
		(size 0.3 1.5)
		(layers "F.Cu" "F.Paste" "F.Mask")
		(uuid "09ac217f-de70-46ff-aa0b-48a69bfdd33f")
	)
	(pad "82" smd rect
		(at 10.75 4.25 270)
		(size 0.3 1.5)
		(layers "F.Cu" "F.Paste" "F.Mask")
		(uuid "50fefc4a-db00-4a5e-9097-449f669ce2d3")
	)
	(pad "83" smd rect
		(at 10.75 3.75 270)
		(size 0.3 1.5)
		(layers "F.Cu" "F.Paste" "F.Mask")
		(uuid "936d3bba-502d-4d57-9de2-c70e4283c5b6")
	)
	(pad "84" smd rect
		(at 10.75 3.25 270)
		(size 0.3 1.5)
		(layers "F.Cu" "F.Paste" "F.Mask")
		(uuid "984e9ff4-a93d-459f-a6d4-b46a4b0a971e")
	)
	(pad "85" smd rect
		(at 10.75 2.75 270)
		(size 0.3 1.5)
		(layers "F.Cu" "F.Paste" "F.Mask")
		(uuid "15f805e8-a31d-44b6-8063-e49d07b0d7aa")
	)
	(pad "86" smd rect
		(at 10.75 2.25 270)
		(size 0.3 1.5)
		(layers "F.Cu" "F.Paste" "F.Mask")
		(uuid "a931d3c1-55e7-40e4-9e41-a686eaa2e2f6")
	)
	(pad "87" smd rect
		(at 10.75 1.75 270)
		(size 0.3 1.5)
		(layers "F.Cu" "F.Paste" "F.Mask")
		(uuid "0b660779-81e8-494d-b674-cfdb99d5b4a3")
	)
	(pad "88" smd rect
		(at 10.75 1.25 270)
		(size 0.3 1.5)
		(layers "F.Cu" "F.Paste" "F.Mask")
		(uuid "b20d4e2d-22f4-4d67-bc1f-61dab728eab1")
	)
	(pad "89" smd rect
		(at 10.75 0.75 270)
		(size 0.3 1.5)
		(layers "F.Cu" "F.Paste" "F.Mask")
		(uuid "b7bbf5ad-eade-436e-aaa3-2f1efc8bf7f7")
	)
	(pad "90" smd rect
		(at 10.75 0.25 270)
		(size 0.3 1.5)
		(layers "F.Cu" "F.Paste" "F.Mask")
		(uuid "ae8242f7-c43a-43ee-87c1-a467c782e354")
	)
	(pad "91" smd rect
		(at 10.75 -0.25 270)
		(size 0.3 1.5)
		(layers "F.Cu" "F.Paste" "F.Mask")
		(uuid "4e69041c-a934-4270-8ed8-383d064c5b3a")
	)
	(pad "92" smd rect
		(at 10.75 -0.75 270)
		(size 0.3 1.5)
		(layers "F.Cu" "F.Paste" "F.Mask")
		(uuid "7aec1aee-e8cf-4d15-a824-bd7e9df6d39b")
	)
	(pad "93" smd rect
		(at 10.75 -1.25 270)
		(size 0.3 1.5)
		(layers "F.Cu" "F.Paste" "F.Mask")
		(uuid "ed9598a8-d73f-4244-bfec-0f3cdfb04abd")
	)
	(pad "94" smd rect
		(at 10.75 -1.75 270)
		(size 0.3 1.5)
		(layers "F.Cu" "F.Paste" "F.Mask")
		(uuid "f03d8097-a3a9-41b9-b16a-9138404fc8ea")
	)
	(pad "95" smd rect
		(at 10.75 -2.25 270)
		(size 0.3 1.5)
		(layers "F.Cu" "F.Paste" "F.Mask")
		(uuid "db175162-9ac6-4b9d-a13e-2f93ca548e97")
	)
	(pad "96" smd rect
		(at 10.75 -2.75 270)
		(size 0.3 1.5)
		(layers "F.Cu" "F.Paste" "F.Mask")
		(uuid "5c33c1ae-a3d7-4896-8742-d5958a00736d")
	)
	(pad "97" smd rect
		(at 10.75 -3.25 270)
		(size 0.3 1.5)
		(layers "F.Cu" "F.Paste" "F.Mask")
		(uuid "bb9cc347-a4d7-48a4-9fb4-06fd3b1cb081")
	)
	(pad "98" smd rect
		(at 10.75 -3.75 270)
		(size 0.3 1.5)
		(layers "F.Cu" "F.Paste" "F.Mask")
		(uuid "d029a7c6-ad2e-4398-bf1b-15c684f91d34")
	)
	(pad "99" smd rect
		(at 10.75 -4.25 270)
		(size 0.3 1.5)
		(layers "F.Cu" "F.Paste" "F.Mask")
		(uuid "042e8653-98ce-4c79-ac61-bc76bded7d51")
	)
	(pad "100" smd rect
		(at 10.75 -4.75 270)
		(size 0.3 1.5)
		(layers "F.Cu" "F.Paste" "F.Mask")
		(uuid "a3320aa1-0eef-41ed-b621-96298a754d1a")
	)
	(pad "101" smd rect
		(at 10.75 -5.25 270)
		(size 0.3 1.5)
		(layers "F.Cu" "F.Paste" "F.Mask")
		(uuid "3287eb4f-4876-497f-9e25-ac8682ef8eff")
	)
	(pad "102" smd rect
		(at 10.75 -5.75 270)
		(size 0.3 1.5)
		(layers "F.Cu" "F.Paste" "F.Mask")
		(uuid "1810d35b-0dda-4e41-b950-5f5b09c7c852")
	)
	(pad "103" smd rect
		(at 10.75 -6.25 270)
		(size 0.3 1.5)
		(layers "F.Cu" "F.Paste" "F.Mask")
		(uuid "0fa91181-643b-409b-9ebd-201ce35f7248")
	)
	(pad "104" smd rect
		(at 10.75 -6.75 270)
		(size 0.3 1.5)
		(layers "F.Cu" "F.Paste" "F.Mask")
		(uuid "ddf89c72-8d69-4cb7-93f3-39dbf86d490c")
	)
	(pad "105" smd rect
		(at 10.75 -7.25 270)
		(size 0.3 1.5)
		(layers "F.Cu" "F.Paste" "F.Mask")
		(uuid "6c613650-6ed2-467d-8f5f-4f63a8571204")
	)
	(pad "106" smd rect
		(at 10.75 -7.75 270)
		(size 0.3 1.5)
		(layers "F.Cu" "F.Paste" "F.Mask")
		(uuid "bf4607d4-b421-4431-aac5-eae8ccfa885d")
	)
	(pad "107" smd rect
		(at 10.75 -8.25 270)
		(size 0.3 1.5)
		(layers "F.Cu" "F.Paste" "F.Mask")
		(uuid "6c9f4f64-4e49-41ff-a0ba-9e3bd4a2aed2")
	)
	(pad "108" smd rect
		(at 10.75 -8.75 270)
		(size 0.3 1.5)
		(layers "F.Cu" "F.Paste" "F.Mask")
		(uuid "ad28e6cf-49ec-4c3d-9176-9814902ca78b")
	)
	(pad "109" smd rect
		(at 8.75 -10.75)
		(size 0.3 1.5)
		(layers "F.Cu" "F.Paste" "F.Mask")
		(uuid "7339fa8a-b123-42dc-9261-61b5d0d6a486")
	)
	(pad "110" smd rect
		(at 8.25 -10.75)
		(size 0.3 1.5)
		(layers "F.Cu" "F.Paste" "F.Mask")
		(uuid "40ea4798-f603-482f-885a-e9c564870d0d")
	)
	(pad "111" smd rect
		(at 7.75 -10.75)
		(size 0.3 1.5)
		(layers "F.Cu" "F.Paste" "F.Mask")
		(uuid "32d3a1d9-3073-4169-aa3c-df7a09142595")
	)
	(pad "112" smd rect
		(at 7.25 -10.75)
		(size 0.3 1.5)
		(layers "F.Cu" "F.Paste" "F.Mask")
		(uuid "b2351bf8-98f0-45da-9456-bcb27259035f")
	)
	(pad "113" smd rect
		(at 6.75 -10.75)
		(size 0.3 1.5)
		(layers "F.Cu" "F.Paste" "F.Mask")
		(uuid "48b1a566-c5d5-4131-8d41-1a9567b1d24c")
	)
	(pad "114" smd rect
		(at 6.25 -10.75)
		(size 0.3 1.5)
		(layers "F.Cu" "F.Paste" "F.Mask")
		(uuid "69ffc7c8-a36f-434c-83c4-5e82c22b7b62")
	)
	(pad "115" smd rect
		(at 5.75 -10.75)
		(size 0.3 1.5)
		(layers "F.Cu" "F.Paste" "F.Mask")
		(uuid "d549102e-636d-49d2-8ade-7a2dfbfb1e7a")
	)
	(pad "116" smd rect
		(at 5.25 -10.75)
		(size 0.3 1.5)
		(layers "F.Cu" "F.Paste" "F.Mask")
		(uuid "abb4410c-9d4b-4178-95f6-e67cea2633e2")
	)
	(pad "117" smd rect
		(at 4.75 -10.75)
		(size 0.3 1.5)
		(layers "F.Cu" "F.Paste" "F.Mask")
		(uuid "95bd7878-8483-4314-ad5d-ae8db8a67a85")
	)
	(pad "118" smd rect
		(at 4.25 -10.75)
		(size 0.3 1.5)
		(layers "F.Cu" "F.Paste" "F.Mask")
		(uuid "bc636438-33a8-4222-b9df-30294e14d30e")
	)
	(pad "119" smd rect
		(at 3.75 -10.75)
		(size 0.3 1.5)
		(layers "F.Cu" "F.Paste" "F.Mask")
		(uuid "a477069c-5184-403d-a713-830312b09154")
	)
	(pad "120" smd rect
		(at 3.25 -10.75)
		(size 0.3 1.5)
		(layers "F.Cu" "F.Paste" "F.Mask")
		(uuid "450d3c1b-11a3-4f67-9cd7-45af1249d97b")
	)
	(pad "121" smd rect
		(at 2.75 -10.75)
		(size 0.3 1.5)
		(layers "F.Cu" "F.Paste" "F.Mask")
		(uuid "4f462752-a7e5-4fee-91e1-f9b6cc79e617")
	)
	(pad "122" smd rect
		(at 2.25 -10.75)
		(size 0.3 1.5)
		(layers "F.Cu" "F.Paste" "F.Mask")
		(uuid "c727929d-ca76-43af-816c-be49041f6170")
	)
	(pad "123" smd rect
		(at 1.75 -10.75)
		(size 0.3 1.5)
		(layers "F.Cu" "F.Paste" "F.Mask")
		(uuid "fc1de815-c8d4-4167-93a1-7107e882fa3b")
	)
	(pad "124" smd rect
		(at 1.25 -10.75)
		(size 0.3 1.5)
		(layers "F.Cu" "F.Paste" "F.Mask")
		(uuid "1f3105bd-79d1-4cc7-9cb6-56c55347f67c")
	)
	(pad "125" smd rect
		(at 0.75 -10.75)
		(size 0.3 1.5)
		(layers "F.Cu" "F.Paste" "F.Mask")
		(uuid "8fdd2502-9626-46e9-8e4c-08344271e2f7")
	)
	(pad "126" smd rect
		(at 0.25 -10.75)
		(size 0.3 1.5)
		(layers "F.Cu" "F.Paste" "F.Mask")
		(uuid "b4d2d657-fa81-4640-98fe-3b0771e7656e")
	)
	(pad "127" smd rect
		(at -0.25 -10.75)
		(size 0.3 1.5)
		(layers "F.Cu" "F.Paste" "F.Mask")
		(uuid "8996e2c4-d400-438a-aae3-365a52ecb28b")
	)
	(pad "128" smd rect
		(at -0.75 -10.75)
		(size 0.3 1.5)
		(layers "F.Cu" "F.Paste" "F.Mask")
		(uuid "62db7406-0c43-49e3-83ba-21847594f2d3")
	)
	(pad "129" smd rect
		(at -1.25 -10.75)
		(size 0.3 1.5)
		(layers "F.Cu" "F.Paste" "F.Mask")
		(uuid "80aee74d-26cf-4d56-baaa-2af8f232efa0")
	)
	(pad "130" smd rect
		(at -1.75 -10.75)
		(size 0.3 1.5)
		(layers "F.Cu" "F.Paste" "F.Mask")
		(uuid "45891f52-4229-4a71-9554-cc884a8ef05e")
	)
	(pad "131" smd rect
		(at -2.25 -10.75)
		(size 0.3 1.5)
		(layers "F.Cu" "F.Paste" "F.Mask")
		(uuid "06f4824a-8fa1-4fa0-adab-131de4e04b7b")
	)
	(pad "132" smd rect
		(at -2.75 -10.75)
		(size 0.3 1.5)
		(layers "F.Cu" "F.Paste" "F.Mask")
		(uuid "8616edd3-72af-45b5-a1f3-5d4d3b9624e4")
	)
	(pad "133" smd rect
		(at -3.25 -10.75)
		(size 0.3 1.5)
		(layers "F.Cu" "F.Paste" "F.Mask")
		(uuid "ac63b3f8-579a-4a3a-8238-5dbb12593cff")
	)
	(pad "134" smd rect
		(at -3.75 -10.75)
		(size 0.3 1.5)
		(layers "F.Cu" "F.Paste" "F.Mask")
		(uuid "2e016aa9-8d8b-48f4-97f2-4353ba8e387f")
	)
	(pad "135" smd rect
		(at -4.25 -10.75)
		(size 0.3 1.5)
		(layers "F.Cu" "F.Paste" "F.Mask")
		(uuid "6225f2f8-ca40-42c0-8e7c-8a8d04d61dd6")
	)
	(pad "136" smd rect
		(at -4.75 -10.75)
		(size 0.3 1.5)
		(layers "F.Cu" "F.Paste" "F.Mask")
		(uuid "3bb89441-6429-44c7-bbd6-e3ceb53ed3c8")
	)
	(pad "137" smd rect
		(at -5.25 -10.75)
		(size 0.3 1.5)
		(layers "F.Cu" "F.Paste" "F.Mask")
		(uuid "ebdf6c6d-902f-45b7-a076-bf64b85f6b6c")
	)
	(pad "138" smd rect
		(at -5.75 -10.75)
		(size 0.3 1.5)
		(layers "F.Cu" "F.Paste" "F.Mask")
		(uuid "b5839a35-f4e9-41ed-bbc8-32f8715176d8")
	)
	(pad "139" smd rect
		(at -6.25 -10.75)
		(size 0.3 1.5)
		(layers "F.Cu" "F.Paste" "F.Mask")
		(uuid "43f4096d-14e5-46da-923c-1f3e18814bd1")
	)
	(pad "140" smd rect
		(at -6.75 -10.75)
		(size 0.3 1.5)
		(layers "F.Cu" "F.Paste" "F.Mask")
		(uuid "34f1f4ef-59a1-4761-8620-474ec1b4e2dc")
	)
	(pad "141" smd rect
		(at -7.25 -10.75)
		(size 0.3 1.5)
		(layers "F.Cu" "F.Paste" "F.Mask")
		(uuid "88bbcf3a-bbef-4f86-8394-e1f0aaa27859")
	)
	(pad "142" smd rect
		(at -7.75 -10.75)
		(size 0.3 1.5)
		(layers "F.Cu" "F.Paste" "F.Mask")
		(uuid "d4548521-73f3-4fbb-bf1f-7c67b3a1f42a")
	)
	(pad "143" smd rect
		(at -8.25 -10.75)
		(size 0.3 1.5)
		(layers "F.Cu" "F.Paste" "F.Mask")
		(uuid "4dcd446a-7d8d-48c0-a7f4-54f294a59a0e")
	)
	(pad "144" smd rect
		(at -8.75 -10.75)
		(size 0.3 1.5)
		(layers "F.Cu" "F.Paste" "F.Mask")
		(uuid "b7cb9b82-8b04-43e4-bd60-677d3afb3b18")
	)
)
