(footprint "MS026AKB"
	(version 20240108)
	(generator "pcbnew")
	(generator_version "8.0")
	(layer "F.Cu")
	(descr "0.5mm pitch 24-pin QFP, 4×4×1mm Body")
	(property "Reference" "MS026AKB"
		(at 0 0 0)
		(layer "F.Fab")
		(uuid "d35e774d-3910-46fe-ae04-8efd7c04070c")
		(effects
			(font
				(size 0.8 0.8)
				(thickness 0.08)
			)
		)
	)
	(property "Value" "MS026AKB"
		(at 0 0 0)
		(layer "F.Fab")
		(hide yes)
		(uuid "33c73262-dce8-4953-9698-b4811f31d625")
		(effects
			(font
				(size 0.8 0.8)
				(thickness 0.08)
			)
		)
	)
	(property "Footprint" ""
		(at 0 0 -90)
		(layer "F.Fab")
		(hide yes)
		(uuid "dd236f9a-d959-4607-9c85-a64544b37c93")
		(effects
			(font
				(size 1.27 1.27)
				(thickness 0.15)
			)
		)
	)
	(property "Datasheet" ""
		(at 0 0 -90)
		(layer "F.Fab")
		(hide yes)
		(uuid "ebf49a4c-d088-45dc-a2d9-bd1702fb71dc")
		(effects
			(font
				(size 1.27 1.27)
				(thickness 0.15)
			)
		)
	)
	(property "Description" ""
		(at 0 0 -90)
		(layer "F.Fab")
		(hide yes)
		(uuid "367492d2-d662-488b-9203-5f776ecbc24d")
		(effects
			(font
				(size 1.27 1.27)
				(thickness 0.15)
			)
		)
	)
	(attr smd)
	(fp_line
		(start -2.1 -2.1)
		(end -2.1 -1.6)
		(stroke
			(width 0.12)
			(type solid)
		)
		(layer "F.SilkS")
		(uuid "a0515338-179c-404d-8574-78272f138018")
	)
	(fp_line
		(start -2.1 -2.1)
		(end -1.6 -2.1)
		(stroke
			(width 0.12)
			(type solid)
		)
		(layer "F.SilkS")
		(uuid "477f1850-0c94-4c5a-a347-26e505a71773")
	)
	(fp_line
		(start -2.1 -1.6)
		(end -3.5 -1.6)
		(stroke
			(width 0.12)
			(type solid)
		)
		(layer "F.SilkS")
		(uuid "8ea3fa95-9a93-460f-86eb-b11a7c7c67ca")
	)
	(fp_line
		(start -2.1 2.1)
		(end -2.1 1.6)
		(stroke
			(width 0.12)
			(type solid)
		)
		(layer "F.SilkS")
		(uuid "0f247664-7a2c-48de-85b8-9b9185c63eb1")
	)
	(fp_line
		(start -2.1 2.1)
		(end -1.6 2.1)
		(stroke
			(width 0.12)
			(type solid)
		)
		(layer "F.SilkS")
		(uuid "9bd45698-381c-4604-810b-618dd76dfee1")
	)
	(fp_line
		(start 2.1 -2.1)
		(end 1.6 -2.1)
		(stroke
			(width 0.12)
			(type solid)
		)
		(layer "F.SilkS")
		(uuid "68cf51af-2e45-4bd3-b73f-3158d8b55033")
	)
	(fp_line
		(start 2.1 -2.1)
		(end 2.1 -1.6)
		(stroke
			(width 0.12)
			(type solid)
		)
		(layer "F.SilkS")
		(uuid "4a5c6894-a684-4b6c-a599-d6348fc630ec")
	)
	(fp_line
		(start 2.1 2.1)
		(end 1.6 2.1)
		(stroke
			(width 0.12)
			(type solid)
		)
		(layer "F.SilkS")
		(uuid "ec131c0b-bdc6-47c1-b413-2f8a4b632e9d")
	)
	(fp_line
		(start 2.1 2.1)
		(end 2.1 1.6)
		(stroke
			(width 0.12)
			(type solid)
		)
		(layer "F.SilkS")
		(uuid "be22ea65-8074-4b5e-b7be-6561d7ba4b18")
	)
	(fp_line
		(start -3.75 -3.75)
		(end -3.75 3.75)
		(stroke
			(width 0.01)
			(type solid)
		)
		(layer "F.CrtYd")
		(uuid "b9cbcc22-bd99-40d4-9cce-d7f9acc4a69c")
	)
	(fp_line
		(start 3.75 -3.75)
		(end -3.75 -3.75)
		(stroke
			(width 0.01)
			(type solid)
		)
		(layer "F.CrtYd")
		(uuid "1258142e-1a8d-421f-87c5-446f088c7efa")
	)
	(fp_line
		(start 3.75 -3.75)
		(end 3.75 3.75)
		(stroke
			(width 0.01)
			(type solid)
		)
		(layer "F.CrtYd")
		(uuid "d3354355-64c7-44f6-8f38-aee05a030865")
	)
	(fp_line
		(start 3.75 3.75)
		(end -3.75 3.75)
		(stroke
			(width 0.01)
			(type solid)
		)
		(layer "F.CrtYd")
		(uuid "d3bd7302-b9cf-4de3-bf65-f7aa98935111")
	)
	(fp_line
		(start -2.1 -2.1)
		(end -2.1 2.1)
		(stroke
			(width 0.12)
			(type solid)
		)
		(layer "F.Fab")
		(uuid "d2baa4af-22f6-4931-87f6-ee3d32a9b277")
	)
	(fp_line
		(start -1.1 -2.1)
		(end -2.1 -1.1)
		(stroke
			(width 0.12)
			(type solid)
		)
		(layer "F.Fab")
		(uuid "41e694fd-31c0-4e0e-8a96-a353f1c02a6f")
	)
	(fp_line
		(start 2.1 -2.1)
		(end -2.1 -2.1)
		(stroke
			(width 0.12)
			(type solid)
		)
		(layer "F.Fab")
		(uuid "244336c2-427a-4f9b-a24d-39d6bac62650")
	)
	(fp_line
		(start 2.1 -2.1)
		(end 2.1 2.1)
		(stroke
			(width 0.12)
			(type solid)
		)
		(layer "F.Fab")
		(uuid "fed8d504-c4cb-4ece-9bbb-c205b6137449")
	)
	(fp_line
		(start 2.1 2.1)
		(end -2.1 2.1)
		(stroke
			(width 0.12)
			(type solid)
		)
		(layer "F.Fab")
		(uuid "eed442e3-a031-4747-915e-20eaf6eee880")
	)
	(pad "1" smd rect
		(at -2.75 -1.25 270)
		(size 0.3 1.5)
		(layers "F.Cu" "F.Paste" "F.Mask")
		(uuid "c135463b-1144-440d-9080-f33ed138b2cd")
	)
	(pad "2" smd rect
		(at -2.75 -0.75 270)
		(size 0.3 1.5)
		(layers "F.Cu" "F.Paste" "F.Mask")
		(uuid "a0979de6-c53d-47f8-bc4b-94f5961ab696")
	)
	(pad "3" smd rect
		(at -2.75 -0.25 270)
		(size 0.3 1.5)
		(layers "F.Cu" "F.Paste" "F.Mask")
		(uuid "9ce6a7b6-9672-4350-b7a0-57a2521651c2")
	)
	(pad "4" smd rect
		(at -2.75 0.25 270)
		(size 0.3 1.5)
		(layers "F.Cu" "F.Paste" "F.Mask")
		(uuid "552569e4-c6ee-4852-be14-e3d1add67464")
	)
	(pad "5" smd rect
		(at -2.75 0.75 270)
		(size 0.3 1.5)
		(layers "F.Cu" "F.Paste" "F.Mask")
		(uuid "7b8c98c3-786a-4d77-bcd8-0a8042f3bf99")
	)
	(pad "6" smd rect
		(at -2.75 1.25 270)
		(size 0.3 1.5)
		(layers "F.Cu" "F.Paste" "F.Mask")
		(uuid "f24b38cd-c94e-4c44-bd85-c62c17d356a4")
	)
	(pad "7" smd rect
		(at -1.25 2.75)
		(size 0.3 1.5)
		(layers "F.Cu" "F.Paste" "F.Mask")
		(uuid "beb94977-3db5-4ef3-9e90-d9d05109b611")
	)
	(pad "8" smd rect
		(at -0.75 2.75)
		(size 0.3 1.5)
		(layers "F.Cu" "F.Paste" "F.Mask")
		(uuid "4ef9660f-e1fd-456d-8fe9-eef254909ee2")
	)
	(pad "9" smd rect
		(at -0.25 2.75)
		(size 0.3 1.5)
		(layers "F.Cu" "F.Paste" "F.Mask")
		(uuid "30a70b11-0a6a-4f16-ad55-501694d79672")
	)
	(pad "10" smd rect
		(at 0.25 2.75)
		(size 0.3 1.5)
		(layers "F.Cu" "F.Paste" "F.Mask")
		(uuid "0c5a7607-c2b6-46fe-adab-88e335378b5a")
	)
	(pad "11" smd rect
		(at 0.75 2.75)
		(size 0.3 1.5)
		(layers "F.Cu" "F.Paste" "F.Mask")
		(uuid "a36245ef-d178-40c7-83b1-a0dcbf7b00ba")
	)
	(pad "12" smd rect
		(at 1.25 2.75)
		(size 0.3 1.5)
		(layers "F.Cu" "F.Paste" "F.Mask")
		(uuid "0e0e8483-350e-4c04-be0f-cd823dd1fd01")
	)
	(pad "13" smd rect
		(at 2.75 1.25 270)
		(size 0.3 1.5)
		(layers "F.Cu" "F.Paste" "F.Mask")
		(uuid "84e1aa3c-6cec-4d7b-9121-0759069faec6")
	)
	(pad "14" smd rect
		(at 2.75 0.75 270)
		(size 0.3 1.5)
		(layers "F.Cu" "F.Paste" "F.Mask")
		(uuid "62b0cb08-142f-4d4d-9296-18e467a366a4")
	)
	(pad "15" smd rect
		(at 2.75 0.25 270)
		(size 0.3 1.5)
		(layers "F.Cu" "F.Paste" "F.Mask")
		(uuid "635bf061-dc5b-441b-9bbc-950f58931ffd")
	)
	(pad "16" smd rect
		(at 2.75 -0.25 270)
		(size 0.3 1.5)
		(layers "F.Cu" "F.Paste" "F.Mask")
		(uuid "f689776c-faaa-48ef-bb1f-df27d4bc9a4c")
	)
	(pad "17" smd rect
		(at 2.75 -0.75 270)
		(size 0.3 1.5)
		(layers "F.Cu" "F.Paste" "F.Mask")
		(uuid "f111ae3a-e506-42a8-9a87-9cfe4e601bcc")
	)
	(pad "18" smd rect
		(at 2.75 -1.25 270)
		(size 0.3 1.5)
		(layers "F.Cu" "F.Paste" "F.Mask")
		(uuid "d8994652-b914-4fd5-9ecf-9d820ea2e531")
	)
	(pad "19" smd rect
		(at 1.25 -2.75)
		(size 0.3 1.5)
		(layers "F.Cu" "F.Paste" "F.Mask")
		(uuid "6ae83d91-4720-444e-915e-dd5b26d438c8")
	)
	(pad "20" smd rect
		(at 0.75 -2.75)
		(size 0.3 1.5)
		(layers "F.Cu" "F.Paste" "F.Mask")
		(uuid "1975945f-84c4-4aba-a0ca-2464372669fa")
	)
	(pad "21" smd rect
		(at 0.25 -2.75)
		(size 0.3 1.5)
		(layers "F.Cu" "F.Paste" "F.Mask")
		(uuid "812201bb-2504-48b1-9a2e-325ec0c457c2")
	)
	(pad "22" smd rect
		(at -0.25 -2.75)
		(size 0.3 1.5)
		(layers "F.Cu" "F.Paste" "F.Mask")
		(uuid "b82861f2-e85e-473e-9457-2dcaed8b7f27")
	)
	(pad "23" smd rect
		(at -0.75 -2.75)
		(size 0.3 1.5)
		(layers "F.Cu" "F.Paste" "F.Mask")
		(uuid "89a81e38-a0c2-4ba2-87a7-15a8cad96355")
	)
	(pad "24" smd rect
		(at -1.25 -2.75)
		(size 0.3 1.5)
		(layers "F.Cu" "F.Paste" "F.Mask")
		(uuid "444a1baa-a6f9-4142-a3c7-dc2571af93de")
	)
)
