(footprint "280618"
	(version 20240108)
	(generator "pcbnew")
	(generator_version "8.0")
	(layer "F.Cu")
	(descr "MOD I R.A. Pin Header, 8 pins")
	(property "Reference" "280618"
		(at 0 0 0)
		(layer "F.Fab")
		(uuid "84daf74c-e0b1-44e5-9969-a0b4f6621762")
		(effects
			(font
				(size 1.2 1.2)
				(thickness 0.12)
			)
		)
	)
	(property "Value" "280618"
		(at 0 0 0)
		(layer "F.Fab")
		(hide yes)
		(uuid "c26d6001-4ab5-4a4b-b1e9-8a2b904ce7d6")
		(effects
			(font
				(size 1.2 1.2)
				(thickness 0.12)
			)
		)
	)
	(property "Footprint" ""
		(at 0 0 0)
		(layer "F.Fab")
		(hide yes)
		(uuid "10a111e1-1c43-453f-8e11-7f97584a41c8")
		(effects
			(font
				(size 1.27 1.27)
				(thickness 0.15)
			)
		)
	)
	(property "Datasheet" ""
		(at 0 0 0)
		(layer "F.Fab")
		(hide yes)
		(uuid "a49e554b-2ba6-4901-9faa-71bb86896e2d")
		(effects
			(font
				(size 1.27 1.27)
				(thickness 0.15)
			)
		)
	)
	(property "Description" ""
		(at 0 0 0)
		(layer "F.Fab")
		(hide yes)
		(uuid "8d7cd673-f7e6-4d6d-a924-0b0ba71488f0")
		(effects
			(font
				(size 1.27 1.27)
				(thickness 0.15)
			)
		)
	)
	(attr through_hole)
	(fp_rect
		(start -15.7 3.1)
		(end 15.7 20.4)
		(stroke
			(width 0.12)
			(type solid)
		)
		(fill none)
		(layer "F.SilkS")
		(uuid "aeff1063-82a3-40d0-a674-c1e906f7172c")
	)
	(fp_circle
		(center -13.85 -1.8)
		(end -13.45 -1.8)
		(stroke
			(width 0.12)
			(type solid)
		)
		(fill solid)
		(layer "F.SilkS")
		(uuid "f1d381a4-7adf-4aed-8e45-55f34050ead2")
	)
	(fp_rect
		(start -16.2 -1.25)
		(end 16.2 20.45)
		(stroke
			(width 0.01)
			(type solid)
		)
		(fill none)
		(layer "F.CrtYd")
		(uuid "d2dc13fe-52f8-4119-846f-28d70c55bc50")
	)
	(fp_line
		(start -14.7 3.1)
		(end -15.7 4.1)
		(stroke
			(width 0.12)
			(type solid)
		)
		(layer "F.Fab")
		(uuid "0d85bfc7-2793-47c5-b3a7-35bc5d60025c")
	)
	(fp_rect
		(start -15.7 3.1)
		(end 15.7 20.4)
		(stroke
			(width 0.12)
			(type solid)
		)
		(fill none)
		(layer "F.Fab")
		(uuid "dd027226-bc9f-473b-94d3-843110595bc6")
	)
	(fp_text user "${REFERENCE}"
		(at 0 -1.8 0)
		(layer "F.SilkS")
		(uuid "8c25d65a-6c40-428a-8788-c2316b4245af")
		(effects
			(font
				(size 0.8 0.8)
				(thickness 0.15)
				(bold yes)
			)
		)
	)
	(pad "1" thru_hole circle
		(at -13.86 0)
		(size 2.1 2.1)
		(drill 1.4)
		(layers "*.Cu" "*.Mask")
		(remove_unused_layers no)
		(uuid "1c97d0c5-2e83-4af3-852b-8b5ec9cf4eae")
	)
	(pad "2" thru_hole circle
		(at -9.9 0)
		(size 2.1 2.1)
		(drill 1.4)
		(layers "*.Cu" "*.Mask")
		(remove_unused_layers no)
		(uuid "bcc67106-60b5-4323-99bf-f09d6231933a")
	)
	(pad "3" thru_hole circle
		(at -5.94 0)
		(size 2.1 2.1)
		(drill 1.4)
		(layers "*.Cu" "*.Mask")
		(remove_unused_layers no)
		(uuid "190b0030-fb5c-4b4e-b857-a2d87f76f330")
	)
	(pad "4" thru_hole circle
		(at -1.98 0)
		(size 2.1 2.1)
		(drill 1.4)
		(layers "*.Cu" "*.Mask")
		(remove_unused_layers no)
		(uuid "551ba432-9f6b-470a-8b6a-1199c4453f8e")
	)
	(pad "5" thru_hole circle
		(at 1.98 0)
		(size 2.1 2.1)
		(drill 1.4)
		(layers "*.Cu" "*.Mask")
		(remove_unused_layers no)
		(uuid "f12a62d9-e891-443b-bdeb-86e751702a09")
	)
	(pad "6" thru_hole circle
		(at 5.94 0)
		(size 2.1 2.1)
		(drill 1.4)
		(layers "*.Cu" "*.Mask")
		(remove_unused_layers no)
		(uuid "4ca204a8-508e-436b-8772-684293581428")
	)
	(pad "7" thru_hole circle
		(at 9.9 0)
		(size 2.1 2.1)
		(drill 1.4)
		(layers "*.Cu" "*.Mask")
		(remove_unused_layers no)
		(uuid "5d20174c-f3aa-4d89-8e2b-ade05c5c38fd")
	)
	(pad "8" thru_hole circle
		(at 13.86 0)
		(size 2.1 2.1)
		(drill 1.4)
		(layers "*.Cu" "*.Mask")
		(remove_unused_layers no)
		(uuid "1f8367e9-78e3-4892-9256-f0b5df892d0e")
	)
)
