(footprint "280616"
	(version 20240108)
	(generator "pcbnew")
	(generator_version "8.0")
	(layer "F.Cu")
	(descr "MOD I R.A. Pin Header, 4 pins")
	(property "Reference" "280616"
		(at 0 0 0)
		(layer "F.Fab")
		(uuid "d40728c1-b70b-4dee-baa5-f9edcba24992")
		(effects
			(font
				(size 1.2 1.2)
				(thickness 0.12)
			)
		)
	)
	(property "Value" "280616"
		(at 0 0 0)
		(layer "F.Fab")
		(hide yes)
		(uuid "c3e3aa30-cad8-4415-b9dc-57c23b70907b")
		(effects
			(font
				(size 1.2 1.2)
				(thickness 0.12)
			)
		)
	)
	(property "Footprint" ""
		(at 0 0 0)
		(layer "F.Fab")
		(hide yes)
		(uuid "5d7f36f6-1873-4b94-876a-08ce5dd2e8d3")
		(effects
			(font
				(size 1.27 1.27)
				(thickness 0.15)
			)
		)
	)
	(property "Datasheet" ""
		(at 0 0 0)
		(layer "F.Fab")
		(hide yes)
		(uuid "cb90e59e-b5fc-4452-ba3e-19358e74cbe8")
		(effects
			(font
				(size 1.27 1.27)
				(thickness 0.15)
			)
		)
	)
	(property "Description" ""
		(at 0 0 0)
		(layer "F.Fab")
		(hide yes)
		(uuid "1dd57fc3-d22c-4069-9081-31c0882f9a66")
		(effects
			(font
				(size 1.27 1.27)
				(thickness 0.15)
			)
		)
	)
	(attr through_hole)
	(fp_rect
		(start -7.75 3.1)
		(end 7.75 20.4)
		(stroke
			(width 0.12)
			(type solid)
		)
		(fill none)
		(layer "F.SilkS")
		(uuid "c6bd0048-6002-4868-8445-1423ac374d55")
	)
	(fp_circle
		(center -5.95 -1.8)
		(end -5.55 -1.8)
		(stroke
			(width 0.12)
			(type solid)
		)
		(fill solid)
		(layer "F.SilkS")
		(uuid "2cafa6b0-d632-4b40-bca0-069d47c7f19a")
	)
	(fp_rect
		(start -8.25 -1.25)
		(end 8.25 20.45)
		(stroke
			(width 0.01)
			(type solid)
		)
		(fill none)
		(layer "F.CrtYd")
		(uuid "a4e96bec-a30d-4b2c-a1d7-a4b0947ac707")
	)
	(fp_line
		(start -6.75 3.1)
		(end -7.75 4.1)
		(stroke
			(width 0.12)
			(type solid)
		)
		(layer "F.Fab")
		(uuid "1fb7ce0f-dd3f-41ae-bc3c-4c9ca8ed45cb")
	)
	(fp_rect
		(start -7.75 3.1)
		(end 7.75 20.4)
		(stroke
			(width 0.12)
			(type solid)
		)
		(fill none)
		(layer "F.Fab")
		(uuid "9110a67f-6e41-438c-981a-38c55e343e01")
	)
	(fp_text user "${REFERENCE}"
		(at 0 -1.8 0)
		(layer "F.SilkS")
		(uuid "9aa4db30-36a2-4331-b278-42210a30777d")
		(effects
			(font
				(size 0.8 0.8)
				(thickness 0.15)
				(bold yes)
			)
		)
	)
	(pad "1" thru_hole circle
		(at -5.94 0)
		(size 2.1 2.1)
		(drill 1.4)
		(layers "*.Cu" "*.Mask")
		(remove_unused_layers no)
		(uuid "1362e1e8-a7c3-4c8f-a980-59fa03694836")
	)
	(pad "2" thru_hole circle
		(at -1.98 0)
		(size 2.1 2.1)
		(drill 1.4)
		(layers "*.Cu" "*.Mask")
		(remove_unused_layers no)
		(uuid "1cb27d20-1cbb-4a5f-bcc8-c9ba3634afdc")
	)
	(pad "3" thru_hole circle
		(at 1.98 0)
		(size 2.1 2.1)
		(drill 1.4)
		(layers "*.Cu" "*.Mask")
		(remove_unused_layers no)
		(uuid "539efc82-5275-4153-a912-5d0174633180")
	)
	(pad "4" thru_hole circle
		(at 5.94 0)
		(size 2.1 2.1)
		(drill 1.4)
		(layers "*.Cu" "*.Mask")
		(remove_unused_layers no)
		(uuid "ffbb9266-e7b9-4f75-98f9-dab0832590d2")
	)
)
