(footprint "61000621121"
	(version 20240108)
	(generator "pcbnew")
	(generator_version "8.0")
	(layer "F.Cu")
	(descr "2.54mm 2×3 SMD Pin Header")
	(property "Reference" "WR-PHD"
		(at 0 0 0)
		(layer "F.Fab")
		(uuid "6f83670c-5810-4c4e-ae3f-063e12026a8b")
		(effects
			(font
				(size 1.2 1.2)
				(thickness 0.12)
			)
		)
	)
	(property "Value" "WR-PHD"
		(at 0 0 0)
		(layer "F.Fab")
		(hide yes)
		(uuid "d6de8e5b-ba18-42a6-af0d-2b3fa7155e71")
		(effects
			(font
				(size 1.2 1.2)
				(thickness 0.12)
			)
		)
	)
	(property "Footprint" ""
		(at 0 0 0)
		(layer "F.Fab")
		(hide yes)
		(uuid "cef6bfad-c9c1-4ca6-9c65-a073509b53bb")
		(effects
			(font
				(size 1.27 1.27)
				(thickness 0.15)
			)
		)
	)
	(property "Datasheet" ""
		(at 0 0 0)
		(layer "F.Fab")
		(hide yes)
		(uuid "f549d411-a471-4692-b931-9def9fe5ecf0")
		(effects
			(font
				(size 1.27 1.27)
				(thickness 0.15)
			)
		)
	)
	(property "Description" ""
		(at 0 0 0)
		(layer "F.Fab")
		(hide yes)
		(uuid "b36a1849-f139-499d-80e6-d8a4c36f7876")
		(effects
			(font
				(size 1.27 1.27)
				(thickness 0.15)
			)
		)
	)
	(attr smd)
	(fp_line
		(start -4.1 -2.6)
		(end -3.35 -2.6)
		(stroke
			(width 0.12)
			(type solid)
		)
		(layer "F.SilkS")
		(uuid "7537bd2c-c1b4-458a-a29c-09c20ee7bfce")
	)
	(fp_line
		(start -4.1 2.6)
		(end -4.1 -2.6)
		(stroke
			(width 0.12)
			(type solid)
		)
		(layer "F.SilkS")
		(uuid "b41e4ffe-6a77-4e30-828d-2d9770eb9fa6")
	)
	(fp_line
		(start -4.1 2.6)
		(end -3.35 2.6)
		(stroke
			(width 0.12)
			(type solid)
		)
		(layer "F.SilkS")
		(uuid "0f4fbdc1-d014-4335-818d-81d2e7b74fb0")
	)
	(fp_line
		(start -3.35 4.25)
		(end -3.35 2.6)
		(stroke
			(width 0.12)
			(type solid)
		)
		(layer "F.SilkS")
		(uuid "668fde73-13ca-4cf1-bbdc-6977ba9f3085")
	)
	(fp_line
		(start 4.1 -2.6)
		(end 3.35 -2.6)
		(stroke
			(width 0.12)
			(type solid)
		)
		(layer "F.SilkS")
		(uuid "ab05b70a-1e99-44da-993b-5156410984c1")
	)
	(fp_line
		(start 4.1 -2.6)
		(end 4.1 2.6)
		(stroke
			(width 0.12)
			(type solid)
		)
		(layer "F.SilkS")
		(uuid "6493c300-427a-4b47-8b24-e78ebabc0a82")
	)
	(fp_line
		(start 4.1 2.6)
		(end 3.35 2.6)
		(stroke
			(width 0.12)
			(type solid)
		)
		(layer "F.SilkS")
		(uuid "61383832-3d25-4490-ac02-1084541ce9db")
	)
	(fp_rect
		(start -4.3 -4.45)
		(end 4.3 4.45)
		(stroke
			(width 0.01)
			(type default)
		)
		(fill none)
		(layer "F.CrtYd")
		(uuid "9d4936e4-6498-4eb0-8451-224031f09ab9")
	)
	(fp_line
		(start -3.1 2.6)
		(end -4.1 1.6)
		(stroke
			(width 0.1)
			(type solid)
		)
		(layer "F.Fab")
		(uuid "20d49f5b-6f33-4079-9210-b3c587f777e4")
	)
	(fp_rect
		(start -4.1 -2.6)
		(end 4.1 2.6)
		(stroke
			(width 0.1)
			(type default)
		)
		(fill none)
		(layer "F.Fab")
		(uuid "5d24998d-11a1-4dfe-8851-a6c7ef2ab38d")
	)
	(fp_text user "${REFERENCE}"
		(at 0 -5 0)
		(layer "F.SilkS")
		(uuid "53048429-2aba-4fef-bd0d-b0495bfdf0b2")
		(effects
			(font
				(size 0.8 0.8)
				(thickness 0.15)
			)
		)
	)
	(pad "1" smd rect
		(at -2.54 2.7)
		(size 1 3.1)
		(layers "F.Cu" "F.Paste" "F.Mask")
		(uuid "4ee7f90c-15f8-4b75-89b5-03ac5fa76296")
	)
	(pad "2" smd rect
		(at -2.54 -2.7)
		(size 1 3.1)
		(layers "F.Cu" "F.Paste" "F.Mask")
		(uuid "e2a9910a-00c8-46ce-bc56-b1fdfeb7a0aa")
	)
	(pad "3" smd rect
		(at 0 2.7)
		(size 1 3.1)
		(layers "F.Cu" "F.Paste" "F.Mask")
		(uuid "2b266f88-a206-45de-b36f-85ba4161d78f")
	)
	(pad "4" smd rect
		(at 0 -2.7)
		(size 1 3.1)
		(layers "F.Cu" "F.Paste" "F.Mask")
		(uuid "7eb19f01-976b-4fa2-aef7-6548dd849ede")
	)
	(pad "5" smd rect
		(at 2.54 2.7)
		(size 1 3.1)
		(layers "F.Cu" "F.Paste" "F.Mask")
		(uuid "fbd9d7c4-19ce-40a6-b625-a7026b212276")
	)
	(pad "6" smd rect
		(at 2.54 -2.7)
		(size 1 3.1)
		(layers "F.Cu" "F.Paste" "F.Mask")
		(uuid "42700b43-fcf9-4cb7-8a74-99f8b08c56cd")
	)
	(model "WE/WR-PHD-61000621121.wrl"
		(offset
			(xyz 0 0 0)
		)
		(scale
			(xyz 1 1 1)
		)
		(rotate
			(xyz 0 0 0)
		)
	)
)
