(footprint "610014243021"
	(version 20240108)
	(generator "pcbnew")
	(generator_version "8.0")
	(layer "F.Cu")
	(descr "2.54mm 2×7 SMD Bottom Entry Socket Header")
	(property "Reference" "WR-PHD"
		(at 0 0 0)
		(layer "F.Fab")
		(uuid "0108198e-ab8b-4931-8805-aa6706707810")
		(effects
			(font
				(size 1.2 1.2)
				(thickness 0.12)
			)
		)
	)
	(property "Value" "WR-PHD"
		(at 0 0 0)
		(layer "F.Fab")
		(hide yes)
		(uuid "76a84ec5-2f7e-4b55-abdc-b7d2eb91bcde")
		(effects
			(font
				(size 1.2 1.2)
				(thickness 0.12)
			)
		)
	)
	(property "Footprint" ""
		(at 0 0 0)
		(layer "F.Fab")
		(hide yes)
		(uuid "142cc56c-0433-456f-9760-6b98e368928d")
		(effects
			(font
				(size 1.27 1.27)
				(thickness 0.15)
			)
		)
	)
	(property "Datasheet" ""
		(at 0 0 0)
		(layer "F.Fab")
		(hide yes)
		(uuid "40dcb09d-3128-4d9f-8e29-7ec6478ee269")
		(effects
			(font
				(size 1.27 1.27)
				(thickness 0.15)
			)
		)
	)
	(property "Description" ""
		(at 0 0 0)
		(layer "F.Fab")
		(hide yes)
		(uuid "0d6df3d2-ce82-45fa-acbc-75cf468f0302")
		(effects
			(font
				(size 1.27 1.27)
				(thickness 0.15)
			)
		)
	)
	(attr through_hole)
	(fp_line
		(start -9.15 -2.6)
		(end -8.6 -2.6)
		(stroke
			(width 0.12)
			(type solid)
		)
		(layer "F.SilkS")
		(uuid "da2ae61b-fd76-4191-8cf2-f43dd44d7137")
	)
	(fp_line
		(start -9.15 2.6)
		(end -9.15 -2.6)
		(stroke
			(width 0.12)
			(type solid)
		)
		(layer "F.SilkS")
		(uuid "41e724f0-824c-4724-bbde-5d863bed60f5")
	)
	(fp_line
		(start -9.15 2.6)
		(end -8.6 2.6)
		(stroke
			(width 0.12)
			(type solid)
		)
		(layer "F.SilkS")
		(uuid "ffbe8061-e503-4dad-a9fe-f5756d0d962b")
	)
	(fp_line
		(start -8.6 -4.05)
		(end -8.6 -2.6)
		(stroke
			(width 0.12)
			(type solid)
		)
		(layer "F.SilkS")
		(uuid "fe4c755f-ef57-48ee-86de-2ae84b2041f5")
	)
	(fp_line
		(start 9.15 -2.6)
		(end 8.6 -2.6)
		(stroke
			(width 0.12)
			(type solid)
		)
		(layer "F.SilkS")
		(uuid "b5fc74b6-c228-481a-9b02-c79e7cd62647")
	)
	(fp_line
		(start 9.15 -2.6)
		(end 9.15 2.6)
		(stroke
			(width 0.12)
			(type solid)
		)
		(layer "F.SilkS")
		(uuid "fa93f146-70fc-48e2-9142-0d7980d8c6e3")
	)
	(fp_line
		(start 9.15 2.6)
		(end 8.6 2.6)
		(stroke
			(width 0.12)
			(type solid)
		)
		(layer "F.SilkS")
		(uuid "65b01d0f-d81e-43a5-87a4-193b7b992463")
	)
	(fp_line
		(start -9.85 -4.35)
		(end -9.85 4.35)
		(stroke
			(width 0.01)
			(type solid)
		)
		(layer "F.CrtYd")
		(uuid "c3698d85-9fdc-47f2-8da7-287d58e5c834")
	)
	(fp_line
		(start -9.85 4.35)
		(end 9.65 4.35)
		(stroke
			(width 0.01)
			(type solid)
		)
		(layer "F.CrtYd")
		(uuid "4728b23a-723b-4c5b-a3a9-ddf398d50d63")
	)
	(fp_line
		(start 9.65 -4.35)
		(end -9.85 -4.35)
		(stroke
			(width 0.01)
			(type solid)
		)
		(layer "F.CrtYd")
		(uuid "8ad378a9-f389-4641-923b-aa9701740036")
	)
	(fp_line
		(start 9.65 4.35)
		(end 9.65 -4.35)
		(stroke
			(width 0.01)
			(type solid)
		)
		(layer "F.CrtYd")
		(uuid "bfdc431f-a2fa-433c-bc64-aa857805476c")
	)
	(fp_line
		(start -9.15 -2.6)
		(end -9.15 2.6)
		(stroke
			(width 0.12)
			(type solid)
		)
		(layer "F.Fab")
		(uuid "ef551fba-0a5a-46ae-936d-10a53e0dee0a")
	)
	(fp_line
		(start -9.15 2.6)
		(end 9.15 2.6)
		(stroke
			(width 0.12)
			(type solid)
		)
		(layer "F.Fab")
		(uuid "14291300-d77b-45db-a360-2b37fd1b131c")
	)
	(fp_line
		(start -8.15 -2.6)
		(end -9.15 -1.6)
		(stroke
			(width 0.12)
			(type solid)
		)
		(layer "F.Fab")
		(uuid "7480a074-f6ba-4464-b98f-8ba25875b555")
	)
	(fp_line
		(start 9.15 -2.6)
		(end -9.15 -2.6)
		(stroke
			(width 0.12)
			(type solid)
		)
		(layer "F.Fab")
		(uuid "801555ee-638e-40b6-929d-e230b5fbc659")
	)
	(fp_line
		(start 9.15 2.6)
		(end 9.15 -2.6)
		(stroke
			(width 0.12)
			(type solid)
		)
		(layer "F.Fab")
		(uuid "dcb5a2ca-c982-4f79-bc6b-bf2da4fd5b8f")
	)
	(fp_text user "${REFERENCE}"
		(at 0 -4.85 0)
		(layer "F.SilkS")
		(uuid "d10cdefb-89ab-4592-b6f1-4e850077752a")
		(effects
			(font
				(size 0.8 0.8)
				(thickness 0.15)
			)
		)
	)
	(pad "" np_thru_hole circle
		(at -7.62 -1.27)
		(size 1.1 1.1)
		(drill 1.1)
		(layers "*.Cu" "*.Mask")
		(uuid "57af52cb-55be-4911-98b2-cc77b8bc818a")
	)
	(pad "" np_thru_hole circle
		(at -7.62 1.27)
		(size 1.1 1.1)
		(drill 1.1)
		(layers "*.Cu" "*.Mask")
		(uuid "1676a879-46d5-4642-88db-320857019372")
	)
	(pad "" np_thru_hole circle
		(at -5.08 -1.27)
		(size 1.1 1.1)
		(drill 1.1)
		(layers "*.Cu" "*.Mask")
		(uuid "f4702882-a556-49ac-8866-420717140c56")
	)
	(pad "" np_thru_hole circle
		(at -5.08 1.27)
		(size 1.1 1.1)
		(drill 1.1)
		(layers "*.Cu" "*.Mask")
		(uuid "ad0684c1-8799-4ba7-a9a5-ab1d0ee298d9")
	)
	(pad "" np_thru_hole circle
		(at -2.54 -1.27)
		(size 1.1 1.1)
		(drill 1.1)
		(layers "*.Cu" "*.Mask")
		(uuid "3e0fc02f-724b-481f-9684-e9a3e06359ca")
	)
	(pad "" np_thru_hole circle
		(at -2.54 1.27)
		(size 1.1 1.1)
		(drill 1.1)
		(layers "*.Cu" "*.Mask")
		(uuid "4523cd91-20d0-4d84-9baa-f96e8cf94db2")
	)
	(pad "" np_thru_hole circle
		(at 0 -1.27)
		(size 1.1 1.1)
		(drill 1.1)
		(layers "*.Cu" "*.Mask")
		(uuid "fdf681d6-1f18-4617-a1c8-24337a2ae673")
	)
	(pad "" np_thru_hole circle
		(at 0 1.27)
		(size 1.1 1.1)
		(drill 1.1)
		(layers "*.Cu" "*.Mask")
		(uuid "01e21615-612e-4506-812e-70aa4501fb12")
	)
	(pad "" np_thru_hole circle
		(at 2.54 -1.27)
		(size 1.1 1.1)
		(drill 1.1)
		(layers "*.Cu" "*.Mask")
		(uuid "dabfc41b-d306-443a-978b-02d656331f67")
	)
	(pad "" np_thru_hole circle
		(at 2.54 1.27)
		(size 1.1 1.1)
		(drill 1.1)
		(layers "*.Cu" "*.Mask")
		(uuid "e1f67d33-5dcd-459a-b7b9-b725f8f0eac4")
	)
	(pad "" np_thru_hole circle
		(at 5.08 -1.27)
		(size 1.1 1.1)
		(drill 1.1)
		(layers "*.Cu" "*.Mask")
		(uuid "f9ca34fd-f0c9-4ce6-b812-ac54184ea6bb")
	)
	(pad "" np_thru_hole circle
		(at 5.08 1.27)
		(size 1.1 1.1)
		(drill 1.1)
		(layers "*.Cu" "*.Mask")
		(uuid "a301ad61-16d6-486c-9264-2c14ffe9884f")
	)
	(pad "" np_thru_hole circle
		(at 7.62 -1.27)
		(size 1.1 1.1)
		(drill 1.1)
		(layers "*.Cu" "*.Mask")
		(uuid "b6c321c5-2216-46a7-ab31-bc7556de4e6f")
	)
	(pad "" np_thru_hole circle
		(at 7.62 1.27)
		(size 1.1 1.1)
		(drill 1.1)
		(layers "*.Cu" "*.Mask")
		(uuid "7d0e4cfa-8fed-4394-9f0b-afc98bfcd242")
	)
	(pad "1" smd rect
		(at -7.62 -3.2)
		(size 0.9 1.8)
		(layers "F.Cu" "F.Paste" "F.Mask")
		(uuid "39cf2051-82c2-4730-91df-bdb6fd3bfb28")
	)
	(pad "2" smd rect
		(at -7.62 3.2)
		(size 0.9 1.8)
		(layers "F.Cu" "F.Paste" "F.Mask")
		(uuid "1dd31b0e-285b-41ec-8696-55366a85cc6f")
	)
	(pad "3" smd rect
		(at -5.08 -3.2)
		(size 0.9 1.8)
		(layers "F.Cu" "F.Paste" "F.Mask")
		(uuid "fdd60316-6f9e-4da1-a505-848854ddc139")
	)
	(pad "4" smd rect
		(at -5.08 3.2)
		(size 0.9 1.8)
		(layers "F.Cu" "F.Paste" "F.Mask")
		(uuid "a0ab2013-b895-458b-b57a-7d2b1a5b1a62")
	)
	(pad "5" smd rect
		(at -2.54 -3.2)
		(size 0.9 1.8)
		(layers "F.Cu" "F.Paste" "F.Mask")
		(uuid "c213bba8-46f3-4f7d-a98a-eb77556ab199")
	)
	(pad "6" smd rect
		(at -2.54 3.2)
		(size 0.9 1.8)
		(layers "F.Cu" "F.Paste" "F.Mask")
		(uuid "d0c37592-5214-428f-811b-1f36427e1b53")
	)
	(pad "7" smd rect
		(at 0 -3.2)
		(size 0.9 1.8)
		(layers "F.Cu" "F.Paste" "F.Mask")
		(uuid "43829ace-07d3-41f3-bf8c-018678040919")
	)
	(pad "8" smd rect
		(at 0 3.2)
		(size 0.9 1.8)
		(layers "F.Cu" "F.Paste" "F.Mask")
		(uuid "1781018f-06fc-414b-a346-bf783984b04c")
	)
	(pad "9" smd rect
		(at 2.54 -3.2)
		(size 0.9 1.8)
		(layers "F.Cu" "F.Paste" "F.Mask")
		(uuid "33f10444-0f08-4c75-b730-e2f36ba9cf77")
	)
	(pad "10" smd rect
		(at 2.54 3.2)
		(size 0.9 1.8)
		(layers "F.Cu" "F.Paste" "F.Mask")
		(uuid "632510b4-1fe0-4641-b2e1-958aac2c73e0")
	)
	(pad "11" smd rect
		(at 5.08 -3.2)
		(size 0.9 1.8)
		(layers "F.Cu" "F.Paste" "F.Mask")
		(uuid "eeddf5d1-a77e-422d-8cb5-31f4454d57c5")
	)
	(pad "12" smd rect
		(at 5.08 3.2)
		(size 0.9 1.8)
		(layers "F.Cu" "F.Paste" "F.Mask")
		(uuid "12fd3526-759a-4ff2-8214-22d22327c35e")
	)
	(pad "13" smd rect
		(at 7.62 -3.2)
		(size 0.9 1.8)
		(layers "F.Cu" "F.Paste" "F.Mask")
		(uuid "7932416a-13f3-4b9e-a487-ed17593ab194")
	)
	(pad "14" smd rect
		(at 7.62 3.2)
		(size 0.9 1.8)
		(layers "F.Cu" "F.Paste" "F.Mask")
		(uuid "4f730285-1f37-477f-a265-061c2b8fc5b6")
	)
)
