(kicad_symbol_lib
	(version 20231120)
	(generator "kicad_symbol_editor")
	(generator_version "8.0")
	(symbol "10M02SCE144"
		(exclude_from_sim no)
		(in_bom yes)
		(on_board yes)
		(property "Reference" "U"
			(at 12.7 -1.27 0)
			(effects
				(font
					(size 1.27 1.27)
				)
				(justify right)
			)
		)
		(property "Value" "10M02SCE144"
			(at 0 -77.47 0)
			(effects
				(font
					(size 1.27 1.27)
				)
			)
		)
		(property "Footprint" "qfp:Altera-E144"
			(at 0 -78.74 0)
			(effects
				(font
					(size 0.762 0.762)
				)
				(hide yes)
			)
		)
		(property "Datasheet" ""
			(at 0 0 0)
			(effects
				(font
					(size 1.27 1.27)
				)
				(hide yes)
			)
		)
		(property "Description" "MAX10 FPGA 2k Cells, Single Supply (E144)"
			(at 0 -81.28 0)
			(effects
				(font
					(size 1.27 1.27)
				)
				(hide yes)
			)
		)
		(property "Manuf" "Altera"
			(at 0 -80.01 0)
			(effects
				(font
					(size 0.762 0.762)
				)
				(hide yes)
			)
		)
		(property "ki_locked" ""
			(at 0 0 0)
			(effects
				(font
					(size 1.27 1.27)
				)
			)
		)
		(symbol "10M02SCE144_1_1"
			(rectangle
				(start -45.72 -2.54)
				(end 12.7 -73.66)
				(stroke
					(width 0)
					(type default)
				)
				(fill
					(type none)
				)
			)
			(text "Bank 1A"
				(at 2.54 -13.97 900)
				(effects
					(font
						(size 1.27 1.27)
					)
				)
			)
			(text "Bank 1B"
				(at 2.54 -38.1 900)
				(effects
					(font
						(size 1.27 1.27)
					)
				)
			)
			(text "Bank 2"
				(at 2.54 -64.77 900)
				(effects
					(font
						(size 1.27 1.27)
					)
				)
			)
			(pin passive line
				(at -50.8 -17.78 0)
				(length 5.08)
				(name "DIFFIO-RX-L3"
					(effects
						(font
							(size 1.27 1.27)
						)
					)
				)
				(number "10"
					(effects
						(font
							(size 1.27 1.27)
						)
					)
				)
				(alternate "DIFFOUT-L3" passive line)
			)
			(pin passive line
				(at 17.78 -7.62 180)
				(length 5.08)
				(name "VCCIO1"
					(effects
						(font
							(size 1.27 1.27)
						)
					)
				)
				(number "12"
					(effects
						(font
							(size 1.27 1.27)
						)
					)
				)
			)
			(pin passive line
				(at -50.8 -27.94 0)
				(length 5.08)
				(name "JTAGEN"
					(effects
						(font
							(size 1.27 1.27)
						)
					)
				)
				(number "13"
					(effects
						(font
							(size 1.27 1.27)
						)
					)
				)
				(alternate "IO-L13" passive line)
			)
			(pin passive line
				(at -50.8 -50.8 0)
				(length 5.08)
				(name "VREFB1N0"
					(effects
						(font
							(size 1.27 1.27)
						)
					)
				)
				(number "14"
					(effects
						(font
							(size 1.27 1.27)
						)
					)
				)
			)
			(pin passive line
				(at -50.8 -30.48 0)
				(length 5.08)
				(name "TMS"
					(effects
						(font
							(size 1.27 1.27)
						)
					)
				)
				(number "15"
					(effects
						(font
							(size 1.27 1.27)
						)
					)
				)
				(alternate "~{DIFFIO-RX-L7}" passive line)
				(alternate "~{DIFFOUT-L7}" passive line)
			)
			(pin passive line
				(at -50.8 -33.02 0)
				(length 5.08)
				(name "TCK"
					(effects
						(font
							(size 1.27 1.27)
						)
					)
				)
				(number "16"
					(effects
						(font
							(size 1.27 1.27)
						)
					)
				)
				(alternate "DIFFIO-RX-L7" passive line)
				(alternate "DIFFOUT-L7" passive line)
			)
			(pin passive line
				(at -50.8 -35.56 0)
				(length 5.08)
				(name "TDI"
					(effects
						(font
							(size 1.27 1.27)
						)
					)
				)
				(number "17"
					(effects
						(font
							(size 1.27 1.27)
						)
					)
				)
				(alternate "~{DIFFIO-RX-L8}" passive line)
				(alternate "~{DIFFOUT-L8}" passive line)
			)
			(pin passive line
				(at -50.8 -38.1 0)
				(length 5.08)
				(name "TDO"
					(effects
						(font
							(size 1.27 1.27)
						)
					)
				)
				(number "18"
					(effects
						(font
							(size 1.27 1.27)
						)
					)
				)
				(alternate "DIFFIO-RX-L8" passive line)
				(alternate "DIFFOUT-L8" passive line)
			)
			(pin passive line
				(at -50.8 -40.64 0)
				(length 5.08)
				(name "~{DIFFIO-RX-L10}"
					(effects
						(font
							(size 1.27 1.27)
						)
					)
				)
				(number "19"
					(effects
						(font
							(size 1.27 1.27)
						)
					)
				)
				(alternate "~{DIFFOUT-L10}" passive line)
			)
			(pin passive line
				(at -50.8 -43.18 0)
				(length 5.08)
				(name "DIFFIO-RX-L10"
					(effects
						(font
							(size 1.27 1.27)
						)
					)
				)
				(number "21"
					(effects
						(font
							(size 1.27 1.27)
						)
					)
				)
				(alternate "DIFFOUT-L10" passive line)
			)
			(pin passive line
				(at 17.78 -5.08 180)
				(length 5.08)
				(name "VCCIO1"
					(effects
						(font
							(size 1.27 1.27)
						)
					)
				)
				(number "22"
					(effects
						(font
							(size 1.27 1.27)
						)
					)
				)
			)
			(pin passive line
				(at -50.8 -45.72 0)
				(length 5.08)
				(name "~{DIFFIO-RX-L12}"
					(effects
						(font
							(size 1.27 1.27)
						)
					)
				)
				(number "23"
					(effects
						(font
							(size 1.27 1.27)
						)
					)
				)
				(alternate "~{DIFFOUT-L12}" passive line)
			)
			(pin passive line
				(at -50.8 -48.26 0)
				(length 5.08)
				(name "DIFFIO-RX-L12"
					(effects
						(font
							(size 1.27 1.27)
						)
					)
				)
				(number "24"
					(effects
						(font
							(size 1.27 1.27)
						)
					)
				)
				(alternate "DIFFOUT-L12" passive line)
			)
			(pin passive line
				(at -50.8 -55.88 0)
				(length 5.08)
				(name "~{CLK0}"
					(effects
						(font
							(size 1.27 1.27)
						)
					)
				)
				(number "25"
					(effects
						(font
							(size 1.27 1.27)
						)
					)
				)
				(alternate "~{DIFFIO-RX-L14}" passive line)
				(alternate "~{DIFFOUT-L14}" passive line)
			)
			(pin passive line
				(at -50.8 -58.42 0)
				(length 5.08)
				(name "CLK0"
					(effects
						(font
							(size 1.27 1.27)
						)
					)
				)
				(number "26"
					(effects
						(font
							(size 1.27 1.27)
						)
					)
				)
				(alternate "DIFFIO-RX-L14" passive line)
				(alternate "DIFFOUT-L14" passive line)
			)
			(pin passive line
				(at -50.8 -60.96 0)
				(length 5.08)
				(name "~{CLK1}"
					(effects
						(font
							(size 1.27 1.27)
						)
					)
				)
				(number "27"
					(effects
						(font
							(size 1.27 1.27)
						)
					)
				)
				(alternate "~{DIFFIO-RX-L16}" passive line)
				(alternate "~{DIFFOUT-L16}" passive line)
			)
			(pin passive line
				(at -50.8 -63.5 0)
				(length 5.08)
				(name "CLK1"
					(effects
						(font
							(size 1.27 1.27)
						)
					)
				)
				(number "28"
					(effects
						(font
							(size 1.27 1.27)
						)
					)
				)
				(alternate "DIFFIO-RX-L16" passive line)
				(alternate "DIFFOUT-L16" passive line)
			)
			(pin passive line
				(at 17.78 -55.88 180)
				(length 5.08)
				(name "VCCIO2"
					(effects
						(font
							(size 1.27 1.27)
						)
					)
				)
				(number "29"
					(effects
						(font
							(size 1.27 1.27)
						)
					)
				)
			)
			(pin passive line
				(at -50.8 -10.16 0)
				(length 5.08)
				(name "~{DIFFIO-RX-L2}"
					(effects
						(font
							(size 1.27 1.27)
						)
					)
				)
				(number "3"
					(effects
						(font
							(size 1.27 1.27)
						)
					)
				)
				(alternate "~{DIFFOUT-L2}" passive line)
			)
			(pin passive line
				(at -50.8 -71.12 0)
				(length 5.08)
				(name "VREFB2N0"
					(effects
						(font
							(size 1.27 1.27)
						)
					)
				)
				(number "31"
					(effects
						(font
							(size 1.27 1.27)
						)
					)
				)
			)
			(pin passive line
				(at -50.8 -66.04 0)
				(length 5.08)
				(name "~{PLL-L-CLKOUT}"
					(effects
						(font
							(size 1.27 1.27)
						)
					)
				)
				(number "32"
					(effects
						(font
							(size 1.27 1.27)
						)
					)
				)
				(alternate "~{DIFFIO-RX-L19}" passive line)
				(alternate "~{DIFFOUT-L19}" passive line)
			)
			(pin passive line
				(at -50.8 -68.58 0)
				(length 5.08)
				(name "PLL-L-CLKOUT"
					(effects
						(font
							(size 1.27 1.27)
						)
					)
				)
				(number "33"
					(effects
						(font
							(size 1.27 1.27)
						)
					)
				)
				(alternate "DIFFIO-RX-L19" passive line)
				(alternate "DIFFOUT-L19" passive line)
			)
			(pin passive line
				(at -50.8 -5.08 0)
				(length 5.08)
				(name "~{DIFFIO-RX-L1}"
					(effects
						(font
							(size 1.27 1.27)
						)
					)
				)
				(number "4"
					(effects
						(font
							(size 1.27 1.27)
						)
					)
				)
				(alternate "~{DIFFOUT-L1}" passive line)
			)
			(pin passive line
				(at -50.8 -12.7 0)
				(length 5.08)
				(name "DIFFIO-RX-L2"
					(effects
						(font
							(size 1.27 1.27)
						)
					)
				)
				(number "5"
					(effects
						(font
							(size 1.27 1.27)
						)
					)
				)
				(alternate "DIFFOUT-L2" passive line)
			)
			(pin passive line
				(at -50.8 -7.62 0)
				(length 5.08)
				(name "DIFFIO-RX-L1"
					(effects
						(font
							(size 1.27 1.27)
						)
					)
				)
				(number "6"
					(effects
						(font
							(size 1.27 1.27)
						)
					)
				)
				(alternate "DIFFOUT-L1" passive line)
			)
			(pin passive line
				(at -50.8 -20.32 0)
				(length 5.08)
				(name "~{DIFFIO-RX-L4}"
					(effects
						(font
							(size 1.27 1.27)
						)
					)
				)
				(number "7"
					(effects
						(font
							(size 1.27 1.27)
						)
					)
				)
				(alternate "~{DIFFOUT-L4}" passive line)
			)
			(pin passive line
				(at -50.8 -15.24 0)
				(length 5.08)
				(name "~{DIFFIO-RX-L3}"
					(effects
						(font
							(size 1.27 1.27)
						)
					)
				)
				(number "8"
					(effects
						(font
							(size 1.27 1.27)
						)
					)
				)
				(alternate "~{DIFFOUT-L3}" passive line)
			)
			(pin passive line
				(at -50.8 -22.86 0)
				(length 5.08)
				(name "DIFFIO-RX-L4"
					(effects
						(font
							(size 1.27 1.27)
						)
					)
				)
				(number "9"
					(effects
						(font
							(size 1.27 1.27)
						)
					)
				)
				(alternate "DIFFOUT-L4" passive line)
			)
		)
		(symbol "10M02SCE144_2_1"
			(rectangle
				(start -45.72 -2.54)
				(end 12.7 -68.58)
				(stroke
					(width 0)
					(type default)
				)
				(fill
					(type none)
				)
			)
			(text "Bank 3"
				(at 2.54 -33.02 900)
				(effects
					(font
						(size 1.27 1.27)
					)
				)
			)
			(pin passive line
				(at -50.8 -10.16 0)
				(length 5.08)
				(name "~{DIFFIO-RX-B2}/~{DIFFOUT-B2}"
					(effects
						(font
							(size 1.27 1.27)
						)
					)
				)
				(number "39"
					(effects
						(font
							(size 1.27 1.27)
						)
					)
				)
			)
			(pin passive line
				(at -50.8 -5.08 0)
				(length 5.08)
				(name "~{DIFFIO-TX-RX-B1}/~{DIFFOUT-B1}"
					(effects
						(font
							(size 1.27 1.27)
						)
					)
				)
				(number "40"
					(effects
						(font
							(size 1.27 1.27)
						)
					)
				)
			)
			(pin passive line
				(at -50.8 -12.7 0)
				(length 5.08)
				(name "DIFFIO-RX-B2/DIFFOUT-B2"
					(effects
						(font
							(size 1.27 1.27)
						)
					)
				)
				(number "41"
					(effects
						(font
							(size 1.27 1.27)
						)
					)
				)
			)
			(pin passive line
				(at -50.8 -7.62 0)
				(length 5.08)
				(name "DIFFIO-TX-RX-B1/DIFFOUT-B1"
					(effects
						(font
							(size 1.27 1.27)
						)
					)
				)
				(number "42"
					(effects
						(font
							(size 1.27 1.27)
						)
					)
				)
			)
			(pin passive line
				(at 17.78 -10.16 180)
				(length 5.08)
				(name "VCCIO3"
					(effects
						(font
							(size 1.27 1.27)
						)
					)
				)
				(number "43"
					(effects
						(font
							(size 1.27 1.27)
						)
					)
				)
			)
			(pin passive line
				(at -50.8 -15.24 0)
				(length 5.08)
				(name "~{DIFFIO-TX-RX-B3}/~{DIFFOUT-B3}"
					(effects
						(font
							(size 1.27 1.27)
						)
					)
				)
				(number "44"
					(effects
						(font
							(size 1.27 1.27)
						)
					)
				)
			)
			(pin passive line
				(at -50.8 -17.78 0)
				(length 5.08)
				(name "DIFFIO-TX-RX-B3/DIFFOUT-B3"
					(effects
						(font
							(size 1.27 1.27)
						)
					)
				)
				(number "46"
					(effects
						(font
							(size 1.27 1.27)
						)
					)
				)
			)
			(pin passive line
				(at -50.8 -25.4 0)
				(length 5.08)
				(name "~{DIFFIO-RX-B6}/~{DIFFOUT-B6}"
					(effects
						(font
							(size 1.27 1.27)
						)
					)
				)
				(number "47"
					(effects
						(font
							(size 1.27 1.27)
						)
					)
				)
			)
			(pin passive line
				(at -50.8 -20.32 0)
				(length 5.08)
				(name "~{DIFFIO-TX-RX-B5}/~{DIFFOUT-B5}"
					(effects
						(font
							(size 1.27 1.27)
						)
					)
				)
				(number "48"
					(effects
						(font
							(size 1.27 1.27)
						)
					)
				)
			)
			(pin passive line
				(at -50.8 -27.94 0)
				(length 5.08)
				(name "DIFFIO-RX-B6/DIFFOUT-B6"
					(effects
						(font
							(size 1.27 1.27)
						)
					)
				)
				(number "49"
					(effects
						(font
							(size 1.27 1.27)
						)
					)
				)
			)
			(pin passive line
				(at -50.8 -22.86 0)
				(length 5.08)
				(name "DIFFIO-TX-RX-B5/DIFFOUT-B5"
					(effects
						(font
							(size 1.27 1.27)
						)
					)
				)
				(number "50"
					(effects
						(font
							(size 1.27 1.27)
						)
					)
				)
			)
			(pin passive line
				(at -50.8 -35.56 0)
				(length 5.08)
				(name "~{DIFFIO-RX-B8}/~{DIFFOUT-B8}"
					(effects
						(font
							(size 1.27 1.27)
						)
					)
				)
				(number "51"
					(effects
						(font
							(size 1.27 1.27)
						)
					)
				)
			)
			(pin passive line
				(at -50.8 -30.48 0)
				(length 5.08)
				(name "~{DIFFIO-TX-RX-B7}/~{DIFFOUT-B7}"
					(effects
						(font
							(size 1.27 1.27)
						)
					)
				)
				(number "52"
					(effects
						(font
							(size 1.27 1.27)
						)
					)
				)
			)
			(pin passive line
				(at -50.8 -38.1 0)
				(length 5.08)
				(name "DIFFIO-RX-B8/DIFFOUT-B8"
					(effects
						(font
							(size 1.27 1.27)
						)
					)
				)
				(number "53"
					(effects
						(font
							(size 1.27 1.27)
						)
					)
				)
			)
			(pin passive line
				(at -50.8 -33.02 0)
				(length 5.08)
				(name "DIFFIO-TX-RX-B7/DIFFOUT-B7"
					(effects
						(font
							(size 1.27 1.27)
						)
					)
				)
				(number "54"
					(effects
						(font
							(size 1.27 1.27)
						)
					)
				)
			)
			(pin passive line
				(at -50.8 -66.04 0)
				(length 5.08)
				(name "VREFB3N0"
					(effects
						(font
							(size 1.27 1.27)
						)
					)
				)
				(number "55"
					(effects
						(font
							(size 1.27 1.27)
						)
					)
				)
			)
			(pin passive line
				(at 17.78 -7.62 180)
				(length 5.08)
				(name "VCCIO3"
					(effects
						(font
							(size 1.27 1.27)
						)
					)
				)
				(number "56"
					(effects
						(font
							(size 1.27 1.27)
						)
					)
				)
			)
			(pin passive line
				(at -50.8 -40.64 0)
				(length 5.08)
				(name "~{DIFFIO-TX-RX-B12}/~{DIFFOUT-B12}"
					(effects
						(font
							(size 1.27 1.27)
						)
					)
				)
				(number "59"
					(effects
						(font
							(size 1.27 1.27)
						)
					)
				)
			)
			(pin passive line
				(at -50.8 -45.72 0)
				(length 5.08)
				(name "~{DIFFIO-RX-B13}/~{DIFFOUT-B13}"
					(effects
						(font
							(size 1.27 1.27)
						)
					)
				)
				(number "60"
					(effects
						(font
							(size 1.27 1.27)
						)
					)
				)
			)
			(pin passive line
				(at -50.8 -43.18 0)
				(length 5.08)
				(name "DIFFIO-TX-RX-B12/DIFFOUT-B12"
					(effects
						(font
							(size 1.27 1.27)
						)
					)
				)
				(number "61"
					(effects
						(font
							(size 1.27 1.27)
						)
					)
				)
			)
			(pin passive line
				(at -50.8 -48.26 0)
				(length 5.08)
				(name "DIFFIO-RX-B13/DIFFOUT-B13"
					(effects
						(font
							(size 1.27 1.27)
						)
					)
				)
				(number "62"
					(effects
						(font
							(size 1.27 1.27)
						)
					)
				)
			)
			(pin passive line
				(at -50.8 -50.8 0)
				(length 5.08)
				(name "~{DIFFIO-TX-RX-B14}/~{DIFFOUT-B14}"
					(effects
						(font
							(size 1.27 1.27)
						)
					)
				)
				(number "63"
					(effects
						(font
							(size 1.27 1.27)
						)
					)
				)
			)
			(pin passive line
				(at 17.78 -5.08 180)
				(length 5.08)
				(name "VCCIO3"
					(effects
						(font
							(size 1.27 1.27)
						)
					)
				)
				(number "64"
					(effects
						(font
							(size 1.27 1.27)
						)
					)
				)
			)
			(pin passive line
				(at -50.8 -53.34 0)
				(length 5.08)
				(name "DIFFIO-TX-RX-B14/DIFFOUT-B14"
					(effects
						(font
							(size 1.27 1.27)
						)
					)
				)
				(number "65"
					(effects
						(font
							(size 1.27 1.27)
						)
					)
				)
			)
			(pin passive line
				(at -50.8 -55.88 0)
				(length 5.08)
				(name "~{DIFFIO-TX-RX-B16}/~{DIFFOUT-B16}"
					(effects
						(font
							(size 1.27 1.27)
						)
					)
				)
				(number "67"
					(effects
						(font
							(size 1.27 1.27)
						)
					)
				)
			)
			(pin passive line
				(at -50.8 -60.96 0)
				(length 5.08)
				(name "~{DIFFIO-RX-B17}/~{DIFFOUT-B17}"
					(effects
						(font
							(size 1.27 1.27)
						)
					)
				)
				(number "68"
					(effects
						(font
							(size 1.27 1.27)
						)
					)
				)
			)
			(pin passive line
				(at -50.8 -58.42 0)
				(length 5.08)
				(name "DIFFIO-TX-RX-B16/DIFFOUT-B16"
					(effects
						(font
							(size 1.27 1.27)
						)
					)
				)
				(number "69"
					(effects
						(font
							(size 1.27 1.27)
						)
					)
				)
			)
			(pin passive line
				(at -50.8 -63.5 0)
				(length 5.08)
				(name "DIFFIO-RX-B17/DIFFOUT-B17"
					(effects
						(font
							(size 1.27 1.27)
						)
					)
				)
				(number "70"
					(effects
						(font
							(size 1.27 1.27)
						)
					)
				)
			)
		)
		(symbol "10M02SCE144_3_1"
			(rectangle
				(start 12.7 -2.54)
				(end -45.72 -76.2)
				(stroke
					(width 0)
					(type default)
				)
				(fill
					(type none)
				)
			)
			(text "Bank 5"
				(at 2.54 -19.05 900)
				(effects
					(font
						(size 1.27 1.27)
					)
				)
			)
			(text "Bank 6"
				(at 2.54 -55.88 900)
				(effects
					(font
						(size 1.27 1.27)
					)
				)
			)
			(pin passive line
				(at -50.8 -58.42 0)
				(length 5.08)
				(name "~{DIFFIO-RX-R18}/~{DIFFOUT-R18}"
					(effects
						(font
							(size 1.27 1.27)
						)
					)
				)
				(number "100"
					(effects
						(font
							(size 1.27 1.27)
						)
					)
				)
			)
			(pin passive line
				(at -50.8 -66.04 0)
				(length 5.08)
				(name "DIFFIO-RX-R21/DIFFOUT-R21"
					(effects
						(font
							(size 1.27 1.27)
						)
					)
				)
				(number "101"
					(effects
						(font
							(size 1.27 1.27)
						)
					)
				)
			)
			(pin passive line
				(at 17.78 -40.64 180)
				(length 5.08)
				(name "VCCIO6"
					(effects
						(font
							(size 1.27 1.27)
						)
					)
				)
				(number "102"
					(effects
						(font
							(size 1.27 1.27)
						)
					)
				)
			)
			(pin passive line
				(at -50.8 -63.5 0)
				(length 5.08)
				(name "~{DIFFIO-RX-R21}/~{DIFFOUT-R21}"
					(effects
						(font
							(size 1.27 1.27)
						)
					)
				)
				(number "103"
					(effects
						(font
							(size 1.27 1.27)
						)
					)
				)
			)
			(pin passive line
				(at -50.8 -71.12 0)
				(length 5.08)
				(name "DIFFIO-RX-R23/DIFFOUT-R23"
					(effects
						(font
							(size 1.27 1.27)
						)
					)
				)
				(number "105"
					(effects
						(font
							(size 1.27 1.27)
						)
					)
				)
			)
			(pin passive line
				(at -50.8 -68.58 0)
				(length 5.08)
				(name "~{DIFFIO-RX-R23}/~{DIFFOUT-R23}"
					(effects
						(font
							(size 1.27 1.27)
						)
					)
				)
				(number "106"
					(effects
						(font
							(size 1.27 1.27)
						)
					)
				)
			)
			(pin passive line
				(at -50.8 -12.7 0)
				(length 5.08)
				(name "DIFFIO-RX-R2/DIFFOUT-R2"
					(effects
						(font
							(size 1.27 1.27)
						)
					)
				)
				(number "74"
					(effects
						(font
							(size 1.27 1.27)
						)
					)
				)
			)
			(pin passive line
				(at -50.8 -7.62 0)
				(length 5.08)
				(name "DIFFIO-RX-R1/DIFFOUT-R1"
					(effects
						(font
							(size 1.27 1.27)
						)
					)
				)
				(number "75"
					(effects
						(font
							(size 1.27 1.27)
						)
					)
				)
			)
			(pin passive line
				(at -50.8 -10.16 0)
				(length 5.08)
				(name "~{DIFFIO-RX-R2}/~{DIFFOUT-R2}"
					(effects
						(font
							(size 1.27 1.27)
						)
					)
				)
				(number "76"
					(effects
						(font
							(size 1.27 1.27)
						)
					)
				)
			)
			(pin passive line
				(at -50.8 -30.48 0)
				(length 5.08)
				(name "IO-R77"
					(effects
						(font
							(size 1.27 1.27)
						)
					)
				)
				(number "77"
					(effects
						(font
							(size 1.27 1.27)
						)
					)
				)
			)
			(pin passive line
				(at -50.8 -5.08 0)
				(length 5.08)
				(name "~{DIFFIO-RX-R1}/~{DIFFOUT-R1}"
					(effects
						(font
							(size 1.27 1.27)
						)
					)
				)
				(number "78"
					(effects
						(font
							(size 1.27 1.27)
						)
					)
				)
			)
			(pin passive line
				(at -50.8 -17.78 0)
				(length 5.08)
				(name "DIFFIO-RX-R3/DIFFOUT-R3"
					(effects
						(font
							(size 1.27 1.27)
						)
					)
				)
				(number "79"
					(effects
						(font
							(size 1.27 1.27)
						)
					)
				)
			)
			(pin passive line
				(at -50.8 -33.02 0)
				(length 5.08)
				(name "VREFB5N0"
					(effects
						(font
							(size 1.27 1.27)
						)
					)
				)
				(number "80"
					(effects
						(font
							(size 1.27 1.27)
						)
					)
				)
			)
			(pin passive line
				(at -50.8 -15.24 0)
				(length 5.08)
				(name "~{DIFFIO-RX-R3}/~{DIFFOUT-R3}"
					(effects
						(font
							(size 1.27 1.27)
						)
					)
				)
				(number "81"
					(effects
						(font
							(size 1.27 1.27)
						)
					)
				)
			)
			(pin passive line
				(at 17.78 -5.08 180)
				(length 5.08)
				(name "VCCIO5"
					(effects
						(font
							(size 1.27 1.27)
						)
					)
				)
				(number "82"
					(effects
						(font
							(size 1.27 1.27)
						)
					)
				)
			)
			(pin passive line
				(at -50.8 -27.94 0)
				(length 5.08)
				(name "DIFFIO-RX-R7/DIFFOUT-R7"
					(effects
						(font
							(size 1.27 1.27)
						)
					)
				)
				(number "84"
					(effects
						(font
							(size 1.27 1.27)
						)
					)
				)
			)
			(pin passive line
				(at -50.8 -22.86 0)
				(length 5.08)
				(name "DIFFIO-RX-R6/DIFFOUT-R6"
					(effects
						(font
							(size 1.27 1.27)
						)
					)
				)
				(number "85"
					(effects
						(font
							(size 1.27 1.27)
						)
					)
				)
			)
			(pin passive line
				(at -50.8 -25.4 0)
				(length 5.08)
				(name "~{DIFFIO-RX-R7}/~{DIFFOUT-R7}"
					(effects
						(font
							(size 1.27 1.27)
						)
					)
				)
				(number "86"
					(effects
						(font
							(size 1.27 1.27)
						)
					)
				)
			)
			(pin passive line
				(at -50.8 -20.32 0)
				(length 5.08)
				(name "~{DIFFIO-RX-R6}/~{DIFFOUT-R6}"
					(effects
						(font
							(size 1.27 1.27)
						)
					)
				)
				(number "87"
					(effects
						(font
							(size 1.27 1.27)
						)
					)
				)
			)
			(pin passive line
				(at -50.8 -40.64 0)
				(length 5.08)
				(name "CLK2/DIFFIO-RX-R10/DIFFOUT-R10"
					(effects
						(font
							(size 1.27 1.27)
						)
					)
				)
				(number "88"
					(effects
						(font
							(size 1.27 1.27)
						)
					)
				)
			)
			(pin passive line
				(at -50.8 -38.1 0)
				(length 5.08)
				(name "~{CLK2}/~{DIFFIO-RX-R10}/~{DIFFOUT-R10}"
					(effects
						(font
							(size 1.27 1.27)
						)
					)
				)
				(number "89"
					(effects
						(font
							(size 1.27 1.27)
						)
					)
				)
			)
			(pin passive line
				(at -50.8 -45.72 0)
				(length 5.08)
				(name "CLK3/DIFFIO-RX-R12/DIFFOUT-R12"
					(effects
						(font
							(size 1.27 1.27)
						)
					)
				)
				(number "90"
					(effects
						(font
							(size 1.27 1.27)
						)
					)
				)
			)
			(pin passive line
				(at -50.8 -43.18 0)
				(length 5.08)
				(name "~{CLK3}/~{DIFFIO-RX-R12}/~{DIFFOUT-R12}"
					(effects
						(font
							(size 1.27 1.27)
						)
					)
				)
				(number "91"
					(effects
						(font
							(size 1.27 1.27)
						)
					)
				)
			)
			(pin passive line
				(at -50.8 -73.66 0)
				(length 5.08)
				(name "VREFB6N0"
					(effects
						(font
							(size 1.27 1.27)
						)
					)
				)
				(number "92"
					(effects
						(font
							(size 1.27 1.27)
						)
					)
				)
			)
			(pin passive line
				(at 17.78 -38.1 180)
				(length 5.08)
				(name "VCCIO6"
					(effects
						(font
							(size 1.27 1.27)
						)
					)
				)
				(number "93"
					(effects
						(font
							(size 1.27 1.27)
						)
					)
				)
			)
			(pin passive line
				(at -50.8 -50.8 0)
				(length 5.08)
				(name "DPCLK3/DIFFIO-RX-R16/DIFFOUT-R16"
					(effects
						(font
							(size 1.27 1.27)
						)
					)
				)
				(number "94"
					(effects
						(font
							(size 1.27 1.27)
						)
					)
				)
			)
			(pin passive line
				(at -50.8 -48.26 0)
				(length 5.08)
				(name "DPCLK2/~{DIFFIO-RX-R16}/~{DIFFOUT-R16}"
					(effects
						(font
							(size 1.27 1.27)
						)
					)
				)
				(number "95"
					(effects
						(font
							(size 1.27 1.27)
						)
					)
				)
			)
			(pin passive line
				(at -50.8 -55.88 0)
				(length 5.08)
				(name "DIFFIO-RX-R17/DIFFOUT-R17"
					(effects
						(font
							(size 1.27 1.27)
						)
					)
				)
				(number "97"
					(effects
						(font
							(size 1.27 1.27)
						)
					)
				)
			)
			(pin passive line
				(at -50.8 -60.96 0)
				(length 5.08)
				(name "DIFFIO-RX-R18/DIFFOUT-R18"
					(effects
						(font
							(size 1.27 1.27)
						)
					)
				)
				(number "98"
					(effects
						(font
							(size 1.27 1.27)
						)
					)
				)
			)
			(pin passive line
				(at -50.8 -53.34 0)
				(length 5.08)
				(name "~{DIFFIO-RX-R17}/~{DIFFOUT-R17}"
					(effects
						(font
							(size 1.27 1.27)
						)
					)
				)
				(number "99"
					(effects
						(font
							(size 1.27 1.27)
						)
					)
				)
			)
		)
		(symbol "10M02SCE144_4_1"
			(rectangle
				(start 12.7 -2.54)
				(end -45.72 -76.2)
				(stroke
					(width 0)
					(type default)
				)
				(fill
					(type none)
				)
			)
			(text "Bank 8"
				(at 2.54 -34.29 900)
				(effects
					(font
						(size 1.27 1.27)
					)
				)
			)
			(pin passive line
				(at 17.78 -10.16 180)
				(length 5.08)
				(name "VCCIO8"
					(effects
						(font
							(size 1.27 1.27)
						)
					)
				)
				(number "111"
					(effects
						(font
							(size 1.27 1.27)
						)
					)
				)
			)
			(pin passive line
				(at -50.8 -7.62 0)
				(length 5.08)
				(name "DIFFIO-RX-T3/DIFFOUT-T3"
					(effects
						(font
							(size 1.27 1.27)
						)
					)
				)
				(number "112"
					(effects
						(font
							(size 1.27 1.27)
						)
					)
				)
			)
			(pin passive line
				(at -50.8 -5.08 0)
				(length 5.08)
				(name "~{DEV-CLR}/~{DIFFIO-RX-T3}/~{DIFFOUT-T3}"
					(effects
						(font
							(size 1.27 1.27)
						)
					)
				)
				(number "113"
					(effects
						(font
							(size 1.27 1.27)
						)
					)
				)
			)
			(pin passive line
				(at -50.8 -58.42 0)
				(length 5.08)
				(name "VREFB8N0"
					(effects
						(font
							(size 1.27 1.27)
						)
					)
				)
				(number "114"
					(effects
						(font
							(size 1.27 1.27)
						)
					)
				)
			)
			(pin passive line
				(at -50.8 -12.7 0)
				(length 5.08)
				(name "DEV-OE/DIFFIO-RX-T5/DIFFOUT-T5"
					(effects
						(font
							(size 1.27 1.27)
						)
					)
				)
				(number "115"
					(effects
						(font
							(size 1.27 1.27)
						)
					)
				)
			)
			(pin passive line
				(at -50.8 -55.88 0)
				(length 5.08)
				(name "IO-T116"
					(effects
						(font
							(size 1.27 1.27)
						)
					)
				)
				(number "116"
					(effects
						(font
							(size 1.27 1.27)
						)
					)
				)
			)
			(pin passive line
				(at -50.8 -10.16 0)
				(length 5.08)
				(name "~{DIFFIO-RX-T5}/~{DIFFOUT-T5}"
					(effects
						(font
							(size 1.27 1.27)
						)
					)
				)
				(number "117"
					(effects
						(font
							(size 1.27 1.27)
						)
					)
				)
			)
			(pin passive line
				(at -50.8 -68.58 0)
				(length 5.08)
				(name "IO-T120"
					(effects
						(font
							(size 1.27 1.27)
						)
					)
				)
				(number "120"
					(effects
						(font
							(size 1.27 1.27)
						)
					)
				)
				(alternate "CONFIG-SEL" passive line)
			)
			(pin passive line
				(at 17.78 -7.62 180)
				(length 5.08)
				(name "VCCIO8"
					(effects
						(font
							(size 1.27 1.27)
						)
					)
				)
				(number "121"
					(effects
						(font
							(size 1.27 1.27)
						)
					)
				)
			)
			(pin passive line
				(at -50.8 -71.12 0)
				(length 5.08)
				(name "~{CONFIG}"
					(effects
						(font
							(size 1.27 1.27)
						)
					)
				)
				(number "122"
					(effects
						(font
							(size 1.27 1.27)
						)
					)
				)
			)
			(pin passive line
				(at -50.8 -22.86 0)
				(length 5.08)
				(name "DIFFIO-RX-T8/DIFFOUT-T8"
					(effects
						(font
							(size 1.27 1.27)
						)
					)
				)
				(number "123"
					(effects
						(font
							(size 1.27 1.27)
						)
					)
				)
			)
			(pin passive line
				(at -50.8 -17.78 0)
				(length 5.08)
				(name "DIFFIO-RX-T7/DIFFOUT-T7"
					(effects
						(font
							(size 1.27 1.27)
						)
					)
				)
				(number "124"
					(effects
						(font
							(size 1.27 1.27)
						)
					)
				)
			)
			(pin passive line
				(at -50.8 -20.32 0)
				(length 5.08)
				(name "~{DIFFIO-RX-T8}/~{DIFFOUT-T8}"
					(effects
						(font
							(size 1.27 1.27)
						)
					)
				)
				(number "125"
					(effects
						(font
							(size 1.27 1.27)
						)
					)
				)
			)
			(pin passive line
				(at -50.8 -15.24 0)
				(length 5.08)
				(name "~{DIFFIO-RX-T7}/~{DIFFOUT-T7}"
					(effects
						(font
							(size 1.27 1.27)
						)
					)
				)
				(number "126"
					(effects
						(font
							(size 1.27 1.27)
						)
					)
				)
			)
			(pin passive line
				(at -50.8 -33.02 0)
				(length 5.08)
				(name "DIFFIO-RX-T10/DIFFOUT-T10"
					(effects
						(font
							(size 1.27 1.27)
						)
					)
				)
				(number "127"
					(effects
						(font
							(size 1.27 1.27)
						)
					)
				)
			)
			(pin passive line
				(at -50.8 -27.94 0)
				(length 5.08)
				(name "DIFFIO-RX-T9/DIFFOUT-T9"
					(effects
						(font
							(size 1.27 1.27)
						)
					)
				)
				(number "128"
					(effects
						(font
							(size 1.27 1.27)
						)
					)
				)
			)
			(pin passive line
				(at -50.8 -30.48 0)
				(length 5.08)
				(name "~{DIFFIO-RX-T10}/~{DIFFOUT-T10}"
					(effects
						(font
							(size 1.27 1.27)
						)
					)
				)
				(number "129"
					(effects
						(font
							(size 1.27 1.27)
						)
					)
				)
			)
			(pin passive line
				(at -50.8 -25.4 0)
				(length 5.08)
				(name "CRC-ERROR/~{DIFFIO-RX-T9}/~{DIFFOUT-T9}"
					(effects
						(font
							(size 1.27 1.27)
						)
					)
				)
				(number "130"
					(effects
						(font
							(size 1.27 1.27)
						)
					)
				)
			)
			(pin passive line
				(at -50.8 -38.1 0)
				(length 5.08)
				(name "~{STATUS}/DIFFIO-RX-T11/DIFFOUT-T11"
					(effects
						(font
							(size 1.27 1.27)
						)
					)
				)
				(number "131"
					(effects
						(font
							(size 1.27 1.27)
						)
					)
				)
			)
			(pin passive line
				(at -50.8 -43.18 0)
				(length 5.08)
				(name "DIFFIO-RX-T12/DIFFOUT-T12"
					(effects
						(font
							(size 1.27 1.27)
						)
					)
				)
				(number "134"
					(effects
						(font
							(size 1.27 1.27)
						)
					)
				)
			)
			(pin passive line
				(at -50.8 -35.56 0)
				(length 5.08)
				(name "CONF-DONE/~{DIFFIO-RX-T11}/~{DIFFOUT-T11}"
					(effects
						(font
							(size 1.27 1.27)
						)
					)
				)
				(number "135"
					(effects
						(font
							(size 1.27 1.27)
						)
					)
				)
			)
			(pin passive line
				(at 17.78 -5.08 180)
				(length 5.08)
				(name "VCCIO8"
					(effects
						(font
							(size 1.27 1.27)
						)
					)
				)
				(number "136"
					(effects
						(font
							(size 1.27 1.27)
						)
					)
				)
			)
			(pin passive line
				(at -50.8 -40.64 0)
				(length 5.08)
				(name "~{DIFFIO-RX-T12}/~{DIFFOUT-T12}"
					(effects
						(font
							(size 1.27 1.27)
						)
					)
				)
				(number "137"
					(effects
						(font
							(size 1.27 1.27)
						)
					)
				)
			)
			(pin passive line
				(at -50.8 -48.26 0)
				(length 5.08)
				(name "DIFFIO-RX-T13/DIFFOUT-T13"
					(effects
						(font
							(size 1.27 1.27)
						)
					)
				)
				(number "138"
					(effects
						(font
							(size 1.27 1.27)
						)
					)
				)
			)
			(pin passive line
				(at -50.8 -53.34 0)
				(length 5.08)
				(name "DIFFIO-RX-T14/DIFFOUT-T14"
					(effects
						(font
							(size 1.27 1.27)
						)
					)
				)
				(number "139"
					(effects
						(font
							(size 1.27 1.27)
						)
					)
				)
			)
			(pin passive line
				(at -50.8 -45.72 0)
				(length 5.08)
				(name "~{DIFFIO-RX-T13}/~{DIFFOUT-T13}"
					(effects
						(font
							(size 1.27 1.27)
						)
					)
				)
				(number "140"
					(effects
						(font
							(size 1.27 1.27)
						)
					)
				)
			)
			(pin passive line
				(at -50.8 -50.8 0)
				(length 5.08)
				(name "~{DIFFIO-RX-T14}/~{DIFFOUT-T14}"
					(effects
						(font
							(size 1.27 1.27)
						)
					)
				)
				(number "141"
					(effects
						(font
							(size 1.27 1.27)
						)
					)
				)
			)
		)
		(symbol "10M02SCE144_5_1"
			(rectangle
				(start 12.7 -2.54)
				(end -22.86 -55.88)
				(stroke
					(width 0)
					(type default)
				)
				(fill
					(type none)
				)
			)
			(pin passive line
				(at 17.78 -33.02 180)
				(length 5.08)
				(name "VCC-ONE"
					(effects
						(font
							(size 1.27 1.27)
						)
					)
				)
				(number "1"
					(effects
						(font
							(size 1.27 1.27)
						)
					)
				)
			)
			(pin passive line
				(at -27.94 -50.8 0)
				(length 5.08)
				(name "GND"
					(effects
						(font
							(size 1.27 1.27)
						)
					)
				)
				(number "104"
					(effects
						(font
							(size 1.27 1.27)
						)
					)
				)
			)
			(pin passive line
				(at -27.94 -10.16 0)
				(length 5.08)
				(name "VCCA3"
					(effects
						(font
							(size 1.27 1.27)
						)
					)
				)
				(number "107"
					(effects
						(font
							(size 1.27 1.27)
						)
					)
				)
			)
			(pin passive line
				(at 17.78 -30.48 180)
				(length 5.08)
				(name "VCC-ONE"
					(effects
						(font
							(size 1.27 1.27)
						)
					)
				)
				(number "108"
					(effects
						(font
							(size 1.27 1.27)
						)
					)
				)
			)
			(pin passive line
				(at 17.78 -27.94 180)
				(length 5.08)
				(name "VCC-ONE"
					(effects
						(font
							(size 1.27 1.27)
						)
					)
				)
				(number "109"
					(effects
						(font
							(size 1.27 1.27)
						)
					)
				)
			)
			(pin passive line
				(at -27.94 -48.26 0)
				(length 5.08)
				(name "GND"
					(effects
						(font
							(size 1.27 1.27)
						)
					)
				)
				(number "11"
					(effects
						(font
							(size 1.27 1.27)
						)
					)
				)
			)
			(pin passive line
				(at -27.94 -45.72 0)
				(length 5.08)
				(name "GND"
					(effects
						(font
							(size 1.27 1.27)
						)
					)
				)
				(number "110"
					(effects
						(font
							(size 1.27 1.27)
						)
					)
				)
			)
			(pin passive line
				(at 17.78 -25.4 180)
				(length 5.08)
				(name "VCC-ONE"
					(effects
						(font
							(size 1.27 1.27)
						)
					)
				)
				(number "118"
					(effects
						(font
							(size 1.27 1.27)
						)
					)
				)
			)
			(pin passive line
				(at -27.94 -43.18 0)
				(length 5.08)
				(name "GND"
					(effects
						(font
							(size 1.27 1.27)
						)
					)
				)
				(number "119"
					(effects
						(font
							(size 1.27 1.27)
						)
					)
				)
			)
			(pin passive line
				(at 17.78 -22.86 180)
				(length 5.08)
				(name "VCC-ONE"
					(effects
						(font
							(size 1.27 1.27)
						)
					)
				)
				(number "132"
					(effects
						(font
							(size 1.27 1.27)
						)
					)
				)
			)
			(pin passive line
				(at -27.94 -40.64 0)
				(length 5.08)
				(name "GND"
					(effects
						(font
							(size 1.27 1.27)
						)
					)
				)
				(number "133"
					(effects
						(font
							(size 1.27 1.27)
						)
					)
				)
			)
			(pin passive line
				(at 17.78 -20.32 180)
				(length 5.08)
				(name "VCC-ONE"
					(effects
						(font
							(size 1.27 1.27)
						)
					)
				)
				(number "142"
					(effects
						(font
							(size 1.27 1.27)
						)
					)
				)
			)
			(pin passive line
				(at -27.94 -38.1 0)
				(length 5.08)
				(name "GND"
					(effects
						(font
							(size 1.27 1.27)
						)
					)
				)
				(number "143"
					(effects
						(font
							(size 1.27 1.27)
						)
					)
				)
			)
			(pin passive line
				(at 17.78 -17.78 180)
				(length 5.08)
				(name "VCC-ONE"
					(effects
						(font
							(size 1.27 1.27)
						)
					)
				)
				(number "144"
					(effects
						(font
							(size 1.27 1.27)
						)
					)
				)
			)
			(pin passive line
				(at -27.94 -12.7 0)
				(length 5.08)
				(name "VCCA4"
					(effects
						(font
							(size 1.27 1.27)
						)
					)
				)
				(number "2"
					(effects
						(font
							(size 1.27 1.27)
						)
					)
				)
			)
			(pin passive line
				(at -27.94 -35.56 0)
				(length 5.08)
				(name "GND"
					(effects
						(font
							(size 1.27 1.27)
						)
					)
				)
				(number "20"
					(effects
						(font
							(size 1.27 1.27)
						)
					)
				)
			)
			(pin passive line
				(at -27.94 -33.02 0)
				(length 5.08)
				(name "GND"
					(effects
						(font
							(size 1.27 1.27)
						)
					)
				)
				(number "30"
					(effects
						(font
							(size 1.27 1.27)
						)
					)
				)
			)
			(pin passive line
				(at -27.94 -7.62 0)
				(length 5.08)
				(name "VCCA2"
					(effects
						(font
							(size 1.27 1.27)
						)
					)
				)
				(number "34"
					(effects
						(font
							(size 1.27 1.27)
						)
					)
				)
			)
			(pin passive line
				(at -27.94 -5.08 0)
				(length 5.08)
				(name "VCCA1"
					(effects
						(font
							(size 1.27 1.27)
						)
					)
				)
				(number "35"
					(effects
						(font
							(size 1.27 1.27)
						)
					)
				)
			)
			(pin passive line
				(at 17.78 -15.24 180)
				(length 5.08)
				(name "VCC-ONE"
					(effects
						(font
							(size 1.27 1.27)
						)
					)
				)
				(number "36"
					(effects
						(font
							(size 1.27 1.27)
						)
					)
				)
			)
			(pin passive line
				(at 17.78 -12.7 180)
				(length 5.08)
				(name "VCC-ONE"
					(effects
						(font
							(size 1.27 1.27)
						)
					)
				)
				(number "37"
					(effects
						(font
							(size 1.27 1.27)
						)
					)
				)
			)
			(pin passive line
				(at -27.94 -30.48 0)
				(length 5.08)
				(name "GND"
					(effects
						(font
							(size 1.27 1.27)
						)
					)
				)
				(number "38"
					(effects
						(font
							(size 1.27 1.27)
						)
					)
				)
			)
			(pin passive line
				(at -27.94 -27.94 0)
				(length 5.08)
				(name "GND"
					(effects
						(font
							(size 1.27 1.27)
						)
					)
				)
				(number "45"
					(effects
						(font
							(size 1.27 1.27)
						)
					)
				)
			)
			(pin passive line
				(at -27.94 -25.4 0)
				(length 5.08)
				(name "GND"
					(effects
						(font
							(size 1.27 1.27)
						)
					)
				)
				(number "57"
					(effects
						(font
							(size 1.27 1.27)
						)
					)
				)
			)
			(pin passive line
				(at 17.78 -10.16 180)
				(length 5.08)
				(name "VCC-ONE"
					(effects
						(font
							(size 1.27 1.27)
						)
					)
				)
				(number "58"
					(effects
						(font
							(size 1.27 1.27)
						)
					)
				)
			)
			(pin passive line
				(at -27.94 -22.86 0)
				(length 5.08)
				(name "GND"
					(effects
						(font
							(size 1.27 1.27)
						)
					)
				)
				(number "66"
					(effects
						(font
							(size 1.27 1.27)
						)
					)
				)
			)
			(pin passive line
				(at -27.94 -15.24 0)
				(length 5.08)
				(name "VCCA5"
					(effects
						(font
							(size 1.27 1.27)
						)
					)
				)
				(number "71"
					(effects
						(font
							(size 1.27 1.27)
						)
					)
				)
			)
			(pin passive line
				(at 17.78 -7.62 180)
				(length 5.08)
				(name "VCC-ONE"
					(effects
						(font
							(size 1.27 1.27)
						)
					)
				)
				(number "72"
					(effects
						(font
							(size 1.27 1.27)
						)
					)
				)
			)
			(pin passive line
				(at 17.78 -5.08 180)
				(length 5.08)
				(name "VCC-ONE"
					(effects
						(font
							(size 1.27 1.27)
						)
					)
				)
				(number "73"
					(effects
						(font
							(size 1.27 1.27)
						)
					)
				)
			)
			(pin passive line
				(at -27.94 -20.32 0)
				(length 5.08)
				(name "GND"
					(effects
						(font
							(size 1.27 1.27)
						)
					)
				)
				(number "83"
					(effects
						(font
							(size 1.27 1.27)
						)
					)
				)
			)
			(pin passive line
				(at -27.94 -17.78 0)
				(length 5.08)
				(name "GND"
					(effects
						(font
							(size 1.27 1.27)
						)
					)
				)
				(number "96"
					(effects
						(font
							(size 1.27 1.27)
						)
					)
				)
			)
			(pin passive line
				(at -27.94 -53.34 0)
				(length 5.08)
				(name "GND"
					(effects
						(font
							(size 1.27 1.27)
						)
					)
				)
				(number "P"
					(effects
						(font
							(size 1.27 1.27)
						)
					)
				)
			)
		)
	)
)