(kicad_symbol_lib
	(version 20231120)
	(generator "kicad_symbol_editor")
	(generator_version "8.0")
	(symbol "Lemo-2"
		(pin_names
			(offset 0.762) hide)
		(exclude_from_sim no)
		(in_bom yes)
		(on_board yes)
		(property "Reference" "X"
			(at 0 5.08 0)
			(effects
				(font
					(size 1.27 1.27)
				)
			)
		)
		(property "Value" "Lemo-2"
			(at 0 -5.08 0)
			(effects
				(font
					(size 1.27 1.27)
				)
			)
		)
		(property "Footprint" ""
			(at 0 -5.08 0)
			(effects
				(font
					(size 0.762 0.762)
				)
				(hide yes)
			)
		)
		(property "Datasheet" ""
			(at 0 0 0)
			(effects
				(font
					(size 1.27 1.27)
				)
			)
		)
		(property "Description" "2-poles Lemo connector"
			(at 0 -7.62 0)
			(effects
				(font
					(size 1.27 1.27)
				)
				(hide yes)
			)
		)
		(property "Manuf" "Lemo"
			(at 0 -6.35 0)
			(effects
				(font
					(size 0.762 0.762)
				)
				(hide yes)
			)
		)
		(symbol "Lemo-2_0_1"
			(arc
				(start -3.048 0)
				(mid -2.1553 -2.1553)
				(end 0 -3.048)
				(stroke
					(width 0)
					(type default)
				)
				(fill
					(type none)
				)
			)
			(arc
				(start 0 -3.048)
				(mid 2.1553 -2.1553)
				(end 3.048 0)
				(stroke
					(width 0)
					(type default)
				)
				(fill
					(type none)
				)
			)
			(circle
				(center 0 -1.4986)
				(radius 0.762)
				(stroke
					(width 0)
					(type default)
				)
				(fill
					(type none)
				)
			)
			(polyline
				(pts
					(xy -3.048 0) (xy 3.048 0)
				)
				(stroke
					(width 0)
					(type default)
				)
				(fill
					(type none)
				)
			)
			(polyline
				(pts
					(xy -1.27 1.27) (xy -0.762 1.778)
				)
				(stroke
					(width 0)
					(type default)
				)
				(fill
					(type none)
				)
			)
			(polyline
				(pts
					(xy -0.762 -1.4986) (xy -1.27 -1.27)
				)
				(stroke
					(width 0)
					(type default)
				)
				(fill
					(type none)
				)
			)
			(circle
				(center 0 0)
				(radius 3.81)
				(stroke
					(width 0)
					(type default)
				)
				(fill
					(type none)
				)
			)
			(circle
				(center 0 1.778)
				(radius 0.762)
				(stroke
					(width 0)
					(type default)
				)
				(fill
					(type none)
				)
			)
		)
		(symbol "Lemo-2_1_1"
			(pin passive line
				(at -7.62 1.27 0)
				(length 6.35)
				(name "1"
					(effects
						(font
							(size 1.27 1.27)
						)
					)
				)
				(number "1"
					(effects
						(font
							(size 1.27 1.27)
						)
					)
				)
			)
			(pin passive line
				(at -7.62 -1.27 0)
				(length 6.35)
				(name "2"
					(effects
						(font
							(size 1.27 1.27)
						)
					)
				)
				(number "2"
					(effects
						(font
							(size 1.27 1.27)
						)
					)
				)
			)
		)
	)
	(symbol "Lemo-4"
		(pin_names
			(offset 1.016) hide)
		(exclude_from_sim no)
		(in_bom yes)
		(on_board yes)
		(property "Reference" "X"
			(at 0 7.62 0)
			(effects
				(font
					(size 1.27 1.27)
				)
			)
		)
		(property "Value" "Lemo-4"
			(at 0 -7.62 0)
			(effects
				(font
					(size 1.27 1.27)
				)
			)
		)
		(property "Footprint" ""
			(at 0 -7.62 0)
			(effects
				(font
					(size 0.762 0.762)
				)
				(hide yes)
			)
		)
		(property "Datasheet" ""
			(at 0 0 0)
			(effects
				(font
					(size 1.27 1.27)
				)
			)
		)
		(property "Description" "4-poles Lemo connector"
			(at 0 -10.16 0)
			(effects
				(font
					(size 1.27 1.27)
				)
				(hide yes)
			)
		)
		(property "Manuf" "Lemo"
			(at 0 -8.89 0)
			(effects
				(font
					(size 0.762 0.762)
				)
				(hide yes)
			)
		)
		(symbol "Lemo-4_0_1"
			(arc
				(start -5.588 -0.2286)
				(mid -3.9513 -4.1799)
				(end 0 -5.8166)
				(stroke
					(width 0)
					(type default)
				)
				(fill
					(type none)
				)
			)
			(circle
				(center -2.54 -2.54)
				(radius 1.016)
				(stroke
					(width 0)
					(type default)
				)
				(fill
					(type none)
				)
			)
			(circle
				(center -2.54 2.54)
				(radius 1.016)
				(stroke
					(width 0)
					(type default)
				)
				(fill
					(type none)
				)
			)
			(arc
				(start 0 -5.8166)
				(mid 3.9513 -4.1799)
				(end 5.588 -0.2286)
				(stroke
					(width 0)
					(type default)
				)
				(fill
					(type none)
				)
			)
			(polyline
				(pts
					(xy -5.588 -0.2286) (xy 5.5626 -0.2286)
				)
				(stroke
					(width 0)
					(type default)
				)
				(fill
					(type none)
				)
			)
			(polyline
				(pts
					(xy -3.81 -3.81) (xy -3.302 -3.302)
				)
				(stroke
					(width 0)
					(type default)
				)
				(fill
					(type none)
				)
			)
			(polyline
				(pts
					(xy -3.81 3.81) (xy -3.302 3.302)
				)
				(stroke
					(width 0)
					(type default)
				)
				(fill
					(type none)
				)
			)
			(polyline
				(pts
					(xy 3.81 -3.81) (xy 3.302 -3.302)
				)
				(stroke
					(width 0)
					(type default)
				)
				(fill
					(type none)
				)
			)
			(polyline
				(pts
					(xy 3.81 3.81) (xy 3.302 3.302)
				)
				(stroke
					(width 0)
					(type default)
				)
				(fill
					(type none)
				)
			)
			(circle
				(center 0 0)
				(radius 6.35)
				(stroke
					(width 0)
					(type default)
				)
				(fill
					(type none)
				)
			)
			(circle
				(center 2.54 -2.54)
				(radius 1.016)
				(stroke
					(width 0)
					(type default)
				)
				(fill
					(type none)
				)
			)
			(circle
				(center 2.54 2.54)
				(radius 1.016)
				(stroke
					(width 0)
					(type default)
				)
				(fill
					(type none)
				)
			)
		)
		(symbol "Lemo-4_1_1"
			(text "1"
				(at 1.27 3.81 0)
				(effects
					(font
						(size 1.27 1.27)
					)
				)
			)
			(pin passive line
				(at 10.16 3.81 180)
				(length 6.35)
				(name "1"
					(effects
						(font
							(size 1.27 1.27)
						)
					)
				)
				(number "1"
					(effects
						(font
							(size 1.27 1.27)
						)
					)
				)
			)
			(pin passive line
				(at -10.16 3.81 0)
				(length 6.35)
				(name "2"
					(effects
						(font
							(size 1.27 1.27)
						)
					)
				)
				(number "2"
					(effects
						(font
							(size 1.27 1.27)
						)
					)
				)
			)
			(pin passive line
				(at -10.16 -3.81 0)
				(length 6.35)
				(name "3"
					(effects
						(font
							(size 1.27 1.27)
						)
					)
				)
				(number "3"
					(effects
						(font
							(size 1.27 1.27)
						)
					)
				)
			)
			(pin passive line
				(at 10.16 -3.81 180)
				(length 6.35)
				(name "4"
					(effects
						(font
							(size 1.27 1.27)
						)
					)
				)
				(number "4"
					(effects
						(font
							(size 1.27 1.27)
						)
					)
				)
			)
		)
	)
	(symbol "Lemo-5"
		(pin_names
			(offset 0.762) hide)
		(exclude_from_sim no)
		(in_bom yes)
		(on_board yes)
		(property "Reference" "X"
			(at 0 7.62 0)
			(effects
				(font
					(size 1.27 1.27)
				)
			)
		)
		(property "Value" "Lemo-5"
			(at 1.27 -7.62 0)
			(effects
				(font
					(size 1.27 1.27)
				)
				(justify left)
			)
		)
		(property "Footprint" ""
			(at 1.27 -7.62 0)
			(effects
				(font
					(size 0.762 0.762)
				)
				(justify left)
				(hide yes)
			)
		)
		(property "Datasheet" ""
			(at 0 0 0)
			(effects
				(font
					(size 1.27 1.27)
				)
			)
		)
		(property "Description" "5-poles Lemo connector"
			(at 0 -11.43 0)
			(effects
				(font
					(size 1.27 1.27)
				)
				(hide yes)
			)
		)
		(property "Manuf" "Lemo"
			(at 1.27 -8.89 0)
			(effects
				(font
					(size 0.762 0.762)
				)
				(justify left)
				(hide yes)
			)
		)
		(symbol "Lemo-5_0_1"
			(circle
				(center -3.81 -0.7366)
				(radius 1.016)
				(stroke
					(width 0)
					(type default)
				)
				(fill
					(type none)
				)
			)
			(circle
				(center -2.54 3.0734)
				(radius 1.016)
				(stroke
					(width 0)
					(type default)
				)
				(fill
					(type none)
				)
			)
			(circle
				(center 0 -3.2766)
				(radius 1.016)
				(stroke
					(width 0)
					(type default)
				)
				(fill
					(type none)
				)
			)
			(polyline
				(pts
					(xy -5.08 -3.81) (xy -4.064 -1.778)
				)
				(stroke
					(width 0)
					(type default)
				)
				(fill
					(type none)
				)
			)
			(polyline
				(pts
					(xy -5.08 3.81) (xy -3.556 3.302)
				)
				(stroke
					(width 0)
					(type default)
				)
				(fill
					(type none)
				)
			)
			(polyline
				(pts
					(xy -1.5494 -6.096) (xy -1.5494 -5.3086)
				)
				(stroke
					(width 0)
					(type default)
				)
				(fill
					(type none)
				)
			)
			(polyline
				(pts
					(xy -1.5494 -5.3086) (xy 1.27 -5.3086)
				)
				(stroke
					(width 0)
					(type default)
				)
				(fill
					(type none)
				)
			)
			(polyline
				(pts
					(xy 1.27 -5.3086) (xy 1.27 -6.096)
				)
				(stroke
					(width 0)
					(type default)
				)
				(fill
					(type none)
				)
			)
			(polyline
				(pts
					(xy 5.08 -3.81) (xy 4.064 -1.778)
				)
				(stroke
					(width 0)
					(type default)
				)
				(fill
					(type none)
				)
			)
			(polyline
				(pts
					(xy 5.08 3.81) (xy 3.556 3.302)
				)
				(stroke
					(width 0)
					(type default)
				)
				(fill
					(type none)
				)
			)
			(circle
				(center 0 0)
				(radius 6.35)
				(stroke
					(width 0)
					(type default)
				)
				(fill
					(type none)
				)
			)
			(circle
				(center 2.54 3.0734)
				(radius 1.016)
				(stroke
					(width 0)
					(type default)
				)
				(fill
					(type none)
				)
			)
			(circle
				(center 3.81 -0.7366)
				(radius 1.016)
				(stroke
					(width 0)
					(type default)
				)
				(fill
					(type none)
				)
			)
		)
		(symbol "Lemo-5_1_1"
			(text "1"
				(at -2.032 -3.81 0)
				(effects
					(font
						(size 1.27 1.27)
					)
				)
			)
			(pin bidirectional line
				(at 0 -10.16 90)
				(length 5.715)
				(name "1"
					(effects
						(font
							(size 1.27 1.27)
						)
					)
				)
				(number "1"
					(effects
						(font
							(size 1.27 1.27)
						)
					)
				)
			)
			(pin passive line
				(at -8.89 -3.81 0)
				(length 3.81)
				(name "2"
					(effects
						(font
							(size 1.27 1.27)
						)
					)
				)
				(number "2"
					(effects
						(font
							(size 1.27 1.27)
						)
					)
				)
			)
			(pin passive line
				(at -8.89 3.81 0)
				(length 3.81)
				(name "3"
					(effects
						(font
							(size 1.27 1.27)
						)
					)
				)
				(number "3"
					(effects
						(font
							(size 1.27 1.27)
						)
					)
				)
			)
			(pin passive line
				(at 8.89 3.81 180)
				(length 3.81)
				(name "4"
					(effects
						(font
							(size 1.27 1.27)
						)
					)
				)
				(number "4"
					(effects
						(font
							(size 1.27 1.27)
						)
					)
				)
			)
			(pin passive line
				(at 8.89 -3.81 180)
				(length 3.81)
				(name "5"
					(effects
						(font
							(size 1.27 1.27)
						)
					)
				)
				(number "5"
					(effects
						(font
							(size 1.27 1.27)
						)
					)
				)
			)
		)
	)
	(symbol "Lemo-6"
		(pin_names
			(offset 1.016) hide)
		(exclude_from_sim no)
		(in_bom yes)
		(on_board yes)
		(property "Reference" "X"
			(at 12.7 10.16 0)
			(effects
				(font
					(size 1.27 1.27)
				)
				(justify right)
			)
		)
		(property "Value" "Lemo-6"
			(at 7.62 -8.89 0)
			(effects
				(font
					(size 1.27 1.27)
				)
				(justify left)
			)
		)
		(property "Footprint" ""
			(at 7.62 -8.89 0)
			(effects
				(font
					(size 0.762 0.762)
				)
				(justify left)
				(hide yes)
			)
		)
		(property "Datasheet" ""
			(at 0 0 0)
			(effects
				(font
					(size 1.27 1.27)
				)
			)
		)
		(property "Description" "6-poles Lemo connector"
			(at 0 -15.24 0)
			(effects
				(font
					(size 1.27 1.27)
				)
				(hide yes)
			)
		)
		(property "Manuf" "Lemo"
			(at 7.62 -10.16 0)
			(effects
				(font
					(size 0.762 0.762)
				)
				(justify left)
				(hide yes)
			)
		)
		(symbol "Lemo-6_0_1"
			(arc
				(start -7.62 -0.0254)
				(mid -5.3882 -5.3882)
				(end -0.0254 -7.62)
				(stroke
					(width 0)
					(type default)
				)
				(fill
					(type none)
				)
			)
			(circle
				(center -5.08 -2.54)
				(radius 0.762)
				(stroke
					(width 0)
					(type default)
				)
				(fill
					(type none)
				)
			)
			(circle
				(center -5.08 2.54)
				(radius 0.762)
				(stroke
					(width 0)
					(type default)
				)
				(fill
					(type none)
				)
			)
			(circle
				(center 0 -5.08)
				(radius 0.762)
				(stroke
					(width 0)
					(type default)
				)
				(fill
					(type none)
				)
			)
			(polyline
				(pts
					(xy -8.89 -5.08) (xy -5.842 -2.794)
				)
				(stroke
					(width 0)
					(type default)
				)
				(fill
					(type none)
				)
			)
			(polyline
				(pts
					(xy -8.89 5.08) (xy -5.842 2.794)
				)
				(stroke
					(width 0)
					(type default)
				)
				(fill
					(type none)
				)
			)
			(polyline
				(pts
					(xy -7.62 0) (xy 7.62 0)
				)
				(stroke
					(width 0)
					(type default)
				)
				(fill
					(type none)
				)
			)
			(polyline
				(pts
					(xy 0 -8.89) (xy 0 -5.842)
				)
				(stroke
					(width 0)
					(type default)
				)
				(fill
					(type none)
				)
			)
			(polyline
				(pts
					(xy 0 8.89) (xy 0 5.842)
				)
				(stroke
					(width 0)
					(type default)
				)
				(fill
					(type none)
				)
			)
			(polyline
				(pts
					(xy 8.89 -5.08) (xy 5.842 -2.794)
				)
				(stroke
					(width 0)
					(type default)
				)
				(fill
					(type none)
				)
			)
			(polyline
				(pts
					(xy 8.89 5.08) (xy 5.842 2.794)
				)
				(stroke
					(width 0)
					(type default)
				)
				(fill
					(type none)
				)
			)
			(circle
				(center 0 0)
				(radius 10.16)
				(stroke
					(width 0)
					(type default)
				)
				(fill
					(type none)
				)
			)
			(circle
				(center 0 5.08)
				(radius 0.762)
				(stroke
					(width 0)
					(type default)
				)
				(fill
					(type none)
				)
			)
			(arc
				(start 0.0254 -7.62)
				(mid 5.3882 -5.3882)
				(end 7.62 -0.0254)
				(stroke
					(width 0)
					(type default)
				)
				(fill
					(type none)
				)
			)
			(circle
				(center 5.08 -2.54)
				(radius 0.762)
				(stroke
					(width 0)
					(type default)
				)
				(fill
					(type none)
				)
			)
			(circle
				(center 5.08 2.54)
				(radius 0.762)
				(stroke
					(width 0)
					(type default)
				)
				(fill
					(type none)
				)
			)
		)
		(symbol "Lemo-6_1_1"
			(pin passive line
				(at -13.97 -5.08 0)
				(length 5.08)
				(name "1"
					(effects
						(font
							(size 1.27 1.27)
						)
					)
				)
				(number "1"
					(effects
						(font
							(size 1.27 1.27)
						)
					)
				)
			)
			(pin passive line
				(at 0 -13.97 90)
				(length 5.08)
				(name "2"
					(effects
						(font
							(size 1.27 1.27)
						)
					)
				)
				(number "2"
					(effects
						(font
							(size 1.27 1.27)
						)
					)
				)
			)
			(pin passive line
				(at 13.97 -5.08 180)
				(length 5.08)
				(name "3"
					(effects
						(font
							(size 1.27 1.27)
						)
					)
				)
				(number "3"
					(effects
						(font
							(size 1.27 1.27)
						)
					)
				)
			)
			(pin passive line
				(at 13.97 5.08 180)
				(length 5.08)
				(name "4"
					(effects
						(font
							(size 1.27 1.27)
						)
					)
				)
				(number "4"
					(effects
						(font
							(size 1.27 1.27)
						)
					)
				)
			)
			(pin passive line
				(at 0 13.97 270)
				(length 5.08)
				(name "5"
					(effects
						(font
							(size 1.27 1.27)
						)
					)
				)
				(number "5"
					(effects
						(font
							(size 1.27 1.27)
						)
					)
				)
			)
			(pin passive line
				(at -13.97 5.08 0)
				(length 5.08)
				(name "6"
					(effects
						(font
							(size 1.27 1.27)
						)
					)
				)
				(number "6"
					(effects
						(font
							(size 1.27 1.27)
						)
					)
				)
			)
		)
	)
)
