(kicad_symbol_lib
	(version 20231120)
	(generator "kicad_symbol_editor")
	(generator_version "8.0")
	(symbol "MCP9700T-E-LT"
		(exclude_from_sim no)
		(in_bom yes)
		(on_board yes)
		(property "Reference" "U"
			(at 5.08 6.35 0)
			(effects
				(font
					(size 1.27 1.27)
				)
				(justify right)
			)
		)
		(property "Value" "MCP9700T-E-LT"
			(at 0 -6.35 0)
			(effects
				(font
					(size 0.762 0.762)
				)
			)
		)
		(property "Footprint" "dfp:SC70-5"
			(at 0 -7.62 0)
			(effects
				(font
					(size 0.762 0.762)
				)
				(hide yes)
			)
		)
		(property "Datasheet" ""
			(at 0 0 0)
			(effects
				(font
					(size 1.27 1.27)
				)
				(hide yes)
			)
		)
		(property "Description" ""
			(at 0 0 0)
			(effects
				(font
					(size 1.27 1.27)
				)
				(hide yes)
			)
		)
		(property "Manuf" "Microchip"
			(at 0 -8.89 0)
			(effects
				(font
					(size 0.762 0.762)
				)
				(hide yes)
			)
		)
		(symbol "MCP9700T-E-LT_0_1"
			(rectangle
				(start -5.08 5.08)
				(end 5.08 -5.08)
				(stroke
					(width 0)
					(type default)
				)
				(fill
					(type none)
				)
			)
			(pin passive line
				(at 8.89 -2.54 180)
				(length 3.81)
				(name "GND"
					(effects
						(font
							(size 1.27 1.27)
						)
					)
				)
				(number "2"
					(effects
						(font
							(size 1.27 1.27)
						)
					)
				)
			)
			(pin passive line
				(at 8.89 0 180)
				(length 3.81)
				(name "VOUT"
					(effects
						(font
							(size 1.27 1.27)
						)
					)
				)
				(number "3"
					(effects
						(font
							(size 1.27 1.27)
						)
					)
				)
			)
			(pin passive line
				(at 8.89 2.54 180)
				(length 3.81)
				(name "VDD"
					(effects
						(font
							(size 1.27 1.27)
						)
					)
				)
				(number "4"
					(effects
						(font
							(size 1.27 1.27)
						)
					)
				)
			)
		)
	)
	(symbol "RTD"
		(pin_numbers hide)
		(pin_names
			(offset 0.762) hide)
		(exclude_from_sim no)
		(in_bom yes)
		(on_board yes)
		(property "Reference" "R"
			(at -3.81 2.54 0)
			(effects
				(font
					(size 1.27 1.27)
				)
				(justify left)
			)
		)
		(property "Value" "RTD"
			(at 0 -4.445 0)
			(effects
				(font
					(size 1.27 1.27)
				)
			)
		)
		(property "Footprint" ""
			(at 0 -5.08 0)
			(effects
				(font
					(size 0.762 0.762)
				)
				(hide yes)
			)
		)
		(property "Datasheet" ""
			(at 0 0 0)
			(effects
				(font
					(size 1.27 1.27)
				)
			)
		)
		(property "Description" ""
			(at 0 0 0)
			(effects
				(font
					(size 1.27 1.27)
				)
				(hide yes)
			)
		)
		(symbol "RTD_0_0"
			(polyline
				(pts
					(xy 3.175 3.175) (xy 1.905 2.54) (xy 2.54 1.905)
				)
				(stroke
					(width 0)
					(type default)
				)
				(fill
					(type outline)
				)
			)
		)
		(symbol "RTD_0_1"
			(rectangle
				(start -3.81 1.27)
				(end 3.81 -1.27)
				(stroke
					(width 0)
					(type default)
				)
				(fill
					(type none)
				)
			)
			(polyline
				(pts
					(xy 3.175 3.175) (xy -3.175 -3.175)
				)
				(stroke
					(width 0)
					(type default)
				)
				(fill
					(type none)
				)
			)
			(polyline
				(pts
					(xy 3.81 3.175) (xy 3.81 2.54)
				)
				(stroke
					(width 0)
					(type default)
				)
				(fill
					(type none)
				)
			)
			(polyline
				(pts
					(xy 4.1148 3.048) (xy 4.1148 2.6924)
				)
				(stroke
					(width 0)
					(type default)
				)
				(fill
					(type none)
				)
			)
			(polyline
				(pts
					(xy 4.445 3.175) (xy 4.445 2.54)
				)
				(stroke
					(width 0)
					(type default)
				)
				(fill
					(type none)
				)
			)
			(arc
				(start 3.81 3.175)
				(mid 4.1275 2.8588)
				(end 4.445 3.175)
				(stroke
					(width 0)
					(type default)
				)
				(fill
					(type none)
				)
			)
			(arc
				(start 4.445 2.54)
				(mid 4.1275 2.8562)
				(end 3.81 2.54)
				(stroke
					(width 0)
					(type default)
				)
				(fill
					(type none)
				)
			)
			(pin passive line
				(at 5.08 0 180)
				(length 1.27)
				(name "1"
					(effects
						(font
							(size 1.524 1.524)
						)
					)
				)
				(number "1"
					(effects
						(font
							(size 1.524 1.524)
						)
					)
				)
			)
			(pin passive line
				(at -5.08 0 0)
				(length 1.27)
				(name "2"
					(effects
						(font
							(size 1.524 1.524)
						)
					)
				)
				(number "2"
					(effects
						(font
							(size 1.524 1.524)
						)
					)
				)
			)
		)
	)
	(symbol "RVAR-NTC"
		(pin_numbers hide)
		(pin_names
			(offset 0.762) hide)
		(exclude_from_sim no)
		(in_bom yes)
		(on_board yes)
		(property "Reference" "R"
			(at -3.81 2.54 0)
			(effects
				(font
					(size 1.27 1.27)
				)
				(justify left)
			)
		)
		(property "Value" "RVAR-NTC"
			(at 0 -4.445 0)
			(effects
				(font
					(size 0.762 0.762)
				)
			)
		)
		(property "Footprint" ""
			(at 0 -4.445 0)
			(effects
				(font
					(size 0.762 0.762)
				)
				(hide yes)
			)
		)
		(property "Datasheet" ""
			(at 0 0 0)
			(effects
				(font
					(size 1.27 1.27)
				)
			)
		)
		(property "Description" ""
			(at 0 0 0)
			(effects
				(font
					(size 1.27 1.27)
				)
				(hide yes)
			)
		)
		(symbol "RVAR-NTC_0_0"
			(polyline
				(pts
					(xy -4.445 -3.175) (xy -3.175 -3.175) (xy 3.175 3.175)
				)
				(stroke
					(width 0)
					(type default)
				)
				(fill
					(type none)
				)
			)
			(polyline
				(pts
					(xy 3.175 3.175) (xy 1.905 2.54) (xy 2.54 1.905)
				)
				(stroke
					(width 0)
					(type default)
				)
				(fill
					(type outline)
				)
			)
			(text "-t°"
				(at -0.635 -2.54 0)
				(effects
					(font
						(size 1.27 1.27)
					)
					(justify left)
				)
			)
		)
		(symbol "RVAR-NTC_0_1"
			(rectangle
				(start -3.81 1.27)
				(end 3.81 -1.27)
				(stroke
					(width 0)
					(type default)
				)
				(fill
					(type none)
				)
			)
			(pin passive line
				(at 5.08 0 180)
				(length 1.27)
				(name "1"
					(effects
						(font
							(size 1.524 1.524)
						)
					)
				)
				(number "1"
					(effects
						(font
							(size 1.524 1.524)
						)
					)
				)
			)
			(pin passive line
				(at -5.08 0 0)
				(length 1.27)
				(name "2"
					(effects
						(font
							(size 1.524 1.524)
						)
					)
				)
				(number "2"
					(effects
						(font
							(size 1.524 1.524)
						)
					)
				)
			)
		)
	)
	(symbol "RVAR-PTC"
		(pin_numbers hide)
		(pin_names
			(offset 0.762) hide)
		(exclude_from_sim no)
		(in_bom yes)
		(on_board yes)
		(property "Reference" "R"
			(at -3.81 2.54 0)
			(effects
				(font
					(size 1.27 1.27)
				)
				(justify left)
			)
		)
		(property "Value" "RVAR-PTC"
			(at 0 -4.445 0)
			(effects
				(font
					(size 0.762 0.762)
				)
			)
		)
		(property "Footprint" ""
			(at 0 -4.445 0)
			(effects
				(font
					(size 0.762 0.762)
				)
				(hide yes)
			)
		)
		(property "Datasheet" ""
			(at 0 0 0)
			(effects
				(font
					(size 1.27 1.27)
				)
			)
		)
		(property "Description" ""
			(at 0 0 0)
			(effects
				(font
					(size 1.27 1.27)
				)
				(hide yes)
			)
		)
		(symbol "RVAR-PTC_0_0"
			(polyline
				(pts
					(xy -4.445 -3.175) (xy -3.175 -3.175) (xy 3.175 3.175)
				)
				(stroke
					(width 0)
					(type default)
				)
				(fill
					(type none)
				)
			)
			(polyline
				(pts
					(xy 3.175 3.175) (xy 1.905 2.54) (xy 2.54 1.905)
				)
				(stroke
					(width 0)
					(type default)
				)
				(fill
					(type outline)
				)
			)
			(text "+t°"
				(at -0.635 -2.54 0)
				(effects
					(font
						(size 1.27 1.27)
					)
					(justify left)
				)
			)
		)
		(symbol "RVAR-PTC_0_1"
			(rectangle
				(start -3.81 1.27)
				(end 3.81 -1.27)
				(stroke
					(width 0)
					(type default)
				)
				(fill
					(type none)
				)
			)
			(pin passive line
				(at 5.08 0 180)
				(length 1.27)
				(name "1"
					(effects
						(font
							(size 1.524 1.524)
						)
					)
				)
				(number "1"
					(effects
						(font
							(size 1.524 1.524)
						)
					)
				)
			)
			(pin passive line
				(at -5.08 0 0)
				(length 1.27)
				(name "2"
					(effects
						(font
							(size 1.524 1.524)
						)
					)
				)
				(number "2"
					(effects
						(font
							(size 1.524 1.524)
						)
					)
				)
			)
		)
	)
	(symbol "Si7020-A20"
		(exclude_from_sim no)
		(in_bom yes)
		(on_board yes)
		(property "Reference" "U"
			(at 6.35 5.08 0)
			(effects
				(font
					(size 1.27 1.27)
				)
				(justify right)
			)
		)
		(property "Value" "Si7020-A20"
			(at 0 -5.08 0)
			(effects
				(font
					(size 1.27 1.27)
				)
			)
		)
		(property "Footprint" "dfn:Silabs-Si7020"
			(at 0 -7.62 0)
			(effects
				(font
					(size 0.762 0.762)
				)
				(hide yes)
			)
		)
		(property "Datasheet" ""
			(at 0 0 0)
			(effects
				(font
					(size 1.27 1.27)
				)
				(hide yes)
			)
		)
		(property "Description" "I2C Humidity and Temperature Sensor"
			(at 0 -9.525 0)
			(effects
				(font
					(size 1.27 1.27)
				)
				(hide yes)
			)
		)
		(property "Manuf" "Silicon Labs"
			(at 0 -6.35 0)
			(effects
				(font
					(size 0.762 0.762)
				)
				(hide yes)
			)
		)
		(symbol "Si7020-A20_0_1"
			(rectangle
				(start -6.35 3.81)
				(end 6.35 -3.81)
				(stroke
					(width 0)
					(type default)
				)
				(fill
					(type none)
				)
			)
		)
		(symbol "Si7020-A20_1_1"
			(pin passive line
				(at -8.89 1.27 0)
				(length 2.54)
				(name "SDA"
					(effects
						(font
							(size 1.27 1.27)
						)
					)
				)
				(number "1"
					(effects
						(font
							(size 1.27 1.27)
						)
					)
				)
			)
			(pin passive line
				(at 8.89 -1.27 180)
				(length 2.54)
				(name "GND"
					(effects
						(font
							(size 1.27 1.27)
						)
					)
				)
				(number "2"
					(effects
						(font
							(size 1.27 1.27)
						)
					)
				)
			)
			(pin no_connect line
				(at -2.54 3.81 270)
				(length 2.54) hide
				(name "3"
					(effects
						(font
							(size 1.27 1.27)
						)
					)
				)
				(number "3"
					(effects
						(font
							(size 1.27 1.27)
						)
					)
				)
			)
			(pin no_connect line
				(at 2.54 3.81 270)
				(length 2.54) hide
				(name "4"
					(effects
						(font
							(size 1.27 1.27)
						)
					)
				)
				(number "4"
					(effects
						(font
							(size 1.27 1.27)
						)
					)
				)
			)
			(pin passive line
				(at 8.89 1.27 180)
				(length 2.54)
				(name "VCC"
					(effects
						(font
							(size 1.27 1.27)
						)
					)
				)
				(number "5"
					(effects
						(font
							(size 1.27 1.27)
						)
					)
				)
			)
			(pin passive line
				(at -8.89 -1.27 0)
				(length 2.54)
				(name "SCL"
					(effects
						(font
							(size 1.27 1.27)
						)
					)
				)
				(number "6"
					(effects
						(font
							(size 1.27 1.27)
						)
					)
				)
			)
			(pin no_connect line
				(at 0 3.81 270)
				(length 2.54) hide
				(name "P"
					(effects
						(font
							(size 1.27 1.27)
						)
					)
				)
				(number "P"
					(effects
						(font
							(size 1.27 1.27)
						)
					)
				)
			)
		)
	)
	(symbol "Thermocouple"
		(pin_numbers hide)
		(pin_names
			(offset 0)
		)
		(exclude_from_sim no)
		(in_bom yes)
		(on_board yes)
		(property "Reference" "B"
			(at -1.27 3.81 0)
			(effects
				(font
					(size 1.27 1.27)
				)
			)
		)
		(property "Value" "Thermocouple"
			(at 0 -3.175 0)
			(effects
				(font
					(size 1.27 1.27)
				)
			)
		)
		(property "Footprint" ""
			(at -1.27 -3.81 0)
			(effects
				(font
					(size 0.762 0.762)
				)
				(hide yes)
			)
		)
		(property "Datasheet" ""
			(at 0 0 0)
			(effects
				(font
					(size 1.27 1.27)
				)
			)
		)
		(property "Description" "Thermocouple"
			(at 0 -5.08 0)
			(effects
				(font
					(size 1.27 1.27)
				)
				(hide yes)
			)
		)
		(symbol "Thermocouple_0_1"
			(circle
				(center -2.54 -1.27)
				(radius 0.508)
				(stroke
					(width 0)
					(type default)
				)
				(fill
					(type none)
				)
			)
			(circle
				(center -2.54 1.27)
				(radius 0.508)
				(stroke
					(width 0)
					(type default)
				)
				(fill
					(type none)
				)
			)
			(polyline
				(pts
					(xy -2.54 1.27) (xy 2.54 1.27) (xy 5.08 0) (xy 2.54 -1.27) (xy -2.54 -1.27)
				)
				(stroke
					(width 0)
					(type default)
				)
				(fill
					(type none)
				)
			)
			(pin passive line
				(at -5.08 1.27 0)
				(length 2.54)
				(name "+"
					(effects
						(font
							(size 1.27 1.27)
						)
					)
				)
				(number "+"
					(effects
						(font
							(size 1.27 1.27)
						)
					)
				)
			)
			(pin passive line
				(at -5.08 -1.27 0)
				(length 2.54)
				(name "-"
					(effects
						(font
							(size 1.27 1.27)
						)
					)
				)
				(number "-"
					(effects
						(font
							(size 1.27 1.27)
						)
					)
				)
			)
		)
	)
	(symbol "Thermocouple-GND"
		(pin_numbers hide)
		(pin_names
			(offset 0)
		)
		(exclude_from_sim no)
		(in_bom yes)
		(on_board yes)
		(property "Reference" "B"
			(at -1.27 3.81 0)
			(effects
				(font
					(size 1.27 1.27)
				)
			)
		)
		(property "Value" "Thermocouple-GND"
			(at -1.27 -3.81 0)
			(effects
				(font
					(size 1.27 1.27)
				)
			)
		)
		(property "Footprint" ""
			(at -1.27 -5.08 0)
			(effects
				(font
					(size 0.762 0.762)
				)
				(hide yes)
			)
		)
		(property "Datasheet" ""
			(at 0 0 0)
			(effects
				(font
					(size 1.27 1.27)
				)
			)
		)
		(property "Description" "Thermocouple with Grounded Junction"
			(at 0 -5.715 0)
			(effects
				(font
					(size 1.27 1.27)
				)
				(hide yes)
			)
		)
		(symbol "Thermocouple-GND_0_0"
			(polyline
				(pts
					(xy 3.81 -1.27) (xy 6.35 -1.27)
				)
				(stroke
					(width 0)
					(type default)
				)
				(fill
					(type none)
				)
			)
			(polyline
				(pts
					(xy 4.064 -1.905) (xy 6.096 -1.905)
				)
				(stroke
					(width 0)
					(type default)
				)
				(fill
					(type none)
				)
			)
			(polyline
				(pts
					(xy 4.445 -2.54) (xy 5.715 -2.54)
				)
				(stroke
					(width 0)
					(type default)
				)
				(fill
					(type none)
				)
			)
		)
		(symbol "Thermocouple-GND_0_1"
			(circle
				(center -2.54 -1.27)
				(radius 0.508)
				(stroke
					(width 0)
					(type default)
				)
				(fill
					(type none)
				)
			)
			(circle
				(center -2.54 1.27)
				(radius 0.508)
				(stroke
					(width 0)
					(type default)
				)
				(fill
					(type none)
				)
			)
			(polyline
				(pts
					(xy 3.81 -1.27) (xy 6.35 -1.27)
				)
				(stroke
					(width 0)
					(type default)
				)
				(fill
					(type none)
				)
			)
			(polyline
				(pts
					(xy 5.08 0) (xy 5.08 -1.27)
				)
				(stroke
					(width 0)
					(type default)
				)
				(fill
					(type none)
				)
			)
			(polyline
				(pts
					(xy -2.54 1.27) (xy 2.54 1.27) (xy 5.08 0) (xy 2.54 -1.27) (xy -2.54 -1.27)
				)
				(stroke
					(width 0)
					(type default)
				)
				(fill
					(type none)
				)
			)
			(pin passive line
				(at -5.08 1.27 0)
				(length 2.54)
				(name "+"
					(effects
						(font
							(size 1.27 1.27)
						)
					)
				)
				(number "+"
					(effects
						(font
							(size 1.27 1.27)
						)
					)
				)
			)
			(pin passive line
				(at -5.08 -1.27 0)
				(length 2.54)
				(name "-"
					(effects
						(font
							(size 1.27 1.27)
						)
					)
				)
				(number "-"
					(effects
						(font
							(size 1.27 1.27)
						)
					)
				)
			)
		)
	)
	(symbol "MCP9700AT-E-LT"
		(extends "MCP9700T-E-LT")
		(property "Reference" "U"
			(at 5.08 6.35 0)
			(effects
				(font
					(size 1.27 1.27)
				)
				(justify right)
			)
		)
		(property "Value" "MCP9700AT-E-LT"
			(at 0 -6.35 0)
			(effects
				(font
					(size 0.762 0.762)
				)
			)
		)
		(property "Footprint" "dfp:SC70-5"
			(at 0 -7.62 0)
			(effects
				(font
					(size 0.762 0.762)
				)
				(hide yes)
			)
		)
		(property "Datasheet" ""
			(at 0 0 0)
			(effects
				(font
					(size 1.27 1.27)
				)
				(hide yes)
			)
		)
		(property "Description" ""
			(at 0 0 0)
			(effects
				(font
					(size 1.27 1.27)
				)
				(hide yes)
			)
		)
		(property "Manuf" "Microchip"
			(at 0 -8.89 0)
			(effects
				(font
					(size 0.762 0.762)
				)
				(hide yes)
			)
		)
	)
	(symbol "MCP9701AT-E-LT"
		(extends "MCP9700T-E-LT")
		(property "Reference" "U"
			(at 5.08 6.35 0)
			(effects
				(font
					(size 1.27 1.27)
				)
				(justify right)
			)
		)
		(property "Value" "MCP9701AT-E-LT"
			(at 0 -6.35 0)
			(effects
				(font
					(size 0.762 0.762)
				)
			)
		)
		(property "Footprint" "dfp:SC70-5"
			(at 0 -7.62 0)
			(effects
				(font
					(size 0.762 0.762)
				)
				(hide yes)
			)
		)
		(property "Datasheet" ""
			(at 0 0 0)
			(effects
				(font
					(size 1.27 1.27)
				)
				(hide yes)
			)
		)
		(property "Description" ""
			(at 0 0 0)
			(effects
				(font
					(size 1.27 1.27)
				)
				(hide yes)
			)
		)
		(property "Manuf" "Microchip"
			(at 0 -8.89 0)
			(effects
				(font
					(size 0.762 0.762)
				)
				(hide yes)
			)
		)
	)
	(symbol "MCP9701T-E-LT"
		(extends "MCP9700T-E-LT")
		(property "Reference" "U"
			(at 5.08 6.35 0)
			(effects
				(font
					(size 1.27 1.27)
				)
				(justify right)
			)
		)
		(property "Value" "MCP9701T-E-LT"
			(at 0 -6.35 0)
			(effects
				(font
					(size 1.27 1.27)
				)
			)
		)
		(property "Footprint" "dfp:SC70-5"
			(at 0 -7.62 0)
			(effects
				(font
					(size 0.762 0.762)
				)
				(hide yes)
			)
		)
		(property "Datasheet" ""
			(at 0 0 0)
			(effects
				(font
					(size 1.27 1.27)
				)
				(hide yes)
			)
		)
		(property "Description" ""
			(at 0 0 0)
			(effects
				(font
					(size 1.27 1.27)
				)
				(hide yes)
			)
		)
		(property "Manuf" "Microchip"
			(at 0 -8.89 0)
			(effects
				(font
					(size 0.762 0.762)
				)
				(hide yes)
			)
		)
	)
	(symbol "PT100"
		(extends "RTD")
		(property "Reference" "R"
			(at -3.81 2.54 0)
			(effects
				(font
					(size 1.27 1.27)
				)
				(justify left)
			)
		)
		(property "Value" "PT100"
			(at 0 -4.445 0)
			(effects
				(font
					(size 1.27 1.27)
				)
			)
		)
		(property "Footprint" ""
			(at 0 -5.08 0)
			(effects
				(font
					(size 0.762 0.762)
				)
				(hide yes)
			)
		)
		(property "Datasheet" ""
			(at 0 0 0)
			(effects
				(font
					(size 1.27 1.27)
				)
			)
		)
		(property "Description" ""
			(at 0 0 0)
			(effects
				(font
					(size 1.27 1.27)
				)
				(hide yes)
			)
		)
	)
	(symbol "PT1000"
		(extends "RTD")
		(property "Reference" "R"
			(at -3.81 2.54 0)
			(effects
				(font
					(size 1.27 1.27)
				)
				(justify left)
			)
		)
		(property "Value" "PT1000"
			(at 0 -4.445 0)
			(effects
				(font
					(size 1.27 1.27)
				)
			)
		)
		(property "Footprint" ""
			(at 0 -5.08 0)
			(effects
				(font
					(size 0.762 0.762)
				)
				(hide yes)
			)
		)
		(property "Datasheet" ""
			(at 0 0 0)
			(effects
				(font
					(size 1.27 1.27)
				)
			)
		)
		(property "Description" ""
			(at 0 0 0)
			(effects
				(font
					(size 1.27 1.27)
				)
				(hide yes)
			)
		)
	)
	(symbol "PT200"
		(extends "RTD")
		(property "Reference" "R"
			(at -3.81 2.54 0)
			(effects
				(font
					(size 1.27 1.27)
				)
				(justify left)
			)
		)
		(property "Value" "PT200"
			(at 0 -4.445 0)
			(effects
				(font
					(size 1.27 1.27)
				)
			)
		)
		(property "Footprint" ""
			(at 0 -5.08 0)
			(effects
				(font
					(size 0.762 0.762)
				)
				(hide yes)
			)
		)
		(property "Datasheet" ""
			(at 0 0 0)
			(effects
				(font
					(size 1.27 1.27)
				)
			)
		)
		(property "Description" ""
			(at 0 0 0)
			(effects
				(font
					(size 1.27 1.27)
				)
				(hide yes)
			)
		)
	)
	(symbol "PT500"
		(extends "RTD")
		(property "Reference" "R"
			(at -3.81 2.54 0)
			(effects
				(font
					(size 1.27 1.27)
				)
				(justify left)
			)
		)
		(property "Value" "PT500"
			(at 0 -4.445 0)
			(effects
				(font
					(size 1.27 1.27)
				)
			)
		)
		(property "Footprint" ""
			(at 0 -5.08 0)
			(effects
				(font
					(size 0.762 0.762)
				)
				(hide yes)
			)
		)
		(property "Datasheet" ""
			(at 0 0 0)
			(effects
				(font
					(size 1.27 1.27)
				)
			)
		)
		(property "Description" ""
			(at 0 0 0)
			(effects
				(font
					(size 1.27 1.27)
				)
				(hide yes)
			)
		)
	)
)
