(kicad_symbol_lib
	(version 20231120)
	(generator "kicad_symbol_editor")
	(generator_version "8.0")
	(symbol "Conn-USB"
		(pin_names
			(offset 2.54)
		)
		(exclude_from_sim no)
		(in_bom yes)
		(on_board yes)
		(property "Reference" "X"
			(at 0 6.35 0)
			(effects
				(font
					(size 1.27 1.27)
				)
			)
		)
		(property "Value" "Conn-USB"
			(at 0 -8.255 0)
			(effects
				(font
					(size 1.27 1.27)
				)
			)
		)
		(property "Footprint" ""
			(at 0 -8.255 0)
			(effects
				(font
					(size 0.762 0.762)
				)
				(hide yes)
			)
		)
		(property "Datasheet" ""
			(at 0 0 0)
			(effects
				(font
					(size 1.27 1.27)
				)
			)
		)
		(property "Description" "4-poles USB Connector"
			(at 0 -10.16 0)
			(effects
				(font
					(size 1.27 1.27)
				)
				(hide yes)
			)
		)
		(symbol "Conn-USB_0_1"
			(polyline
				(pts
					(xy 0 -6.35) (xy 0 -5.08) (xy 0 -5.08)
				)
				(stroke
					(width 0)
					(type default)
				)
				(fill
					(type none)
				)
			)
			(arc
				(start 0.635 -3.175)
				(mid 0 -3.81)
				(end 0.635 -4.445)
				(stroke
					(width 0)
					(type default)
				)
				(fill
					(type none)
				)
			)
			(arc
				(start 0.635 -0.635)
				(mid 0 -1.27)
				(end 0.635 -1.905)
				(stroke
					(width 0)
					(type default)
				)
				(fill
					(type none)
				)
			)
			(arc
				(start 0.635 1.905)
				(mid 0 1.27)
				(end 0.635 0.635)
				(stroke
					(width 0)
					(type default)
				)
				(fill
					(type none)
				)
			)
			(arc
				(start 0.635 4.445)
				(mid 0 3.81)
				(end 0.635 3.175)
				(stroke
					(width 0)
					(type default)
				)
				(fill
					(type none)
				)
			)
		)
		(symbol "Conn-USB_1_1"
			(rectangle
				(start -1.27 5.08)
				(end 1.905 -5.08)
				(stroke
					(width 0)
					(type dash)
				)
				(fill
					(type none)
				)
			)
			(pin passive line
				(at -3.81 3.81 0)
				(length 3.81)
				(name "VBUS"
					(effects
						(font
							(size 1.27 1.27)
						)
					)
				)
				(number "1"
					(effects
						(font
							(size 1.27 1.27)
						)
					)
				)
			)
			(pin passive line
				(at -3.81 1.27 0)
				(length 3.81)
				(name "D-"
					(effects
						(font
							(size 1.27 1.27)
						)
					)
				)
				(number "2"
					(effects
						(font
							(size 1.27 1.27)
						)
					)
				)
			)
			(pin passive line
				(at -3.81 -1.27 0)
				(length 3.81)
				(name "D+"
					(effects
						(font
							(size 1.27 1.27)
						)
					)
				)
				(number "3"
					(effects
						(font
							(size 1.27 1.27)
						)
					)
				)
			)
			(pin passive line
				(at -3.81 -3.81 0)
				(length 3.81)
				(name "GND"
					(effects
						(font
							(size 1.27 1.27)
						)
					)
				)
				(number "4"
					(effects
						(font
							(size 1.27 1.27)
						)
					)
				)
			)
			(pin passive line
				(at -3.81 -6.35 0)
				(length 3.81)
				(name "~"
					(effects
						(font
							(size 1.27 1.27)
						)
					)
				)
				(number "G"
					(effects
						(font
							(size 1.27 1.27)
						)
					)
				)
			)
		)
	)
	(symbol "Conn-USB30"
		(pin_names
			(offset 2.54)
		)
		(exclude_from_sim no)
		(in_bom yes)
		(on_board yes)
		(property "Reference" "X"
			(at 0 13.97 0)
			(effects
				(font
					(size 1.27 1.27)
				)
			)
		)
		(property "Value" "Conn-USB30"
			(at 0 -12.7 0)
			(effects
				(font
					(size 1.27 1.27)
				)
			)
		)
		(property "Footprint" ""
			(at 0 -0.635 0)
			(effects
				(font
					(size 0.762 0.762)
				)
				(hide yes)
			)
		)
		(property "Datasheet" ""
			(at 0 7.62 0)
			(effects
				(font
					(size 1.27 1.27)
				)
			)
		)
		(property "Description" "USB 3.0 Connector"
			(at 0 -14.605 0)
			(effects
				(font
					(size 1.27 1.27)
				)
				(hide yes)
			)
		)
		(symbol "Conn-USB30_0_1"
			(polyline
				(pts
					(xy 0 -11.43) (xy 0 -10.16) (xy 0 -10.16)
				)
				(stroke
					(width 0)
					(type default)
				)
				(fill
					(type none)
				)
			)
			(arc
				(start 0.635 -8.255)
				(mid 0 -8.89)
				(end 0.635 -9.525)
				(stroke
					(width 0)
					(type default)
				)
				(fill
					(type none)
				)
			)
			(arc
				(start 0.635 -5.715)
				(mid 0 -6.35)
				(end 0.635 -6.985)
				(stroke
					(width 0)
					(type default)
				)
				(fill
					(type none)
				)
			)
			(arc
				(start 0.635 -3.175)
				(mid 0 -3.81)
				(end 0.635 -4.445)
				(stroke
					(width 0)
					(type default)
				)
				(fill
					(type none)
				)
			)
			(arc
				(start 0.635 -0.635)
				(mid 0 -1.27)
				(end 0.635 -1.905)
				(stroke
					(width 0)
					(type default)
				)
				(fill
					(type none)
				)
			)
			(arc
				(start 0.635 1.905)
				(mid 0 1.27)
				(end 0.635 0.635)
				(stroke
					(width 0)
					(type default)
				)
				(fill
					(type none)
				)
			)
			(arc
				(start 0.635 4.445)
				(mid 0 3.81)
				(end 0.635 3.175)
				(stroke
					(width 0)
					(type default)
				)
				(fill
					(type none)
				)
			)
			(arc
				(start 0.635 6.985)
				(mid 0 6.35)
				(end 0.635 5.715)
				(stroke
					(width 0)
					(type default)
				)
				(fill
					(type none)
				)
			)
			(arc
				(start 0.635 9.525)
				(mid 0 8.89)
				(end 0.635 8.255)
				(stroke
					(width 0)
					(type default)
				)
				(fill
					(type none)
				)
			)
			(arc
				(start 0.635 12.065)
				(mid 0 11.43)
				(end 0.635 10.795)
				(stroke
					(width 0)
					(type default)
				)
				(fill
					(type none)
				)
			)
		)
		(symbol "Conn-USB30_1_1"
			(rectangle
				(start -1.27 12.7)
				(end 1.905 -10.16)
				(stroke
					(width 0)
					(type dash)
				)
				(fill
					(type none)
				)
			)
			(pin passive line
				(at -3.81 11.43 0)
				(length 3.81)
				(name "VBUS"
					(effects
						(font
							(size 1.27 1.27)
						)
					)
				)
				(number "1"
					(effects
						(font
							(size 1.27 1.27)
						)
					)
				)
			)
			(pin passive line
				(at -3.81 8.89 0)
				(length 3.81)
				(name "D-"
					(effects
						(font
							(size 1.27 1.27)
						)
					)
				)
				(number "2"
					(effects
						(font
							(size 1.27 1.27)
						)
					)
				)
			)
			(pin passive line
				(at -3.81 6.35 0)
				(length 3.81)
				(name "D+"
					(effects
						(font
							(size 1.27 1.27)
						)
					)
				)
				(number "3"
					(effects
						(font
							(size 1.27 1.27)
						)
					)
				)
			)
			(pin passive line
				(at -3.81 3.81 0)
				(length 3.81)
				(name "GND"
					(effects
						(font
							(size 1.27 1.27)
						)
					)
				)
				(number "4"
					(effects
						(font
							(size 1.27 1.27)
						)
					)
				)
			)
			(pin passive line
				(at -3.81 1.27 0)
				(length 3.81)
				(name "StdA_SSRX-"
					(effects
						(font
							(size 1.27 1.27)
						)
					)
				)
				(number "5"
					(effects
						(font
							(size 1.27 1.27)
						)
					)
				)
			)
			(pin passive line
				(at -3.81 -1.27 0)
				(length 3.81)
				(name "StdA_SSRX+"
					(effects
						(font
							(size 1.27 1.27)
						)
					)
				)
				(number "6"
					(effects
						(font
							(size 1.27 1.27)
						)
					)
				)
			)
			(pin passive line
				(at -3.81 -3.81 0)
				(length 3.81)
				(name "GND_DRAIN"
					(effects
						(font
							(size 1.27 1.27)
						)
					)
				)
				(number "7"
					(effects
						(font
							(size 1.27 1.27)
						)
					)
				)
			)
			(pin passive line
				(at -3.81 -6.35 0)
				(length 3.81)
				(name "StdA_SSTX-"
					(effects
						(font
							(size 1.27 1.27)
						)
					)
				)
				(number "8"
					(effects
						(font
							(size 1.27 1.27)
						)
					)
				)
			)
			(pin passive line
				(at -3.81 -8.89 0)
				(length 3.81)
				(name "StdA_SSTX+"
					(effects
						(font
							(size 1.27 1.27)
						)
					)
				)
				(number "9"
					(effects
						(font
							(size 1.27 1.27)
						)
					)
				)
			)
			(pin passive line
				(at -3.81 -11.43 0)
				(length 3.81)
				(name "~"
					(effects
						(font
							(size 1.27 1.27)
						)
					)
				)
				(number "G"
					(effects
						(font
							(size 1.27 1.27)
						)
					)
				)
			)
		)
	)
	(symbol "105057"
		(extends "Conn-USB")
		(property "Reference" "X"
			(at 0 6.35 0)
			(effects
				(font
					(size 1.27 1.27)
				)
			)
		)
		(property "Value" "105057"
			(at 0 -8.255 0)
			(effects
				(font
					(size 1.27 1.27)
				)
			)
		)
		(property "Footprint" "usb:Molex-105057"
			(at 0 -9.525 0)
			(effects
				(font
					(size 0.762 0.762)
				)
				(hide yes)
			)
		)
		(property "Datasheet" ""
			(at 0 0 0)
			(effects
				(font
					(size 1.27 1.27)
				)
			)
		)
		(property "Description" "Type A Vertical USB Socket"
			(at 0 -12.7 0)
			(effects
				(font
					(size 1.27 1.27)
				)
				(hide yes)
			)
		)
		(property "Manuf" "Molex"
			(at 0 -10.795 0)
			(effects
				(font
					(size 0.762 0.762)
				)
				(hide yes)
			)
		)
	)
	(symbol "67068"
		(extends "Conn-USB")
		(property "Reference" "X"
			(at 0 6.35 0)
			(effects
				(font
					(size 1.27 1.27)
				)
			)
		)
		(property "Value" "67068"
			(at 0 -8.255 0)
			(effects
				(font
					(size 1.27 1.27)
				)
			)
		)
		(property "Footprint" "usb:Molex-67068"
			(at 0 -9.525 0)
			(effects
				(font
					(size 0.762 0.762)
				)
				(hide yes)
			)
		)
		(property "Datasheet" ""
			(at 0 0 0)
			(effects
				(font
					(size 1.27 1.27)
				)
			)
		)
		(property "Description" "Type B USB Socket"
			(at 0 -12.7 0)
			(effects
				(font
					(size 1.27 1.27)
				)
				(hide yes)
			)
		)
		(property "Manuf" "Molex"
			(at 0 -10.795 0)
			(effects
				(font
					(size 0.762 0.762)
				)
				(hide yes)
			)
		)
	)
	(symbol "USB1130-15"
		(extends "Conn-USB")
		(property "Reference" "X"
			(at 0 6.35 0)
			(effects
				(font
					(size 1.27 1.27)
				)
			)
		)
		(property "Value" "USB1130-15"
			(at 0 -7.62 0)
			(effects
				(font
					(size 0.762 0.762)
				)
			)
		)
		(property "Footprint" "usb:GCT-USB1130"
			(at 0 -8.89 0)
			(effects
				(font
					(size 0.762 0.762)
				)
				(hide yes)
			)
		)
		(property "Datasheet" ""
			(at 0 0 0)
			(effects
				(font
					(size 1.27 1.27)
				)
			)
		)
		(property "Description" "Type A USB Socket"
			(at 0 -11.43 0)
			(effects
				(font
					(size 1.27 1.27)
				)
				(hide yes)
			)
		)
		(property "Manuf" "GCT"
			(at 0 -10.16 0)
			(effects
				(font
					(size 0.762 0.762)
				)
				(hide yes)
			)
		)
	)
	(symbol "WR-COM-61400413321"
		(extends "Conn-USB")
		(property "Reference" "X"
			(at 0 6.35 0)
			(effects
				(font
					(size 1.27 1.27)
				)
			)
		)
		(property "Value" "WR-COM-61400413321"
			(at 0 -7.62 0)
			(effects
				(font
					(size 0.762 0.762)
				)
			)
		)
		(property "Footprint" "usb:WR-COM-61400413321"
			(at 0 -8.89 0)
			(effects
				(font
					(size 0.762 0.762)
				)
				(hide yes)
			)
		)
		(property "Datasheet" ""
			(at 0 0 0)
			(effects
				(font
					(size 1.27 1.27)
				)
			)
		)
		(property "Description" "Vertical USB 2.0 Socket"
			(at 0 -12.065 0)
			(effects
				(font
					(size 1.27 1.27)
				)
				(hide yes)
			)
		)
		(property "Manuf" "Würth"
			(at 0 -10.16 0)
			(effects
				(font
					(size 0.762 0.762)
				)
				(hide yes)
			)
		)
	)
)