(footprint "10-08-1051"
	(version 20240108)
	(generator "pcbnew")
	(generator_version "8.0")
	(layer "F.Cu")
	(descr "5,08mm pitch, 3003 series KK vertical header, 5 pin")
	(property "Reference" "10-08-1051"
		(at 0 0 0)
		(layer "F.Fab")
		(uuid "4d08f7d8-1a8f-42d2-ac48-11fd81eaeea0")
		(effects
			(font
				(size 1.2 1.2)
				(thickness 0.12)
			)
		)
	)
	(property "Value" "10-08-1051"
		(at 0 0 0)
		(unlocked yes)
		(layer "F.Fab")
		(hide yes)
		(uuid "96cbd80d-9aa0-4032-a0af-2eed895faf63")
		(effects
			(font
				(size 1.2 1.2)
				(thickness 0.12)
			)
		)
	)
	(property "Footprint" ""
		(at 0 0 0)
		(layer "F.Fab")
		(hide yes)
		(uuid "b55b619e-e1a3-425e-bc3b-1aba934a63b5")
		(effects
			(font
				(size 1.27 1.27)
				(thickness 0.15)
			)
		)
	)
	(property "Datasheet" ""
		(at 0 0 0)
		(layer "F.Fab")
		(hide yes)
		(uuid "7474c48e-9bbb-4766-8970-2cc61bc6f884")
		(effects
			(font
				(size 1.27 1.27)
				(thickness 0.15)
			)
		)
	)
	(property "Description" ""
		(at 0 0 0)
		(layer "F.Fab")
		(hide yes)
		(uuid "00974e57-8855-46d2-a373-2b727c8cfef9")
		(effects
			(font
				(size 1.27 1.27)
				(thickness 0.15)
			)
		)
	)
	(attr through_hole)
	(fp_line
		(start -12.6 -3.2)
		(end -12.6 3.2)
		(stroke
			(width 0.12)
			(type default)
		)
		(layer "F.SilkS")
		(uuid "c7b45b1f-dbc8-43e3-9f64-cacebe3d7120")
	)
	(fp_line
		(start -10.75 3.2)
		(end -12.6 3.2)
		(stroke
			(width 0.12)
			(type default)
		)
		(layer "F.SilkS")
		(uuid "42ec30a2-42ee-42f0-af00-8f3d23a225c1")
	)
	(fp_line
		(start -9.55 3.2)
		(end 12.6 3.2)
		(stroke
			(width 0.12)
			(type default)
		)
		(layer "F.SilkS")
		(uuid "02be0789-8248-474c-a8a4-d6f67b640400")
	)
	(fp_line
		(start 12.6 -3.2)
		(end -12.6 -3.2)
		(stroke
			(width 0.12)
			(type default)
		)
		(layer "F.SilkS")
		(uuid "38e7bc85-8527-482a-971c-1485d37e714d")
	)
	(fp_line
		(start 12.6 3.2)
		(end 12.6 -3.2)
		(stroke
			(width 0.12)
			(type default)
		)
		(layer "F.SilkS")
		(uuid "a19196c9-86ad-4f67-bae7-c69cde7ad4fa")
	)
	(fp_circle
		(center -10.15 3.6)
		(end -9.75 3.6)
		(stroke
			(width 0.12)
			(type solid)
		)
		(fill solid)
		(layer "F.SilkS")
		(uuid "dec07512-7847-49a5-886f-4926e7c43547")
	)
	(fp_rect
		(start -13.1 -3.7)
		(end 13.1 3.7)
		(stroke
			(width 0.01)
			(type solid)
		)
		(fill none)
		(layer "F.CrtYd")
		(uuid "50541dba-bda5-4f5e-99c5-481138dd1b22")
	)
	(fp_rect
		(start -12.6 -3.2)
		(end 12.6 3.2)
		(stroke
			(width 0.1)
			(type solid)
		)
		(fill none)
		(layer "F.Fab")
		(uuid "4c553bc5-1449-4a68-84b6-e3751f26c0e8")
	)
	(fp_text user "${REFERENCE}"
		(at 0 -3.85 0)
		(layer "F.SilkS")
		(uuid "1ece7d67-0760-43f3-84ef-ab4a504fd3fe")
		(effects
			(font
				(size 0.8 0.8)
				(thickness 0.15)
				(bold yes)
			)
		)
	)
	(pad "1" thru_hole circle
		(at -10.16 0)
		(size 2.7 2.7)
		(drill 1.5)
		(layers "*.Cu" "*.Mask")
		(remove_unused_layers no)
		(uuid "b81a56c5-7250-41ef-832d-d917817338d1")
	)
	(pad "2" thru_hole circle
		(at -5.08 0)
		(size 2.7 2.7)
		(drill 1.5)
		(layers "*.Cu" "*.Mask")
		(remove_unused_layers no)
		(uuid "67e64e29-70fb-4efa-8a85-a15b3141119e")
	)
	(pad "3" thru_hole circle
		(at 0 0)
		(size 2.7 2.7)
		(drill 1.5)
		(layers "*.Cu" "*.Mask")
		(remove_unused_layers no)
		(uuid "33dac3ef-c714-46df-8384-dffd42739ac0")
	)
	(pad "4" thru_hole circle
		(at 5.08 0)
		(size 2.7 2.7)
		(drill 1.5)
		(layers "*.Cu" "*.Mask")
		(remove_unused_layers no)
		(uuid "2d976f4a-d207-4ce1-b629-5257eccaee89")
	)
	(pad "5" thru_hole circle
		(at 10.16 0)
		(size 2.7 2.7)
		(drill 1.5)
		(layers "*.Cu" "*.Mask")
		(remove_unused_layers no)
		(uuid "d5c2902a-4a98-4de4-bcb1-e79f0ceeced3")
	)
)
