(footprint "F-2x3"
	(version 20240108)
	(generator "pcbnew")
	(generator_version "8.0")
	(layer "F.Cu")
	(descr "Dual Pin Female Header, 3x2 pins, 2.54mm Pitch")
	(property "Reference" "HEADER-F-3X2"
		(at 0 0 0)
		(layer "F.Fab")
		(uuid "cf40fd01-6a40-49ea-8fa9-4d343308e6dd")
		(effects
			(font
				(size 1.2 1.2)
				(thickness 0.12)
			)
		)
	)
	(property "Value" "HEADER-F-3X2"
		(at 0 0 0)
		(layer "F.Fab")
		(hide yes)
		(uuid "c8aea96b-2e71-4a88-b70b-33d9099a7f6f")
		(effects
			(font
				(size 1.2 1.2)
				(thickness 0.12)
			)
		)
	)
	(property "Footprint" ""
		(at 0 0 0)
		(unlocked yes)
		(layer "F.Fab")
		(hide yes)
		(uuid "f4713c36-2a21-4f8d-9730-184fb133c90a")
		(effects
			(font
				(size 1.27 1.27)
				(thickness 0.15)
			)
		)
	)
	(property "Datasheet" ""
		(at 0 0 0)
		(unlocked yes)
		(layer "F.Fab")
		(hide yes)
		(uuid "29aff711-7660-4fc7-8987-550098d6a9a7")
		(effects
			(font
				(size 1.27 1.27)
				(thickness 0.15)
			)
		)
	)
	(property "Description" ""
		(at 0 0 0)
		(unlocked yes)
		(layer "F.Fab")
		(hide yes)
		(uuid "bf76eaf8-fbc6-4cad-958a-7672656454ec")
		(effects
			(font
				(size 1.27 1.27)
				(thickness 0.15)
			)
		)
	)
	(attr through_hole)
	(fp_line
		(start -4.2 -2.6)
		(end -4.2 2.6)
		(stroke
			(width 0.12)
			(type solid)
		)
		(layer "F.SilkS")
		(uuid "58c38fab-fdeb-4a25-b31f-c770de66ff30")
	)
	(fp_line
		(start -4.2 2.6)
		(end 4.2 2.6)
		(stroke
			(width 0.12)
			(type solid)
		)
		(layer "F.SilkS")
		(uuid "1009c1f5-2214-4067-b2bd-fc6f090b96b8")
	)
	(fp_line
		(start -3.15 -2.6)
		(end -4.2 -2.6)
		(stroke
			(width 0.12)
			(type solid)
		)
		(layer "F.SilkS")
		(uuid "75c209ef-fb9b-434f-9791-4f7620758991")
	)
	(fp_line
		(start -1.95 -2.6)
		(end 4.2 -2.6)
		(stroke
			(width 0.12)
			(type solid)
		)
		(layer "F.SilkS")
		(uuid "efd0db9a-2020-4282-854a-d933dbb442ad")
	)
	(fp_line
		(start 4.2 2.6)
		(end 4.2 -2.6)
		(stroke
			(width 0.12)
			(type solid)
		)
		(layer "F.SilkS")
		(uuid "105df72f-a1de-4441-a237-10c73cb3c24d")
	)
	(fp_circle
		(center -2.55 -3)
		(end -2.15 -3)
		(stroke
			(width 0.12)
			(type solid)
		)
		(fill solid)
		(layer "F.SilkS")
		(uuid "5d902191-0709-4903-b35b-c17f1bb9d80e")
	)
	(fp_rect
		(start -4.7 -3.1)
		(end 4.7 3.1)
		(stroke
			(width 0.01)
			(type solid)
		)
		(fill none)
		(layer "F.CrtYd")
		(uuid "501f0b01-a190-4e24-b4b5-16e7e1d2c371")
	)
	(fp_line
		(start -3.2 -2.6)
		(end -4.2 -1.6)
		(stroke
			(width 0.1)
			(type solid)
		)
		(layer "F.Fab")
		(uuid "532f8504-b6fb-4239-8412-2056e5b86564")
	)
	(fp_rect
		(start -4.2 -2.6)
		(end 4.2 2.6)
		(stroke
			(width 0.1)
			(type solid)
		)
		(fill none)
		(layer "F.Fab")
		(uuid "de1bc5a1-e0f8-4c0a-a8bb-f28b5427f903")
	)
	(fp_text user "${REFERENCE}"
		(at 0 -2.8 0)
		(unlocked yes)
		(layer "F.SilkS")
		(uuid "c8594fd1-9e5e-482c-9a67-a0ba192e2967")
		(effects
			(font
				(size 0.8 0.8)
				(thickness 0.15)
			)
			(justify bottom)
		)
	)
	(pad "1" thru_hole circle
		(at -2.54 -1.27)
		(size 1.6 1.6)
		(drill 1)
		(layers "*.Cu" "*.Mask")
		(remove_unused_layers no)
		(uuid "b7117174-5dbf-4ded-9cac-e676c8eb79d8")
	)
	(pad "2" thru_hole circle
		(at -2.54 1.27)
		(size 1.6 1.6)
		(drill 1)
		(layers "*.Cu" "*.Mask")
		(remove_unused_layers no)
		(uuid "ca999370-5265-461f-94d5-c2af8e8bc5aa")
	)
	(pad "3" thru_hole circle
		(at 0 -1.27)
		(size 1.6 1.6)
		(drill 1)
		(layers "*.Cu" "*.Mask")
		(remove_unused_layers no)
		(uuid "603d3480-1a6e-4f72-9c5f-f823b5defc0e")
	)
	(pad "4" thru_hole circle
		(at 0 1.27)
		(size 1.6 1.6)
		(drill 1)
		(layers "*.Cu" "*.Mask")
		(remove_unused_layers no)
		(uuid "38c74200-0382-4c74-9399-2acd79b03fec")
	)
	(pad "5" thru_hole circle
		(at 2.54 -1.27)
		(size 1.6 1.6)
		(drill 1)
		(layers "*.Cu" "*.Mask")
		(remove_unused_layers no)
		(uuid "8ed9de6d-0d60-4458-a302-0507625c7b9a")
	)
	(pad "6" thru_hole circle
		(at 2.54 1.27)
		(size 1.6 1.6)
		(drill 1)
		(layers "*.Cu" "*.Mask")
		(remove_unused_layers no)
		(uuid "0afc3074-9705-47f0-8c96-8e06c70b5dbb")
	)
)
