(footprint "F-2x16"
	(version 20240108)
	(generator "pcbnew")
	(generator_version "8.0")
	(layer "F.Cu")
	(descr "Dual Pin Female Header, 16x2 pins, 2.54mm Pitch")
	(property "Reference" "HEADER-F-16X2"
		(at 0 0 0)
		(layer "F.Fab")
		(uuid "9b8f192d-c912-4338-83eb-f344b9db79af")
		(effects
			(font
				(size 1.2 1.2)
				(thickness 0.12)
			)
		)
	)
	(property "Value" "HEADER-F-16X2"
		(at 0 0 0)
		(layer "F.Fab")
		(hide yes)
		(uuid "84e6ff28-a7e7-4ef4-b3ac-81c7f1fbe5bb")
		(effects
			(font
				(size 1.2 1.2)
				(thickness 0.12)
			)
		)
	)
	(property "Footprint" ""
		(at 0 0 0)
		(layer "F.Fab")
		(hide yes)
		(uuid "c935ad9a-248d-49ef-91be-1e08df9d1f02")
		(effects
			(font
				(size 1.27 1.27)
				(thickness 0.15)
			)
		)
	)
	(property "Datasheet" ""
		(at 0 0 0)
		(layer "F.Fab")
		(hide yes)
		(uuid "b51e121b-4920-4898-a378-53676f4780f3")
		(effects
			(font
				(size 1.27 1.27)
				(thickness 0.15)
			)
		)
	)
	(property "Description" ""
		(at 0 0 0)
		(layer "F.Fab")
		(hide yes)
		(uuid "90e4d35b-ef4e-41de-a587-47663594e9c5")
		(effects
			(font
				(size 1.27 1.27)
				(thickness 0.15)
			)
		)
	)
	(attr through_hole)
	(fp_line
		(start -20.7 -2.6)
		(end -20.7 2.6)
		(stroke
			(width 0.12)
			(type solid)
		)
		(layer "F.SilkS")
		(uuid "f5dae43c-b906-4400-b442-9946644487bc")
	)
	(fp_line
		(start -20.7 2.6)
		(end 20.7 2.6)
		(stroke
			(width 0.12)
			(type solid)
		)
		(layer "F.SilkS")
		(uuid "501daef4-16f1-4c06-9053-f9b729a1277d")
	)
	(fp_line
		(start -19.65 -2.6)
		(end -20.7 -2.6)
		(stroke
			(width 0.12)
			(type solid)
		)
		(layer "F.SilkS")
		(uuid "ed8f4169-131b-4c18-bd86-297721ca179b")
	)
	(fp_line
		(start -18.45 -2.6)
		(end 20.7 -2.6)
		(stroke
			(width 0.12)
			(type solid)
		)
		(layer "F.SilkS")
		(uuid "2de22a6f-79d1-4d3a-bedd-998b9b1367b4")
	)
	(fp_line
		(start 20.7 2.6)
		(end 20.7 -2.6)
		(stroke
			(width 0.12)
			(type solid)
		)
		(layer "F.SilkS")
		(uuid "9813ea9e-8713-4905-b2ed-7ec876251028")
	)
	(fp_circle
		(center -19.05 -3)
		(end -18.65 -3)
		(stroke
			(width 0.12)
			(type solid)
		)
		(fill solid)
		(layer "F.SilkS")
		(uuid "69d91d2d-5b0c-4c0e-9a15-3598a916c45a")
	)
	(fp_rect
		(start -21.2 -3.1)
		(end 21.2 3.1)
		(stroke
			(width 0.01)
			(type solid)
		)
		(fill none)
		(layer "F.CrtYd")
		(uuid "d11b8162-43a9-4d75-9a6d-3062c5e0ce00")
	)
	(fp_line
		(start -19.7 -2.6)
		(end -20.7 -1.6)
		(stroke
			(width 0.1)
			(type solid)
		)
		(layer "F.Fab")
		(uuid "221a5b39-8839-47a4-b62b-ac5ee79f36cb")
	)
	(fp_rect
		(start -20.7 -2.6)
		(end 20.7 2.6)
		(stroke
			(width 0.1)
			(type solid)
		)
		(fill none)
		(layer "F.Fab")
		(uuid "d87e4704-1ad1-4739-b9f0-c191cc4ee159")
	)
	(fp_text user "${REFERENCE}"
		(at 0 -3.25 0)
		(unlocked yes)
		(layer "F.SilkS")
		(uuid "7f90708a-a018-45a0-b45f-0b4ed8617e97")
		(effects
			(font
				(size 0.8 0.8)
				(thickness 0.15)
			)
		)
	)
	(pad "1" thru_hole circle
		(at -19.05 -1.27)
		(size 1.6 1.6)
		(drill 1)
		(layers "*.Cu" "*.Mask")
		(remove_unused_layers no)
		(uuid "bdf5bf38-d4de-4951-8cc4-c17d0bfc7908")
	)
	(pad "2" thru_hole circle
		(at -19.05 1.27)
		(size 1.6 1.6)
		(drill 1)
		(layers "*.Cu" "*.Mask")
		(remove_unused_layers no)
		(uuid "fce1e3fa-1767-4a68-a54f-89c80fcd1c34")
	)
	(pad "3" thru_hole circle
		(at -16.51 -1.27)
		(size 1.6 1.6)
		(drill 1)
		(layers "*.Cu" "*.Mask")
		(remove_unused_layers no)
		(uuid "0d7f4437-993f-44a7-932b-d91ceb92b9e3")
	)
	(pad "4" thru_hole circle
		(at -16.51 1.27)
		(size 1.6 1.6)
		(drill 1)
		(layers "*.Cu" "*.Mask")
		(remove_unused_layers no)
		(uuid "47857c59-8a04-42c0-a1a9-4ac1016ef559")
	)
	(pad "5" thru_hole circle
		(at -13.97 -1.27)
		(size 1.6 1.6)
		(drill 1)
		(layers "*.Cu" "*.Mask")
		(remove_unused_layers no)
		(uuid "1ff2c2ee-5192-4236-b915-fea7edad9816")
	)
	(pad "6" thru_hole circle
		(at -13.97 1.27)
		(size 1.6 1.6)
		(drill 1)
		(layers "*.Cu" "*.Mask")
		(remove_unused_layers no)
		(uuid "a2d1364e-c66f-461d-b16f-5d154aa1f814")
	)
	(pad "7" thru_hole circle
		(at -11.43 -1.27)
		(size 1.6 1.6)
		(drill 1)
		(layers "*.Cu" "*.Mask")
		(remove_unused_layers no)
		(uuid "330d42c8-21b3-4400-983a-9e1242271ced")
	)
	(pad "8" thru_hole circle
		(at -11.43 1.27)
		(size 1.6 1.6)
		(drill 1)
		(layers "*.Cu" "*.Mask")
		(remove_unused_layers no)
		(uuid "a1d3f822-90a5-4430-82a1-f5ad4f4b51a7")
	)
	(pad "9" thru_hole circle
		(at -8.89 -1.27)
		(size 1.6 1.6)
		(drill 1)
		(layers "*.Cu" "*.Mask")
		(remove_unused_layers no)
		(uuid "d8fc06e7-918b-4bc4-bd49-334f2c795993")
	)
	(pad "10" thru_hole circle
		(at -8.89 1.27)
		(size 1.6 1.6)
		(drill 1)
		(layers "*.Cu" "*.Mask")
		(remove_unused_layers no)
		(uuid "61d7f2b8-2985-4185-a68a-3ef6fb970372")
	)
	(pad "11" thru_hole circle
		(at -6.35 -1.27)
		(size 1.6 1.6)
		(drill 1)
		(layers "*.Cu" "*.Mask")
		(remove_unused_layers no)
		(uuid "00ef341b-244a-4774-96d0-4d576458663e")
	)
	(pad "12" thru_hole circle
		(at -6.35 1.27)
		(size 1.6 1.6)
		(drill 1)
		(layers "*.Cu" "*.Mask")
		(remove_unused_layers no)
		(uuid "18ea8a8e-95be-4b33-9919-b027e09c9859")
	)
	(pad "13" thru_hole circle
		(at -3.81 -1.27)
		(size 1.6 1.6)
		(drill 1)
		(layers "*.Cu" "*.Mask")
		(remove_unused_layers no)
		(uuid "6ecb4d4c-67f5-4db9-a402-c61a16c75709")
	)
	(pad "14" thru_hole circle
		(at -3.81 1.27)
		(size 1.6 1.6)
		(drill 1)
		(layers "*.Cu" "*.Mask")
		(remove_unused_layers no)
		(uuid "6ab5b9ff-2efe-4387-a8a5-f458dcf00b33")
	)
	(pad "15" thru_hole circle
		(at -1.27 -1.27)
		(size 1.6 1.6)
		(drill 1)
		(layers "*.Cu" "*.Mask")
		(remove_unused_layers no)
		(uuid "79230734-5224-44aa-b3af-1d7ce6261686")
	)
	(pad "16" thru_hole circle
		(at -1.27 1.27)
		(size 1.6 1.6)
		(drill 1)
		(layers "*.Cu" "*.Mask")
		(remove_unused_layers no)
		(uuid "396362d0-03a9-472d-9ded-b62fd246aa35")
	)
	(pad "17" thru_hole circle
		(at 1.27 -1.27)
		(size 1.6 1.6)
		(drill 1)
		(layers "*.Cu" "*.Mask")
		(remove_unused_layers no)
		(uuid "3305ce52-7347-4330-8054-1a459f639c01")
	)
	(pad "18" thru_hole circle
		(at 1.27 1.27)
		(size 1.6 1.6)
		(drill 1)
		(layers "*.Cu" "*.Mask")
		(remove_unused_layers no)
		(uuid "bc4337eb-88e0-4594-bbb3-b408557c168f")
	)
	(pad "19" thru_hole circle
		(at 3.81 -1.27)
		(size 1.6 1.6)
		(drill 1)
		(layers "*.Cu" "*.Mask")
		(remove_unused_layers no)
		(uuid "ab91b919-61a8-46fa-8645-91e0859e519d")
	)
	(pad "20" thru_hole circle
		(at 3.81 1.27)
		(size 1.6 1.6)
		(drill 1)
		(layers "*.Cu" "*.Mask")
		(remove_unused_layers no)
		(uuid "0a0aa2af-e503-48d8-93a1-be78e1dd5a86")
	)
	(pad "21" thru_hole circle
		(at 6.35 -1.27)
		(size 1.6 1.6)
		(drill 1)
		(layers "*.Cu" "*.Mask")
		(remove_unused_layers no)
		(uuid "c8622763-1741-4c10-9526-63d40e57ed90")
	)
	(pad "22" thru_hole circle
		(at 6.35 1.27)
		(size 1.6 1.6)
		(drill 1)
		(layers "*.Cu" "*.Mask")
		(remove_unused_layers no)
		(uuid "46845546-85f2-4ed7-a5b9-a570df9f4ded")
	)
	(pad "23" thru_hole circle
		(at 8.89 -1.27)
		(size 1.6 1.6)
		(drill 1)
		(layers "*.Cu" "*.Mask")
		(remove_unused_layers no)
		(uuid "bce053f6-5e4e-4195-b687-2422c73ea607")
	)
	(pad "24" thru_hole circle
		(at 8.89 1.27)
		(size 1.6 1.6)
		(drill 1)
		(layers "*.Cu" "*.Mask")
		(remove_unused_layers no)
		(uuid "73a8801d-17bb-418c-96e5-8cf3e74670aa")
	)
	(pad "25" thru_hole circle
		(at 11.43 -1.27)
		(size 1.6 1.6)
		(drill 1)
		(layers "*.Cu" "*.Mask")
		(remove_unused_layers no)
		(uuid "bff51265-c8fa-478d-a158-e2d824d41c79")
	)
	(pad "26" thru_hole circle
		(at 11.43 1.27)
		(size 1.6 1.6)
		(drill 1)
		(layers "*.Cu" "*.Mask")
		(remove_unused_layers no)
		(uuid "c68ddfa0-3f85-47f2-a669-11401d5d7cdf")
	)
	(pad "27" thru_hole circle
		(at 13.97 -1.27)
		(size 1.6 1.6)
		(drill 1)
		(layers "*.Cu" "*.Mask")
		(remove_unused_layers no)
		(uuid "1e5c6013-0988-4625-a95c-8a901e899c76")
	)
	(pad "28" thru_hole circle
		(at 13.97 1.27)
		(size 1.6 1.6)
		(drill 1)
		(layers "*.Cu" "*.Mask")
		(remove_unused_layers no)
		(uuid "0c5d4c24-1915-4c15-b5a8-05f8e2cfa23a")
	)
	(pad "29" thru_hole circle
		(at 16.51 -1.27)
		(size 1.6 1.6)
		(drill 1)
		(layers "*.Cu" "*.Mask")
		(remove_unused_layers no)
		(uuid "67650d7a-0f68-4996-b28c-5d13ffc73292")
	)
	(pad "30" thru_hole circle
		(at 16.51 1.27)
		(size 1.6 1.6)
		(drill 1)
		(layers "*.Cu" "*.Mask")
		(remove_unused_layers no)
		(uuid "c67c3553-0f59-4bf2-ab62-0c14b428f8dc")
	)
	(pad "31" thru_hole circle
		(at 19.05 -1.27)
		(size 1.6 1.6)
		(drill 1)
		(layers "*.Cu" "*.Mask")
		(remove_unused_layers no)
		(uuid "4f9831ac-39a0-4ea1-bd41-c61a65716f62")
	)
	(pad "32" thru_hole circle
		(at 19.05 1.27)
		(size 1.6 1.6)
		(drill 1)
		(layers "*.Cu" "*.Mask")
		(remove_unused_layers no)
		(uuid "f79cb406-e3cf-4aa3-b7ae-ae078ac49f6a")
	)
)
