(footprint "FBE-2x27"
	(version 20240108)
	(generator "pcbnew")
	(generator_version "8.0")
	(layer "F.Cu")
	(descr "Dual Socket Bottom Entry Header, 27x2 pins, 2.54mm Pitch")
	(property "Reference" "HEADER-FBE-27X2"
		(at 0 0 0)
		(layer "F.Fab")
		(uuid "92aa2f51-adc4-43b4-a767-0c7da665885e")
		(effects
			(font
				(size 1.2 1.2)
				(thickness 0.12)
			)
		)
	)
	(property "Value" "HEADER-FBE-27X2"
		(at 0 0 0)
		(layer "F.Fab")
		(hide yes)
		(uuid "944e3e60-75a0-4fc8-a1fd-cb4bf709b205")
		(effects
			(font
				(size 1.2 1.2)
				(thickness 0.12)
			)
		)
	)
	(property "Footprint" ""
		(at 0 0 0)
		(layer "F.Fab")
		(hide yes)
		(uuid "88a3b93e-eb87-404a-8233-ae1f913f41b4")
		(effects
			(font
				(size 1.27 1.27)
				(thickness 0.15)
			)
		)
	)
	(property "Datasheet" ""
		(at 0 0 0)
		(layer "F.Fab")
		(hide yes)
		(uuid "28a1a1b3-d143-4e8e-a5a6-e6a3e666359e")
		(effects
			(font
				(size 1.27 1.27)
				(thickness 0.15)
			)
		)
	)
	(property "Description" ""
		(at 0 0 0)
		(layer "F.Fab")
		(hide yes)
		(uuid "43f89f3e-3e63-4f0e-bd88-eda8b744035b")
		(effects
			(font
				(size 1.27 1.27)
				(thickness 0.15)
			)
		)
	)
	(attr through_hole)
	(fp_line
		(start -35.85 1.9)
		(end -35.85 0.7)
		(stroke
			(width 0.12)
			(type solid)
		)
		(layer "F.SilkS")
		(uuid "815c5944-bdeb-409d-bf7a-e29ee34ae358")
	)
	(fp_line
		(start -34.65 -2.6)
		(end 34.65 -2.6)
		(stroke
			(width 0.12)
			(type solid)
		)
		(layer "F.SilkS")
		(uuid "a202b3a8-7c85-4bfe-9e53-e41bf7cbfd41")
	)
	(fp_line
		(start -34.65 0.7)
		(end -34.65 -2.6)
		(stroke
			(width 0.12)
			(type solid)
		)
		(layer "F.SilkS")
		(uuid "0dcc1b97-1a99-49e6-be6b-29cfddaf3882")
	)
	(fp_line
		(start -34.65 1.3)
		(end -35.85 0.7)
		(stroke
			(width 0.12)
			(type solid)
		)
		(layer "F.SilkS")
		(uuid "ba60fb39-1727-4bb2-86c0-a60aaf03fc6b")
	)
	(fp_line
		(start -34.65 1.3)
		(end -35.85 1.9)
		(stroke
			(width 0.12)
			(type solid)
		)
		(layer "F.SilkS")
		(uuid "62d5f103-9f6e-413d-b7d5-5d54e4b4455d")
	)
	(fp_line
		(start -34.65 2.6)
		(end -34.65 1.9)
		(stroke
			(width 0.12)
			(type solid)
		)
		(layer "F.SilkS")
		(uuid "e4e71998-8bc0-461c-8df7-106a5318456d")
	)
	(fp_line
		(start -34.65 2.6)
		(end 34.65 2.6)
		(stroke
			(width 0.12)
			(type solid)
		)
		(layer "F.SilkS")
		(uuid "0c448e2d-2e56-465a-880a-21693b79b246")
	)
	(fp_line
		(start 34.65 -2.6)
		(end 34.65 2.6)
		(stroke
			(width 0.12)
			(type solid)
		)
		(layer "F.SilkS")
		(uuid "95418982-ef3a-4253-92eb-199698880c08")
	)
	(fp_rect
		(start -35.15 -4.85)
		(end 35.15 4.85)
		(stroke
			(width 0.01)
			(type solid)
		)
		(fill none)
		(layer "F.CrtYd")
		(uuid "466ebba8-6a85-4d7a-91a7-8038e115d274")
	)
	(fp_line
		(start -33.65 2.6)
		(end -34.65 1.6)
		(stroke
			(width 0.1)
			(type solid)
		)
		(layer "F.Fab")
		(uuid "6b9fd0b3-4807-449d-a9eb-fa77b01e30f4")
	)
	(fp_rect
		(start -34.65 -2.6)
		(end 34.65 2.6)
		(stroke
			(width 0.1)
			(type solid)
		)
		(fill none)
		(layer "F.Fab")
		(uuid "5b0048b9-f740-459f-942e-251328e2687c")
	)
	(fp_text user "${REFERENCE}"
		(at 0 -5.35 0)
		(unlocked yes)
		(layer "F.SilkS")
		(uuid "86d73521-5f83-4ff6-ac6c-77c307680cb5")
		(effects
			(font
				(size 0.8 0.8)
				(thickness 0.15)
			)
		)
	)
	(pad "" np_thru_hole circle
		(at -33.02 -1.27)
		(size 1.2 1.2)
		(drill 1.2)
		(layers "*.Cu" "*.Mask")
		(uuid "9b43cfd6-ef5e-4342-9e22-bb4f37d06730")
	)
	(pad "" np_thru_hole circle
		(at -33.02 1.27)
		(size 1.2 1.2)
		(drill 1.2)
		(layers "*.Cu" "*.Mask")
		(uuid "a2b2a2db-91ad-47e4-8fc2-0f4c0c823d14")
	)
	(pad "" np_thru_hole circle
		(at -30.48 -1.27)
		(size 1.2 1.2)
		(drill 1.2)
		(layers "*.Cu" "*.Mask")
		(uuid "5a46e4df-9b6e-451c-b9e3-b2065f22990f")
	)
	(pad "" np_thru_hole circle
		(at -30.48 1.27)
		(size 1.2 1.2)
		(drill 1.2)
		(layers "*.Cu" "*.Mask")
		(uuid "bff985fa-4a9f-487f-bb9c-119f092ee058")
	)
	(pad "" np_thru_hole circle
		(at -27.94 -1.27)
		(size 1.2 1.2)
		(drill 1.2)
		(layers "*.Cu" "*.Mask")
		(uuid "19aaaf8d-19c2-414b-ad8f-2c855fbbe4b8")
	)
	(pad "" np_thru_hole circle
		(at -27.94 1.27)
		(size 1.2 1.2)
		(drill 1.2)
		(layers "*.Cu" "*.Mask")
		(uuid "41135a81-aa4a-4364-bd86-c669b8691a5a")
	)
	(pad "" np_thru_hole circle
		(at -25.4 -1.27)
		(size 1.2 1.2)
		(drill 1.2)
		(layers "*.Cu" "*.Mask")
		(uuid "e5bf8762-21e0-48f7-91b7-0720afb19a1e")
	)
	(pad "" np_thru_hole circle
		(at -25.4 1.27)
		(size 1.2 1.2)
		(drill 1.2)
		(layers "*.Cu" "*.Mask")
		(uuid "714fe297-60d7-4f88-9ddc-1663873e1cc7")
	)
	(pad "" np_thru_hole circle
		(at -22.86 -1.27)
		(size 1.2 1.2)
		(drill 1.2)
		(layers "*.Cu" "*.Mask")
		(uuid "4a589b93-7fc2-4588-b7ab-27e3f0d478d8")
	)
	(pad "" np_thru_hole circle
		(at -22.86 1.27)
		(size 1.2 1.2)
		(drill 1.2)
		(layers "*.Cu" "*.Mask")
		(uuid "c719c8ca-bd6f-4cd2-987d-a89019bf4c2f")
	)
	(pad "" np_thru_hole circle
		(at -20.32 -1.27)
		(size 1.2 1.2)
		(drill 1.2)
		(layers "*.Cu" "*.Mask")
		(uuid "11c3531f-10d1-4ea0-b5fd-8b8f484ae7bf")
	)
	(pad "" np_thru_hole circle
		(at -20.32 1.27)
		(size 1.2 1.2)
		(drill 1.2)
		(layers "*.Cu" "*.Mask")
		(uuid "3f53d50d-3c20-42e8-ad7d-5610e21b4c8a")
	)
	(pad "" np_thru_hole circle
		(at -17.78 -1.27)
		(size 1.2 1.2)
		(drill 1.2)
		(layers "*.Cu" "*.Mask")
		(uuid "59e9c806-460d-42e4-83bb-20a3de1dd27a")
	)
	(pad "" np_thru_hole circle
		(at -17.78 1.27)
		(size 1.2 1.2)
		(drill 1.2)
		(layers "*.Cu" "*.Mask")
		(uuid "72846839-0dc4-49a0-beeb-92fdeef0d048")
	)
	(pad "" np_thru_hole circle
		(at -15.24 -1.27)
		(size 1.2 1.2)
		(drill 1.2)
		(layers "*.Cu" "*.Mask")
		(uuid "6c095925-67a8-491a-92d4-3ead53718cb1")
	)
	(pad "" np_thru_hole circle
		(at -15.24 1.27)
		(size 1.2 1.2)
		(drill 1.2)
		(layers "*.Cu" "*.Mask")
		(uuid "a8416896-849e-458b-913d-38424aee2d94")
	)
	(pad "" np_thru_hole circle
		(at -12.7 -1.27)
		(size 1.2 1.2)
		(drill 1.2)
		(layers "*.Cu" "*.Mask")
		(uuid "a03f454f-6900-4194-8946-3b8ece4eca46")
	)
	(pad "" np_thru_hole circle
		(at -12.7 1.27)
		(size 1.2 1.2)
		(drill 1.2)
		(layers "*.Cu" "*.Mask")
		(uuid "06a9d77e-0e6f-4e78-b7b1-23c7ccc8fd00")
	)
	(pad "" np_thru_hole circle
		(at -10.16 -1.27)
		(size 1.2 1.2)
		(drill 1.2)
		(layers "*.Cu" "*.Mask")
		(uuid "9fd3a037-1649-4aba-bb12-68f6dbd4b030")
	)
	(pad "" np_thru_hole circle
		(at -10.16 1.27)
		(size 1.2 1.2)
		(drill 1.2)
		(layers "*.Cu" "*.Mask")
		(uuid "1c81e9db-19c3-433c-8626-5575b4e57558")
	)
	(pad "" np_thru_hole circle
		(at -7.62 -1.27)
		(size 1.2 1.2)
		(drill 1.2)
		(layers "*.Cu" "*.Mask")
		(uuid "45e537cd-07ea-40f5-9814-d0aedb48599c")
	)
	(pad "" np_thru_hole circle
		(at -7.62 1.27)
		(size 1.2 1.2)
		(drill 1.2)
		(layers "*.Cu" "*.Mask")
		(uuid "88ce6e1c-d434-4f82-9bf4-574573de963e")
	)
	(pad "" np_thru_hole circle
		(at -5.08 -1.27)
		(size 1.2 1.2)
		(drill 1.2)
		(layers "*.Cu" "*.Mask")
		(uuid "1b704621-901f-413e-a161-2362b8f49576")
	)
	(pad "" np_thru_hole circle
		(at -5.08 1.27)
		(size 1.2 1.2)
		(drill 1.2)
		(layers "*.Cu" "*.Mask")
		(uuid "6b843d9d-7b24-437a-a403-c69f4daed756")
	)
	(pad "" np_thru_hole circle
		(at -2.54 -1.27)
		(size 1.2 1.2)
		(drill 1.2)
		(layers "*.Cu" "*.Mask")
		(uuid "0645dde9-802a-4cc3-b45c-30867bb2130e")
	)
	(pad "" np_thru_hole circle
		(at -2.54 1.27)
		(size 1.2 1.2)
		(drill 1.2)
		(layers "*.Cu" "*.Mask")
		(uuid "6c2e8697-f105-440d-9a09-31d5f19f2295")
	)
	(pad "" np_thru_hole circle
		(at 0 -1.27)
		(size 1.2 1.2)
		(drill 1.2)
		(layers "*.Cu" "*.Mask")
		(uuid "dde0417a-2bb3-4565-9f1e-e6d47938e1ac")
	)
	(pad "" np_thru_hole circle
		(at 0 1.27)
		(size 1.2 1.2)
		(drill 1.2)
		(layers "*.Cu" "*.Mask")
		(uuid "d674ac00-c414-4ed6-bc76-f57ede6d1021")
	)
	(pad "" np_thru_hole circle
		(at 2.54 -1.27)
		(size 1.2 1.2)
		(drill 1.2)
		(layers "*.Cu" "*.Mask")
		(uuid "79759bc3-3334-446b-a554-b704d0b4e7d0")
	)
	(pad "" np_thru_hole circle
		(at 2.54 1.27)
		(size 1.2 1.2)
		(drill 1.2)
		(layers "*.Cu" "*.Mask")
		(uuid "d6d6ad1f-bfaf-4adc-b82c-4be2d8f7fb8c")
	)
	(pad "" np_thru_hole circle
		(at 5.08 -1.27)
		(size 1.2 1.2)
		(drill 1.2)
		(layers "*.Cu" "*.Mask")
		(uuid "cfc277aa-8bf8-475c-87dc-0586f01649bc")
	)
	(pad "" np_thru_hole circle
		(at 5.08 1.27)
		(size 1.2 1.2)
		(drill 1.2)
		(layers "*.Cu" "*.Mask")
		(uuid "6b1ef49f-45dc-4d4f-91bf-b984102d266e")
	)
	(pad "" np_thru_hole circle
		(at 7.62 -1.27)
		(size 1.2 1.2)
		(drill 1.2)
		(layers "*.Cu" "*.Mask")
		(uuid "b6639860-0cc9-4903-9958-6a4b67c42b03")
	)
	(pad "" np_thru_hole circle
		(at 7.62 1.27)
		(size 1.2 1.2)
		(drill 1.2)
		(layers "*.Cu" "*.Mask")
		(uuid "ea760230-05f4-4afa-8c38-0b406706734d")
	)
	(pad "" np_thru_hole circle
		(at 10.16 -1.27)
		(size 1.2 1.2)
		(drill 1.2)
		(layers "*.Cu" "*.Mask")
		(uuid "1e0a9682-6117-4aa0-be78-2ab6c2a82de5")
	)
	(pad "" np_thru_hole circle
		(at 10.16 1.27)
		(size 1.2 1.2)
		(drill 1.2)
		(layers "*.Cu" "*.Mask")
		(uuid "87812e67-c29e-4a91-891b-99feb92a90fd")
	)
	(pad "" np_thru_hole circle
		(at 12.7 -1.27)
		(size 1.2 1.2)
		(drill 1.2)
		(layers "*.Cu" "*.Mask")
		(uuid "ebb14c8b-d0c4-4250-afd9-711b38d89191")
	)
	(pad "" np_thru_hole circle
		(at 12.7 1.27)
		(size 1.2 1.2)
		(drill 1.2)
		(layers "*.Cu" "*.Mask")
		(uuid "08b2ee95-6457-4309-8770-a3b0badb5071")
	)
	(pad "" np_thru_hole circle
		(at 15.24 -1.27)
		(size 1.2 1.2)
		(drill 1.2)
		(layers "*.Cu" "*.Mask")
		(uuid "03ec240c-844d-4582-9c47-a0edff084784")
	)
	(pad "" np_thru_hole circle
		(at 15.24 1.27)
		(size 1.2 1.2)
		(drill 1.2)
		(layers "*.Cu" "*.Mask")
		(uuid "3a8d6dde-f735-4f0e-96ef-efbf899a99a1")
	)
	(pad "" np_thru_hole circle
		(at 17.78 -1.27)
		(size 1.2 1.2)
		(drill 1.2)
		(layers "*.Cu" "*.Mask")
		(uuid "3499b9cd-7f07-4af8-a5ea-759b7bed8c66")
	)
	(pad "" np_thru_hole circle
		(at 17.78 1.27)
		(size 1.2 1.2)
		(drill 1.2)
		(layers "*.Cu" "*.Mask")
		(uuid "9ded58db-fb88-44af-aca8-3c47cdda9324")
	)
	(pad "" np_thru_hole circle
		(at 20.32 -1.27)
		(size 1.2 1.2)
		(drill 1.2)
		(layers "*.Cu" "*.Mask")
		(uuid "8f6b4374-dc3a-43f7-9dae-7e8ad6d231b2")
	)
	(pad "" np_thru_hole circle
		(at 20.32 1.27)
		(size 1.2 1.2)
		(drill 1.2)
		(layers "*.Cu" "*.Mask")
		(uuid "0f206b0f-a6c9-443d-bba3-b64a7b6a4cf5")
	)
	(pad "" np_thru_hole circle
		(at 22.86 -1.27)
		(size 1.2 1.2)
		(drill 1.2)
		(layers "*.Cu" "*.Mask")
		(uuid "f093cfc8-15b9-4672-af92-73099bb334bf")
	)
	(pad "" np_thru_hole circle
		(at 22.86 1.27)
		(size 1.2 1.2)
		(drill 1.2)
		(layers "*.Cu" "*.Mask")
		(uuid "8571a0c0-b245-4668-afa5-abd744d1861c")
	)
	(pad "" np_thru_hole circle
		(at 25.4 -1.27)
		(size 1.2 1.2)
		(drill 1.2)
		(layers "*.Cu" "*.Mask")
		(uuid "531d7bf0-2357-4dd5-9629-3d1d2e025be0")
	)
	(pad "" np_thru_hole circle
		(at 25.4 1.27)
		(size 1.2 1.2)
		(drill 1.2)
		(layers "*.Cu" "*.Mask")
		(uuid "57c4928c-fa43-405d-aaa0-341ac934b962")
	)
	(pad "" np_thru_hole circle
		(at 27.94 -1.27)
		(size 1.2 1.2)
		(drill 1.2)
		(layers "*.Cu" "*.Mask")
		(uuid "d50f7d03-3392-4410-adda-c5d60a1c0728")
	)
	(pad "" np_thru_hole circle
		(at 27.94 1.27)
		(size 1.2 1.2)
		(drill 1.2)
		(layers "*.Cu" "*.Mask")
		(uuid "649b2f4a-fc0a-48c4-bb6d-10bdeab6f9fb")
	)
	(pad "" np_thru_hole circle
		(at 30.48 -1.27)
		(size 1.2 1.2)
		(drill 1.2)
		(layers "*.Cu" "*.Mask")
		(uuid "c5ad4c47-b441-456f-abc9-d73d40dfafce")
	)
	(pad "" np_thru_hole circle
		(at 30.48 1.27)
		(size 1.2 1.2)
		(drill 1.2)
		(layers "*.Cu" "*.Mask")
		(uuid "b553f0d1-dc83-4c57-83a5-f846c80e9754")
	)
	(pad "" np_thru_hole circle
		(at 33.02 -1.27)
		(size 1.2 1.2)
		(drill 1.2)
		(layers "*.Cu" "*.Mask")
		(uuid "6487338d-012c-47ab-b4a0-76a82be6cea2")
	)
	(pad "" np_thru_hole circle
		(at 33.02 1.27)
		(size 1.2 1.2)
		(drill 1.2)
		(layers "*.Cu" "*.Mask")
		(uuid "88a122a5-1f66-4fe4-8623-d07bf590b8d3")
	)
	(pad "1" thru_hole circle
		(at -33.02 3.81)
		(size 1.6 1.6)
		(drill 1)
		(layers "*.Cu" "*.Mask")
		(remove_unused_layers no)
		(uuid "9e37f520-3b43-4788-9371-6da7968194de")
	)
	(pad "2" thru_hole circle
		(at -33.02 -3.81)
		(size 1.6 1.6)
		(drill 1)
		(layers "*.Cu" "*.Mask")
		(remove_unused_layers no)
		(uuid "d45c2085-bafd-48eb-9d79-909a3d4083e2")
	)
	(pad "3" thru_hole circle
		(at -30.48 3.81)
		(size 1.6 1.6)
		(drill 1)
		(layers "*.Cu" "*.Mask")
		(remove_unused_layers no)
		(uuid "5250903d-094b-48f8-a4de-142180889e77")
	)
	(pad "4" thru_hole circle
		(at -30.48 -3.81)
		(size 1.6 1.6)
		(drill 1)
		(layers "*.Cu" "*.Mask")
		(remove_unused_layers no)
		(uuid "9261be86-f980-4627-8aff-3aa752541b5f")
	)
	(pad "5" thru_hole circle
		(at -27.94 3.81)
		(size 1.6 1.6)
		(drill 1)
		(layers "*.Cu" "*.Mask")
		(remove_unused_layers no)
		(uuid "f0143b0a-3173-45ba-962f-969a10795475")
	)
	(pad "6" thru_hole circle
		(at -27.94 -3.81)
		(size 1.6 1.6)
		(drill 1)
		(layers "*.Cu" "*.Mask")
		(remove_unused_layers no)
		(uuid "1ce91f76-a0ae-4804-83e1-521cecb6acfe")
	)
	(pad "7" thru_hole circle
		(at -25.4 3.81)
		(size 1.6 1.6)
		(drill 1)
		(layers "*.Cu" "*.Mask")
		(remove_unused_layers no)
		(uuid "92be55bd-9768-44f6-9183-103c967517d9")
	)
	(pad "8" thru_hole circle
		(at -25.4 -3.81)
		(size 1.6 1.6)
		(drill 1)
		(layers "*.Cu" "*.Mask")
		(remove_unused_layers no)
		(uuid "53bca7cb-7d16-4b3f-9156-fc1806eedacf")
	)
	(pad "9" thru_hole circle
		(at -22.86 3.81)
		(size 1.6 1.6)
		(drill 1)
		(layers "*.Cu" "*.Mask")
		(remove_unused_layers no)
		(uuid "c98569eb-df2f-4137-aeff-661628cb642a")
	)
	(pad "10" thru_hole circle
		(at -22.86 -3.81)
		(size 1.6 1.6)
		(drill 1)
		(layers "*.Cu" "*.Mask")
		(remove_unused_layers no)
		(uuid "af3bf712-d158-469a-8a01-e6bf7d1ee667")
	)
	(pad "11" thru_hole circle
		(at -20.32 3.81)
		(size 1.6 1.6)
		(drill 1)
		(layers "*.Cu" "*.Mask")
		(remove_unused_layers no)
		(uuid "cfa1f5f1-cc1d-4791-bb5e-2ecdcaac1f50")
	)
	(pad "12" thru_hole circle
		(at -20.32 -3.81)
		(size 1.6 1.6)
		(drill 1)
		(layers "*.Cu" "*.Mask")
		(remove_unused_layers no)
		(uuid "a621cc55-e928-4be0-975d-a497539e8bd7")
	)
	(pad "13" thru_hole circle
		(at -17.78 3.81)
		(size 1.6 1.6)
		(drill 1)
		(layers "*.Cu" "*.Mask")
		(remove_unused_layers no)
		(uuid "a0205f3a-37f6-4c38-a3cf-ce9ab159bb77")
	)
	(pad "14" thru_hole circle
		(at -17.78 -3.81)
		(size 1.6 1.6)
		(drill 1)
		(layers "*.Cu" "*.Mask")
		(remove_unused_layers no)
		(uuid "592db6d1-11a1-4e23-8886-3bbc22a4e77a")
	)
	(pad "15" thru_hole circle
		(at -15.24 3.81)
		(size 1.6 1.6)
		(drill 1)
		(layers "*.Cu" "*.Mask")
		(remove_unused_layers no)
		(uuid "60b4acce-594a-4ad1-a466-8b100a7fd831")
	)
	(pad "16" thru_hole circle
		(at -15.24 -3.81)
		(size 1.6 1.6)
		(drill 1)
		(layers "*.Cu" "*.Mask")
		(remove_unused_layers no)
		(uuid "f463676f-27f9-4ca2-ad2b-1c7449f8224d")
	)
	(pad "17" thru_hole circle
		(at -12.7 3.81)
		(size 1.6 1.6)
		(drill 1)
		(layers "*.Cu" "*.Mask")
		(remove_unused_layers no)
		(uuid "c34e1f0a-8151-4588-8d22-a14b5906bba6")
	)
	(pad "18" thru_hole circle
		(at -12.7 -3.81)
		(size 1.6 1.6)
		(drill 1)
		(layers "*.Cu" "*.Mask")
		(remove_unused_layers no)
		(uuid "385c8e68-ee58-4fbf-a63a-783abe4d9d83")
	)
	(pad "19" thru_hole circle
		(at -10.16 3.81)
		(size 1.6 1.6)
		(drill 1)
		(layers "*.Cu" "*.Mask")
		(remove_unused_layers no)
		(uuid "7ac1d188-afe9-4151-8ef5-bc456f0f36ae")
	)
	(pad "20" thru_hole circle
		(at -10.16 -3.81)
		(size 1.6 1.6)
		(drill 1)
		(layers "*.Cu" "*.Mask")
		(remove_unused_layers no)
		(uuid "187fc1a8-c7eb-499f-9bd9-6ac4c0598e23")
	)
	(pad "21" thru_hole circle
		(at -7.62 3.81)
		(size 1.6 1.6)
		(drill 1)
		(layers "*.Cu" "*.Mask")
		(remove_unused_layers no)
		(uuid "70fce7b2-f221-4bd9-9eb3-a8d464fd2cd9")
	)
	(pad "22" thru_hole circle
		(at -7.62 -3.81)
		(size 1.6 1.6)
		(drill 1)
		(layers "*.Cu" "*.Mask")
		(remove_unused_layers no)
		(uuid "5851f037-9f71-49dc-a465-b9448ae0bf62")
	)
	(pad "23" thru_hole circle
		(at -5.08 3.81)
		(size 1.6 1.6)
		(drill 1)
		(layers "*.Cu" "*.Mask")
		(remove_unused_layers no)
		(uuid "1d5380e0-0deb-4ce3-ab1b-6bc7d93e2022")
	)
	(pad "24" thru_hole circle
		(at -5.08 -3.81)
		(size 1.6 1.6)
		(drill 1)
		(layers "*.Cu" "*.Mask")
		(remove_unused_layers no)
		(uuid "a14380cf-dfba-4698-891f-def68f2861bd")
	)
	(pad "25" thru_hole circle
		(at -2.54 3.81)
		(size 1.6 1.6)
		(drill 1)
		(layers "*.Cu" "*.Mask")
		(remove_unused_layers no)
		(uuid "4782259f-af30-4fdd-9ef1-4a87e2b4ba74")
	)
	(pad "26" thru_hole circle
		(at -2.54 -3.81)
		(size 1.6 1.6)
		(drill 1)
		(layers "*.Cu" "*.Mask")
		(remove_unused_layers no)
		(uuid "79402c26-cd3a-415c-9e65-95aa8bd344c3")
	)
	(pad "27" thru_hole circle
		(at 0 3.81)
		(size 1.6 1.6)
		(drill 1)
		(layers "*.Cu" "*.Mask")
		(remove_unused_layers no)
		(uuid "80bf5622-372e-40d3-8a66-63c94eed43ec")
	)
	(pad "28" thru_hole circle
		(at 0 -3.81)
		(size 1.6 1.6)
		(drill 1)
		(layers "*.Cu" "*.Mask")
		(remove_unused_layers no)
		(uuid "7dfa0255-4f59-4037-9073-2b6cfe3649ce")
	)
	(pad "29" thru_hole circle
		(at 2.54 3.81)
		(size 1.6 1.6)
		(drill 1)
		(layers "*.Cu" "*.Mask")
		(remove_unused_layers no)
		(uuid "739c8c2d-2c43-4adf-820d-5678db4bc470")
	)
	(pad "30" thru_hole circle
		(at 2.54 -3.81)
		(size 1.6 1.6)
		(drill 1)
		(layers "*.Cu" "*.Mask")
		(remove_unused_layers no)
		(uuid "6622673d-3387-4737-a66b-241ab8c3fbbc")
	)
	(pad "31" thru_hole circle
		(at 5.08 3.81)
		(size 1.6 1.6)
		(drill 1)
		(layers "*.Cu" "*.Mask")
		(remove_unused_layers no)
		(uuid "b8a7c5d9-a0b3-448d-91e0-9a1fe9d293d3")
	)
	(pad "32" thru_hole circle
		(at 5.08 -3.81)
		(size 1.6 1.6)
		(drill 1)
		(layers "*.Cu" "*.Mask")
		(remove_unused_layers no)
		(uuid "8836aa57-d717-4b01-966c-4424fae1d3e5")
	)
	(pad "33" thru_hole circle
		(at 7.62 3.81)
		(size 1.6 1.6)
		(drill 1)
		(layers "*.Cu" "*.Mask")
		(remove_unused_layers no)
		(uuid "2af21a40-f608-45da-a5c4-449c26cb759b")
	)
	(pad "34" thru_hole circle
		(at 7.62 -3.81)
		(size 1.6 1.6)
		(drill 1)
		(layers "*.Cu" "*.Mask")
		(remove_unused_layers no)
		(uuid "b3b0e23f-ef37-4ad5-95e5-c904701eca18")
	)
	(pad "35" thru_hole circle
		(at 10.16 3.81)
		(size 1.6 1.6)
		(drill 1)
		(layers "*.Cu" "*.Mask")
		(remove_unused_layers no)
		(uuid "2e3095cd-7520-446e-8a0d-5e259fb51285")
	)
	(pad "36" thru_hole circle
		(at 10.16 -3.81)
		(size 1.6 1.6)
		(drill 1)
		(layers "*.Cu" "*.Mask")
		(remove_unused_layers no)
		(uuid "6460104b-766b-4009-8fb8-5d603764098f")
	)
	(pad "37" thru_hole circle
		(at 12.7 3.81)
		(size 1.6 1.6)
		(drill 1)
		(layers "*.Cu" "*.Mask")
		(remove_unused_layers no)
		(uuid "a67e2ad6-5bba-47c4-aed4-64242c58bd5c")
	)
	(pad "38" thru_hole circle
		(at 12.7 -3.81)
		(size 1.6 1.6)
		(drill 1)
		(layers "*.Cu" "*.Mask")
		(remove_unused_layers no)
		(uuid "424ea070-a7d8-48a9-8fc4-ece166b048de")
	)
	(pad "39" thru_hole circle
		(at 15.24 3.81)
		(size 1.6 1.6)
		(drill 1)
		(layers "*.Cu" "*.Mask")
		(remove_unused_layers no)
		(uuid "02d01c49-04a3-4cbe-b4a1-8b6c6feeb9b3")
	)
	(pad "40" thru_hole circle
		(at 15.24 -3.81)
		(size 1.6 1.6)
		(drill 1)
		(layers "*.Cu" "*.Mask")
		(remove_unused_layers no)
		(uuid "4329fdae-878b-46df-9c93-ee335b968b51")
	)
	(pad "41" thru_hole circle
		(at 17.78 3.81)
		(size 1.6 1.6)
		(drill 1)
		(layers "*.Cu" "*.Mask")
		(remove_unused_layers no)
		(uuid "4507b9f1-6199-4843-8f37-e2e6a76c5a87")
	)
	(pad "42" thru_hole circle
		(at 17.78 -3.81)
		(size 1.6 1.6)
		(drill 1)
		(layers "*.Cu" "*.Mask")
		(remove_unused_layers no)
		(uuid "b9b0c32a-bd43-49bd-9194-2730e35ccb0a")
	)
	(pad "43" thru_hole circle
		(at 20.32 3.81)
		(size 1.6 1.6)
		(drill 1)
		(layers "*.Cu" "*.Mask")
		(remove_unused_layers no)
		(uuid "1d649529-71c6-46c3-9ca0-aee3488e4496")
	)
	(pad "44" thru_hole circle
		(at 20.32 -3.81)
		(size 1.6 1.6)
		(drill 1)
		(layers "*.Cu" "*.Mask")
		(remove_unused_layers no)
		(uuid "13a3eec1-4bbf-4cd3-9218-7e953c0a00eb")
	)
	(pad "45" thru_hole circle
		(at 22.86 3.81)
		(size 1.6 1.6)
		(drill 1)
		(layers "*.Cu" "*.Mask")
		(remove_unused_layers no)
		(uuid "6364ba7c-56cf-4997-8f46-f5f3fd2b3e8a")
	)
	(pad "46" thru_hole circle
		(at 22.86 -3.81)
		(size 1.6 1.6)
		(drill 1)
		(layers "*.Cu" "*.Mask")
		(remove_unused_layers no)
		(uuid "fa8f8469-a336-4b27-bce7-508548172cf5")
	)
	(pad "47" thru_hole circle
		(at 25.4 3.81)
		(size 1.6 1.6)
		(drill 1)
		(layers "*.Cu" "*.Mask")
		(remove_unused_layers no)
		(uuid "1ad57070-e624-448e-8dce-7cb9ff338abd")
	)
	(pad "48" thru_hole circle
		(at 25.4 -3.81)
		(size 1.6 1.6)
		(drill 1)
		(layers "*.Cu" "*.Mask")
		(remove_unused_layers no)
		(uuid "4aaded13-5c27-4fc3-9445-669f31286ce5")
	)
	(pad "49" thru_hole circle
		(at 27.94 3.81)
		(size 1.6 1.6)
		(drill 1)
		(layers "*.Cu" "*.Mask")
		(remove_unused_layers no)
		(uuid "4b97ed1b-f4a8-4953-8c30-5586b20d0ca5")
	)
	(pad "50" thru_hole circle
		(at 27.94 -3.81)
		(size 1.6 1.6)
		(drill 1)
		(layers "*.Cu" "*.Mask")
		(remove_unused_layers no)
		(uuid "3a3e84a6-1800-4d09-995f-6c939e7942af")
	)
	(pad "51" thru_hole circle
		(at 30.48 3.81)
		(size 1.6 1.6)
		(drill 1)
		(layers "*.Cu" "*.Mask")
		(remove_unused_layers no)
		(uuid "2aeba4e0-a0c4-4fdc-a080-898219d771bc")
	)
	(pad "52" thru_hole circle
		(at 30.48 -3.81)
		(size 1.6 1.6)
		(drill 1)
		(layers "*.Cu" "*.Mask")
		(remove_unused_layers no)
		(uuid "0f85917a-5e54-4f12-89d1-a4e381fc71ac")
	)
	(pad "53" thru_hole circle
		(at 33.02 3.81)
		(size 1.6 1.6)
		(drill 1)
		(layers "*.Cu" "*.Mask")
		(remove_unused_layers no)
		(uuid "7a971c75-1df7-492e-b4cb-0ac6ae2ef128")
	)
	(pad "54" thru_hole circle
		(at 33.02 -3.81)
		(size 1.6 1.6)
		(drill 1)
		(layers "*.Cu" "*.Mask")
		(remove_unused_layers no)
		(uuid "b3486abf-4569-41b2-afd2-aa3f3b7f6fd1")
	)
)
