(footprint "FBE-2x34"
	(version 20240108)
	(generator "pcbnew")
	(generator_version "8.0")
	(layer "F.Cu")
	(descr "Dual Socket Bottom Entry Header, 34x2 pins, 2.54mm Pitch")
	(property "Reference" "HEADER-FBE-34X2"
		(at 0 0 0)
		(layer "F.Fab")
		(uuid "89b04c02-cfb1-4545-b3d2-411a23b6c69a")
		(effects
			(font
				(size 1.2 1.2)
				(thickness 0.12)
			)
		)
	)
	(property "Value" "HEADER-FBE-34X2"
		(at 0 0 0)
		(layer "F.Fab")
		(hide yes)
		(uuid "07900feb-4be1-4d47-baf4-108e92a85990")
		(effects
			(font
				(size 1.2 1.2)
				(thickness 0.12)
			)
		)
	)
	(property "Footprint" ""
		(at 0 0 0)
		(layer "F.Fab")
		(hide yes)
		(uuid "0519c7c1-437f-4ff8-926e-0b69199f88fb")
		(effects
			(font
				(size 1.27 1.27)
				(thickness 0.15)
			)
		)
	)
	(property "Datasheet" ""
		(at 0 0 0)
		(layer "F.Fab")
		(hide yes)
		(uuid "10deca34-25a9-400a-9472-c1e4cbb98f57")
		(effects
			(font
				(size 1.27 1.27)
				(thickness 0.15)
			)
		)
	)
	(property "Description" ""
		(at 0 0 0)
		(layer "F.Fab")
		(hide yes)
		(uuid "cd78d134-0e64-4dad-a3e2-c6208f1c1c47")
		(effects
			(font
				(size 1.27 1.27)
				(thickness 0.15)
			)
		)
	)
	(attr through_hole)
	(fp_line
		(start -44.75 1.9)
		(end -44.75 0.7)
		(stroke
			(width 0.12)
			(type solid)
		)
		(layer "F.SilkS")
		(uuid "ba66cd8a-2458-45c6-9c71-027a82eafa80")
	)
	(fp_line
		(start -43.55 -2.6)
		(end 43.55 -2.6)
		(stroke
			(width 0.12)
			(type solid)
		)
		(layer "F.SilkS")
		(uuid "59e112c9-6c18-4c43-9bfe-179196c5876c")
	)
	(fp_line
		(start -43.55 0.7)
		(end -43.55 -2.6)
		(stroke
			(width 0.12)
			(type solid)
		)
		(layer "F.SilkS")
		(uuid "6a827cca-662e-46dd-b718-aa380583f51b")
	)
	(fp_line
		(start -43.55 1.3)
		(end -44.75 0.7)
		(stroke
			(width 0.12)
			(type solid)
		)
		(layer "F.SilkS")
		(uuid "896e9283-f8fe-4168-8da2-a3aa3e0c8fe4")
	)
	(fp_line
		(start -43.55 1.3)
		(end -44.75 1.9)
		(stroke
			(width 0.12)
			(type solid)
		)
		(layer "F.SilkS")
		(uuid "0784c033-2169-4b70-9a3d-90150e29c3e1")
	)
	(fp_line
		(start -43.55 2.6)
		(end -43.55 1.9)
		(stroke
			(width 0.12)
			(type solid)
		)
		(layer "F.SilkS")
		(uuid "81f4d655-028e-40de-86d9-4d348ae9e320")
	)
	(fp_line
		(start -43.55 2.6)
		(end 43.55 2.6)
		(stroke
			(width 0.12)
			(type solid)
		)
		(layer "F.SilkS")
		(uuid "074f4cb0-d6f7-4740-8eb4-2a3bf74d2c64")
	)
	(fp_line
		(start 43.55 -2.6)
		(end 43.55 2.6)
		(stroke
			(width 0.12)
			(type solid)
		)
		(layer "F.SilkS")
		(uuid "c5245681-4278-4f7a-b640-6e71f4d553bb")
	)
	(fp_rect
		(start -44.05 -4.85)
		(end 44.05 4.85)
		(stroke
			(width 0.01)
			(type solid)
		)
		(fill none)
		(layer "F.CrtYd")
		(uuid "59b93003-ea9b-4295-8dee-79c08b337c4e")
	)
	(fp_line
		(start -42.55 2.6)
		(end -43.55 1.6)
		(stroke
			(width 0.1)
			(type solid)
		)
		(layer "F.Fab")
		(uuid "ad429a39-2a15-42f0-ae28-9706d34205b9")
	)
	(fp_rect
		(start -43.55 -2.6)
		(end 43.55 2.6)
		(stroke
			(width 0.1)
			(type solid)
		)
		(fill none)
		(layer "F.Fab")
		(uuid "5382198e-5b2d-42b5-976f-ca131e1896c8")
	)
	(fp_text user "${REFERENCE}"
		(at 0 -5.35 0)
		(unlocked yes)
		(layer "F.SilkS")
		(uuid "7c3be8b9-9149-4f89-8213-77db2e854372")
		(effects
			(font
				(size 0.8 0.8)
				(thickness 0.15)
			)
		)
	)
	(pad "" np_thru_hole circle
		(at -41.91 -1.27)
		(size 1.2 1.2)
		(drill 1.2)
		(layers "*.Cu" "*.Mask")
		(uuid "67fe2fe0-bd60-4f94-94aa-ade79db71086")
	)
	(pad "" np_thru_hole circle
		(at -41.91 1.27)
		(size 1.2 1.2)
		(drill 1.2)
		(layers "*.Cu" "*.Mask")
		(uuid "27042737-066e-4a17-bb5b-93614d853428")
	)
	(pad "" np_thru_hole circle
		(at -39.37 -1.27)
		(size 1.2 1.2)
		(drill 1.2)
		(layers "*.Cu" "*.Mask")
		(uuid "2322266b-5c6a-4717-940d-a819f052fc8a")
	)
	(pad "" np_thru_hole circle
		(at -39.37 1.27)
		(size 1.2 1.2)
		(drill 1.2)
		(layers "*.Cu" "*.Mask")
		(uuid "bd570eaa-505f-4dfc-8cf4-e55ca3f11908")
	)
	(pad "" np_thru_hole circle
		(at -36.83 -1.27)
		(size 1.2 1.2)
		(drill 1.2)
		(layers "*.Cu" "*.Mask")
		(uuid "53c9d55c-9c94-486d-ad8c-5a05993b247e")
	)
	(pad "" np_thru_hole circle
		(at -36.83 1.27)
		(size 1.2 1.2)
		(drill 1.2)
		(layers "*.Cu" "*.Mask")
		(uuid "8ad0b80b-e1a3-47dd-949c-ca3cb4585cc9")
	)
	(pad "" np_thru_hole circle
		(at -34.29 -1.27)
		(size 1.2 1.2)
		(drill 1.2)
		(layers "*.Cu" "*.Mask")
		(uuid "343b1c23-ed17-4d49-b6d9-84477ed78c4e")
	)
	(pad "" np_thru_hole circle
		(at -34.29 1.27)
		(size 1.2 1.2)
		(drill 1.2)
		(layers "*.Cu" "*.Mask")
		(uuid "16c16703-0bc6-4720-a66f-7b6d8cf209fa")
	)
	(pad "" np_thru_hole circle
		(at -31.75 -1.27)
		(size 1.2 1.2)
		(drill 1.2)
		(layers "*.Cu" "*.Mask")
		(uuid "998024c6-82b1-478e-b993-cd112a19f341")
	)
	(pad "" np_thru_hole circle
		(at -31.75 1.27)
		(size 1.2 1.2)
		(drill 1.2)
		(layers "*.Cu" "*.Mask")
		(uuid "a3430e7a-88d7-45d9-976b-b8caa4ded70f")
	)
	(pad "" np_thru_hole circle
		(at -29.21 -1.27)
		(size 1.2 1.2)
		(drill 1.2)
		(layers "*.Cu" "*.Mask")
		(uuid "9f29944b-99ac-48bd-b3d8-a3d03ddc8544")
	)
	(pad "" np_thru_hole circle
		(at -29.21 1.27)
		(size 1.2 1.2)
		(drill 1.2)
		(layers "*.Cu" "*.Mask")
		(uuid "bc2c6bfd-6011-4463-9b14-f417b58294e9")
	)
	(pad "" np_thru_hole circle
		(at -26.67 -1.27)
		(size 1.2 1.2)
		(drill 1.2)
		(layers "*.Cu" "*.Mask")
		(uuid "39c6bd1b-573c-4de2-9a87-bd3c129b69c0")
	)
	(pad "" np_thru_hole circle
		(at -26.67 1.27)
		(size 1.2 1.2)
		(drill 1.2)
		(layers "*.Cu" "*.Mask")
		(uuid "7036c6f3-8bdf-4ce2-8858-96120c3d6037")
	)
	(pad "" np_thru_hole circle
		(at -24.13 -1.27)
		(size 1.2 1.2)
		(drill 1.2)
		(layers "*.Cu" "*.Mask")
		(uuid "7a2e5dc4-50fc-435c-9f40-7e0f157ba97a")
	)
	(pad "" np_thru_hole circle
		(at -24.13 1.27)
		(size 1.2 1.2)
		(drill 1.2)
		(layers "*.Cu" "*.Mask")
		(uuid "89c689d8-351d-4102-8a73-1cc801c2c719")
	)
	(pad "" np_thru_hole circle
		(at -21.59 -1.27)
		(size 1.2 1.2)
		(drill 1.2)
		(layers "*.Cu" "*.Mask")
		(uuid "794f6f6c-ad65-48bc-9eef-6e7c0ebf94d7")
	)
	(pad "" np_thru_hole circle
		(at -21.59 1.27)
		(size 1.2 1.2)
		(drill 1.2)
		(layers "*.Cu" "*.Mask")
		(uuid "a358ad23-9ec6-44d0-a12d-1b6ceea8435c")
	)
	(pad "" np_thru_hole circle
		(at -19.05 -1.27)
		(size 1.2 1.2)
		(drill 1.2)
		(layers "*.Cu" "*.Mask")
		(uuid "4d65c1d7-ce83-4774-abbf-bdf4d1dd97fd")
	)
	(pad "" np_thru_hole circle
		(at -19.05 1.27)
		(size 1.2 1.2)
		(drill 1.2)
		(layers "*.Cu" "*.Mask")
		(uuid "7375607b-7ee3-4be1-81a1-8adb9fc13a54")
	)
	(pad "" np_thru_hole circle
		(at -16.51 -1.27)
		(size 1.2 1.2)
		(drill 1.2)
		(layers "*.Cu" "*.Mask")
		(uuid "bd9dfd7a-0693-48b1-95db-9fc20b6af476")
	)
	(pad "" np_thru_hole circle
		(at -16.51 1.27)
		(size 1.2 1.2)
		(drill 1.2)
		(layers "*.Cu" "*.Mask")
		(uuid "a394fd95-563e-43e2-867f-d904685a81a1")
	)
	(pad "" np_thru_hole circle
		(at -13.97 -1.27)
		(size 1.2 1.2)
		(drill 1.2)
		(layers "*.Cu" "*.Mask")
		(uuid "039780c4-9d4a-4d5a-ae8e-9f4dd90d54f4")
	)
	(pad "" np_thru_hole circle
		(at -13.97 1.27)
		(size 1.2 1.2)
		(drill 1.2)
		(layers "*.Cu" "*.Mask")
		(uuid "8d429305-cd8b-48e4-b6c6-0c0ce8adcceb")
	)
	(pad "" np_thru_hole circle
		(at -11.43 -1.27)
		(size 1.2 1.2)
		(drill 1.2)
		(layers "*.Cu" "*.Mask")
		(uuid "37e373e4-1819-4d0a-81ce-8d12577d0d0e")
	)
	(pad "" np_thru_hole circle
		(at -11.43 1.27)
		(size 1.2 1.2)
		(drill 1.2)
		(layers "*.Cu" "*.Mask")
		(uuid "a3da3992-ba31-4d97-b802-023c1391b87d")
	)
	(pad "" np_thru_hole circle
		(at -8.89 -1.27)
		(size 1.2 1.2)
		(drill 1.2)
		(layers "*.Cu" "*.Mask")
		(uuid "e0e7d034-6709-4418-bf91-5e51727eff7b")
	)
	(pad "" np_thru_hole circle
		(at -8.89 1.27)
		(size 1.2 1.2)
		(drill 1.2)
		(layers "*.Cu" "*.Mask")
		(uuid "2b9c512b-8d2a-4517-9434-bc00509080e9")
	)
	(pad "" np_thru_hole circle
		(at -6.35 -1.27)
		(size 1.2 1.2)
		(drill 1.2)
		(layers "*.Cu" "*.Mask")
		(uuid "f76fcd35-dd19-45d8-a022-2f04386d36d1")
	)
	(pad "" np_thru_hole circle
		(at -6.35 1.27)
		(size 1.2 1.2)
		(drill 1.2)
		(layers "*.Cu" "*.Mask")
		(uuid "69f08e26-074e-452b-8630-52c5c2266682")
	)
	(pad "" np_thru_hole circle
		(at -3.81 -1.27)
		(size 1.2 1.2)
		(drill 1.2)
		(layers "*.Cu" "*.Mask")
		(uuid "6043c732-439f-4aa0-b534-d2f50432fcb9")
	)
	(pad "" np_thru_hole circle
		(at -3.81 1.27)
		(size 1.2 1.2)
		(drill 1.2)
		(layers "*.Cu" "*.Mask")
		(uuid "eeb9ecca-c889-4928-9daf-5efcc17afe10")
	)
	(pad "" np_thru_hole circle
		(at -1.27 -1.27)
		(size 1.2 1.2)
		(drill 1.2)
		(layers "*.Cu" "*.Mask")
		(uuid "4f65fa9a-f4ef-40ff-882d-48086cb4c6de")
	)
	(pad "" np_thru_hole circle
		(at -1.27 1.27)
		(size 1.2 1.2)
		(drill 1.2)
		(layers "*.Cu" "*.Mask")
		(uuid "39a253ec-7aa7-4e93-94c5-86077aed150d")
	)
	(pad "" np_thru_hole circle
		(at 1.27 -1.27)
		(size 1.2 1.2)
		(drill 1.2)
		(layers "*.Cu" "*.Mask")
		(uuid "06b941bc-ca2c-4f59-aad9-039634a24027")
	)
	(pad "" np_thru_hole circle
		(at 1.27 1.27)
		(size 1.2 1.2)
		(drill 1.2)
		(layers "*.Cu" "*.Mask")
		(uuid "63891349-883c-4d76-82c5-79fbf4efaad3")
	)
	(pad "" np_thru_hole circle
		(at 3.81 -1.27)
		(size 1.2 1.2)
		(drill 1.2)
		(layers "*.Cu" "*.Mask")
		(uuid "4453d8ee-4ecc-43d4-869e-3ae9ae902cbf")
	)
	(pad "" np_thru_hole circle
		(at 3.81 1.27)
		(size 1.2 1.2)
		(drill 1.2)
		(layers "*.Cu" "*.Mask")
		(uuid "15092f55-b585-4377-8e9e-cd26ed446254")
	)
	(pad "" np_thru_hole circle
		(at 6.35 -1.27)
		(size 1.2 1.2)
		(drill 1.2)
		(layers "*.Cu" "*.Mask")
		(uuid "04c471a3-3ffc-43d7-b563-d742e9b233b4")
	)
	(pad "" np_thru_hole circle
		(at 6.35 1.27)
		(size 1.2 1.2)
		(drill 1.2)
		(layers "*.Cu" "*.Mask")
		(uuid "f9decf2b-39cd-41d9-97cd-51f2f270aa13")
	)
	(pad "" np_thru_hole circle
		(at 8.89 -1.27)
		(size 1.2 1.2)
		(drill 1.2)
		(layers "*.Cu" "*.Mask")
		(uuid "17bf37a6-f76a-4133-b122-aa63d961618a")
	)
	(pad "" np_thru_hole circle
		(at 8.89 1.27)
		(size 1.2 1.2)
		(drill 1.2)
		(layers "*.Cu" "*.Mask")
		(uuid "54f13fe6-c655-4cfd-a145-26668de73acd")
	)
	(pad "" np_thru_hole circle
		(at 11.43 -1.27)
		(size 1.2 1.2)
		(drill 1.2)
		(layers "*.Cu" "*.Mask")
		(uuid "d2af1f20-cf70-48a2-9dcf-8b21492d4eef")
	)
	(pad "" np_thru_hole circle
		(at 11.43 1.27)
		(size 1.2 1.2)
		(drill 1.2)
		(layers "*.Cu" "*.Mask")
		(uuid "9239c617-6476-4923-a0a9-8fa3bd14b0de")
	)
	(pad "" np_thru_hole circle
		(at 13.97 -1.27)
		(size 1.2 1.2)
		(drill 1.2)
		(layers "*.Cu" "*.Mask")
		(uuid "36aba12b-8c9a-4e76-91c5-436f18522f3c")
	)
	(pad "" np_thru_hole circle
		(at 13.97 1.27)
		(size 1.2 1.2)
		(drill 1.2)
		(layers "*.Cu" "*.Mask")
		(uuid "db495e19-43a6-455c-95ef-319a9adf853e")
	)
	(pad "" np_thru_hole circle
		(at 16.51 -1.27)
		(size 1.2 1.2)
		(drill 1.2)
		(layers "*.Cu" "*.Mask")
		(uuid "63b5560b-7271-45fc-a03e-f4f356699af9")
	)
	(pad "" np_thru_hole circle
		(at 16.51 1.27)
		(size 1.2 1.2)
		(drill 1.2)
		(layers "*.Cu" "*.Mask")
		(uuid "8bc48e41-9965-4f65-8afc-71a70dcf6e86")
	)
	(pad "" np_thru_hole circle
		(at 19.05 -1.27)
		(size 1.2 1.2)
		(drill 1.2)
		(layers "*.Cu" "*.Mask")
		(uuid "9485029d-78b9-4ed1-b5d1-fe4f42a30c5f")
	)
	(pad "" np_thru_hole circle
		(at 19.05 1.27)
		(size 1.2 1.2)
		(drill 1.2)
		(layers "*.Cu" "*.Mask")
		(uuid "c042af80-b2cf-4fa2-90e4-512708f352e4")
	)
	(pad "" np_thru_hole circle
		(at 21.59 -1.27)
		(size 1.2 1.2)
		(drill 1.2)
		(layers "*.Cu" "*.Mask")
		(uuid "70b3637a-b642-4afa-8092-6475e1c4a874")
	)
	(pad "" np_thru_hole circle
		(at 21.59 1.27)
		(size 1.2 1.2)
		(drill 1.2)
		(layers "*.Cu" "*.Mask")
		(uuid "18630697-fb4d-4844-902f-5c4d9b7a68cb")
	)
	(pad "" np_thru_hole circle
		(at 24.13 -1.27)
		(size 1.2 1.2)
		(drill 1.2)
		(layers "*.Cu" "*.Mask")
		(uuid "86d3cede-ccc2-4cee-b040-9c020d8cd29a")
	)
	(pad "" np_thru_hole circle
		(at 24.13 1.27)
		(size 1.2 1.2)
		(drill 1.2)
		(layers "*.Cu" "*.Mask")
		(uuid "74f72498-d3ba-4629-a27e-e43abf99c301")
	)
	(pad "" np_thru_hole circle
		(at 26.67 -1.27)
		(size 1.2 1.2)
		(drill 1.2)
		(layers "*.Cu" "*.Mask")
		(uuid "c24f0d03-182e-41a6-8acc-e583a4954d13")
	)
	(pad "" np_thru_hole circle
		(at 26.67 1.27)
		(size 1.2 1.2)
		(drill 1.2)
		(layers "*.Cu" "*.Mask")
		(uuid "6317c6cc-ef14-47b1-8984-4adef46e7013")
	)
	(pad "" np_thru_hole circle
		(at 29.21 -1.27)
		(size 1.2 1.2)
		(drill 1.2)
		(layers "*.Cu" "*.Mask")
		(uuid "30e03965-babc-4929-860a-1f3562833871")
	)
	(pad "" np_thru_hole circle
		(at 29.21 1.27)
		(size 1.2 1.2)
		(drill 1.2)
		(layers "*.Cu" "*.Mask")
		(uuid "9c95bc69-f04e-4222-9160-d8e1f6f9a3a8")
	)
	(pad "" np_thru_hole circle
		(at 31.75 -1.27)
		(size 1.2 1.2)
		(drill 1.2)
		(layers "*.Cu" "*.Mask")
		(uuid "b7af580f-50d2-4c37-b7e8-1a17394860aa")
	)
	(pad "" np_thru_hole circle
		(at 31.75 1.27)
		(size 1.2 1.2)
		(drill 1.2)
		(layers "*.Cu" "*.Mask")
		(uuid "eb692c3c-aa04-460c-be02-07058888c68a")
	)
	(pad "" np_thru_hole circle
		(at 34.29 -1.27)
		(size 1.2 1.2)
		(drill 1.2)
		(layers "*.Cu" "*.Mask")
		(uuid "1b12222d-b9f8-4aac-8387-23cd4143d113")
	)
	(pad "" np_thru_hole circle
		(at 34.29 1.27)
		(size 1.2 1.2)
		(drill 1.2)
		(layers "*.Cu" "*.Mask")
		(uuid "f1233e01-4602-46fe-acad-c92ecdc0f79c")
	)
	(pad "" np_thru_hole circle
		(at 36.83 -1.27)
		(size 1.2 1.2)
		(drill 1.2)
		(layers "*.Cu" "*.Mask")
		(uuid "42306122-16ff-48c4-bf3c-080d70495ea9")
	)
	(pad "" np_thru_hole circle
		(at 36.83 1.27)
		(size 1.2 1.2)
		(drill 1.2)
		(layers "*.Cu" "*.Mask")
		(uuid "052f1d88-762a-4b65-aa56-49843ee37761")
	)
	(pad "" np_thru_hole circle
		(at 39.37 -1.27)
		(size 1.2 1.2)
		(drill 1.2)
		(layers "*.Cu" "*.Mask")
		(uuid "4e99b4bf-b223-4acb-bf4a-51d4058f0e8e")
	)
	(pad "" np_thru_hole circle
		(at 39.37 1.27)
		(size 1.2 1.2)
		(drill 1.2)
		(layers "*.Cu" "*.Mask")
		(uuid "9145d97d-0c4e-4e91-893d-eeca4cc44ff6")
	)
	(pad "" np_thru_hole circle
		(at 41.91 -1.27)
		(size 1.2 1.2)
		(drill 1.2)
		(layers "*.Cu" "*.Mask")
		(uuid "5e150883-36ea-48dc-8fe6-f136b545a482")
	)
	(pad "" np_thru_hole circle
		(at 41.91 1.27)
		(size 1.2 1.2)
		(drill 1.2)
		(layers "*.Cu" "*.Mask")
		(uuid "802fab5d-7066-4033-9223-9a0e213acd69")
	)
	(pad "1" thru_hole circle
		(at -41.91 3.81)
		(size 1.6 1.6)
		(drill 1)
		(layers "*.Cu" "*.Mask")
		(remove_unused_layers no)
		(uuid "8b1918dd-df79-49cc-ab87-a8d0d9b693af")
	)
	(pad "2" thru_hole circle
		(at -41.91 -3.81)
		(size 1.6 1.6)
		(drill 1)
		(layers "*.Cu" "*.Mask")
		(remove_unused_layers no)
		(uuid "960b7f23-0844-4ee7-81da-4d044688ef7b")
	)
	(pad "3" thru_hole circle
		(at -39.37 3.81)
		(size 1.6 1.6)
		(drill 1)
		(layers "*.Cu" "*.Mask")
		(remove_unused_layers no)
		(uuid "416602d2-7fe5-4607-ba02-c27382301265")
	)
	(pad "4" thru_hole circle
		(at -39.37 -3.81)
		(size 1.6 1.6)
		(drill 1)
		(layers "*.Cu" "*.Mask")
		(remove_unused_layers no)
		(uuid "68c7a2b4-468b-41a6-9dd3-f5176121fb01")
	)
	(pad "5" thru_hole circle
		(at -36.83 3.81)
		(size 1.6 1.6)
		(drill 1)
		(layers "*.Cu" "*.Mask")
		(remove_unused_layers no)
		(uuid "ec94e8ba-c5ca-4403-83a9-3a4ea97c40f3")
	)
	(pad "6" thru_hole circle
		(at -36.83 -3.81)
		(size 1.6 1.6)
		(drill 1)
		(layers "*.Cu" "*.Mask")
		(remove_unused_layers no)
		(uuid "58d6fcde-4a68-4324-8971-150e9ab9cadb")
	)
	(pad "7" thru_hole circle
		(at -34.29 3.81)
		(size 1.6 1.6)
		(drill 1)
		(layers "*.Cu" "*.Mask")
		(remove_unused_layers no)
		(uuid "14aff655-ab06-44dd-b6dc-e1a1e81ad0ca")
	)
	(pad "8" thru_hole circle
		(at -34.29 -3.81)
		(size 1.6 1.6)
		(drill 1)
		(layers "*.Cu" "*.Mask")
		(remove_unused_layers no)
		(uuid "3cc1b064-1a47-426f-81ec-bf522532dd3e")
	)
	(pad "9" thru_hole circle
		(at -31.75 3.81)
		(size 1.6 1.6)
		(drill 1)
		(layers "*.Cu" "*.Mask")
		(remove_unused_layers no)
		(uuid "90637ca7-2485-466a-812b-c21acc83de57")
	)
	(pad "10" thru_hole circle
		(at -31.75 -3.81)
		(size 1.6 1.6)
		(drill 1)
		(layers "*.Cu" "*.Mask")
		(remove_unused_layers no)
		(uuid "64060d6d-5023-4c3c-aff1-ef77014f0836")
	)
	(pad "11" thru_hole circle
		(at -29.21 3.81)
		(size 1.6 1.6)
		(drill 1)
		(layers "*.Cu" "*.Mask")
		(remove_unused_layers no)
		(uuid "b19f8370-ed92-4256-81b3-213b7b137bbb")
	)
	(pad "12" thru_hole circle
		(at -29.21 -3.81)
		(size 1.6 1.6)
		(drill 1)
		(layers "*.Cu" "*.Mask")
		(remove_unused_layers no)
		(uuid "45710e67-f508-4f8d-a306-7253b7a9f795")
	)
	(pad "13" thru_hole circle
		(at -26.67 3.81)
		(size 1.6 1.6)
		(drill 1)
		(layers "*.Cu" "*.Mask")
		(remove_unused_layers no)
		(uuid "0757d348-737f-4947-8807-563c28a12eb0")
	)
	(pad "14" thru_hole circle
		(at -26.67 -3.81)
		(size 1.6 1.6)
		(drill 1)
		(layers "*.Cu" "*.Mask")
		(remove_unused_layers no)
		(uuid "6d6b92b8-c574-41af-b98a-33cc60a374ba")
	)
	(pad "15" thru_hole circle
		(at -24.13 3.81)
		(size 1.6 1.6)
		(drill 1)
		(layers "*.Cu" "*.Mask")
		(remove_unused_layers no)
		(uuid "4ccf7334-abb8-4b6a-9315-57b12dddf2a2")
	)
	(pad "16" thru_hole circle
		(at -24.13 -3.81)
		(size 1.6 1.6)
		(drill 1)
		(layers "*.Cu" "*.Mask")
		(remove_unused_layers no)
		(uuid "147b3abe-96c1-40ae-86f3-a73f97f8978e")
	)
	(pad "17" thru_hole circle
		(at -21.59 3.81)
		(size 1.6 1.6)
		(drill 1)
		(layers "*.Cu" "*.Mask")
		(remove_unused_layers no)
		(uuid "ee5127fb-7c4f-435e-ad5f-ae98c5bff0bf")
	)
	(pad "18" thru_hole circle
		(at -21.59 -3.81)
		(size 1.6 1.6)
		(drill 1)
		(layers "*.Cu" "*.Mask")
		(remove_unused_layers no)
		(uuid "813330a0-152e-4943-a9d3-53da47d87624")
	)
	(pad "19" thru_hole circle
		(at -19.05 3.81)
		(size 1.6 1.6)
		(drill 1)
		(layers "*.Cu" "*.Mask")
		(remove_unused_layers no)
		(uuid "2a45e5ee-09c8-407c-94ef-0909cf125e22")
	)
	(pad "20" thru_hole circle
		(at -19.05 -3.81)
		(size 1.6 1.6)
		(drill 1)
		(layers "*.Cu" "*.Mask")
		(remove_unused_layers no)
		(uuid "5f1f44ef-e15e-4dc7-bc65-a3c0a775301f")
	)
	(pad "21" thru_hole circle
		(at -16.51 3.81)
		(size 1.6 1.6)
		(drill 1)
		(layers "*.Cu" "*.Mask")
		(remove_unused_layers no)
		(uuid "090a4cc0-8fe1-4331-8f87-80d98558af74")
	)
	(pad "22" thru_hole circle
		(at -16.51 -3.81)
		(size 1.6 1.6)
		(drill 1)
		(layers "*.Cu" "*.Mask")
		(remove_unused_layers no)
		(uuid "5db8a1ea-43b3-48d9-a581-4917f12acad9")
	)
	(pad "23" thru_hole circle
		(at -13.97 3.81)
		(size 1.6 1.6)
		(drill 1)
		(layers "*.Cu" "*.Mask")
		(remove_unused_layers no)
		(uuid "0661a873-0611-45fc-911a-6eb974fad57f")
	)
	(pad "24" thru_hole circle
		(at -13.97 -3.81)
		(size 1.6 1.6)
		(drill 1)
		(layers "*.Cu" "*.Mask")
		(remove_unused_layers no)
		(uuid "94ecaf5e-526d-4d70-b5e6-e0b19853238e")
	)
	(pad "25" thru_hole circle
		(at -11.43 3.81)
		(size 1.6 1.6)
		(drill 1)
		(layers "*.Cu" "*.Mask")
		(remove_unused_layers no)
		(uuid "fd223008-68a1-421c-90dc-1db1ac673065")
	)
	(pad "26" thru_hole circle
		(at -11.43 -3.81)
		(size 1.6 1.6)
		(drill 1)
		(layers "*.Cu" "*.Mask")
		(remove_unused_layers no)
		(uuid "713ffc93-621f-453b-b9e1-a005d4aa0bec")
	)
	(pad "27" thru_hole circle
		(at -8.89 3.81)
		(size 1.6 1.6)
		(drill 1)
		(layers "*.Cu" "*.Mask")
		(remove_unused_layers no)
		(uuid "8ed520e8-646a-4a99-9517-93f54cfed9c9")
	)
	(pad "28" thru_hole circle
		(at -8.89 -3.81)
		(size 1.6 1.6)
		(drill 1)
		(layers "*.Cu" "*.Mask")
		(remove_unused_layers no)
		(uuid "e5f9fe33-1759-47c3-b2ca-4c07e1cbc0c1")
	)
	(pad "29" thru_hole circle
		(at -6.35 3.81)
		(size 1.6 1.6)
		(drill 1)
		(layers "*.Cu" "*.Mask")
		(remove_unused_layers no)
		(uuid "da0bff0e-21d6-48c8-bd39-401801ea3e4a")
	)
	(pad "30" thru_hole circle
		(at -6.35 -3.81)
		(size 1.6 1.6)
		(drill 1)
		(layers "*.Cu" "*.Mask")
		(remove_unused_layers no)
		(uuid "1a6eb007-66b7-4275-902e-9b8766132568")
	)
	(pad "31" thru_hole circle
		(at -3.81 3.81)
		(size 1.6 1.6)
		(drill 1)
		(layers "*.Cu" "*.Mask")
		(remove_unused_layers no)
		(uuid "b1b6a83c-3486-417d-9e25-bf93d3c77602")
	)
	(pad "32" thru_hole circle
		(at -3.81 -3.81)
		(size 1.6 1.6)
		(drill 1)
		(layers "*.Cu" "*.Mask")
		(remove_unused_layers no)
		(uuid "3ae8defc-7450-4a58-9231-c53de12a610b")
	)
	(pad "33" thru_hole circle
		(at -1.27 3.81)
		(size 1.6 1.6)
		(drill 1)
		(layers "*.Cu" "*.Mask")
		(remove_unused_layers no)
		(uuid "5c1b360e-4a7d-4a56-aca1-130a3afb03e6")
	)
	(pad "34" thru_hole circle
		(at -1.27 -3.81)
		(size 1.6 1.6)
		(drill 1)
		(layers "*.Cu" "*.Mask")
		(remove_unused_layers no)
		(uuid "d1a5ce25-0106-43d6-9fbc-ab462251b91e")
	)
	(pad "35" thru_hole circle
		(at 1.27 3.81)
		(size 1.6 1.6)
		(drill 1)
		(layers "*.Cu" "*.Mask")
		(remove_unused_layers no)
		(uuid "8b72c3e7-5c18-41f1-8b18-7b47f1ea7ff1")
	)
	(pad "36" thru_hole circle
		(at 1.27 -3.81)
		(size 1.6 1.6)
		(drill 1)
		(layers "*.Cu" "*.Mask")
		(remove_unused_layers no)
		(uuid "ac4417f3-dbb4-4b6b-a4e6-37ac5245f354")
	)
	(pad "37" thru_hole circle
		(at 3.81 3.81)
		(size 1.6 1.6)
		(drill 1)
		(layers "*.Cu" "*.Mask")
		(remove_unused_layers no)
		(uuid "f9c09bd8-9c8d-4ec3-85a7-1e9ec711c848")
	)
	(pad "38" thru_hole circle
		(at 3.81 -3.81)
		(size 1.6 1.6)
		(drill 1)
		(layers "*.Cu" "*.Mask")
		(remove_unused_layers no)
		(uuid "05e08644-5c10-4c6e-9d56-f986742f1203")
	)
	(pad "39" thru_hole circle
		(at 6.35 3.81)
		(size 1.6 1.6)
		(drill 1)
		(layers "*.Cu" "*.Mask")
		(remove_unused_layers no)
		(uuid "c95642d3-681d-4f31-bed3-291dcf1c1ac0")
	)
	(pad "40" thru_hole circle
		(at 6.35 -3.81)
		(size 1.6 1.6)
		(drill 1)
		(layers "*.Cu" "*.Mask")
		(remove_unused_layers no)
		(uuid "92f0020e-342b-4e44-babe-6d0aa659e2c4")
	)
	(pad "41" thru_hole circle
		(at 8.89 3.81)
		(size 1.6 1.6)
		(drill 1)
		(layers "*.Cu" "*.Mask")
		(remove_unused_layers no)
		(uuid "5ff4d8d6-a078-4ccd-ac01-19130ce77ee3")
	)
	(pad "42" thru_hole circle
		(at 8.89 -3.81)
		(size 1.6 1.6)
		(drill 1)
		(layers "*.Cu" "*.Mask")
		(remove_unused_layers no)
		(uuid "463d4261-b7c6-43d9-9134-2370f0ec1d1f")
	)
	(pad "43" thru_hole circle
		(at 11.43 3.81)
		(size 1.6 1.6)
		(drill 1)
		(layers "*.Cu" "*.Mask")
		(remove_unused_layers no)
		(uuid "9a1d812c-1662-4d1b-b8d0-4f533ca4c2ec")
	)
	(pad "44" thru_hole circle
		(at 11.43 -3.81)
		(size 1.6 1.6)
		(drill 1)
		(layers "*.Cu" "*.Mask")
		(remove_unused_layers no)
		(uuid "a7a921a1-637c-45d6-8f89-3cceff35beec")
	)
	(pad "45" thru_hole circle
		(at 13.97 3.81)
		(size 1.6 1.6)
		(drill 1)
		(layers "*.Cu" "*.Mask")
		(remove_unused_layers no)
		(uuid "e611967a-a9de-44fd-b4c3-ad7fd45760a3")
	)
	(pad "46" thru_hole circle
		(at 13.97 -3.81)
		(size 1.6 1.6)
		(drill 1)
		(layers "*.Cu" "*.Mask")
		(remove_unused_layers no)
		(uuid "149a141b-8544-44d7-8b47-fc911de010bd")
	)
	(pad "47" thru_hole circle
		(at 16.51 3.81)
		(size 1.6 1.6)
		(drill 1)
		(layers "*.Cu" "*.Mask")
		(remove_unused_layers no)
		(uuid "435fd022-95e9-44b5-b28b-146539a59bdf")
	)
	(pad "48" thru_hole circle
		(at 16.51 -3.81)
		(size 1.6 1.6)
		(drill 1)
		(layers "*.Cu" "*.Mask")
		(remove_unused_layers no)
		(uuid "79b13f23-42b1-48a4-898d-44bdaf45bba7")
	)
	(pad "49" thru_hole circle
		(at 19.05 3.81)
		(size 1.6 1.6)
		(drill 1)
		(layers "*.Cu" "*.Mask")
		(remove_unused_layers no)
		(uuid "814b3b07-6bf4-44db-a5e0-363310eb2888")
	)
	(pad "50" thru_hole circle
		(at 19.05 -3.81)
		(size 1.6 1.6)
		(drill 1)
		(layers "*.Cu" "*.Mask")
		(remove_unused_layers no)
		(uuid "970c2e76-6610-494e-ae84-277ec91d1bfc")
	)
	(pad "51" thru_hole circle
		(at 21.59 3.81)
		(size 1.6 1.6)
		(drill 1)
		(layers "*.Cu" "*.Mask")
		(remove_unused_layers no)
		(uuid "36ebfb1c-fef5-400d-a535-1fba0761947b")
	)
	(pad "52" thru_hole circle
		(at 21.59 -3.81)
		(size 1.6 1.6)
		(drill 1)
		(layers "*.Cu" "*.Mask")
		(remove_unused_layers no)
		(uuid "332e535b-3e12-4c81-aeda-9887c6cf0372")
	)
	(pad "53" thru_hole circle
		(at 24.13 3.81)
		(size 1.6 1.6)
		(drill 1)
		(layers "*.Cu" "*.Mask")
		(remove_unused_layers no)
		(uuid "1d1f76ee-0d33-4c0f-928b-84fdd74d4cce")
	)
	(pad "54" thru_hole circle
		(at 24.13 -3.81)
		(size 1.6 1.6)
		(drill 1)
		(layers "*.Cu" "*.Mask")
		(remove_unused_layers no)
		(uuid "2fc27d39-d6d0-4c89-8a19-94af00fed9b6")
	)
	(pad "55" thru_hole circle
		(at 26.67 3.81)
		(size 1.6 1.6)
		(drill 1)
		(layers "*.Cu" "*.Mask")
		(remove_unused_layers no)
		(uuid "ae426a98-5487-41ce-95ed-e2465741d830")
	)
	(pad "56" thru_hole circle
		(at 26.67 -3.81)
		(size 1.6 1.6)
		(drill 1)
		(layers "*.Cu" "*.Mask")
		(remove_unused_layers no)
		(uuid "4c620bd6-0a0d-4feb-9f38-b050eeae5859")
	)
	(pad "57" thru_hole circle
		(at 29.21 3.81)
		(size 1.6 1.6)
		(drill 1)
		(layers "*.Cu" "*.Mask")
		(remove_unused_layers no)
		(uuid "01d06756-7bb6-488c-a6bf-c760333c42d6")
	)
	(pad "58" thru_hole circle
		(at 29.21 -3.81)
		(size 1.6 1.6)
		(drill 1)
		(layers "*.Cu" "*.Mask")
		(remove_unused_layers no)
		(uuid "c2420d04-5219-46b8-bd71-3be2dc31335d")
	)
	(pad "59" thru_hole circle
		(at 31.75 3.81)
		(size 1.6 1.6)
		(drill 1)
		(layers "*.Cu" "*.Mask")
		(remove_unused_layers no)
		(uuid "7bb8aae7-16b6-4460-bdad-134bf5b67512")
	)
	(pad "60" thru_hole circle
		(at 31.75 -3.81)
		(size 1.6 1.6)
		(drill 1)
		(layers "*.Cu" "*.Mask")
		(remove_unused_layers no)
		(uuid "7f2b03f0-29ab-4315-a583-e935300120ae")
	)
	(pad "61" thru_hole circle
		(at 34.29 3.81)
		(size 1.6 1.6)
		(drill 1)
		(layers "*.Cu" "*.Mask")
		(remove_unused_layers no)
		(uuid "91e03880-050e-4c8c-9898-856c173f9490")
	)
	(pad "62" thru_hole circle
		(at 34.29 -3.81)
		(size 1.6 1.6)
		(drill 1)
		(layers "*.Cu" "*.Mask")
		(remove_unused_layers no)
		(uuid "744103bf-78d8-43f5-a6da-60c1fd6ad2b6")
	)
	(pad "63" thru_hole circle
		(at 36.83 3.81)
		(size 1.6 1.6)
		(drill 1)
		(layers "*.Cu" "*.Mask")
		(remove_unused_layers no)
		(uuid "437cdf79-7176-432f-97ab-1227e5169ea3")
	)
	(pad "64" thru_hole circle
		(at 36.83 -3.81)
		(size 1.6 1.6)
		(drill 1)
		(layers "*.Cu" "*.Mask")
		(remove_unused_layers no)
		(uuid "a290de7c-9c34-46cd-8f84-90b94113161c")
	)
	(pad "65" thru_hole circle
		(at 39.37 3.81)
		(size 1.6 1.6)
		(drill 1)
		(layers "*.Cu" "*.Mask")
		(remove_unused_layers no)
		(uuid "57e0f523-0072-4b22-b55f-0d3b149d988d")
	)
	(pad "66" thru_hole circle
		(at 39.37 -3.81)
		(size 1.6 1.6)
		(drill 1)
		(layers "*.Cu" "*.Mask")
		(remove_unused_layers no)
		(uuid "9be006b7-a26a-4835-b941-aeea207faf86")
	)
	(pad "67" thru_hole circle
		(at 41.91 3.81)
		(size 1.6 1.6)
		(drill 1)
		(layers "*.Cu" "*.Mask")
		(remove_unused_layers no)
		(uuid "2cd48bdb-7e35-48ff-b13d-64eb689a2ec7")
	)
	(pad "68" thru_hole circle
		(at 41.91 -3.81)
		(size 1.6 1.6)
		(drill 1)
		(layers "*.Cu" "*.Mask")
		(remove_unused_layers no)
		(uuid "071cfc9e-bb17-4a6b-937c-580f97d7c15d")
	)
)
