(footprint "FBE-2x32"
	(version 20240108)
	(generator "pcbnew")
	(generator_version "8.0")
	(layer "F.Cu")
	(descr "Dual Socket Bottom Entry Header, 32x2 pins, 2.54mm Pitch")
	(property "Reference" "HEADER-FBE-32X2"
		(at 0 0 0)
		(layer "F.Fab")
		(uuid "21ba0373-2e18-42c5-a785-a0d657bff864")
		(effects
			(font
				(size 1.2 1.2)
				(thickness 0.12)
			)
		)
	)
	(property "Value" "HEADER-FBE-32X2"
		(at 0 0 0)
		(layer "F.Fab")
		(hide yes)
		(uuid "f6e21e1d-6cb3-4d04-bc3f-06c935aee39e")
		(effects
			(font
				(size 1.2 1.2)
				(thickness 0.12)
			)
		)
	)
	(property "Footprint" ""
		(at 0 0 0)
		(layer "F.Fab")
		(hide yes)
		(uuid "87b0ebfe-8e89-4743-8d7f-5b0b664885bd")
		(effects
			(font
				(size 1.27 1.27)
				(thickness 0.15)
			)
		)
	)
	(property "Datasheet" ""
		(at 0 0 0)
		(layer "F.Fab")
		(hide yes)
		(uuid "88f30a04-226b-48e6-8701-e29695179053")
		(effects
			(font
				(size 1.27 1.27)
				(thickness 0.15)
			)
		)
	)
	(property "Description" ""
		(at 0 0 0)
		(layer "F.Fab")
		(hide yes)
		(uuid "5c2d399e-1959-4c9f-8c08-d38e72026822")
		(effects
			(font
				(size 1.27 1.27)
				(thickness 0.15)
			)
		)
	)
	(attr through_hole)
	(fp_line
		(start -42.2 1.9)
		(end -42.2 0.7)
		(stroke
			(width 0.12)
			(type solid)
		)
		(layer "F.SilkS")
		(uuid "213cbec6-731f-47f6-8702-6e6719d436b2")
	)
	(fp_line
		(start -41 -2.6)
		(end 41 -2.6)
		(stroke
			(width 0.12)
			(type solid)
		)
		(layer "F.SilkS")
		(uuid "26368d5c-4d73-489f-9201-73f66ae25e3a")
	)
	(fp_line
		(start -41 0.7)
		(end -41 -2.6)
		(stroke
			(width 0.12)
			(type solid)
		)
		(layer "F.SilkS")
		(uuid "38a18ad2-e296-4275-ad86-f0375853959e")
	)
	(fp_line
		(start -41 1.3)
		(end -42.2 0.7)
		(stroke
			(width 0.12)
			(type solid)
		)
		(layer "F.SilkS")
		(uuid "a3d214d6-257c-4799-8035-28b4d49f7a9a")
	)
	(fp_line
		(start -41 1.3)
		(end -42.2 1.9)
		(stroke
			(width 0.12)
			(type solid)
		)
		(layer "F.SilkS")
		(uuid "792dc78a-e192-461a-880b-ac88082eb56d")
	)
	(fp_line
		(start -41 2.6)
		(end -41 1.9)
		(stroke
			(width 0.12)
			(type solid)
		)
		(layer "F.SilkS")
		(uuid "498e5105-c6bc-483e-a363-8b9db70764a6")
	)
	(fp_line
		(start -41 2.6)
		(end 41 2.6)
		(stroke
			(width 0.12)
			(type solid)
		)
		(layer "F.SilkS")
		(uuid "0fd9830e-cf2d-4539-829e-462ca72fe3df")
	)
	(fp_line
		(start 41 -2.6)
		(end 41 2.6)
		(stroke
			(width 0.12)
			(type solid)
		)
		(layer "F.SilkS")
		(uuid "9769e42d-8521-45bb-b4e6-c116ab82c8da")
	)
	(fp_rect
		(start -41.5 -4.85)
		(end 41.5 4.85)
		(stroke
			(width 0.01)
			(type solid)
		)
		(fill none)
		(layer "F.CrtYd")
		(uuid "b758c3ff-1232-4fe8-b2b7-6738019e1f17")
	)
	(fp_line
		(start -40 2.6)
		(end -41 1.6)
		(stroke
			(width 0.1)
			(type solid)
		)
		(layer "F.Fab")
		(uuid "30db40e5-59f9-4ae1-a909-c9acf098b071")
	)
	(fp_rect
		(start -41 -2.6)
		(end 41 2.6)
		(stroke
			(width 0.1)
			(type solid)
		)
		(fill none)
		(layer "F.Fab")
		(uuid "e77c6e8e-e375-40e8-81b4-fca0e24e50f7")
	)
	(fp_text user "${REFERENCE}"
		(at 0 -5.35 0)
		(unlocked yes)
		(layer "F.SilkS")
		(uuid "19beabee-987d-4fe1-989c-cb62ac041bb2")
		(effects
			(font
				(size 0.8 0.8)
				(thickness 0.15)
			)
		)
	)
	(pad "" np_thru_hole circle
		(at -39.37 -1.27)
		(size 1.2 1.2)
		(drill 1.2)
		(layers "*.Cu" "*.Mask")
		(uuid "43dcf89b-7703-4146-af8c-2b585c44f2ba")
	)
	(pad "" np_thru_hole circle
		(at -39.37 1.27)
		(size 1.2 1.2)
		(drill 1.2)
		(layers "*.Cu" "*.Mask")
		(uuid "ed3bb148-c130-4ee6-b2e8-a04cfe3d7523")
	)
	(pad "" np_thru_hole circle
		(at -36.83 -1.27)
		(size 1.2 1.2)
		(drill 1.2)
		(layers "*.Cu" "*.Mask")
		(uuid "9ca702e4-68a6-4c14-a7c4-760a027e0c7a")
	)
	(pad "" np_thru_hole circle
		(at -36.83 1.27)
		(size 1.2 1.2)
		(drill 1.2)
		(layers "*.Cu" "*.Mask")
		(uuid "24c12f42-b5e9-46fb-82be-642a25ddd16d")
	)
	(pad "" np_thru_hole circle
		(at -34.29 -1.27)
		(size 1.2 1.2)
		(drill 1.2)
		(layers "*.Cu" "*.Mask")
		(uuid "c1b3b5d0-29fb-40ec-8d18-294ebaef8fb5")
	)
	(pad "" np_thru_hole circle
		(at -34.29 1.27)
		(size 1.2 1.2)
		(drill 1.2)
		(layers "*.Cu" "*.Mask")
		(uuid "7b539e10-2487-451d-817b-a42fb6fdcf2d")
	)
	(pad "" np_thru_hole circle
		(at -31.75 -1.27)
		(size 1.2 1.2)
		(drill 1.2)
		(layers "*.Cu" "*.Mask")
		(uuid "2efe0c6b-fbd2-45ee-87ff-7407de5801cb")
	)
	(pad "" np_thru_hole circle
		(at -31.75 1.27)
		(size 1.2 1.2)
		(drill 1.2)
		(layers "*.Cu" "*.Mask")
		(uuid "d2eab35d-3952-43e5-b7c7-09911d44bbb6")
	)
	(pad "" np_thru_hole circle
		(at -29.21 -1.27)
		(size 1.2 1.2)
		(drill 1.2)
		(layers "*.Cu" "*.Mask")
		(uuid "20ca438e-1ca7-4e14-9273-08b3d6538165")
	)
	(pad "" np_thru_hole circle
		(at -29.21 1.27)
		(size 1.2 1.2)
		(drill 1.2)
		(layers "*.Cu" "*.Mask")
		(uuid "3960c7e8-0b54-45af-9724-324b4197e493")
	)
	(pad "" np_thru_hole circle
		(at -26.67 -1.27)
		(size 1.2 1.2)
		(drill 1.2)
		(layers "*.Cu" "*.Mask")
		(uuid "68ab5d3f-d83d-47d9-94c8-4008bc5d0572")
	)
	(pad "" np_thru_hole circle
		(at -26.67 1.27)
		(size 1.2 1.2)
		(drill 1.2)
		(layers "*.Cu" "*.Mask")
		(uuid "e9484b2a-2ca8-4638-a29c-7acc5ac7b754")
	)
	(pad "" np_thru_hole circle
		(at -24.13 -1.27)
		(size 1.2 1.2)
		(drill 1.2)
		(layers "*.Cu" "*.Mask")
		(uuid "27adf3c0-059f-4a62-a145-c7827ecccedb")
	)
	(pad "" np_thru_hole circle
		(at -24.13 1.27)
		(size 1.2 1.2)
		(drill 1.2)
		(layers "*.Cu" "*.Mask")
		(uuid "7c6df92c-303d-4bb5-b957-3e33492add4a")
	)
	(pad "" np_thru_hole circle
		(at -21.59 -1.27)
		(size 1.2 1.2)
		(drill 1.2)
		(layers "*.Cu" "*.Mask")
		(uuid "ecec5dd6-40a4-48b7-bcc5-f549a287b95f")
	)
	(pad "" np_thru_hole circle
		(at -21.59 1.27)
		(size 1.2 1.2)
		(drill 1.2)
		(layers "*.Cu" "*.Mask")
		(uuid "6b7b46af-d8be-47ad-bd65-64e53b9f764c")
	)
	(pad "" np_thru_hole circle
		(at -19.05 -1.27)
		(size 1.2 1.2)
		(drill 1.2)
		(layers "*.Cu" "*.Mask")
		(uuid "58a6381a-7018-450d-b423-ef66936b4d1a")
	)
	(pad "" np_thru_hole circle
		(at -19.05 1.27)
		(size 1.2 1.2)
		(drill 1.2)
		(layers "*.Cu" "*.Mask")
		(uuid "40276bfa-1ab8-477a-b459-212d07eb2d2b")
	)
	(pad "" np_thru_hole circle
		(at -16.51 -1.27)
		(size 1.2 1.2)
		(drill 1.2)
		(layers "*.Cu" "*.Mask")
		(uuid "67cf573e-1cb6-4673-896f-43f181da01bb")
	)
	(pad "" np_thru_hole circle
		(at -16.51 1.27)
		(size 1.2 1.2)
		(drill 1.2)
		(layers "*.Cu" "*.Mask")
		(uuid "962560eb-6f85-4788-9c4b-dd4073a574fa")
	)
	(pad "" np_thru_hole circle
		(at -13.97 -1.27)
		(size 1.2 1.2)
		(drill 1.2)
		(layers "*.Cu" "*.Mask")
		(uuid "941faee9-195a-4ceb-8610-0b57c2b3287e")
	)
	(pad "" np_thru_hole circle
		(at -13.97 1.27)
		(size 1.2 1.2)
		(drill 1.2)
		(layers "*.Cu" "*.Mask")
		(uuid "0c508ac4-b23d-4f58-812b-703afadf444d")
	)
	(pad "" np_thru_hole circle
		(at -11.43 -1.27)
		(size 1.2 1.2)
		(drill 1.2)
		(layers "*.Cu" "*.Mask")
		(uuid "df230bc3-6bba-42b3-93da-e4d3135e08e4")
	)
	(pad "" np_thru_hole circle
		(at -11.43 1.27)
		(size 1.2 1.2)
		(drill 1.2)
		(layers "*.Cu" "*.Mask")
		(uuid "f276c697-b679-4ffc-8f2e-bc8a0ce45eb0")
	)
	(pad "" np_thru_hole circle
		(at -8.89 -1.27)
		(size 1.2 1.2)
		(drill 1.2)
		(layers "*.Cu" "*.Mask")
		(uuid "9ebf67d3-eb2d-4faa-84a8-c160c583d6b0")
	)
	(pad "" np_thru_hole circle
		(at -8.89 1.27)
		(size 1.2 1.2)
		(drill 1.2)
		(layers "*.Cu" "*.Mask")
		(uuid "04a9ff92-b8d1-441a-90f4-0a87ac04ca59")
	)
	(pad "" np_thru_hole circle
		(at -6.35 -1.27)
		(size 1.2 1.2)
		(drill 1.2)
		(layers "*.Cu" "*.Mask")
		(uuid "9bcffddb-6343-4382-9778-cea12c023403")
	)
	(pad "" np_thru_hole circle
		(at -6.35 1.27)
		(size 1.2 1.2)
		(drill 1.2)
		(layers "*.Cu" "*.Mask")
		(uuid "c57ad636-0e2f-4f8c-ba3e-a85ec0ced798")
	)
	(pad "" np_thru_hole circle
		(at -3.81 -1.27)
		(size 1.2 1.2)
		(drill 1.2)
		(layers "*.Cu" "*.Mask")
		(uuid "d8550c1c-9f6e-4e48-933c-4ea81cbbd796")
	)
	(pad "" np_thru_hole circle
		(at -3.81 1.27)
		(size 1.2 1.2)
		(drill 1.2)
		(layers "*.Cu" "*.Mask")
		(uuid "5dd73c37-1d95-4399-8e32-c700eb6bb675")
	)
	(pad "" np_thru_hole circle
		(at -1.27 -1.27)
		(size 1.2 1.2)
		(drill 1.2)
		(layers "*.Cu" "*.Mask")
		(uuid "be5a3baa-c183-4007-ab48-06b6ba273728")
	)
	(pad "" np_thru_hole circle
		(at -1.27 1.27)
		(size 1.2 1.2)
		(drill 1.2)
		(layers "*.Cu" "*.Mask")
		(uuid "3213b773-8cf1-45ce-aef4-ce00920f1fa1")
	)
	(pad "" np_thru_hole circle
		(at 1.27 -1.27)
		(size 1.2 1.2)
		(drill 1.2)
		(layers "*.Cu" "*.Mask")
		(uuid "2b5779ae-ba9b-4211-a1d4-5592c08227f3")
	)
	(pad "" np_thru_hole circle
		(at 1.27 1.27)
		(size 1.2 1.2)
		(drill 1.2)
		(layers "*.Cu" "*.Mask")
		(uuid "bd818b77-7a46-46b5-887a-5accbd1bd1e9")
	)
	(pad "" np_thru_hole circle
		(at 3.81 -1.27)
		(size 1.2 1.2)
		(drill 1.2)
		(layers "*.Cu" "*.Mask")
		(uuid "d470e9e2-bd4b-4277-a5d0-079157263fc9")
	)
	(pad "" np_thru_hole circle
		(at 3.81 1.27)
		(size 1.2 1.2)
		(drill 1.2)
		(layers "*.Cu" "*.Mask")
		(uuid "3fa99eaf-4d09-4182-a64d-42ed1b09975e")
	)
	(pad "" np_thru_hole circle
		(at 6.35 -1.27)
		(size 1.2 1.2)
		(drill 1.2)
		(layers "*.Cu" "*.Mask")
		(uuid "7fb90f81-7e0a-426f-90eb-0ca90ddaa9dc")
	)
	(pad "" np_thru_hole circle
		(at 6.35 1.27)
		(size 1.2 1.2)
		(drill 1.2)
		(layers "*.Cu" "*.Mask")
		(uuid "0a107486-b3d3-4b63-9390-01082489aed3")
	)
	(pad "" np_thru_hole circle
		(at 8.89 -1.27)
		(size 1.2 1.2)
		(drill 1.2)
		(layers "*.Cu" "*.Mask")
		(uuid "b23d0c31-54fb-4a11-a01d-d893939c611f")
	)
	(pad "" np_thru_hole circle
		(at 8.89 1.27)
		(size 1.2 1.2)
		(drill 1.2)
		(layers "*.Cu" "*.Mask")
		(uuid "dc527a32-c5a2-464a-8acd-777200a5fbe6")
	)
	(pad "" np_thru_hole circle
		(at 11.43 -1.27)
		(size 1.2 1.2)
		(drill 1.2)
		(layers "*.Cu" "*.Mask")
		(uuid "b96d2ca6-a797-4e02-be2d-ec216630e34f")
	)
	(pad "" np_thru_hole circle
		(at 11.43 1.27)
		(size 1.2 1.2)
		(drill 1.2)
		(layers "*.Cu" "*.Mask")
		(uuid "fff46d1c-44cb-4e4b-ad7e-83d6431c3c85")
	)
	(pad "" np_thru_hole circle
		(at 13.97 -1.27)
		(size 1.2 1.2)
		(drill 1.2)
		(layers "*.Cu" "*.Mask")
		(uuid "f6a8eec3-92a5-4e97-b7c3-71728a2757f3")
	)
	(pad "" np_thru_hole circle
		(at 13.97 1.27)
		(size 1.2 1.2)
		(drill 1.2)
		(layers "*.Cu" "*.Mask")
		(uuid "21198f30-1561-411a-b7f5-ed45c7f2229c")
	)
	(pad "" np_thru_hole circle
		(at 16.51 -1.27)
		(size 1.2 1.2)
		(drill 1.2)
		(layers "*.Cu" "*.Mask")
		(uuid "a07f0ad5-9f13-4ead-bdc1-e00090f32647")
	)
	(pad "" np_thru_hole circle
		(at 16.51 1.27)
		(size 1.2 1.2)
		(drill 1.2)
		(layers "*.Cu" "*.Mask")
		(uuid "978360d7-2729-48ec-aa5d-5b6789346736")
	)
	(pad "" np_thru_hole circle
		(at 19.05 -1.27)
		(size 1.2 1.2)
		(drill 1.2)
		(layers "*.Cu" "*.Mask")
		(uuid "ba185e41-a806-4f84-8597-8c62879465da")
	)
	(pad "" np_thru_hole circle
		(at 19.05 1.27)
		(size 1.2 1.2)
		(drill 1.2)
		(layers "*.Cu" "*.Mask")
		(uuid "8ae49dc6-4757-4666-906d-975b4df7927d")
	)
	(pad "" np_thru_hole circle
		(at 21.59 -1.27)
		(size 1.2 1.2)
		(drill 1.2)
		(layers "*.Cu" "*.Mask")
		(uuid "be129517-5a88-4a23-a1be-846ad9046a53")
	)
	(pad "" np_thru_hole circle
		(at 21.59 1.27)
		(size 1.2 1.2)
		(drill 1.2)
		(layers "*.Cu" "*.Mask")
		(uuid "96035345-8333-4c2e-a109-ffbe84774671")
	)
	(pad "" np_thru_hole circle
		(at 24.13 -1.27)
		(size 1.2 1.2)
		(drill 1.2)
		(layers "*.Cu" "*.Mask")
		(uuid "d006f850-dbe3-4da7-a338-a1f4c7e7ec2c")
	)
	(pad "" np_thru_hole circle
		(at 24.13 1.27)
		(size 1.2 1.2)
		(drill 1.2)
		(layers "*.Cu" "*.Mask")
		(uuid "e6e0d3e1-7958-4653-a452-cc49b8c93f04")
	)
	(pad "" np_thru_hole circle
		(at 26.67 -1.27)
		(size 1.2 1.2)
		(drill 1.2)
		(layers "*.Cu" "*.Mask")
		(uuid "5556a783-404e-4158-928b-7f5634391d81")
	)
	(pad "" np_thru_hole circle
		(at 26.67 1.27)
		(size 1.2 1.2)
		(drill 1.2)
		(layers "*.Cu" "*.Mask")
		(uuid "f60bffe9-3bd1-42cb-8a08-7da634cfd978")
	)
	(pad "" np_thru_hole circle
		(at 29.21 -1.27)
		(size 1.2 1.2)
		(drill 1.2)
		(layers "*.Cu" "*.Mask")
		(uuid "3ab56f83-570b-410e-ae33-e32fed6ecd4d")
	)
	(pad "" np_thru_hole circle
		(at 29.21 1.27)
		(size 1.2 1.2)
		(drill 1.2)
		(layers "*.Cu" "*.Mask")
		(uuid "3ef2e4ed-cf16-4584-b2e0-27059ec10116")
	)
	(pad "" np_thru_hole circle
		(at 31.75 -1.27)
		(size 1.2 1.2)
		(drill 1.2)
		(layers "*.Cu" "*.Mask")
		(uuid "beee3ca3-478b-4c55-bb48-88b058298654")
	)
	(pad "" np_thru_hole circle
		(at 31.75 1.27)
		(size 1.2 1.2)
		(drill 1.2)
		(layers "*.Cu" "*.Mask")
		(uuid "38e41a41-0ee8-4959-8278-48c454442fd5")
	)
	(pad "" np_thru_hole circle
		(at 34.29 -1.27)
		(size 1.2 1.2)
		(drill 1.2)
		(layers "*.Cu" "*.Mask")
		(uuid "98893374-c8f6-4096-9f57-3983b1a14075")
	)
	(pad "" np_thru_hole circle
		(at 34.29 1.27)
		(size 1.2 1.2)
		(drill 1.2)
		(layers "*.Cu" "*.Mask")
		(uuid "b7efe817-d4f6-466e-9e3f-8a58d72a99c2")
	)
	(pad "" np_thru_hole circle
		(at 36.83 -1.27)
		(size 1.2 1.2)
		(drill 1.2)
		(layers "*.Cu" "*.Mask")
		(uuid "41915d5e-f1b7-4953-92e1-1946665aa910")
	)
	(pad "" np_thru_hole circle
		(at 36.83 1.27)
		(size 1.2 1.2)
		(drill 1.2)
		(layers "*.Cu" "*.Mask")
		(uuid "1ba0483c-c096-4efa-8c9c-3ba57b569a30")
	)
	(pad "" np_thru_hole circle
		(at 39.37 -1.27)
		(size 1.2 1.2)
		(drill 1.2)
		(layers "*.Cu" "*.Mask")
		(uuid "0f4d1170-9ef3-4172-b310-2bf73e86b636")
	)
	(pad "" np_thru_hole circle
		(at 39.37 1.27)
		(size 1.2 1.2)
		(drill 1.2)
		(layers "*.Cu" "*.Mask")
		(uuid "ad8b6963-7101-4fdb-b46e-18bc4ab187a6")
	)
	(pad "1" thru_hole circle
		(at -39.37 3.81)
		(size 1.6 1.6)
		(drill 1)
		(layers "*.Cu" "*.Mask")
		(remove_unused_layers no)
		(uuid "d2b1c208-c05b-42a1-ab1e-0b86c95a6b02")
	)
	(pad "2" thru_hole circle
		(at -39.37 -3.81)
		(size 1.6 1.6)
		(drill 1)
		(layers "*.Cu" "*.Mask")
		(remove_unused_layers no)
		(uuid "fd415f59-fffd-4abd-a32b-67419b703544")
	)
	(pad "3" thru_hole circle
		(at -36.83 3.81)
		(size 1.6 1.6)
		(drill 1)
		(layers "*.Cu" "*.Mask")
		(remove_unused_layers no)
		(uuid "489081a1-c68d-4aaa-8072-1a39affd61e3")
	)
	(pad "4" thru_hole circle
		(at -36.83 -3.81)
		(size 1.6 1.6)
		(drill 1)
		(layers "*.Cu" "*.Mask")
		(remove_unused_layers no)
		(uuid "8a50fd3b-88b0-4266-8afd-c6a35f2412db")
	)
	(pad "5" thru_hole circle
		(at -34.29 3.81)
		(size 1.6 1.6)
		(drill 1)
		(layers "*.Cu" "*.Mask")
		(remove_unused_layers no)
		(uuid "15a82910-7491-40d0-ad7a-461bc0c530a5")
	)
	(pad "6" thru_hole circle
		(at -34.29 -3.81)
		(size 1.6 1.6)
		(drill 1)
		(layers "*.Cu" "*.Mask")
		(remove_unused_layers no)
		(uuid "e76983b0-1d97-496e-8991-0ae9e6d004ba")
	)
	(pad "7" thru_hole circle
		(at -31.75 3.81)
		(size 1.6 1.6)
		(drill 1)
		(layers "*.Cu" "*.Mask")
		(remove_unused_layers no)
		(uuid "426aa1e9-69d7-42b7-a070-ddcbb99a1c26")
	)
	(pad "8" thru_hole circle
		(at -31.75 -3.81)
		(size 1.6 1.6)
		(drill 1)
		(layers "*.Cu" "*.Mask")
		(remove_unused_layers no)
		(uuid "d006bc07-a23c-4403-8f96-ed4a67f10ca9")
	)
	(pad "9" thru_hole circle
		(at -29.21 3.81)
		(size 1.6 1.6)
		(drill 1)
		(layers "*.Cu" "*.Mask")
		(remove_unused_layers no)
		(uuid "6dba80aa-1c0d-4bcf-94a9-013a638043c3")
	)
	(pad "10" thru_hole circle
		(at -29.21 -3.81)
		(size 1.6 1.6)
		(drill 1)
		(layers "*.Cu" "*.Mask")
		(remove_unused_layers no)
		(uuid "7b4ccd41-c20f-4b2b-91fa-0e501be3eefa")
	)
	(pad "11" thru_hole circle
		(at -26.67 3.81)
		(size 1.6 1.6)
		(drill 1)
		(layers "*.Cu" "*.Mask")
		(remove_unused_layers no)
		(uuid "3e21e649-d71a-46d0-9e98-3779d7172203")
	)
	(pad "12" thru_hole circle
		(at -26.67 -3.81)
		(size 1.6 1.6)
		(drill 1)
		(layers "*.Cu" "*.Mask")
		(remove_unused_layers no)
		(uuid "ba530e1d-1920-444d-8a17-72b0658eb75d")
	)
	(pad "13" thru_hole circle
		(at -24.13 3.81)
		(size 1.6 1.6)
		(drill 1)
		(layers "*.Cu" "*.Mask")
		(remove_unused_layers no)
		(uuid "7e61141b-b244-437c-a07e-20abdb8ab3a2")
	)
	(pad "14" thru_hole circle
		(at -24.13 -3.81)
		(size 1.6 1.6)
		(drill 1)
		(layers "*.Cu" "*.Mask")
		(remove_unused_layers no)
		(uuid "01bc99cf-f72e-49fa-b36b-91c33b85e470")
	)
	(pad "15" thru_hole circle
		(at -21.59 3.81)
		(size 1.6 1.6)
		(drill 1)
		(layers "*.Cu" "*.Mask")
		(remove_unused_layers no)
		(uuid "94c05b6d-2bd8-4e67-ba70-d52dcfaa9208")
	)
	(pad "16" thru_hole circle
		(at -21.59 -3.81)
		(size 1.6 1.6)
		(drill 1)
		(layers "*.Cu" "*.Mask")
		(remove_unused_layers no)
		(uuid "9bd3cc78-233d-4655-91aa-3374f8382f12")
	)
	(pad "17" thru_hole circle
		(at -19.05 3.81)
		(size 1.6 1.6)
		(drill 1)
		(layers "*.Cu" "*.Mask")
		(remove_unused_layers no)
		(uuid "5961a7cb-09ce-4784-85f1-31b06c9b1d5d")
	)
	(pad "18" thru_hole circle
		(at -19.05 -3.81)
		(size 1.6 1.6)
		(drill 1)
		(layers "*.Cu" "*.Mask")
		(remove_unused_layers no)
		(uuid "cd5834ca-5e46-4134-9261-a39e21c2b614")
	)
	(pad "19" thru_hole circle
		(at -16.51 3.81)
		(size 1.6 1.6)
		(drill 1)
		(layers "*.Cu" "*.Mask")
		(remove_unused_layers no)
		(uuid "938f8692-74c1-491e-8bb7-2836e3bacdfe")
	)
	(pad "20" thru_hole circle
		(at -16.51 -3.81)
		(size 1.6 1.6)
		(drill 1)
		(layers "*.Cu" "*.Mask")
		(remove_unused_layers no)
		(uuid "2c855674-82bc-4bfb-aa9f-8ada4886a407")
	)
	(pad "21" thru_hole circle
		(at -13.97 3.81)
		(size 1.6 1.6)
		(drill 1)
		(layers "*.Cu" "*.Mask")
		(remove_unused_layers no)
		(uuid "329e95d2-25e8-4cc6-bd71-071eff4cee07")
	)
	(pad "22" thru_hole circle
		(at -13.97 -3.81)
		(size 1.6 1.6)
		(drill 1)
		(layers "*.Cu" "*.Mask")
		(remove_unused_layers no)
		(uuid "0c5b3596-5fc5-4287-b54b-61572edf0361")
	)
	(pad "23" thru_hole circle
		(at -11.43 3.81)
		(size 1.6 1.6)
		(drill 1)
		(layers "*.Cu" "*.Mask")
		(remove_unused_layers no)
		(uuid "f7a56316-a1da-40de-aca2-e1120eccd9e9")
	)
	(pad "24" thru_hole circle
		(at -11.43 -3.81)
		(size 1.6 1.6)
		(drill 1)
		(layers "*.Cu" "*.Mask")
		(remove_unused_layers no)
		(uuid "55573434-8e43-494e-8296-1efbd8d9d64b")
	)
	(pad "25" thru_hole circle
		(at -8.89 3.81)
		(size 1.6 1.6)
		(drill 1)
		(layers "*.Cu" "*.Mask")
		(remove_unused_layers no)
		(uuid "6a7d0626-4de1-498e-a084-f7dcf0f7b1dc")
	)
	(pad "26" thru_hole circle
		(at -8.89 -3.81)
		(size 1.6 1.6)
		(drill 1)
		(layers "*.Cu" "*.Mask")
		(remove_unused_layers no)
		(uuid "0ecdf233-df6d-4614-9c6f-06c57e337750")
	)
	(pad "27" thru_hole circle
		(at -6.35 3.81)
		(size 1.6 1.6)
		(drill 1)
		(layers "*.Cu" "*.Mask")
		(remove_unused_layers no)
		(uuid "b14ebf4f-c820-446e-b48a-3d6cd1052a95")
	)
	(pad "28" thru_hole circle
		(at -6.35 -3.81)
		(size 1.6 1.6)
		(drill 1)
		(layers "*.Cu" "*.Mask")
		(remove_unused_layers no)
		(uuid "cad02861-c41f-47f4-9880-424d83150c50")
	)
	(pad "29" thru_hole circle
		(at -3.81 3.81)
		(size 1.6 1.6)
		(drill 1)
		(layers "*.Cu" "*.Mask")
		(remove_unused_layers no)
		(uuid "f468016b-b11e-4a2f-9413-ec95a0139492")
	)
	(pad "30" thru_hole circle
		(at -3.81 -3.81)
		(size 1.6 1.6)
		(drill 1)
		(layers "*.Cu" "*.Mask")
		(remove_unused_layers no)
		(uuid "4945297d-b06b-4fbf-84f9-5bf1ba9839de")
	)
	(pad "31" thru_hole circle
		(at -1.27 3.81)
		(size 1.6 1.6)
		(drill 1)
		(layers "*.Cu" "*.Mask")
		(remove_unused_layers no)
		(uuid "664d780f-d16c-4e50-b30e-f862eded9093")
	)
	(pad "32" thru_hole circle
		(at -1.27 -3.81)
		(size 1.6 1.6)
		(drill 1)
		(layers "*.Cu" "*.Mask")
		(remove_unused_layers no)
		(uuid "8129d062-729b-4c6b-ac00-3aa985dac293")
	)
	(pad "33" thru_hole circle
		(at 1.27 3.81)
		(size 1.6 1.6)
		(drill 1)
		(layers "*.Cu" "*.Mask")
		(remove_unused_layers no)
		(uuid "9911510a-e061-48b8-8b8f-adf8592e9ac7")
	)
	(pad "34" thru_hole circle
		(at 1.27 -3.81)
		(size 1.6 1.6)
		(drill 1)
		(layers "*.Cu" "*.Mask")
		(remove_unused_layers no)
		(uuid "b9ea736e-b019-45fb-abc7-59acb89a19ca")
	)
	(pad "35" thru_hole circle
		(at 3.81 3.81)
		(size 1.6 1.6)
		(drill 1)
		(layers "*.Cu" "*.Mask")
		(remove_unused_layers no)
		(uuid "2ce87722-0fac-420f-9905-465169bde32d")
	)
	(pad "36" thru_hole circle
		(at 3.81 -3.81)
		(size 1.6 1.6)
		(drill 1)
		(layers "*.Cu" "*.Mask")
		(remove_unused_layers no)
		(uuid "8f2e4de0-21b8-4991-98e3-df9a9ebd4257")
	)
	(pad "37" thru_hole circle
		(at 6.35 3.81)
		(size 1.6 1.6)
		(drill 1)
		(layers "*.Cu" "*.Mask")
		(remove_unused_layers no)
		(uuid "b4e452dc-a570-496c-8e10-c95b61eb50f1")
	)
	(pad "38" thru_hole circle
		(at 6.35 -3.81)
		(size 1.6 1.6)
		(drill 1)
		(layers "*.Cu" "*.Mask")
		(remove_unused_layers no)
		(uuid "2812efd8-8f68-41e5-ad43-f2107f5cbad6")
	)
	(pad "39" thru_hole circle
		(at 8.89 3.81)
		(size 1.6 1.6)
		(drill 1)
		(layers "*.Cu" "*.Mask")
		(remove_unused_layers no)
		(uuid "373aa15e-20c3-4b96-9ef2-1681c212b286")
	)
	(pad "40" thru_hole circle
		(at 8.89 -3.81)
		(size 1.6 1.6)
		(drill 1)
		(layers "*.Cu" "*.Mask")
		(remove_unused_layers no)
		(uuid "ea18bf71-a83c-4af8-a834-7aebfdee65dd")
	)
	(pad "41" thru_hole circle
		(at 11.43 3.81)
		(size 1.6 1.6)
		(drill 1)
		(layers "*.Cu" "*.Mask")
		(remove_unused_layers no)
		(uuid "f8fe11b1-f1b8-4317-a04b-bb9c289464c0")
	)
	(pad "42" thru_hole circle
		(at 11.43 -3.81)
		(size 1.6 1.6)
		(drill 1)
		(layers "*.Cu" "*.Mask")
		(remove_unused_layers no)
		(uuid "311a93a2-cdab-4bd3-8def-acbac8ad2431")
	)
	(pad "43" thru_hole circle
		(at 13.97 3.81)
		(size 1.6 1.6)
		(drill 1)
		(layers "*.Cu" "*.Mask")
		(remove_unused_layers no)
		(uuid "1b93c033-8fd0-46ff-8d7c-cee354f688a9")
	)
	(pad "44" thru_hole circle
		(at 13.97 -3.81)
		(size 1.6 1.6)
		(drill 1)
		(layers "*.Cu" "*.Mask")
		(remove_unused_layers no)
		(uuid "c5ef5d5e-3ef6-41bf-81b3-3687d780e609")
	)
	(pad "45" thru_hole circle
		(at 16.51 3.81)
		(size 1.6 1.6)
		(drill 1)
		(layers "*.Cu" "*.Mask")
		(remove_unused_layers no)
		(uuid "2d483310-cde6-49a8-bdea-45cb443ccd25")
	)
	(pad "46" thru_hole circle
		(at 16.51 -3.81)
		(size 1.6 1.6)
		(drill 1)
		(layers "*.Cu" "*.Mask")
		(remove_unused_layers no)
		(uuid "06af001f-e39c-43ff-8fa8-26d29ad0125d")
	)
	(pad "47" thru_hole circle
		(at 19.05 3.81)
		(size 1.6 1.6)
		(drill 1)
		(layers "*.Cu" "*.Mask")
		(remove_unused_layers no)
		(uuid "5378061d-335a-4d97-b7dc-2643138a2ddc")
	)
	(pad "48" thru_hole circle
		(at 19.05 -3.81)
		(size 1.6 1.6)
		(drill 1)
		(layers "*.Cu" "*.Mask")
		(remove_unused_layers no)
		(uuid "0d1bf882-5105-416a-8e69-106322c8169f")
	)
	(pad "49" thru_hole circle
		(at 21.59 3.81)
		(size 1.6 1.6)
		(drill 1)
		(layers "*.Cu" "*.Mask")
		(remove_unused_layers no)
		(uuid "3938883e-cb2c-417f-9c46-2fd4193a60f5")
	)
	(pad "50" thru_hole circle
		(at 21.59 -3.81)
		(size 1.6 1.6)
		(drill 1)
		(layers "*.Cu" "*.Mask")
		(remove_unused_layers no)
		(uuid "7ac47e24-055b-4e8a-877a-dd72e6b886e2")
	)
	(pad "51" thru_hole circle
		(at 24.13 3.81)
		(size 1.6 1.6)
		(drill 1)
		(layers "*.Cu" "*.Mask")
		(remove_unused_layers no)
		(uuid "9cdf7470-783d-40a0-a451-522fb0f74424")
	)
	(pad "52" thru_hole circle
		(at 24.13 -3.81)
		(size 1.6 1.6)
		(drill 1)
		(layers "*.Cu" "*.Mask")
		(remove_unused_layers no)
		(uuid "05e45bb7-993b-4447-b692-2192d03bcbeb")
	)
	(pad "53" thru_hole circle
		(at 26.67 3.81)
		(size 1.6 1.6)
		(drill 1)
		(layers "*.Cu" "*.Mask")
		(remove_unused_layers no)
		(uuid "1afc4832-bbb5-4d03-bd2f-af72025ee581")
	)
	(pad "54" thru_hole circle
		(at 26.67 -3.81)
		(size 1.6 1.6)
		(drill 1)
		(layers "*.Cu" "*.Mask")
		(remove_unused_layers no)
		(uuid "f69f79da-63ad-489c-92a1-42834ca94479")
	)
	(pad "55" thru_hole circle
		(at 29.21 3.81)
		(size 1.6 1.6)
		(drill 1)
		(layers "*.Cu" "*.Mask")
		(remove_unused_layers no)
		(uuid "6a01129a-d0b4-479d-8114-8f028b35e48a")
	)
	(pad "56" thru_hole circle
		(at 29.21 -3.81)
		(size 1.6 1.6)
		(drill 1)
		(layers "*.Cu" "*.Mask")
		(remove_unused_layers no)
		(uuid "8e733c39-6852-422a-8b4f-c2cd73cc0cbd")
	)
	(pad "57" thru_hole circle
		(at 31.75 3.81)
		(size 1.6 1.6)
		(drill 1)
		(layers "*.Cu" "*.Mask")
		(remove_unused_layers no)
		(uuid "2c6d683b-799a-4043-80d1-f9fc9fd9d59c")
	)
	(pad "58" thru_hole circle
		(at 31.75 -3.81)
		(size 1.6 1.6)
		(drill 1)
		(layers "*.Cu" "*.Mask")
		(remove_unused_layers no)
		(uuid "851ab208-9c78-4e49-af48-03b0106f7067")
	)
	(pad "59" thru_hole circle
		(at 34.29 3.81)
		(size 1.6 1.6)
		(drill 1)
		(layers "*.Cu" "*.Mask")
		(remove_unused_layers no)
		(uuid "ef7bb4b0-2b69-4a79-a463-62d89e4203fa")
	)
	(pad "60" thru_hole circle
		(at 34.29 -3.81)
		(size 1.6 1.6)
		(drill 1)
		(layers "*.Cu" "*.Mask")
		(remove_unused_layers no)
		(uuid "51bb8fc3-d651-4c9c-bd8d-653b7de7692d")
	)
	(pad "61" thru_hole circle
		(at 36.83 3.81)
		(size 1.6 1.6)
		(drill 1)
		(layers "*.Cu" "*.Mask")
		(remove_unused_layers no)
		(uuid "2514467f-0f2e-43da-948a-eb1a085a367e")
	)
	(pad "62" thru_hole circle
		(at 36.83 -3.81)
		(size 1.6 1.6)
		(drill 1)
		(layers "*.Cu" "*.Mask")
		(remove_unused_layers no)
		(uuid "c1114804-789c-48ba-be3c-bc4476d22a2a")
	)
	(pad "63" thru_hole circle
		(at 39.37 3.81)
		(size 1.6 1.6)
		(drill 1)
		(layers "*.Cu" "*.Mask")
		(remove_unused_layers no)
		(uuid "5be60bba-e743-43a8-9c28-956413df1a88")
	)
	(pad "64" thru_hole circle
		(at 39.37 -3.81)
		(size 1.6 1.6)
		(drill 1)
		(layers "*.Cu" "*.Mask")
		(remove_unused_layers no)
		(uuid "bc249a1b-7eaf-4b40-9278-10f15c6b3ef9")
	)
)
