(footprint "FBE-24"
	(version 20240108)
	(generator "pcbnew")
	(generator_version "8.0")
	(layer "F.Cu")
	(descr "Socket Bottom Entry Header, 24 pins, 2.54mm Pitch")
	(property "Reference" "HEADER-FBE-24"
		(at 0 0 0)
		(layer "F.Fab")
		(uuid "189e4b21-f703-44af-86f7-90daa555a6b5")
		(effects
			(font
				(size 1.2 1.2)
				(thickness 0.12)
			)
		)
	)
	(property "Value" "HEADER-FBE-24"
		(at 0 0 0)
		(layer "F.Fab")
		(hide yes)
		(uuid "cacf2efb-db05-435e-8413-ce11ab9d7898")
		(effects
			(font
				(size 1.2 1.2)
				(thickness 0.12)
			)
		)
	)
	(property "Footprint" ""
		(at 0 0 0)
		(layer "F.Fab")
		(hide yes)
		(uuid "760ec8f1-af1a-4c43-8411-72f6fd8b1558")
		(effects
			(font
				(size 1.27 1.27)
				(thickness 0.15)
			)
		)
	)
	(property "Datasheet" ""
		(at 0 0 0)
		(layer "F.Fab")
		(hide yes)
		(uuid "b20d9f5b-ec4e-48f0-a427-9b8a8352ca3f")
		(effects
			(font
				(size 1.27 1.27)
				(thickness 0.15)
			)
		)
	)
	(property "Description" ""
		(at 0 0 0)
		(layer "F.Fab")
		(hide yes)
		(uuid "66f18edf-ed26-4bdb-821e-0f5890fe0928")
		(effects
			(font
				(size 1.27 1.27)
				(thickness 0.15)
			)
		)
	)
	(attr through_hole)
	(fp_line
		(start -30.85 -1.35)
		(end 30.85 -1.35)
		(stroke
			(width 0.12)
			(type solid)
		)
		(layer "F.SilkS")
		(uuid "047070d2-f59a-48cb-99a1-5d9eb087bfc0")
	)
	(fp_line
		(start -30.85 1.35)
		(end -30.85 -1.35)
		(stroke
			(width 0.12)
			(type solid)
		)
		(layer "F.SilkS")
		(uuid "0fc28068-cc62-4336-9989-2b73f7d85cb7")
	)
	(fp_line
		(start -29.8 1.35)
		(end -30.85 1.35)
		(stroke
			(width 0.12)
			(type solid)
		)
		(layer "F.SilkS")
		(uuid "8939819b-51e1-4ed8-9431-85a69374add9")
	)
	(fp_line
		(start -29.8 2.55)
		(end -28.6 2.55)
		(stroke
			(width 0.12)
			(type solid)
		)
		(layer "F.SilkS")
		(uuid "76bca832-e4d4-4b48-a681-64c82ab1fa11")
	)
	(fp_line
		(start -29.2 1.35)
		(end -29.8 2.55)
		(stroke
			(width 0.12)
			(type solid)
		)
		(layer "F.SilkS")
		(uuid "f47829e6-e5b6-40ce-8cd7-5b46c77dd8aa")
	)
	(fp_line
		(start -28.6 1.35)
		(end 30.85 1.35)
		(stroke
			(width 0.12)
			(type solid)
		)
		(layer "F.SilkS")
		(uuid "ae412605-3d0c-4bf3-ab89-455eb352e002")
	)
	(fp_line
		(start -28.6 2.55)
		(end -29.2 1.35)
		(stroke
			(width 0.12)
			(type solid)
		)
		(layer "F.SilkS")
		(uuid "42dd0648-ad08-472d-a813-d21a320f1503")
	)
	(fp_line
		(start 30.85 -1.35)
		(end 30.85 1.35)
		(stroke
			(width 0.12)
			(type solid)
		)
		(layer "F.SilkS")
		(uuid "2913a612-dfa7-4dde-a00d-dfd1f79f278a")
	)
	(fp_rect
		(start -31.35 -3.6)
		(end 31.35 3.6)
		(stroke
			(width 0.01)
			(type solid)
		)
		(fill none)
		(layer "F.CrtYd")
		(uuid "77b23728-8142-440b-b99e-a5c2526e6829")
	)
	(fp_line
		(start -29.85 1.35)
		(end -30.85 0.35)
		(stroke
			(width 0.1)
			(type solid)
		)
		(layer "F.Fab")
		(uuid "81d0f5a2-2c14-4e2d-a9a1-b846e8a33f0a")
	)
	(fp_rect
		(start -30.85 -1.35)
		(end 30.85 1.35)
		(stroke
			(width 0.1)
			(type solid)
		)
		(fill none)
		(layer "F.Fab")
		(uuid "fd9ed1cf-a715-4bc2-b399-4027464ac87d")
	)
	(fp_text user "${REFERENCE}"
		(at 0 -4.1 0)
		(unlocked yes)
		(layer "F.SilkS")
		(uuid "f24874a6-4d33-4e60-8136-2438286e9c8a")
		(effects
			(font
				(size 0.8 0.8)
				(thickness 0.15)
			)
		)
	)
	(pad "" np_thru_hole circle
		(at -29.21 0)
		(size 1.1 1.1)
		(drill 1.1)
		(layers "*.Cu" "*.Mask")
		(uuid "2dd31a99-22df-45dc-8c7f-d4eb2003b3e3")
	)
	(pad "" np_thru_hole circle
		(at -26.67 0)
		(size 1.1 1.1)
		(drill 1.1)
		(layers "*.Cu" "*.Mask")
		(uuid "37f87349-ddc3-4e6c-b7d3-ee99604e9c78")
	)
	(pad "" np_thru_hole circle
		(at -24.13 0)
		(size 1.1 1.1)
		(drill 1.1)
		(layers "*.Cu" "*.Mask")
		(uuid "1c087159-d16e-4033-9cbf-af3675b76c75")
	)
	(pad "" np_thru_hole circle
		(at -21.59 0)
		(size 1.1 1.1)
		(drill 1.1)
		(layers "*.Cu" "*.Mask")
		(uuid "63369047-07ea-4ca2-89ec-c156e6840f5c")
	)
	(pad "" np_thru_hole circle
		(at -19.05 0)
		(size 1.1 1.1)
		(drill 1.1)
		(layers "*.Cu" "*.Mask")
		(uuid "5f36b675-2bbf-42f1-94af-c6dcbf8e5b48")
	)
	(pad "" np_thru_hole circle
		(at -16.51 0)
		(size 1.1 1.1)
		(drill 1.1)
		(layers "*.Cu" "*.Mask")
		(uuid "7bed1c8a-11eb-472d-9e5e-58d0e8f0181d")
	)
	(pad "" np_thru_hole circle
		(at -13.97 0)
		(size 1.1 1.1)
		(drill 1.1)
		(layers "*.Cu" "*.Mask")
		(uuid "f0124117-2288-4080-a500-8544838fc718")
	)
	(pad "" np_thru_hole circle
		(at -11.43 0)
		(size 1.1 1.1)
		(drill 1.1)
		(layers "*.Cu" "*.Mask")
		(uuid "da304110-0114-4aba-98dc-e579e879d538")
	)
	(pad "" np_thru_hole circle
		(at -8.89 0)
		(size 1.1 1.1)
		(drill 1.1)
		(layers "*.Cu" "*.Mask")
		(uuid "52ce146d-9aa1-43a6-9090-c6c266a1637b")
	)
	(pad "" np_thru_hole circle
		(at -6.35 0)
		(size 1.1 1.1)
		(drill 1.1)
		(layers "*.Cu" "*.Mask")
		(uuid "12904b83-c604-443c-a408-d62be8f169ec")
	)
	(pad "" np_thru_hole circle
		(at -3.81 0)
		(size 1.1 1.1)
		(drill 1.1)
		(layers "*.Cu" "*.Mask")
		(uuid "aff70ea7-7adf-4fea-bd7d-0af5bfe51e8f")
	)
	(pad "" np_thru_hole circle
		(at -1.27 0)
		(size 1.1 1.1)
		(drill 1.1)
		(layers "*.Cu" "*.Mask")
		(uuid "8e238a70-f2a4-4a1d-914a-24510a4005f8")
	)
	(pad "" np_thru_hole circle
		(at 1.27 0)
		(size 1.1 1.1)
		(drill 1.1)
		(layers "*.Cu" "*.Mask")
		(uuid "855ac2b0-0e5e-406f-bb86-f1cb565a529c")
	)
	(pad "" np_thru_hole circle
		(at 3.81 0)
		(size 1.1 1.1)
		(drill 1.1)
		(layers "*.Cu" "*.Mask")
		(uuid "4ae2e427-c93a-4e50-9427-84f65a180cd4")
	)
	(pad "" np_thru_hole circle
		(at 6.35 0)
		(size 1.1 1.1)
		(drill 1.1)
		(layers "*.Cu" "*.Mask")
		(uuid "e3873010-83cd-4cef-92e3-1aa0a59c01ac")
	)
	(pad "" np_thru_hole circle
		(at 8.89 0)
		(size 1.1 1.1)
		(drill 1.1)
		(layers "*.Cu" "*.Mask")
		(uuid "2d8045eb-0227-4330-bdb0-d2d2d35c63c0")
	)
	(pad "" np_thru_hole circle
		(at 11.43 0)
		(size 1.1 1.1)
		(drill 1.1)
		(layers "*.Cu" "*.Mask")
		(uuid "95bb1312-a092-497b-b425-132382022103")
	)
	(pad "" np_thru_hole circle
		(at 13.97 0)
		(size 1.1 1.1)
		(drill 1.1)
		(layers "*.Cu" "*.Mask")
		(uuid "636fd03e-be80-4ea6-a13a-7e82b174dac0")
	)
	(pad "" np_thru_hole circle
		(at 16.51 0)
		(size 1.1 1.1)
		(drill 1.1)
		(layers "*.Cu" "*.Mask")
		(uuid "dd5c0f51-0609-4d7e-8de8-642363f448e2")
	)
	(pad "" np_thru_hole circle
		(at 19.05 0)
		(size 1.1 1.1)
		(drill 1.1)
		(layers "*.Cu" "*.Mask")
		(uuid "3741d960-4ffe-4dc1-a2a7-b4c6519e483d")
	)
	(pad "" np_thru_hole circle
		(at 21.59 0)
		(size 1.1 1.1)
		(drill 1.1)
		(layers "*.Cu" "*.Mask")
		(uuid "b531ae9f-dc30-4c39-950b-43d384ffa80a")
	)
	(pad "" np_thru_hole circle
		(at 24.13 0)
		(size 1.1 1.1)
		(drill 1.1)
		(layers "*.Cu" "*.Mask")
		(uuid "f411b10c-5d19-4de5-9953-7f41b0d83abe")
	)
	(pad "" np_thru_hole circle
		(at 26.67 0)
		(size 1.1 1.1)
		(drill 1.1)
		(layers "*.Cu" "*.Mask")
		(uuid "3d597b2b-487d-4ad1-9155-26695b72cde1")
	)
	(pad "" np_thru_hole circle
		(at 29.21 0)
		(size 1.1 1.1)
		(drill 1.1)
		(layers "*.Cu" "*.Mask")
		(uuid "0424935b-022f-46b6-bcbd-e0f1795beb95")
	)
	(pad "1" thru_hole circle
		(at -29.21 -2.54)
		(size 1.6 1.6)
		(drill 1)
		(layers "*.Cu" "*.Mask")
		(remove_unused_layers no)
		(uuid "5d460d81-44fc-476d-998d-c44b6a0ff6a3")
	)
	(pad "2" thru_hole circle
		(at -26.67 2.54)
		(size 1.6 1.6)
		(drill 1)
		(layers "*.Cu" "*.Mask")
		(remove_unused_layers no)
		(uuid "3cc6c724-759c-4620-a2e8-b92528208c82")
	)
	(pad "3" thru_hole circle
		(at -24.13 -2.54)
		(size 1.6 1.6)
		(drill 1)
		(layers "*.Cu" "*.Mask")
		(remove_unused_layers no)
		(uuid "3c7df182-6cc4-4e88-91ae-6771a2be106d")
	)
	(pad "4" thru_hole circle
		(at -21.59 2.54)
		(size 1.6 1.6)
		(drill 1)
		(layers "*.Cu" "*.Mask")
		(remove_unused_layers no)
		(uuid "6505ec30-8093-4a29-a71b-a1657d24c2c7")
	)
	(pad "5" thru_hole circle
		(at -19.05 -2.54)
		(size 1.6 1.6)
		(drill 1)
		(layers "*.Cu" "*.Mask")
		(remove_unused_layers no)
		(uuid "6c8082d0-daac-4109-b5ed-cd3a545639df")
	)
	(pad "6" thru_hole circle
		(at -16.51 2.54)
		(size 1.6 1.6)
		(drill 1)
		(layers "*.Cu" "*.Mask")
		(remove_unused_layers no)
		(uuid "b2e34be5-46cd-4f8a-8e6e-645ea71434dd")
	)
	(pad "7" thru_hole circle
		(at -13.97 -2.54)
		(size 1.6 1.6)
		(drill 1)
		(layers "*.Cu" "*.Mask")
		(remove_unused_layers no)
		(uuid "3e7eee84-5e89-42b0-9520-9a6acc222b30")
	)
	(pad "8" thru_hole circle
		(at -11.43 2.54)
		(size 1.6 1.6)
		(drill 1)
		(layers "*.Cu" "*.Mask")
		(remove_unused_layers no)
		(uuid "eed78bfd-9030-453e-b39f-35fde8d93f7c")
	)
	(pad "9" thru_hole circle
		(at -8.89 -2.54)
		(size 1.6 1.6)
		(drill 1)
		(layers "*.Cu" "*.Mask")
		(remove_unused_layers no)
		(uuid "e6ab3d32-b6fc-4ffc-a796-eedaca24d450")
	)
	(pad "10" thru_hole circle
		(at -6.35 2.54)
		(size 1.6 1.6)
		(drill 1)
		(layers "*.Cu" "*.Mask")
		(remove_unused_layers no)
		(uuid "769ef43a-8da6-458f-9e6a-f3ec452c6604")
	)
	(pad "11" thru_hole circle
		(at -3.81 -2.54)
		(size 1.6 1.6)
		(drill 1)
		(layers "*.Cu" "*.Mask")
		(remove_unused_layers no)
		(uuid "3eca486a-5b9f-4498-a9f3-dea0b406ab30")
	)
	(pad "12" thru_hole circle
		(at -1.27 2.54)
		(size 1.6 1.6)
		(drill 1)
		(layers "*.Cu" "*.Mask")
		(remove_unused_layers no)
		(uuid "b807be82-9b9b-46d6-b167-4748f9c17e4e")
	)
	(pad "13" thru_hole circle
		(at 1.27 -2.54)
		(size 1.6 1.6)
		(drill 1)
		(layers "*.Cu" "*.Mask")
		(remove_unused_layers no)
		(uuid "2529809b-4afd-40e4-a660-f43c3f4a1d88")
	)
	(pad "14" thru_hole circle
		(at 3.81 2.54)
		(size 1.6 1.6)
		(drill 1)
		(layers "*.Cu" "*.Mask")
		(remove_unused_layers no)
		(uuid "6fbbeefe-dcd3-4c50-a901-bdbf9fd69b03")
	)
	(pad "15" thru_hole circle
		(at 6.35 -2.54)
		(size 1.6 1.6)
		(drill 1)
		(layers "*.Cu" "*.Mask")
		(remove_unused_layers no)
		(uuid "536e9f2c-839a-4bda-bf17-dde8128fc120")
	)
	(pad "16" thru_hole circle
		(at 8.89 2.54)
		(size 1.6 1.6)
		(drill 1)
		(layers "*.Cu" "*.Mask")
		(remove_unused_layers no)
		(uuid "bcb89132-5bfd-4d95-b5a2-2e1c792ba020")
	)
	(pad "17" thru_hole circle
		(at 11.43 -2.54)
		(size 1.6 1.6)
		(drill 1)
		(layers "*.Cu" "*.Mask")
		(remove_unused_layers no)
		(uuid "39e37382-393a-4d12-a94f-251635bb3dd4")
	)
	(pad "18" thru_hole circle
		(at 13.97 2.54)
		(size 1.6 1.6)
		(drill 1)
		(layers "*.Cu" "*.Mask")
		(remove_unused_layers no)
		(uuid "fc909eb6-d90d-46e2-9ed0-a0f46887df8c")
	)
	(pad "19" thru_hole circle
		(at 16.51 -2.54)
		(size 1.6 1.6)
		(drill 1)
		(layers "*.Cu" "*.Mask")
		(remove_unused_layers no)
		(uuid "3a57af37-c533-4cc6-9122-b2187e755c95")
	)
	(pad "20" thru_hole circle
		(at 19.05 2.54)
		(size 1.6 1.6)
		(drill 1)
		(layers "*.Cu" "*.Mask")
		(remove_unused_layers no)
		(uuid "5d043b6f-bd7a-401e-9ed1-98fdd9d2e741")
	)
	(pad "21" thru_hole circle
		(at 21.59 -2.54)
		(size 1.6 1.6)
		(drill 1)
		(layers "*.Cu" "*.Mask")
		(remove_unused_layers no)
		(uuid "27dbd6a3-7f8e-4c23-a861-bb3ba7156dee")
	)
	(pad "22" thru_hole circle
		(at 24.13 2.54)
		(size 1.6 1.6)
		(drill 1)
		(layers "*.Cu" "*.Mask")
		(remove_unused_layers no)
		(uuid "6306515c-52ae-4db5-a3a9-85c37cf3203e")
	)
	(pad "23" thru_hole circle
		(at 26.67 -2.54)
		(size 1.6 1.6)
		(drill 1)
		(layers "*.Cu" "*.Mask")
		(remove_unused_layers no)
		(uuid "5fe3c536-9230-4f72-b75d-d050ce3b7841")
	)
	(pad "24" thru_hole circle
		(at 29.21 2.54)
		(size 1.6 1.6)
		(drill 1)
		(layers "*.Cu" "*.Mask")
		(remove_unused_layers no)
		(uuid "e14b95af-21c7-4fb5-994c-45529fa66957")
	)
)
