(footprint "M-13"
	(version 20240108)
	(generator "pcbnew")
	(generator_version "8.0")
	(layer "F.Cu")
	(descr "Pin Header, 13 pins, 2.54mm Pitch")
	(property "Reference" "HEADER-M-13"
		(at 0 0 0)
		(layer "F.Fab")
		(uuid "76222bd5-3450-493d-ac74-872fb5d56470")
		(effects
			(font
				(size 1.2 1.2)
				(thickness 0.12)
			)
		)
	)
	(property "Value" "HEADER-M-13"
		(at 0 0 0)
		(layer "F.Fab")
		(hide yes)
		(uuid "8913b093-083e-46ea-8561-f4f73be18840")
		(effects
			(font
				(size 1.2 1.2)
				(thickness 0.12)
			)
		)
	)
	(property "Footprint" ""
		(at 0 0 0)
		(layer "F.Fab")
		(hide yes)
		(uuid "b0c007d8-0a61-4b0d-9615-8ddfb74d6822")
		(effects
			(font
				(size 1.27 1.27)
				(thickness 0.15)
			)
		)
	)
	(property "Datasheet" ""
		(at 0 0 0)
		(layer "F.Fab")
		(hide yes)
		(uuid "7f69a67d-bbcc-44ff-a9d2-6adf59f4e665")
		(effects
			(font
				(size 1.27 1.27)
				(thickness 0.15)
			)
		)
	)
	(property "Description" ""
		(at 0 0 0)
		(layer "F.Fab")
		(hide yes)
		(uuid "3a6e7e11-9cc2-406e-9f88-d69ee56a0e57")
		(effects
			(font
				(size 1.27 1.27)
				(thickness 0.15)
			)
		)
	)
	(attr through_hole)
	(fp_line
		(start -16.75 -1.35)
		(end 16.75 -1.35)
		(stroke
			(width 0.12)
			(type solid)
		)
		(layer "F.SilkS")
		(uuid "a5c39a52-ed2d-43ec-8ad4-3c061c2a207b")
	)
	(fp_line
		(start -16.75 1.35)
		(end -16.75 -1.35)
		(stroke
			(width 0.12)
			(type solid)
		)
		(layer "F.SilkS")
		(uuid "77b7f897-1760-4ec2-b939-8065f67f9191")
	)
	(fp_line
		(start -15.85 1.35)
		(end -16.75 1.35)
		(stroke
			(width 0.12)
			(type solid)
		)
		(layer "F.SilkS")
		(uuid "2b899605-e688-4843-b31a-3bdc646a88b0")
	)
	(fp_line
		(start -15.85 2.55)
		(end -14.65 2.55)
		(stroke
			(width 0.12)
			(type solid)
		)
		(layer "F.SilkS")
		(uuid "d3a5f93b-a7f0-4af0-bf37-de4879cd68e0")
	)
	(fp_line
		(start -15.25 1.35)
		(end -15.85 2.55)
		(stroke
			(width 0.12)
			(type solid)
		)
		(layer "F.SilkS")
		(uuid "01659053-344b-4f1d-8d19-c6b3e0ab9b48")
	)
	(fp_line
		(start -14.65 1.35)
		(end 16.75 1.35)
		(stroke
			(width 0.12)
			(type solid)
		)
		(layer "F.SilkS")
		(uuid "9207577e-759f-4ece-8cc8-6e2227eb5627")
	)
	(fp_line
		(start -14.65 2.55)
		(end -15.25 1.35)
		(stroke
			(width 0.12)
			(type solid)
		)
		(layer "F.SilkS")
		(uuid "5969048c-4db5-471b-8379-f9b8cb7706fb")
	)
	(fp_line
		(start 16.75 -1.35)
		(end 16.75 1.35)
		(stroke
			(width 0.12)
			(type solid)
		)
		(layer "F.SilkS")
		(uuid "12320172-ee6a-4935-badc-d869ad7b58b4")
	)
	(fp_rect
		(start -17.25 -1.85)
		(end 17.25 1.85)
		(stroke
			(width 0.01)
			(type solid)
		)
		(fill none)
		(layer "F.CrtYd")
		(uuid "dbbb2980-c48f-4ff0-a975-ead4158724b1")
	)
	(fp_line
		(start -15.75 1.35)
		(end -16.75 0.35)
		(stroke
			(width 0.1)
			(type solid)
		)
		(layer "F.Fab")
		(uuid "7efc1cf1-3872-4468-83dd-95b288eac8d8")
	)
	(fp_rect
		(start -16.75 -1.35)
		(end 16.75 1.35)
		(stroke
			(width 0.1)
			(type solid)
		)
		(fill none)
		(layer "F.Fab")
		(uuid "06c9d60d-27ee-4e70-93a3-6c04d353c2bd")
	)
	(fp_text user "${REFERENCE}"
		(at -17.7 0 90)
		(layer "F.SilkS")
		(uuid "82803086-1fb1-4fba-be12-32ae411e41ee")
		(effects
			(font
				(size 1.5 1.5)
				(thickness 0.15)
			)
		)
	)
	(pad "1" thru_hole circle
		(at -15.24 0)
		(size 1.6 1.6)
		(drill 1)
		(layers "*.Cu" "*.Mask")
		(remove_unused_layers no)
		(uuid "e08769bd-a022-4cde-8416-c20d0a1b71b1")
	)
	(pad "2" thru_hole circle
		(at -12.7 0)
		(size 1.6 1.6)
		(drill 1)
		(layers "*.Cu" "*.Mask")
		(remove_unused_layers no)
		(uuid "01218603-cdc9-44f8-9edd-b6b01a9b7e83")
	)
	(pad "3" thru_hole circle
		(at -10.16 0)
		(size 1.6 1.6)
		(drill 1)
		(layers "*.Cu" "*.Mask")
		(remove_unused_layers no)
		(uuid "da059232-8745-4eea-b5b4-cb2973311111")
	)
	(pad "4" thru_hole circle
		(at -7.62 0)
		(size 1.6 1.6)
		(drill 1)
		(layers "*.Cu" "*.Mask")
		(remove_unused_layers no)
		(uuid "bcca71e1-0ab5-4cda-b59c-8583707e7900")
	)
	(pad "5" thru_hole circle
		(at -5.08 0)
		(size 1.6 1.6)
		(drill 1)
		(layers "*.Cu" "*.Mask")
		(remove_unused_layers no)
		(uuid "e814d928-8fdc-4242-bbce-facb04210950")
	)
	(pad "6" thru_hole circle
		(at -2.54 0)
		(size 1.6 1.6)
		(drill 1)
		(layers "*.Cu" "*.Mask")
		(remove_unused_layers no)
		(uuid "f0ba2ca3-57a2-4be6-8074-3faf259f339c")
	)
	(pad "7" thru_hole circle
		(at 0 0)
		(size 1.6 1.6)
		(drill 1)
		(layers "*.Cu" "*.Mask")
		(remove_unused_layers no)
		(uuid "6c256488-7e0d-4308-8a39-6b4e5b46fd6a")
	)
	(pad "8" thru_hole circle
		(at 2.54 0)
		(size 1.6 1.6)
		(drill 1)
		(layers "*.Cu" "*.Mask")
		(remove_unused_layers no)
		(uuid "cd821a7f-3536-4042-8f07-3aeec39b697d")
	)
	(pad "9" thru_hole circle
		(at 5.08 0)
		(size 1.6 1.6)
		(drill 1)
		(layers "*.Cu" "*.Mask")
		(remove_unused_layers no)
		(uuid "425bbcc1-1069-40a9-8586-19ac9db2d635")
	)
	(pad "10" thru_hole circle
		(at 7.62 0)
		(size 1.6 1.6)
		(drill 1)
		(layers "*.Cu" "*.Mask")
		(remove_unused_layers no)
		(uuid "7a5d36d8-1e67-4d4e-ad78-23193f4d83b1")
	)
	(pad "11" thru_hole circle
		(at 10.16 0)
		(size 1.6 1.6)
		(drill 1)
		(layers "*.Cu" "*.Mask")
		(remove_unused_layers no)
		(uuid "cf211e47-438d-4f41-8525-57632652d700")
	)
	(pad "12" thru_hole circle
		(at 12.7 0)
		(size 1.6 1.6)
		(drill 1)
		(layers "*.Cu" "*.Mask")
		(remove_unused_layers no)
		(uuid "7e8d3add-733b-4b4b-89ca-a17ff07f189c")
	)
	(pad "13" thru_hole circle
		(at 15.24 0)
		(size 1.6 1.6)
		(drill 1)
		(layers "*.Cu" "*.Mask")
		(remove_unused_layers no)
		(uuid "bb144dc1-b41b-4446-bc13-c9087c19216a")
	)
)
