(footprint "M-15"
	(version 20240108)
	(generator "pcbnew")
	(generator_version "8.0")
	(layer "F.Cu")
	(descr "Pin Header, 15 pins, 2.54mm Pitch")
	(property "Reference" "HEADER-M-15"
		(at 0 0 0)
		(layer "F.Fab")
		(uuid "0ac77d12-a997-45d6-b4af-0164ddb317d8")
		(effects
			(font
				(size 1.2 1.2)
				(thickness 0.12)
			)
		)
	)
	(property "Value" "HEADER-M-15"
		(at 0 0 0)
		(layer "F.Fab")
		(hide yes)
		(uuid "c92cb25d-6fad-434e-a829-59bb2538e288")
		(effects
			(font
				(size 1.2 1.2)
				(thickness 0.12)
			)
		)
	)
	(property "Footprint" ""
		(at 0 0 0)
		(layer "F.Fab")
		(hide yes)
		(uuid "1170eb03-82c7-41d2-8812-eff98b2c639b")
		(effects
			(font
				(size 1.27 1.27)
				(thickness 0.15)
			)
		)
	)
	(property "Datasheet" ""
		(at 0 0 0)
		(layer "F.Fab")
		(hide yes)
		(uuid "97c29f00-5ff5-4bb4-94ba-b2476c830f47")
		(effects
			(font
				(size 1.27 1.27)
				(thickness 0.15)
			)
		)
	)
	(property "Description" ""
		(at 0 0 0)
		(layer "F.Fab")
		(hide yes)
		(uuid "30a3fa26-f874-4b8a-8f47-8a08d2cbff37")
		(effects
			(font
				(size 1.27 1.27)
				(thickness 0.15)
			)
		)
	)
	(attr through_hole)
	(fp_line
		(start -19.3 -1.35)
		(end 19.3 -1.35)
		(stroke
			(width 0.12)
			(type solid)
		)
		(layer "F.SilkS")
		(uuid "e25c81b7-4cbc-4e20-9016-ce27516f8774")
	)
	(fp_line
		(start -19.3 1.35)
		(end -19.3 -1.35)
		(stroke
			(width 0.12)
			(type solid)
		)
		(layer "F.SilkS")
		(uuid "3a247042-a3b5-4795-b4a3-9bec6a2965ca")
	)
	(fp_line
		(start -18.4 1.35)
		(end -19.3 1.35)
		(stroke
			(width 0.12)
			(type solid)
		)
		(layer "F.SilkS")
		(uuid "2b829193-b4cc-49ef-b3ab-0f69a67f7e0c")
	)
	(fp_line
		(start -18.4 2.55)
		(end -17.2 2.55)
		(stroke
			(width 0.12)
			(type solid)
		)
		(layer "F.SilkS")
		(uuid "10582586-33c4-498d-ab54-77d107198420")
	)
	(fp_line
		(start -17.8 1.35)
		(end -18.4 2.55)
		(stroke
			(width 0.12)
			(type solid)
		)
		(layer "F.SilkS")
		(uuid "baa64e6d-6cde-4db8-8e5c-39ec5a9b9a74")
	)
	(fp_line
		(start -17.2 1.35)
		(end 19.3 1.35)
		(stroke
			(width 0.12)
			(type solid)
		)
		(layer "F.SilkS")
		(uuid "bd84b436-3e03-4f7f-bccc-8f56e61c0157")
	)
	(fp_line
		(start -17.2 2.55)
		(end -17.8 1.35)
		(stroke
			(width 0.12)
			(type solid)
		)
		(layer "F.SilkS")
		(uuid "e2d26fc7-b469-4def-8845-bcfe4deb7848")
	)
	(fp_line
		(start 19.3 -1.35)
		(end 19.3 1.35)
		(stroke
			(width 0.12)
			(type solid)
		)
		(layer "F.SilkS")
		(uuid "af0e18e2-ae0e-457c-a51e-10976ffb8c67")
	)
	(fp_rect
		(start -19.8 -1.85)
		(end 19.8 1.85)
		(stroke
			(width 0.01)
			(type solid)
		)
		(fill none)
		(layer "F.CrtYd")
		(uuid "9e2613ae-834a-40ee-8101-47c5adc36e3f")
	)
	(fp_line
		(start -18.3 1.35)
		(end -19.3 0.35)
		(stroke
			(width 0.1)
			(type solid)
		)
		(layer "F.Fab")
		(uuid "7fbd2c1a-7ced-4536-92d5-19f69028891a")
	)
	(fp_rect
		(start -19.3 -1.35)
		(end 19.3 1.35)
		(stroke
			(width 0.1)
			(type solid)
		)
		(fill none)
		(layer "F.Fab")
		(uuid "fc7de8b1-1ef7-42a8-b427-b600768b9178")
	)
	(fp_text user "${REFERENCE}"
		(at -20.25 0 90)
		(layer "F.SilkS")
		(uuid "53d20a36-33bd-4eeb-9917-f02d655a0053")
		(effects
			(font
				(size 1.5 1.5)
				(thickness 0.15)
			)
		)
	)
	(pad "1" thru_hole circle
		(at -17.78 0)
		(size 1.6 1.6)
		(drill 1)
		(layers "*.Cu" "*.Mask")
		(remove_unused_layers no)
		(uuid "f7526f39-b48a-4d65-9712-bf1ae8ed6f96")
	)
	(pad "2" thru_hole circle
		(at -15.24 0)
		(size 1.6 1.6)
		(drill 1)
		(layers "*.Cu" "*.Mask")
		(remove_unused_layers no)
		(uuid "87c1189b-c93f-4a35-9d43-6d4fa54ccac5")
	)
	(pad "3" thru_hole circle
		(at -12.7 0)
		(size 1.6 1.6)
		(drill 1)
		(layers "*.Cu" "*.Mask")
		(remove_unused_layers no)
		(uuid "a7c42c23-2b11-4afd-9776-28dbf838bbfd")
	)
	(pad "4" thru_hole circle
		(at -10.16 0)
		(size 1.6 1.6)
		(drill 1)
		(layers "*.Cu" "*.Mask")
		(remove_unused_layers no)
		(uuid "787872d8-011d-4604-99ee-fa23951c6dab")
	)
	(pad "5" thru_hole circle
		(at -7.62 0)
		(size 1.6 1.6)
		(drill 1)
		(layers "*.Cu" "*.Mask")
		(remove_unused_layers no)
		(uuid "add36c1c-7ec4-48a0-bfcf-293b93bb751d")
	)
	(pad "6" thru_hole circle
		(at -5.08 0)
		(size 1.6 1.6)
		(drill 1)
		(layers "*.Cu" "*.Mask")
		(remove_unused_layers no)
		(uuid "2849b5fd-ea33-49f7-a1ad-5ec5d795d233")
	)
	(pad "7" thru_hole circle
		(at -2.54 0)
		(size 1.6 1.6)
		(drill 1)
		(layers "*.Cu" "*.Mask")
		(remove_unused_layers no)
		(uuid "87d226cd-6273-4868-ba03-248c1bcf11ed")
	)
	(pad "8" thru_hole circle
		(at 0 0)
		(size 1.6 1.6)
		(drill 1)
		(layers "*.Cu" "*.Mask")
		(remove_unused_layers no)
		(uuid "62080085-b53f-4866-80ed-b59e4b5a7ee6")
	)
	(pad "9" thru_hole circle
		(at 2.54 0)
		(size 1.6 1.6)
		(drill 1)
		(layers "*.Cu" "*.Mask")
		(remove_unused_layers no)
		(uuid "0a20d2db-5922-407a-a748-705be4cb010a")
	)
	(pad "10" thru_hole circle
		(at 5.08 0)
		(size 1.6 1.6)
		(drill 1)
		(layers "*.Cu" "*.Mask")
		(remove_unused_layers no)
		(uuid "694bcac2-d428-4093-a7ee-8fcc5460c39a")
	)
	(pad "11" thru_hole circle
		(at 7.62 0)
		(size 1.6 1.6)
		(drill 1)
		(layers "*.Cu" "*.Mask")
		(remove_unused_layers no)
		(uuid "f4485821-643f-41fe-bf8f-a13571736fdb")
	)
	(pad "12" thru_hole circle
		(at 10.16 0)
		(size 1.6 1.6)
		(drill 1)
		(layers "*.Cu" "*.Mask")
		(remove_unused_layers no)
		(uuid "b9d0385b-cd99-4ad8-8c50-007581dbb769")
	)
	(pad "13" thru_hole circle
		(at 12.7 0)
		(size 1.6 1.6)
		(drill 1)
		(layers "*.Cu" "*.Mask")
		(remove_unused_layers no)
		(uuid "aef8b9db-d869-4c87-8cd1-14ec8fd6be46")
	)
	(pad "14" thru_hole circle
		(at 15.24 0)
		(size 1.6 1.6)
		(drill 1)
		(layers "*.Cu" "*.Mask")
		(remove_unused_layers no)
		(uuid "5bc7f684-f4e1-4052-9ab0-7aebe52840ef")
	)
	(pad "15" thru_hole circle
		(at 17.78 0)
		(size 1.6 1.6)
		(drill 1)
		(layers "*.Cu" "*.Mask")
		(remove_unused_layers no)
		(uuid "ae4682d0-bca7-4109-8d8e-312fddb5c3f9")
	)
)
