(footprint "M-24"
	(version 20240108)
	(generator "pcbnew")
	(generator_version "8.0")
	(layer "F.Cu")
	(descr "Pin Header, 24 pins, 2.54mm Pitch")
	(property "Reference" "HEADER-M-24"
		(at 0 0 0)
		(layer "F.Fab")
		(uuid "0c581f99-a763-4f68-8a68-c39eef0d030d")
		(effects
			(font
				(size 1.2 1.2)
				(thickness 0.12)
			)
		)
	)
	(property "Value" "HEADER-M-24"
		(at 0 0 0)
		(layer "F.Fab")
		(hide yes)
		(uuid "46e6a72f-2e53-46a2-b9c5-28495fc0c386")
		(effects
			(font
				(size 1.2 1.2)
				(thickness 0.12)
			)
		)
	)
	(property "Footprint" ""
		(at 0 0 0)
		(layer "F.Fab")
		(hide yes)
		(uuid "ab92c384-895d-4111-83e4-331024918d3c")
		(effects
			(font
				(size 1.27 1.27)
				(thickness 0.15)
			)
		)
	)
	(property "Datasheet" ""
		(at 0 0 0)
		(layer "F.Fab")
		(hide yes)
		(uuid "3d121712-ffb7-40fb-a633-4650d1539a7b")
		(effects
			(font
				(size 1.27 1.27)
				(thickness 0.15)
			)
		)
	)
	(property "Description" ""
		(at 0 0 0)
		(layer "F.Fab")
		(hide yes)
		(uuid "426e3b50-7d1f-4e63-af45-18a77ca4a8c1")
		(effects
			(font
				(size 1.27 1.27)
				(thickness 0.15)
			)
		)
	)
	(attr through_hole)
	(fp_line
		(start -30.75 -1.35)
		(end 30.75 -1.35)
		(stroke
			(width 0.12)
			(type solid)
		)
		(layer "F.SilkS")
		(uuid "0fd35e9f-ad35-4eba-bbd0-02fc731da063")
	)
	(fp_line
		(start -30.75 1.35)
		(end -30.75 -1.35)
		(stroke
			(width 0.12)
			(type solid)
		)
		(layer "F.SilkS")
		(uuid "b2b194c7-a2bd-4cb8-9709-6a3d17f65499")
	)
	(fp_line
		(start -29.8 1.35)
		(end -30.75 1.35)
		(stroke
			(width 0.12)
			(type solid)
		)
		(layer "F.SilkS")
		(uuid "6163663d-213e-4404-81d3-ec32b5b56994")
	)
	(fp_line
		(start -29.8 2.55)
		(end -28.6 2.55)
		(stroke
			(width 0.12)
			(type solid)
		)
		(layer "F.SilkS")
		(uuid "3ee37bb3-b80c-4228-9851-87c3b2ca034f")
	)
	(fp_line
		(start -29.2 1.35)
		(end -29.8 2.55)
		(stroke
			(width 0.12)
			(type solid)
		)
		(layer "F.SilkS")
		(uuid "f7ab189b-3c16-40f9-8e2b-e58b19e832a2")
	)
	(fp_line
		(start -28.6 1.35)
		(end 30.75 1.35)
		(stroke
			(width 0.12)
			(type solid)
		)
		(layer "F.SilkS")
		(uuid "fd3f61ce-f3c0-4eb4-b668-f0d8f7eb9f10")
	)
	(fp_line
		(start -28.6 2.55)
		(end -29.2 1.35)
		(stroke
			(width 0.12)
			(type solid)
		)
		(layer "F.SilkS")
		(uuid "2f23c4dc-9c43-4a00-b5da-10a4ab7ef351")
	)
	(fp_line
		(start 30.75 -1.35)
		(end 30.75 1.35)
		(stroke
			(width 0.12)
			(type solid)
		)
		(layer "F.SilkS")
		(uuid "d9ba8c3b-785f-4dab-9ca0-d84bb49729f6")
	)
	(fp_rect
		(start -31.25 -1.85)
		(end 31.25 1.85)
		(stroke
			(width 0.01)
			(type solid)
		)
		(fill none)
		(layer "F.CrtYd")
		(uuid "d84b208e-ea59-4801-bacb-73f4c19a57de")
	)
	(fp_line
		(start -29.75 1.35)
		(end -30.75 0.35)
		(stroke
			(width 0.1)
			(type solid)
		)
		(layer "F.Fab")
		(uuid "823ff1d2-80d8-48cc-9c4e-672dba151a42")
	)
	(fp_rect
		(start -30.75 -1.35)
		(end 30.75 1.35)
		(stroke
			(width 0.1)
			(type solid)
		)
		(fill none)
		(layer "F.Fab")
		(uuid "57d4de90-1357-4e0e-9048-22459cb45c41")
	)
	(fp_text user "${REFERENCE}"
		(at -31.7 0 90)
		(layer "F.SilkS")
		(uuid "6c0dcb8b-b36a-4054-8454-32acd09f6629")
		(effects
			(font
				(size 1.5 1.5)
				(thickness 0.15)
			)
		)
	)
	(pad "1" thru_hole circle
		(at -29.21 0)
		(size 1.6 1.6)
		(drill 1)
		(layers "*.Cu" "*.Mask")
		(remove_unused_layers no)
		(uuid "2e91a59d-1f99-41ee-8a88-c5e2cc77d80f")
	)
	(pad "2" thru_hole circle
		(at -26.67 0)
		(size 1.6 1.6)
		(drill 1)
		(layers "*.Cu" "*.Mask")
		(remove_unused_layers no)
		(uuid "62f12d5d-e148-46a1-9abc-17b1715fd8d8")
	)
	(pad "3" thru_hole circle
		(at -24.13 0)
		(size 1.6 1.6)
		(drill 1)
		(layers "*.Cu" "*.Mask")
		(remove_unused_layers no)
		(uuid "31cae52a-0be7-4212-9613-7fb942334522")
	)
	(pad "4" thru_hole circle
		(at -21.59 0)
		(size 1.6 1.6)
		(drill 1)
		(layers "*.Cu" "*.Mask")
		(remove_unused_layers no)
		(uuid "a32657cd-6466-4e6a-8672-0c14950877ac")
	)
	(pad "5" thru_hole circle
		(at -19.05 0)
		(size 1.6 1.6)
		(drill 1)
		(layers "*.Cu" "*.Mask")
		(remove_unused_layers no)
		(uuid "3eca6b82-6658-4c13-bd17-5cb1aee9aa1a")
	)
	(pad "6" thru_hole circle
		(at -16.51 0)
		(size 1.6 1.6)
		(drill 1)
		(layers "*.Cu" "*.Mask")
		(remove_unused_layers no)
		(uuid "9dfc1271-2677-47a6-aed1-2e59572e4c7f")
	)
	(pad "7" thru_hole circle
		(at -13.97 0)
		(size 1.6 1.6)
		(drill 1)
		(layers "*.Cu" "*.Mask")
		(remove_unused_layers no)
		(uuid "d1ebbc7a-b7ac-41f0-9ec5-b61eaebb5288")
	)
	(pad "8" thru_hole circle
		(at -11.43 0)
		(size 1.6 1.6)
		(drill 1)
		(layers "*.Cu" "*.Mask")
		(remove_unused_layers no)
		(uuid "3b185713-f58b-4001-9083-ee307fce50a1")
	)
	(pad "9" thru_hole circle
		(at -8.89 0)
		(size 1.6 1.6)
		(drill 1)
		(layers "*.Cu" "*.Mask")
		(remove_unused_layers no)
		(uuid "fc57ac08-aeb9-4605-a830-ad60f0a86563")
	)
	(pad "10" thru_hole circle
		(at -6.35 0)
		(size 1.6 1.6)
		(drill 1)
		(layers "*.Cu" "*.Mask")
		(remove_unused_layers no)
		(uuid "0eb0d191-fec7-49b1-8e4f-7b0df1d0e8ed")
	)
	(pad "11" thru_hole circle
		(at -3.81 0)
		(size 1.6 1.6)
		(drill 1)
		(layers "*.Cu" "*.Mask")
		(remove_unused_layers no)
		(uuid "0f2936a1-5d61-4185-bed1-3df71da8eadd")
	)
	(pad "12" thru_hole circle
		(at -1.27 0)
		(size 1.6 1.6)
		(drill 1)
		(layers "*.Cu" "*.Mask")
		(remove_unused_layers no)
		(uuid "d39b10c8-9183-4c56-b049-12ea18a73978")
	)
	(pad "13" thru_hole circle
		(at 1.27 0)
		(size 1.6 1.6)
		(drill 1)
		(layers "*.Cu" "*.Mask")
		(remove_unused_layers no)
		(uuid "cbe2653e-1244-43e5-abfb-a6940257d9a8")
	)
	(pad "14" thru_hole circle
		(at 3.81 0)
		(size 1.6 1.6)
		(drill 1)
		(layers "*.Cu" "*.Mask")
		(remove_unused_layers no)
		(uuid "7f37a7cd-902c-43fc-8919-e3f2751bba89")
	)
	(pad "15" thru_hole circle
		(at 6.35 0)
		(size 1.6 1.6)
		(drill 1)
		(layers "*.Cu" "*.Mask")
		(remove_unused_layers no)
		(uuid "8a917bb1-3007-4817-9e7f-9e0eabad0147")
	)
	(pad "16" thru_hole circle
		(at 8.89 0)
		(size 1.6 1.6)
		(drill 1)
		(layers "*.Cu" "*.Mask")
		(remove_unused_layers no)
		(uuid "478ca7b7-377f-4650-8883-40f6ed8afc18")
	)
	(pad "17" thru_hole circle
		(at 11.43 0)
		(size 1.6 1.6)
		(drill 1)
		(layers "*.Cu" "*.Mask")
		(remove_unused_layers no)
		(uuid "e5e743a5-30dd-4cb8-aa0c-970c8623c40b")
	)
	(pad "18" thru_hole circle
		(at 13.97 0)
		(size 1.6 1.6)
		(drill 1)
		(layers "*.Cu" "*.Mask")
		(remove_unused_layers no)
		(uuid "0d722a83-a7de-4f7e-95e7-ae08ca62a393")
	)
	(pad "19" thru_hole circle
		(at 16.51 0)
		(size 1.6 1.6)
		(drill 1)
		(layers "*.Cu" "*.Mask")
		(remove_unused_layers no)
		(uuid "fa21054a-dcf8-4138-beb7-f722e46cc942")
	)
	(pad "20" thru_hole circle
		(at 19.05 0)
		(size 1.6 1.6)
		(drill 1)
		(layers "*.Cu" "*.Mask")
		(remove_unused_layers no)
		(uuid "104db745-180c-44c8-b8d8-e14e943f6f3e")
	)
	(pad "21" thru_hole circle
		(at 21.59 0)
		(size 1.6 1.6)
		(drill 1)
		(layers "*.Cu" "*.Mask")
		(remove_unused_layers no)
		(uuid "6174ad57-65b9-4b71-a390-18a87c71d968")
	)
	(pad "22" thru_hole circle
		(at 24.13 0)
		(size 1.6 1.6)
		(drill 1)
		(layers "*.Cu" "*.Mask")
		(remove_unused_layers no)
		(uuid "cfcde89d-c63c-452a-8601-a26968ef5a2b")
	)
	(pad "23" thru_hole circle
		(at 26.67 0)
		(size 1.6 1.6)
		(drill 1)
		(layers "*.Cu" "*.Mask")
		(remove_unused_layers no)
		(uuid "4df5c0db-db92-423a-87b5-2f57b84207b0")
	)
	(pad "24" thru_hole circle
		(at 29.21 0)
		(size 1.6 1.6)
		(drill 1)
		(layers "*.Cu" "*.Mask")
		(remove_unused_layers no)
		(uuid "8cbd7fff-385e-4cb8-96eb-da094e5bcb2a")
	)
)
