(footprint "M-2x7-SMD"
	(version 20240108)
	(generator "pcbnew")
	(generator_version "8.0")
	(layer "F.Cu")
	(descr "SMD Dual Pin Header, 7x2 pins, 2.54mm Pitch")
	(property "Reference" "HEADER-M-7X2-SMD"
		(at 0 0 0)
		(layer "F.Fab")
		(uuid "b0cd5307-2d9c-4752-9200-8f0192d0af51")
		(effects
			(font
				(size 1.2 1.2)
				(thickness 0.12)
			)
		)
	)
	(property "Value" "HEADER-M-7X2-SMD"
		(at 0 0 0)
		(layer "F.Fab")
		(hide yes)
		(uuid "49c3b775-5a2d-430d-91e7-a38cadd77d32")
		(effects
			(font
				(size 1.2 1.2)
				(thickness 0.12)
			)
		)
	)
	(property "Footprint" ""
		(at 0 0 0)
		(layer "F.Fab")
		(hide yes)
		(uuid "2d3e8279-3da2-4701-9c7a-d605e29f7b9a")
		(effects
			(font
				(size 1.27 1.27)
				(thickness 0.15)
			)
		)
	)
	(property "Datasheet" ""
		(at 0 0 0)
		(layer "F.Fab")
		(hide yes)
		(uuid "a8784635-1209-4e84-92b5-13d5d2089ec7")
		(effects
			(font
				(size 1.27 1.27)
				(thickness 0.15)
			)
		)
	)
	(property "Description" ""
		(at 0 0 0)
		(layer "F.Fab")
		(hide yes)
		(uuid "0044ca2b-afe9-46e1-88da-085c496c265c")
		(effects
			(font
				(size 1.27 1.27)
				(thickness 0.15)
			)
		)
	)
	(attr through_hole)
	(fp_line
		(start -9.15 -2.6)
		(end -8.6 -2.6)
		(stroke
			(width 0.12)
			(type solid)
		)
		(layer "F.SilkS")
		(uuid "d0052ac7-2a27-46cc-bf2d-3ea2e17b671e")
	)
	(fp_line
		(start -9.15 2.6)
		(end -9.15 -2.6)
		(stroke
			(width 0.12)
			(type solid)
		)
		(layer "F.SilkS")
		(uuid "9bd7369d-dfc4-41fd-a84a-c74b76829778")
	)
	(fp_line
		(start -9.15 2.6)
		(end -8.6 2.6)
		(stroke
			(width 0.12)
			(type solid)
		)
		(layer "F.SilkS")
		(uuid "65df8be0-625e-4234-a8d9-472dc7ed17f0")
	)
	(fp_line
		(start -8.6 4.05)
		(end -8.6 2.6)
		(stroke
			(width 0.12)
			(type solid)
		)
		(layer "F.SilkS")
		(uuid "70026e7d-86f1-4311-9de8-9de1de550f9c")
	)
	(fp_line
		(start 9.15 -2.6)
		(end 8.6 -2.6)
		(stroke
			(width 0.12)
			(type solid)
		)
		(layer "F.SilkS")
		(uuid "7cd9cff8-eeb8-4b1c-a7c6-b3673bf0e40b")
	)
	(fp_line
		(start 9.15 -2.6)
		(end 9.15 2.6)
		(stroke
			(width 0.12)
			(type solid)
		)
		(layer "F.SilkS")
		(uuid "c852277b-6bd7-4446-b737-d125c0b8828d")
	)
	(fp_line
		(start 9.15 2.6)
		(end 8.6 2.6)
		(stroke
			(width 0.12)
			(type solid)
		)
		(layer "F.SilkS")
		(uuid "d93fa1b2-7318-4621-b478-6c34f5022977")
	)
	(fp_rect
		(start -9.65 -4.6)
		(end 9.65 4.6)
		(stroke
			(width 0.01)
			(type solid)
		)
		(fill none)
		(layer "F.CrtYd")
		(uuid "2bd5cb2a-3ea9-4114-adb1-eeb62a73d4ce")
	)
	(fp_line
		(start -8.15 2.6)
		(end -9.15 1.6)
		(stroke
			(width 0.1)
			(type solid)
		)
		(layer "F.Fab")
		(uuid "1871d93c-ea5e-4832-9754-cdc1d6f3e61a")
	)
	(fp_rect
		(start -9.15 -2.6)
		(end 9.15 2.6)
		(stroke
			(width 0.1)
			(type solid)
		)
		(fill none)
		(layer "F.Fab")
		(uuid "7090ffe7-7d2d-4cba-9861-065f748a627b")
	)
	(fp_text user "${REFERENCE}"
		(at -10.1 0 90)
		(layer "F.SilkS")
		(uuid "47412a79-d0aa-4108-8b16-50d9f3c450e4")
		(effects
			(font
				(size 1.5 1.5)
				(thickness 0.15)
			)
		)
	)
	(pad "1" smd circle
		(at -7.62 2.5)
		(size 1.3 1.3)
		(layers "F.Cu" "F.Paste" "F.Mask")
		(uuid "6fe3ba1a-9aa2-4da1-aca2-9893db8b0f03")
	)
	(pad "2" smd rect
		(at -7.62 -2.5)
		(size 1.3 3.2)
		(layers "F.Cu" "F.Paste" "F.Mask")
		(uuid "2231ccb6-1d71-4787-8d7a-e7b4cc2e3e48")
	)
	(pad "3" smd rect
		(at -5.08 2.5)
		(size 1.3 3.2)
		(layers "F.Cu" "F.Paste" "F.Mask")
		(uuid "8f2490d3-7aec-4247-a980-14b510e43fa7")
	)
	(pad "4" smd rect
		(at -5.08 -2.5)
		(size 1.3 3.2)
		(layers "F.Cu" "F.Paste" "F.Mask")
		(uuid "de773f1a-daeb-4360-b45c-adfd5b2aa43a")
	)
	(pad "5" smd rect
		(at -2.54 2.5)
		(size 1.3 3.2)
		(layers "F.Cu" "F.Paste" "F.Mask")
		(uuid "3c0ca920-74be-4352-87df-6290645e1073")
	)
	(pad "6" smd rect
		(at -2.54 -2.5)
		(size 1.3 3.2)
		(layers "F.Cu" "F.Paste" "F.Mask")
		(uuid "614a77e5-9aec-4bd0-bafc-01057c468e98")
	)
	(pad "7" smd rect
		(at 0 2.5)
		(size 1.3 3.2)
		(layers "F.Cu" "F.Paste" "F.Mask")
		(uuid "cff4be7e-b07c-4144-8039-93a29ad6e06c")
	)
	(pad "8" smd rect
		(at 0 -2.5)
		(size 1.3 3.2)
		(layers "F.Cu" "F.Paste" "F.Mask")
		(uuid "b84d9f66-e4df-4a7b-aa04-c18f51bf2b6d")
	)
	(pad "9" smd rect
		(at 2.54 2.5)
		(size 1.3 3.2)
		(layers "F.Cu" "F.Paste" "F.Mask")
		(uuid "6e3fc504-bc76-4cdd-9803-4a50bcfc0a38")
	)
	(pad "10" smd rect
		(at 2.54 -2.5)
		(size 1.3 3.2)
		(layers "F.Cu" "F.Paste" "F.Mask")
		(uuid "18e0a7e4-ee50-4fa4-ba99-40e451eab591")
	)
	(pad "11" smd rect
		(at 5.08 2.5)
		(size 1.3 3.2)
		(layers "F.Cu" "F.Paste" "F.Mask")
		(uuid "55b00f47-f2f6-46d2-b8a1-2622d5bc5d0b")
	)
	(pad "12" smd rect
		(at 5.08 -2.5)
		(size 1.3 3.2)
		(layers "F.Cu" "F.Paste" "F.Mask")
		(uuid "0b003630-91b1-4899-8598-128f042a6a0d")
	)
	(pad "13" smd rect
		(at 7.62 2.5)
		(size 1.3 3.2)
		(layers "F.Cu" "F.Paste" "F.Mask")
		(uuid "d095b12c-8a81-4357-b940-46903f949eea")
	)
	(pad "14" smd rect
		(at 7.62 -2.5)
		(size 1.3 3.2)
		(layers "F.Cu" "F.Paste" "F.Mask")
		(uuid "fab7cb3a-aac9-4996-8099-9a7f2eba60a5")
	)
)
