(footprint "M-2x3"
	(version 20240108)
	(generator "pcbnew")
	(generator_version "8.0")
	(layer "F.Cu")
	(descr "Dual Pin Header, 3x2 pins, 2.54mm Pitch")
	(property "Reference" "HEADER-M-3X2"
		(at 0 0 0)
		(layer "F.Fab")
		(uuid "408f6aed-8284-46a4-b69e-bcb6e5cd6644")
		(effects
			(font
				(size 1.2 1.2)
				(thickness 0.12)
			)
		)
	)
	(property "Value" "HEADER-M-3X2"
		(at 0 0 0)
		(layer "F.Fab")
		(hide yes)
		(uuid "5e2a0256-71d1-4d22-b6ed-fddd79688abc")
		(effects
			(font
				(size 1.2 1.2)
				(thickness 0.12)
			)
		)
	)
	(property "Footprint" ""
		(at 0 0 0)
		(layer "F.Fab")
		(hide yes)
		(uuid "eeebbf4b-15dd-4453-b7a3-0bd899151c77")
		(effects
			(font
				(size 1.27 1.27)
				(thickness 0.15)
			)
		)
	)
	(property "Datasheet" ""
		(at 0 0 0)
		(layer "F.Fab")
		(hide yes)
		(uuid "745a6077-4d4d-4231-a513-bba8f2fee623")
		(effects
			(font
				(size 1.27 1.27)
				(thickness 0.15)
			)
		)
	)
	(property "Description" ""
		(at 0 0 0)
		(layer "F.Fab")
		(hide yes)
		(uuid "1dc2a4f6-cfe9-45f2-b6c1-896bd9c020f6")
		(effects
			(font
				(size 1.27 1.27)
				(thickness 0.15)
			)
		)
	)
	(attr through_hole)
	(fp_line
		(start -4.05 -2.6)
		(end 4.05 -2.6)
		(stroke
			(width 0.12)
			(type solid)
		)
		(layer "F.SilkS")
		(uuid "c48f8f8b-dea5-42ed-9c48-65902ab45e1d")
	)
	(fp_line
		(start -4.05 2.6)
		(end -4.05 -2.6)
		(stroke
			(width 0.12)
			(type solid)
		)
		(layer "F.SilkS")
		(uuid "a5d7923f-377f-4139-a3ba-4bc72fdb65c4")
	)
	(fp_line
		(start -3.15 2.6)
		(end -4.05 2.6)
		(stroke
			(width 0.12)
			(type solid)
		)
		(layer "F.SilkS")
		(uuid "869c1841-2d5f-48fa-a008-3c1b418aa7d4")
	)
	(fp_line
		(start -3.15 3.8)
		(end -1.95 3.8)
		(stroke
			(width 0.12)
			(type solid)
		)
		(layer "F.SilkS")
		(uuid "5367a8a1-6bfc-4d38-99b7-7e1443d9917d")
	)
	(fp_line
		(start -2.55 2.6)
		(end -3.15 3.8)
		(stroke
			(width 0.12)
			(type solid)
		)
		(layer "F.SilkS")
		(uuid "d1f279f0-cd35-488a-ab9e-87f6718413a5")
	)
	(fp_line
		(start -1.95 2.6)
		(end 4.05 2.6)
		(stroke
			(width 0.12)
			(type solid)
		)
		(layer "F.SilkS")
		(uuid "a07d59ab-882a-48ed-9304-9d8ec7e7703a")
	)
	(fp_line
		(start -1.95 3.8)
		(end -2.55 2.6)
		(stroke
			(width 0.12)
			(type solid)
		)
		(layer "F.SilkS")
		(uuid "706e6331-c61c-459c-abfe-2905a61e0ba7")
	)
	(fp_line
		(start 4.05 -2.6)
		(end 4.05 2.6)
		(stroke
			(width 0.12)
			(type solid)
		)
		(layer "F.SilkS")
		(uuid "b2e1c380-c5cd-434c-bed4-20803be85c58")
	)
	(fp_rect
		(start -4.55 -3.1)
		(end 4.55 3.1)
		(stroke
			(width 0.01)
			(type solid)
		)
		(fill none)
		(layer "F.CrtYd")
		(uuid "b2c33410-a007-4c8c-98a5-fb9235cd1a3c")
	)
	(fp_line
		(start -3.05 2.6)
		(end -4.05 1.6)
		(stroke
			(width 0.1)
			(type solid)
		)
		(layer "F.Fab")
		(uuid "24a379b8-2e5f-4a4e-a693-c44fde2d22ad")
	)
	(fp_rect
		(start -4.05 -2.6)
		(end 4.05 2.6)
		(stroke
			(width 0.1)
			(type solid)
		)
		(fill none)
		(layer "F.Fab")
		(uuid "067cb3b0-9d6e-4842-8843-018045d0b1e0")
	)
	(fp_text user "${REFERENCE}"
		(at 0 -3.55 0)
		(layer "F.SilkS")
		(uuid "368c92d0-82f4-4607-b462-e373a73f9900")
		(effects
			(font
				(size 1.5 1.5)
				(thickness 0.15)
			)
		)
	)
	(pad "1" thru_hole circle
		(at -2.54 1.27)
		(size 1.6 1.6)
		(drill 1)
		(layers "*.Cu" "*.Mask")
		(remove_unused_layers no)
		(uuid "f8dab8fb-94fa-4962-8fa2-0861daa172f0")
	)
	(pad "2" thru_hole circle
		(at -2.54 -1.27)
		(size 1.6 1.6)
		(drill 1)
		(layers "*.Cu" "*.Mask")
		(remove_unused_layers no)
		(uuid "f9bd4cd9-d070-4383-b45a-219c8c927a38")
	)
	(pad "3" thru_hole circle
		(at 0 1.27)
		(size 1.6 1.6)
		(drill 1)
		(layers "*.Cu" "*.Mask")
		(remove_unused_layers no)
		(uuid "d20ab7c5-5b37-4788-9673-966e846f5a05")
	)
	(pad "4" thru_hole circle
		(at 0 -1.27)
		(size 1.6 1.6)
		(drill 1)
		(layers "*.Cu" "*.Mask")
		(remove_unused_layers no)
		(uuid "1ba6cbeb-22ff-4f76-b592-80e1dfe4d6b3")
	)
	(pad "5" thru_hole circle
		(at 2.54 1.27)
		(size 1.6 1.6)
		(drill 1)
		(layers "*.Cu" "*.Mask")
		(remove_unused_layers no)
		(uuid "c9e2a438-fcc0-464c-9aa7-113fdffbaa47")
	)
	(pad "6" thru_hole circle
		(at 2.54 -1.27)
		(size 1.6 1.6)
		(drill 1)
		(layers "*.Cu" "*.Mask")
		(remove_unused_layers no)
		(uuid "cca60c45-5f7a-4a24-b456-3b492935688a")
	)
)
