(footprint "M-2x15-SMD"
	(version 20240108)
	(generator "pcbnew")
	(generator_version "8.0")
	(layer "F.Cu")
	(descr "SMD Dual Pin Header, 15x2 pins, 2.54mm Pitch")
	(property "Reference" "HEADER-M-15X2-SMD"
		(at 0 0 0)
		(layer "F.Fab")
		(uuid "8427e8da-bc41-4b06-af81-53a148655352")
		(effects
			(font
				(size 1.2 1.2)
				(thickness 0.12)
			)
		)
	)
	(property "Value" "HEADER-M-15X2-SMD"
		(at 0 0 0)
		(layer "F.Fab")
		(hide yes)
		(uuid "3218a7dc-8b15-4b8a-84b2-caa23efb5aa9")
		(effects
			(font
				(size 1.2 1.2)
				(thickness 0.12)
			)
		)
	)
	(property "Footprint" ""
		(at 0 0 0)
		(layer "F.Fab")
		(hide yes)
		(uuid "344875b3-e8e7-4615-aa6b-7beea791fb5a")
		(effects
			(font
				(size 1.27 1.27)
				(thickness 0.15)
			)
		)
	)
	(property "Datasheet" ""
		(at 0 0 0)
		(layer "F.Fab")
		(hide yes)
		(uuid "9a6c6379-003c-4a90-9311-4f92b5b62ab8")
		(effects
			(font
				(size 1.27 1.27)
				(thickness 0.15)
			)
		)
	)
	(property "Description" ""
		(at 0 0 0)
		(layer "F.Fab")
		(hide yes)
		(uuid "cfd73788-5d8c-4e27-83fc-80b9aaeb04b5")
		(effects
			(font
				(size 1.27 1.27)
				(thickness 0.15)
			)
		)
	)
	(attr through_hole)
	(fp_line
		(start -19.3 -2.6)
		(end -18.75 -2.6)
		(stroke
			(width 0.12)
			(type solid)
		)
		(layer "F.SilkS")
		(uuid "1c84e3b9-ceb4-4466-91d6-1e24dc19f442")
	)
	(fp_line
		(start -19.3 2.6)
		(end -19.3 -2.6)
		(stroke
			(width 0.12)
			(type solid)
		)
		(layer "F.SilkS")
		(uuid "c92351f0-b5df-4191-92ce-2f13eddb2fe5")
	)
	(fp_line
		(start -19.3 2.6)
		(end -18.75 2.6)
		(stroke
			(width 0.12)
			(type solid)
		)
		(layer "F.SilkS")
		(uuid "2a6134c1-52e7-4eb4-91e1-806f4571c44f")
	)
	(fp_line
		(start -18.75 4.05)
		(end -18.75 2.6)
		(stroke
			(width 0.12)
			(type solid)
		)
		(layer "F.SilkS")
		(uuid "4f3ed36b-fcd2-4ab5-92c4-09ae3e3fc749")
	)
	(fp_line
		(start 19.3 -2.6)
		(end 18.75 -2.6)
		(stroke
			(width 0.12)
			(type solid)
		)
		(layer "F.SilkS")
		(uuid "ff46b78a-ce72-4f25-b03d-ca56d460c665")
	)
	(fp_line
		(start 19.3 -2.6)
		(end 19.3 2.6)
		(stroke
			(width 0.12)
			(type solid)
		)
		(layer "F.SilkS")
		(uuid "a97dcae2-d6e5-4c3e-8e4c-51c23312e577")
	)
	(fp_line
		(start 19.3 2.6)
		(end 18.75 2.6)
		(stroke
			(width 0.12)
			(type solid)
		)
		(layer "F.SilkS")
		(uuid "543220cb-bba1-4649-a548-324aa8069dc4")
	)
	(fp_rect
		(start -20 -4.6)
		(end 19.8 4.6)
		(stroke
			(width 0.01)
			(type solid)
		)
		(fill none)
		(layer "F.CrtYd")
		(uuid "453552cc-2190-4104-bb51-157e609fc29c")
	)
	(fp_line
		(start -18.3 2.6)
		(end -19.3 1.6)
		(stroke
			(width 0.1)
			(type solid)
		)
		(layer "F.Fab")
		(uuid "7a8e4e65-987f-401f-8b0e-60719b36270e")
	)
	(fp_rect
		(start -19.3 -2.6)
		(end 19.3 2.6)
		(stroke
			(width 0.1)
			(type solid)
		)
		(fill none)
		(layer "F.Fab")
		(uuid "ce0b96f6-2b70-4aa9-aaa4-1bb3da347212")
	)
	(fp_text user "${REFERENCE}"
		(at -20.25 0 90)
		(layer "F.SilkS")
		(uuid "19c53ed6-57fe-462b-ad09-309bae63e42f")
		(effects
			(font
				(size 1.5 1.5)
				(thickness 0.15)
			)
		)
	)
	(pad "1" smd rect
		(at -17.78 2.5)
		(size 1.3 3.2)
		(layers "F.Cu" "F.Paste" "F.Mask")
		(uuid "d3878d64-bad0-4b4d-ab2b-a9d54211042d")
	)
	(pad "2" smd rect
		(at -17.78 -2.5)
		(size 1.3 3.2)
		(layers "F.Cu" "F.Paste" "F.Mask")
		(uuid "f9bbc4b0-08f9-40e2-baf9-89ade482ae9b")
	)
	(pad "3" smd rect
		(at -15.24 2.5)
		(size 1.3 3.2)
		(layers "F.Cu" "F.Paste" "F.Mask")
		(uuid "709181ce-15de-463c-a024-1c5ca8ae110b")
	)
	(pad "4" smd rect
		(at -15.24 -2.5)
		(size 1.3 3.2)
		(layers "F.Cu" "F.Paste" "F.Mask")
		(uuid "db37256b-6a7e-43cb-a3dd-cbcb574fab8b")
	)
	(pad "5" smd rect
		(at -12.7 2.5)
		(size 1.3 3.2)
		(layers "F.Cu" "F.Paste" "F.Mask")
		(uuid "54679289-ee4e-4186-b0bf-7d201e7ba1f2")
	)
	(pad "6" smd rect
		(at -12.7 -2.5)
		(size 1.3 3.2)
		(layers "F.Cu" "F.Paste" "F.Mask")
		(uuid "23267cee-d589-42e4-a655-d3b2f851fd08")
	)
	(pad "7" smd rect
		(at -10.16 2.5)
		(size 1.3 3.2)
		(layers "F.Cu" "F.Paste" "F.Mask")
		(uuid "555ab7ca-0b19-4040-9f21-f2a23a0b60e0")
	)
	(pad "8" smd rect
		(at -10.16 -2.5)
		(size 1.3 3.2)
		(layers "F.Cu" "F.Paste" "F.Mask")
		(uuid "9aefd598-4f74-4af9-98dc-3050e031ac14")
	)
	(pad "9" smd rect
		(at -7.62 2.5)
		(size 1.3 3.2)
		(layers "F.Cu" "F.Paste" "F.Mask")
		(uuid "a28940cc-b5ca-4364-81fe-c02ab326c82b")
	)
	(pad "10" smd rect
		(at -7.62 -2.5)
		(size 1.3 3.2)
		(layers "F.Cu" "F.Paste" "F.Mask")
		(uuid "b7677aa4-2ac2-4e5e-a2b0-8bfd2f133310")
	)
	(pad "11" smd rect
		(at -5.08 2.5)
		(size 1.3 3.2)
		(layers "F.Cu" "F.Paste" "F.Mask")
		(uuid "b619399e-285c-4912-b9f6-c7c90d241ea9")
	)
	(pad "12" smd rect
		(at -5.08 -2.5)
		(size 1.3 3.2)
		(layers "F.Cu" "F.Paste" "F.Mask")
		(uuid "d52bf4bb-85b2-43b2-b381-325065d05301")
	)
	(pad "13" smd rect
		(at -2.54 2.5)
		(size 1.3 3.2)
		(layers "F.Cu" "F.Paste" "F.Mask")
		(uuid "f26c658d-50d8-4a81-94e7-fa3ffcbef03b")
	)
	(pad "14" smd rect
		(at -2.54 -2.5)
		(size 1.3 3.2)
		(layers "F.Cu" "F.Paste" "F.Mask")
		(uuid "4119ef2e-d30f-4b2c-9a66-70a8b5e3551e")
	)
	(pad "15" smd rect
		(at 0 2.5)
		(size 1.3 3.2)
		(layers "F.Cu" "F.Paste" "F.Mask")
		(uuid "7eae0a50-9f16-45f8-ac6a-e7ab384b593c")
	)
	(pad "16" smd rect
		(at 0 -2.5)
		(size 1.3 3.2)
		(layers "F.Cu" "F.Paste" "F.Mask")
		(uuid "b7298ab3-03ae-4a92-ad9d-db1eb971fcc3")
	)
	(pad "17" smd rect
		(at 2.54 2.5)
		(size 1.3 3.2)
		(layers "F.Cu" "F.Paste" "F.Mask")
		(uuid "c5863ca5-81f9-4c5a-a638-16e1bed5f0f1")
	)
	(pad "18" smd rect
		(at 2.54 -2.5)
		(size 1.3 3.2)
		(layers "F.Cu" "F.Paste" "F.Mask")
		(uuid "d354892a-d546-4776-b4da-c8cdd900611f")
	)
	(pad "19" smd rect
		(at 5.08 2.5)
		(size 1.3 3.2)
		(layers "F.Cu" "F.Paste" "F.Mask")
		(uuid "a45f081c-d3f0-4015-894a-249623e89a57")
	)
	(pad "20" smd rect
		(at 5.08 -2.5)
		(size 1.3 3.2)
		(layers "F.Cu" "F.Paste" "F.Mask")
		(uuid "0b5a7097-0b02-4293-8f65-fc7924cc7f0d")
	)
	(pad "21" smd rect
		(at 7.62 2.5)
		(size 1.3 3.2)
		(layers "F.Cu" "F.Paste" "F.Mask")
		(uuid "4a8aea3e-8740-461c-b45c-d04f466dc1dc")
	)
	(pad "22" smd rect
		(at 7.62 -2.5)
		(size 1.3 3.2)
		(layers "F.Cu" "F.Paste" "F.Mask")
		(uuid "5c0cce45-6dd6-40b0-a9fc-17a536d1d795")
	)
	(pad "23" smd rect
		(at 10.16 2.5)
		(size 1.3 3.2)
		(layers "F.Cu" "F.Paste" "F.Mask")
		(uuid "860ee784-af06-41bc-818f-0211f55b10d7")
	)
	(pad "24" smd rect
		(at 10.16 -2.5)
		(size 1.3 3.2)
		(layers "F.Cu" "F.Paste" "F.Mask")
		(uuid "3498c765-cf24-425a-a58e-aec0f9ae2e97")
	)
	(pad "25" smd rect
		(at 12.7 2.5)
		(size 1.3 3.2)
		(layers "F.Cu" "F.Paste" "F.Mask")
		(uuid "84340b4c-96fe-4b64-b8dc-3e2d92b125ae")
	)
	(pad "26" smd rect
		(at 12.7 -2.5)
		(size 1.3 3.2)
		(layers "F.Cu" "F.Paste" "F.Mask")
		(uuid "ad47f39d-d5e9-46bc-9410-9b5a26a41e2e")
	)
	(pad "27" smd rect
		(at 15.24 2.5)
		(size 1.3 3.2)
		(layers "F.Cu" "F.Paste" "F.Mask")
		(uuid "99fee490-3f07-4501-af48-98b7cdd9fb17")
	)
	(pad "28" smd rect
		(at 15.24 -2.5)
		(size 1.3 3.2)
		(layers "F.Cu" "F.Paste" "F.Mask")
		(uuid "895e882d-45e4-4314-ad0a-d311411e6b58")
	)
	(pad "29" smd rect
		(at 17.78 2.5)
		(size 1.3 3.2)
		(layers "F.Cu" "F.Paste" "F.Mask")
		(uuid "24ee2e79-a4f0-4824-9970-e2a3528d2487")
	)
	(pad "30" smd rect
		(at 17.78 -2.5)
		(size 1.3 3.2)
		(layers "F.Cu" "F.Paste" "F.Mask")
		(uuid "7fd97f16-0d30-4b91-96ef-97fb3a0af6be")
	)
)
