(footprint "M-2x21"
	(version 20240108)
	(generator "pcbnew")
	(generator_version "8.0")
	(layer "F.Cu")
	(descr "Dual Pin Header, 21x2 pins, 2.54mm Pitch")
	(property "Reference" "HEADER-M-21X2"
		(at 0 0 0)
		(layer "F.Fab")
		(uuid "dff255a4-331f-4a8f-833f-b6b2236a1099")
		(effects
			(font
				(size 1.2 1.2)
				(thickness 0.12)
			)
		)
	)
	(property "Value" "HEADER-M-21X2"
		(at 0 0 0)
		(layer "F.Fab")
		(hide yes)
		(uuid "a54277a2-0aa5-4a0d-bcb7-0ab1d7d8b3ba")
		(effects
			(font
				(size 1.2 1.2)
				(thickness 0.12)
			)
		)
	)
	(property "Footprint" ""
		(at 0 0 0)
		(layer "F.Fab")
		(hide yes)
		(uuid "428e31b0-497e-4651-b927-b0325474a74d")
		(effects
			(font
				(size 1.27 1.27)
				(thickness 0.15)
			)
		)
	)
	(property "Datasheet" ""
		(at 0 0 0)
		(layer "F.Fab")
		(hide yes)
		(uuid "5936a992-9206-41ba-b193-2db32724d50d")
		(effects
			(font
				(size 1.27 1.27)
				(thickness 0.15)
			)
		)
	)
	(property "Description" ""
		(at 0 0 0)
		(layer "F.Fab")
		(hide yes)
		(uuid "e0f111b5-625f-435b-8e35-77d3747e1b34")
		(effects
			(font
				(size 1.27 1.27)
				(thickness 0.15)
			)
		)
	)
	(attr through_hole)
	(fp_line
		(start -26.9 -2.6)
		(end 26.9 -2.6)
		(stroke
			(width 0.12)
			(type solid)
		)
		(layer "F.SilkS")
		(uuid "d658c39d-8cd4-4660-823a-f8c0573ddbe0")
	)
	(fp_line
		(start -26.9 2.6)
		(end -26.9 -2.6)
		(stroke
			(width 0.12)
			(type solid)
		)
		(layer "F.SilkS")
		(uuid "d85211b5-c5f7-4be2-a2c3-e0cc2d6b44d6")
	)
	(fp_line
		(start -26 2.6)
		(end -26.9 2.6)
		(stroke
			(width 0.12)
			(type solid)
		)
		(layer "F.SilkS")
		(uuid "ec83ee77-3278-4548-bd6d-8cb2cb411957")
	)
	(fp_line
		(start -26 3.8)
		(end -24.8 3.8)
		(stroke
			(width 0.12)
			(type solid)
		)
		(layer "F.SilkS")
		(uuid "57f8ca0f-c497-4947-bc83-a8d1010059a6")
	)
	(fp_line
		(start -25.4 2.6)
		(end -26 3.8)
		(stroke
			(width 0.12)
			(type solid)
		)
		(layer "F.SilkS")
		(uuid "00e88065-f63b-45e0-8a66-f0a0453f0f83")
	)
	(fp_line
		(start -24.8 2.6)
		(end 26.9 2.6)
		(stroke
			(width 0.12)
			(type solid)
		)
		(layer "F.SilkS")
		(uuid "ffddaa17-981b-48b2-b67d-6b6cb45cf439")
	)
	(fp_line
		(start -24.8 3.8)
		(end -25.4 2.6)
		(stroke
			(width 0.12)
			(type solid)
		)
		(layer "F.SilkS")
		(uuid "e5fc7d1d-7fa0-44d7-b61c-63d7d06a5121")
	)
	(fp_line
		(start 26.9 -2.6)
		(end 26.9 2.6)
		(stroke
			(width 0.12)
			(type solid)
		)
		(layer "F.SilkS")
		(uuid "e3769e0d-f5a2-4f58-86ff-ffb919179652")
	)
	(fp_rect
		(start -27.4 -3.1)
		(end 27.4 3.1)
		(stroke
			(width 0.01)
			(type solid)
		)
		(fill none)
		(layer "F.CrtYd")
		(uuid "0aede5b4-3a39-42f9-9761-b4fbaeb411d5")
	)
	(fp_line
		(start -25.9 2.6)
		(end -26.9 1.6)
		(stroke
			(width 0.1)
			(type solid)
		)
		(layer "F.Fab")
		(uuid "003c1196-0544-4893-967a-4a6f42285397")
	)
	(fp_rect
		(start -26.9 -2.6)
		(end 26.9 2.6)
		(stroke
			(width 0.1)
			(type solid)
		)
		(fill none)
		(layer "F.Fab")
		(uuid "b046ee02-c6f9-47c4-99f4-0f56bcbb7810")
	)
	(fp_text user "${REFERENCE}"
		(at 0 -3.6 0)
		(layer "F.SilkS")
		(uuid "c1122949-15b2-4005-a705-516260f6b725")
		(effects
			(font
				(size 1.5 1.5)
				(thickness 0.15)
			)
		)
	)
	(pad "1" thru_hole circle
		(at -25.4 1.27)
		(size 1.6 1.6)
		(drill 1)
		(layers "*.Cu" "*.Mask")
		(remove_unused_layers no)
		(uuid "56cb3317-3954-4b30-9845-2ce0401267a0")
	)
	(pad "2" thru_hole circle
		(at -25.4 -1.27)
		(size 1.6 1.6)
		(drill 1)
		(layers "*.Cu" "*.Mask")
		(remove_unused_layers no)
		(uuid "bcdcfabe-1c10-4ece-a4c6-b027885b371e")
	)
	(pad "3" thru_hole circle
		(at -22.86 1.27)
		(size 1.6 1.6)
		(drill 1)
		(layers "*.Cu" "*.Mask")
		(remove_unused_layers no)
		(uuid "003908aa-bfca-42c5-9466-e07a8b38def0")
	)
	(pad "4" thru_hole circle
		(at -22.86 -1.27)
		(size 1.6 1.6)
		(drill 1)
		(layers "*.Cu" "*.Mask")
		(remove_unused_layers no)
		(uuid "e6395d0b-59b5-42f2-acc9-ab121eccf71a")
	)
	(pad "5" thru_hole circle
		(at -20.32 1.27)
		(size 1.6 1.6)
		(drill 1)
		(layers "*.Cu" "*.Mask")
		(remove_unused_layers no)
		(uuid "997e5719-a4bb-4d8c-a22e-7c9e84a0d988")
	)
	(pad "6" thru_hole circle
		(at -20.32 -1.27)
		(size 1.6 1.6)
		(drill 1)
		(layers "*.Cu" "*.Mask")
		(remove_unused_layers no)
		(uuid "f2b37814-bc18-4665-b33c-23a0449b30fd")
	)
	(pad "7" thru_hole circle
		(at -17.78 1.27)
		(size 1.6 1.6)
		(drill 1)
		(layers "*.Cu" "*.Mask")
		(remove_unused_layers no)
		(uuid "3c81812d-2489-452d-b98c-bd1ee9c1b8de")
	)
	(pad "8" thru_hole circle
		(at -17.78 -1.27)
		(size 1.6 1.6)
		(drill 1)
		(layers "*.Cu" "*.Mask")
		(remove_unused_layers no)
		(uuid "492a6d96-902c-42fc-8975-5641dcb58968")
	)
	(pad "9" thru_hole circle
		(at -15.24 1.27)
		(size 1.6 1.6)
		(drill 1)
		(layers "*.Cu" "*.Mask")
		(remove_unused_layers no)
		(uuid "da9ea8af-f5bf-4955-893e-765810bdf2d9")
	)
	(pad "10" thru_hole circle
		(at -15.24 -1.27)
		(size 1.6 1.6)
		(drill 1)
		(layers "*.Cu" "*.Mask")
		(remove_unused_layers no)
		(uuid "8f905b0f-a7c1-409c-89e6-b632757a0307")
	)
	(pad "11" thru_hole circle
		(at -12.7 1.27)
		(size 1.6 1.6)
		(drill 1)
		(layers "*.Cu" "*.Mask")
		(remove_unused_layers no)
		(uuid "22edf65f-4732-49ac-8a86-64d177413a4c")
	)
	(pad "12" thru_hole circle
		(at -12.7 -1.27)
		(size 1.6 1.6)
		(drill 1)
		(layers "*.Cu" "*.Mask")
		(remove_unused_layers no)
		(uuid "f46ad11a-0ed6-44d4-86b1-75c143360239")
	)
	(pad "13" thru_hole circle
		(at -10.16 1.27)
		(size 1.6 1.6)
		(drill 1)
		(layers "*.Cu" "*.Mask")
		(remove_unused_layers no)
		(uuid "3b98076d-f2c7-45df-ba05-b6417f5377ea")
	)
	(pad "14" thru_hole circle
		(at -10.16 -1.27)
		(size 1.6 1.6)
		(drill 1)
		(layers "*.Cu" "*.Mask")
		(remove_unused_layers no)
		(uuid "64c94b49-f04d-4b0b-a1b7-0a88ba7c4bb4")
	)
	(pad "15" thru_hole circle
		(at -7.62 1.27)
		(size 1.6 1.6)
		(drill 1)
		(layers "*.Cu" "*.Mask")
		(remove_unused_layers no)
		(uuid "3aeb0d7b-afb7-49ef-b4c8-18d88ded02ec")
	)
	(pad "16" thru_hole circle
		(at -7.62 -1.27)
		(size 1.6 1.6)
		(drill 1)
		(layers "*.Cu" "*.Mask")
		(remove_unused_layers no)
		(uuid "71292559-5988-4e61-aa7e-45e021513da2")
	)
	(pad "17" thru_hole circle
		(at -5.08 1.27)
		(size 1.6 1.6)
		(drill 1)
		(layers "*.Cu" "*.Mask")
		(remove_unused_layers no)
		(uuid "5e129ab4-71cf-4f26-8a14-c198e2aba952")
	)
	(pad "18" thru_hole circle
		(at -5.08 -1.27)
		(size 1.6 1.6)
		(drill 1)
		(layers "*.Cu" "*.Mask")
		(remove_unused_layers no)
		(uuid "6e11ae58-846f-4ba5-bbde-3dc0e32c667e")
	)
	(pad "19" thru_hole circle
		(at -2.54 1.27)
		(size 1.6 1.6)
		(drill 1)
		(layers "*.Cu" "*.Mask")
		(remove_unused_layers no)
		(uuid "891364bd-2ec4-460f-b5f4-5683c49261e8")
	)
	(pad "20" thru_hole circle
		(at -2.54 -1.27)
		(size 1.6 1.6)
		(drill 1)
		(layers "*.Cu" "*.Mask")
		(remove_unused_layers no)
		(uuid "3cc4c85a-0224-4d61-816d-418f2eb7be79")
	)
	(pad "21" thru_hole circle
		(at 0 1.27)
		(size 1.6 1.6)
		(drill 1)
		(layers "*.Cu" "*.Mask")
		(remove_unused_layers no)
		(uuid "2a632657-738d-4fb8-84a2-b8634ab08fc1")
	)
	(pad "22" thru_hole circle
		(at 0 -1.27)
		(size 1.6 1.6)
		(drill 1)
		(layers "*.Cu" "*.Mask")
		(remove_unused_layers no)
		(uuid "4b4a4ead-2886-4c57-a7f4-36428e6fda5f")
	)
	(pad "23" thru_hole circle
		(at 2.54 1.27)
		(size 1.6 1.6)
		(drill 1)
		(layers "*.Cu" "*.Mask")
		(remove_unused_layers no)
		(uuid "bad53f2e-71e7-4bf8-83bf-da0419868159")
	)
	(pad "24" thru_hole circle
		(at 2.54 -1.27)
		(size 1.6 1.6)
		(drill 1)
		(layers "*.Cu" "*.Mask")
		(remove_unused_layers no)
		(uuid "b68e2736-75d0-4377-bbe7-979504e9c45c")
	)
	(pad "25" thru_hole circle
		(at 5.08 1.27)
		(size 1.6 1.6)
		(drill 1)
		(layers "*.Cu" "*.Mask")
		(remove_unused_layers no)
		(uuid "742bc3e3-a9f4-43c3-804e-5a610ac27c22")
	)
	(pad "26" thru_hole circle
		(at 5.08 -1.27)
		(size 1.6 1.6)
		(drill 1)
		(layers "*.Cu" "*.Mask")
		(remove_unused_layers no)
		(uuid "ed50e1e8-0bd4-4568-8249-3c21d03eff74")
	)
	(pad "27" thru_hole circle
		(at 7.62 1.27)
		(size 1.6 1.6)
		(drill 1)
		(layers "*.Cu" "*.Mask")
		(remove_unused_layers no)
		(uuid "8a9b7144-bf04-459e-bc95-3f0147ea2a28")
	)
	(pad "28" thru_hole circle
		(at 7.62 -1.27)
		(size 1.6 1.6)
		(drill 1)
		(layers "*.Cu" "*.Mask")
		(remove_unused_layers no)
		(uuid "7f321d23-d8f0-462b-b350-e173f0f220ea")
	)
	(pad "29" thru_hole circle
		(at 10.16 1.27)
		(size 1.6 1.6)
		(drill 1)
		(layers "*.Cu" "*.Mask")
		(remove_unused_layers no)
		(uuid "cd081add-0247-4bbe-84d3-495a50c3a309")
	)
	(pad "30" thru_hole circle
		(at 10.16 -1.27)
		(size 1.6 1.6)
		(drill 1)
		(layers "*.Cu" "*.Mask")
		(remove_unused_layers no)
		(uuid "7e4c6129-8b69-4c8d-a061-1a3e307f0c0a")
	)
	(pad "31" thru_hole circle
		(at 12.7 1.27)
		(size 1.6 1.6)
		(drill 1)
		(layers "*.Cu" "*.Mask")
		(remove_unused_layers no)
		(uuid "07785cda-52c0-4530-829c-d85a845a2502")
	)
	(pad "32" thru_hole circle
		(at 12.7 -1.27)
		(size 1.6 1.6)
		(drill 1)
		(layers "*.Cu" "*.Mask")
		(remove_unused_layers no)
		(uuid "f26496fc-3ab2-4a06-8b67-1c89e64d969a")
	)
	(pad "33" thru_hole circle
		(at 15.24 1.27)
		(size 1.6 1.6)
		(drill 1)
		(layers "*.Cu" "*.Mask")
		(remove_unused_layers no)
		(uuid "8bc2221e-5b48-493b-8485-5be88de18ebc")
	)
	(pad "34" thru_hole circle
		(at 15.24 -1.27)
		(size 1.6 1.6)
		(drill 1)
		(layers "*.Cu" "*.Mask")
		(remove_unused_layers no)
		(uuid "08f96e5d-333b-497d-971f-4e2671156f76")
	)
	(pad "35" thru_hole circle
		(at 17.78 1.27)
		(size 1.6 1.6)
		(drill 1)
		(layers "*.Cu" "*.Mask")
		(remove_unused_layers no)
		(uuid "a26073da-06ab-4b39-93fe-b89ec91c0de2")
	)
	(pad "36" thru_hole circle
		(at 17.78 -1.27)
		(size 1.6 1.6)
		(drill 1)
		(layers "*.Cu" "*.Mask")
		(remove_unused_layers no)
		(uuid "3630fc47-9ae1-426c-8daf-609480eea765")
	)
	(pad "37" thru_hole circle
		(at 20.32 1.27)
		(size 1.6 1.6)
		(drill 1)
		(layers "*.Cu" "*.Mask")
		(remove_unused_layers no)
		(uuid "d0ab5296-3ab4-4e60-95a1-8565d600d324")
	)
	(pad "38" thru_hole circle
		(at 20.32 -1.27)
		(size 1.6 1.6)
		(drill 1)
		(layers "*.Cu" "*.Mask")
		(remove_unused_layers no)
		(uuid "25f3411a-7dea-4eb4-8a17-d14f016b8771")
	)
	(pad "39" thru_hole circle
		(at 22.86 1.27)
		(size 1.6 1.6)
		(drill 1)
		(layers "*.Cu" "*.Mask")
		(remove_unused_layers no)
		(uuid "06fb29db-8ceb-4aca-8fa3-c00d3008015e")
	)
	(pad "40" thru_hole circle
		(at 22.86 -1.27)
		(size 1.6 1.6)
		(drill 1)
		(layers "*.Cu" "*.Mask")
		(remove_unused_layers no)
		(uuid "3af77e5a-acbd-4ac6-80bb-6ae59f1cff5d")
	)
	(pad "41" thru_hole circle
		(at 25.4 1.27)
		(size 1.6 1.6)
		(drill 1)
		(layers "*.Cu" "*.Mask")
		(remove_unused_layers no)
		(uuid "240f47a4-503e-4200-9c10-bee885e24720")
	)
	(pad "42" thru_hole circle
		(at 25.4 -1.27)
		(size 1.6 1.6)
		(drill 1)
		(layers "*.Cu" "*.Mask")
		(remove_unused_layers no)
		(uuid "41b76e63-dfb9-4ee3-9e6b-56d94d7c9cff")
	)
)
