(footprint "M-36"
	(version 20240108)
	(generator "pcbnew")
	(generator_version "8.0")
	(layer "F.Cu")
	(descr "Pin Header, 36 pins, 2.54mm Pitch")
	(property "Reference" "HEADER-M-36"
		(at 0 0 0)
		(layer "F.Fab")
		(uuid "4b073792-f4c0-44cd-bd4e-0dbc5de1413d")
		(effects
			(font
				(size 1.2 1.2)
				(thickness 0.12)
			)
		)
	)
	(property "Value" "HEADER-M-36"
		(at 0 0 0)
		(layer "F.Fab")
		(hide yes)
		(uuid "1f7e9f28-2687-4ad3-99a6-e3e38cb7a69b")
		(effects
			(font
				(size 1.2 1.2)
				(thickness 0.12)
			)
		)
	)
	(property "Footprint" ""
		(at 0 0 0)
		(layer "F.Fab")
		(hide yes)
		(uuid "c7cef02d-51c1-4e68-9c4e-a73f763498c1")
		(effects
			(font
				(size 1.27 1.27)
				(thickness 0.15)
			)
		)
	)
	(property "Datasheet" ""
		(at 0 0 0)
		(layer "F.Fab")
		(hide yes)
		(uuid "321ff73d-4aab-49bd-ae97-e4bc66e371dd")
		(effects
			(font
				(size 1.27 1.27)
				(thickness 0.15)
			)
		)
	)
	(property "Description" ""
		(at 0 0 0)
		(layer "F.Fab")
		(hide yes)
		(uuid "7a07a0b5-8f5f-4b7a-bf5d-fbde741fc49c")
		(effects
			(font
				(size 1.27 1.27)
				(thickness 0.15)
			)
		)
	)
	(attr through_hole)
	(fp_line
		(start -45.95 -1.35)
		(end 45.95 -1.35)
		(stroke
			(width 0.12)
			(type solid)
		)
		(layer "F.SilkS")
		(uuid "ca3584cb-e1e5-4f2c-a2dc-18dba8aad869")
	)
	(fp_line
		(start -45.95 1.35)
		(end -45.95 -1.35)
		(stroke
			(width 0.12)
			(type solid)
		)
		(layer "F.SilkS")
		(uuid "00714512-a821-45d8-bb6e-0e77401a178d")
	)
	(fp_line
		(start -45.05 1.35)
		(end -45.95 1.35)
		(stroke
			(width 0.12)
			(type solid)
		)
		(layer "F.SilkS")
		(uuid "1765e6c3-5d8d-465c-bf8a-d755374ecd3a")
	)
	(fp_line
		(start -45.05 2.55)
		(end -43.85 2.55)
		(stroke
			(width 0.12)
			(type solid)
		)
		(layer "F.SilkS")
		(uuid "c39ea6b9-ff2e-4423-b527-4929ebb94bbe")
	)
	(fp_line
		(start -44.45 1.35)
		(end -45.05 2.55)
		(stroke
			(width 0.12)
			(type solid)
		)
		(layer "F.SilkS")
		(uuid "a6924b76-b4ca-43eb-9569-cf24ccc233e1")
	)
	(fp_line
		(start -43.85 1.35)
		(end 45.95 1.35)
		(stroke
			(width 0.12)
			(type solid)
		)
		(layer "F.SilkS")
		(uuid "f2590b80-91f0-4dc9-ba3f-654a56daa533")
	)
	(fp_line
		(start -43.85 2.55)
		(end -44.45 1.35)
		(stroke
			(width 0.12)
			(type solid)
		)
		(layer "F.SilkS")
		(uuid "c7992bad-3d15-4f05-a1da-2db7451245db")
	)
	(fp_line
		(start 45.95 -1.35)
		(end 45.95 1.35)
		(stroke
			(width 0.12)
			(type solid)
		)
		(layer "F.SilkS")
		(uuid "6e792d30-c3fd-429d-a4af-6bf965ed9bc8")
	)
	(fp_rect
		(start -46.45 -1.85)
		(end 46.45 1.85)
		(stroke
			(width 0.01)
			(type solid)
		)
		(fill none)
		(layer "F.CrtYd")
		(uuid "580a3944-9818-4844-ba82-9dc2dd021b44")
	)
	(fp_line
		(start -44.95 1.35)
		(end -45.95 0.35)
		(stroke
			(width 0.1)
			(type solid)
		)
		(layer "F.Fab")
		(uuid "c88f83ee-0b21-4c36-91c3-583a495cad52")
	)
	(fp_rect
		(start -45.95 -1.35)
		(end 45.95 1.35)
		(stroke
			(width 0.1)
			(type solid)
		)
		(fill none)
		(layer "F.Fab")
		(uuid "795b760e-fc86-4239-a55b-213c3b824f6b")
	)
	(fp_text user "${REFERENCE}"
		(at -46.9 0 90)
		(layer "F.SilkS")
		(uuid "ce93a543-dbb4-4fa2-a076-e1976d6dae62")
		(effects
			(font
				(size 1.5 1.5)
				(thickness 0.15)
			)
		)
	)
	(pad "1" thru_hole circle
		(at -44.45 0)
		(size 1.6 1.6)
		(drill 1)
		(layers "*.Cu" "*.Mask")
		(remove_unused_layers no)
		(uuid "6877709e-d053-4591-be96-261dbcde790d")
	)
	(pad "2" thru_hole circle
		(at -41.91 0)
		(size 1.6 1.6)
		(drill 1)
		(layers "*.Cu" "*.Mask")
		(remove_unused_layers no)
		(uuid "174aa7dc-1b72-4140-8161-dfa64bb9f9ee")
	)
	(pad "3" thru_hole circle
		(at -39.37 0)
		(size 1.6 1.6)
		(drill 1)
		(layers "*.Cu" "*.Mask")
		(remove_unused_layers no)
		(uuid "58f5d815-f6bd-42c0-b479-9fa7dc098607")
	)
	(pad "4" thru_hole circle
		(at -36.83 0)
		(size 1.6 1.6)
		(drill 1)
		(layers "*.Cu" "*.Mask")
		(remove_unused_layers no)
		(uuid "5d43dbda-3705-45b4-b4d4-5fd11904c293")
	)
	(pad "5" thru_hole circle
		(at -34.29 0)
		(size 1.6 1.6)
		(drill 1)
		(layers "*.Cu" "*.Mask")
		(remove_unused_layers no)
		(uuid "5614dfab-cdee-43bb-928b-c18bdd7140a3")
	)
	(pad "6" thru_hole circle
		(at -31.75 0)
		(size 1.6 1.6)
		(drill 1)
		(layers "*.Cu" "*.Mask")
		(remove_unused_layers no)
		(uuid "206a6933-5290-42fb-86eb-f52c7755b8fa")
	)
	(pad "7" thru_hole circle
		(at -29.21 0)
		(size 1.6 1.6)
		(drill 1)
		(layers "*.Cu" "*.Mask")
		(remove_unused_layers no)
		(uuid "816d087e-3e47-4597-9101-2d53a3dd7ea0")
	)
	(pad "8" thru_hole circle
		(at -26.67 0)
		(size 1.6 1.6)
		(drill 1)
		(layers "*.Cu" "*.Mask")
		(remove_unused_layers no)
		(uuid "c019acba-592b-42a0-84f0-df7ce0099c03")
	)
	(pad "9" thru_hole circle
		(at -24.13 0)
		(size 1.6 1.6)
		(drill 1)
		(layers "*.Cu" "*.Mask")
		(remove_unused_layers no)
		(uuid "8d3e6d41-24f8-428e-aa69-f64515e3c1e5")
	)
	(pad "10" thru_hole circle
		(at -21.59 0)
		(size 1.6 1.6)
		(drill 1)
		(layers "*.Cu" "*.Mask")
		(remove_unused_layers no)
		(uuid "f512cd1d-96a6-49cf-9ac1-811a24bf1772")
	)
	(pad "11" thru_hole circle
		(at -19.05 0)
		(size 1.6 1.6)
		(drill 1)
		(layers "*.Cu" "*.Mask")
		(remove_unused_layers no)
		(uuid "bc369788-b065-43f5-9e6f-1e3efad339a0")
	)
	(pad "12" thru_hole circle
		(at -16.51 0)
		(size 1.6 1.6)
		(drill 1)
		(layers "*.Cu" "*.Mask")
		(remove_unused_layers no)
		(uuid "63bcb719-5ba1-4224-9e0d-627efb5201d2")
	)
	(pad "13" thru_hole circle
		(at -13.97 0)
		(size 1.6 1.6)
		(drill 1)
		(layers "*.Cu" "*.Mask")
		(remove_unused_layers no)
		(uuid "aeff3936-dbb5-4d83-975e-c9deb141b133")
	)
	(pad "14" thru_hole circle
		(at -11.43 0)
		(size 1.6 1.6)
		(drill 1)
		(layers "*.Cu" "*.Mask")
		(remove_unused_layers no)
		(uuid "e1009ea5-0ce2-47ef-abe4-1d2e0e32eda9")
	)
	(pad "15" thru_hole circle
		(at -8.89 0)
		(size 1.6 1.6)
		(drill 1)
		(layers "*.Cu" "*.Mask")
		(remove_unused_layers no)
		(uuid "6aa3c081-dd55-45ef-9682-1726598836a5")
	)
	(pad "16" thru_hole circle
		(at -6.35 0)
		(size 1.6 1.6)
		(drill 1)
		(layers "*.Cu" "*.Mask")
		(remove_unused_layers no)
		(uuid "2490027e-67d2-4d34-9e53-4d617a309a66")
	)
	(pad "17" thru_hole circle
		(at -3.81 0)
		(size 1.6 1.6)
		(drill 1)
		(layers "*.Cu" "*.Mask")
		(remove_unused_layers no)
		(uuid "21463a85-fd3c-48ca-a075-3932d92e4115")
	)
	(pad "18" thru_hole circle
		(at -1.27 0)
		(size 1.6 1.6)
		(drill 1)
		(layers "*.Cu" "*.Mask")
		(remove_unused_layers no)
		(uuid "f00661e2-1580-4ec0-84eb-199458bd10e2")
	)
	(pad "19" thru_hole circle
		(at 1.27 0)
		(size 1.6 1.6)
		(drill 1)
		(layers "*.Cu" "*.Mask")
		(remove_unused_layers no)
		(uuid "3e998c70-0a22-4dc4-b010-0bd6a4aba9a9")
	)
	(pad "20" thru_hole circle
		(at 3.81 0)
		(size 1.6 1.6)
		(drill 1)
		(layers "*.Cu" "*.Mask")
		(remove_unused_layers no)
		(uuid "6473992a-7be5-463b-b77c-9152d37354b2")
	)
	(pad "21" thru_hole circle
		(at 6.35 0)
		(size 1.6 1.6)
		(drill 1)
		(layers "*.Cu" "*.Mask")
		(remove_unused_layers no)
		(uuid "5d3faec1-1cb3-4c01-86b1-3724a1a9d8a9")
	)
	(pad "22" thru_hole circle
		(at 8.89 0)
		(size 1.6 1.6)
		(drill 1)
		(layers "*.Cu" "*.Mask")
		(remove_unused_layers no)
		(uuid "ec6354c6-a26f-42e9-bb8a-8f1987ffe162")
	)
	(pad "23" thru_hole circle
		(at 11.43 0)
		(size 1.6 1.6)
		(drill 1)
		(layers "*.Cu" "*.Mask")
		(remove_unused_layers no)
		(uuid "f0eab9f6-84e1-4ce1-a477-4829d92ee668")
	)
	(pad "24" thru_hole circle
		(at 13.97 0)
		(size 1.6 1.6)
		(drill 1)
		(layers "*.Cu" "*.Mask")
		(remove_unused_layers no)
		(uuid "d4ecba26-4b88-4ac3-acc2-58f1e7558e10")
	)
	(pad "25" thru_hole circle
		(at 16.51 0)
		(size 1.6 1.6)
		(drill 1)
		(layers "*.Cu" "*.Mask")
		(remove_unused_layers no)
		(uuid "d670f91d-5b05-452b-b63f-4896eb1ebd6f")
	)
	(pad "26" thru_hole circle
		(at 19.05 0)
		(size 1.6 1.6)
		(drill 1)
		(layers "*.Cu" "*.Mask")
		(remove_unused_layers no)
		(uuid "c709dd12-2600-4006-96f8-b68c5cd5e6c3")
	)
	(pad "27" thru_hole circle
		(at 21.59 0)
		(size 1.6 1.6)
		(drill 1)
		(layers "*.Cu" "*.Mask")
		(remove_unused_layers no)
		(uuid "7abce917-af84-4b69-8e53-7f3364a5241b")
	)
	(pad "28" thru_hole circle
		(at 24.13 0)
		(size 1.6 1.6)
		(drill 1)
		(layers "*.Cu" "*.Mask")
		(remove_unused_layers no)
		(uuid "4860445a-86b6-41c1-844e-a58b7a2b365b")
	)
	(pad "29" thru_hole circle
		(at 26.67 0)
		(size 1.6 1.6)
		(drill 1)
		(layers "*.Cu" "*.Mask")
		(remove_unused_layers no)
		(uuid "f48d4989-a17f-4c90-9e1c-76732c75bc52")
	)
	(pad "30" thru_hole circle
		(at 29.21 0)
		(size 1.6 1.6)
		(drill 1)
		(layers "*.Cu" "*.Mask")
		(remove_unused_layers no)
		(uuid "fa59c8f7-d718-46d7-b7ac-29377ae07441")
	)
	(pad "31" thru_hole circle
		(at 31.75 0)
		(size 1.6 1.6)
		(drill 1)
		(layers "*.Cu" "*.Mask")
		(remove_unused_layers no)
		(uuid "2950127f-b9e9-49a9-8f5f-4154212e5519")
	)
	(pad "32" thru_hole circle
		(at 34.29 0)
		(size 1.6 1.6)
		(drill 1)
		(layers "*.Cu" "*.Mask")
		(remove_unused_layers no)
		(uuid "30f91168-640f-4af2-9aba-7a1c2e729b21")
	)
	(pad "33" thru_hole circle
		(at 36.83 0)
		(size 1.6 1.6)
		(drill 1)
		(layers "*.Cu" "*.Mask")
		(remove_unused_layers no)
		(uuid "4fd6f4cf-cddc-4522-83a8-e768009fe621")
	)
	(pad "34" thru_hole circle
		(at 39.37 0)
		(size 1.6 1.6)
		(drill 1)
		(layers "*.Cu" "*.Mask")
		(remove_unused_layers no)
		(uuid "d1053e20-eea7-4c3d-af79-298b882e577b")
	)
	(pad "35" thru_hole circle
		(at 41.91 0)
		(size 1.6 1.6)
		(drill 1)
		(layers "*.Cu" "*.Mask")
		(remove_unused_layers no)
		(uuid "5c5d649a-36bc-4ab0-8512-3fbde10e69ec")
	)
	(pad "36" thru_hole circle
		(at 44.45 0)
		(size 1.6 1.6)
		(drill 1)
		(layers "*.Cu" "*.Mask")
		(remove_unused_layers no)
		(uuid "7c1a3154-ddf1-44ec-b857-0c7719313888")
	)
)
