(footprint "M-6"
	(version 20240108)
	(generator "pcbnew")
	(generator_version "8.0")
	(layer "F.Cu")
	(descr "Pin Header, 6 pins, 2.54mm Pitch")
	(property "Reference" "M-6"
		(at 0 0 0)
		(layer "F.Fab")
		(uuid "ac3f0163-8dba-4bdc-8d85-2485b186a8cc")
		(effects
			(font
				(size 1.2 1.2)
				(thickness 0.12)
			)
		)
	)
	(property "Value" "M-6"
		(at 0 0 0)
		(layer "F.Fab")
		(hide yes)
		(uuid "dcd4618c-d81a-40bd-ba74-d02dd271cf6c")
		(effects
			(font
				(size 1.2 1.2)
				(thickness 0.12)
			)
		)
	)
	(property "Footprint" ""
		(at 0 0 0)
		(layer "F.Fab")
		(hide yes)
		(uuid "ac240391-8011-4373-9abe-5c04f1d4c575")
		(effects
			(font
				(size 1.27 1.27)
				(thickness 0.15)
			)
		)
	)
	(property "Datasheet" ""
		(at 0 0 0)
		(layer "F.Fab")
		(hide yes)
		(uuid "01f9d279-51b3-452b-8d81-28aceffa0874")
		(effects
			(font
				(size 1.27 1.27)
				(thickness 0.15)
			)
		)
	)
	(property "Description" ""
		(at 0 0 0)
		(layer "F.Fab")
		(hide yes)
		(uuid "67d4ca76-7e59-4df2-9206-b5b755f18e63")
		(effects
			(font
				(size 1.27 1.27)
				(thickness 0.15)
			)
		)
	)
	(attr through_hole)
	(fp_line
		(start -7.85 -1.35)
		(end 7.85 -1.35)
		(stroke
			(width 0.12)
			(type solid)
		)
		(layer "F.SilkS")
		(uuid "b5f14a30-8ef8-48dc-8fe4-5988a0c5b0f6")
	)
	(fp_line
		(start -7.85 1.35)
		(end -7.85 -1.35)
		(stroke
			(width 0.12)
			(type solid)
		)
		(layer "F.SilkS")
		(uuid "9c8d9521-5cd0-45f6-8231-12030f8fb5de")
	)
	(fp_line
		(start -6.95 1.35)
		(end -7.85 1.35)
		(stroke
			(width 0.12)
			(type solid)
		)
		(layer "F.SilkS")
		(uuid "28acc8bb-85c1-44bc-911d-df7771830235")
	)
	(fp_line
		(start -6.95 2.55)
		(end -5.75 2.55)
		(stroke
			(width 0.12)
			(type solid)
		)
		(layer "F.SilkS")
		(uuid "71332586-7d97-4acf-8f04-8bef20410a7f")
	)
	(fp_line
		(start -6.35 1.35)
		(end -6.95 2.55)
		(stroke
			(width 0.12)
			(type solid)
		)
		(layer "F.SilkS")
		(uuid "b0fb3931-ee25-4a8f-8023-c65fd12e2052")
	)
	(fp_line
		(start -5.75 1.35)
		(end 7.85 1.35)
		(stroke
			(width 0.12)
			(type solid)
		)
		(layer "F.SilkS")
		(uuid "44dee44d-79c2-4568-825e-b379aa23867c")
	)
	(fp_line
		(start -5.75 2.55)
		(end -6.35 1.35)
		(stroke
			(width 0.12)
			(type solid)
		)
		(layer "F.SilkS")
		(uuid "219feaff-e534-46e9-8572-869893d95df5")
	)
	(fp_line
		(start 7.85 -1.35)
		(end 7.85 1.35)
		(stroke
			(width 0.12)
			(type solid)
		)
		(layer "F.SilkS")
		(uuid "0573d939-0b93-4cb2-b313-e6dcf46755b6")
	)
	(fp_rect
		(start -8.35 -1.85)
		(end 8.35 1.85)
		(stroke
			(width 0.01)
			(type solid)
		)
		(fill none)
		(layer "F.CrtYd")
		(uuid "16409ac0-a5c3-46c6-a4eb-e0e55ada1080")
	)
	(fp_line
		(start -6.85 1.35)
		(end -7.85 0.35)
		(stroke
			(width 0.1)
			(type solid)
		)
		(layer "F.Fab")
		(uuid "5fcdffe7-d978-4813-b33c-81c5db1ff322")
	)
	(fp_rect
		(start -7.85 -1.35)
		(end 7.85 1.35)
		(stroke
			(width 0.1)
			(type solid)
		)
		(fill none)
		(layer "F.Fab")
		(uuid "95e97757-a107-492e-87a6-f824d4da372f")
	)
	(fp_text user "${REFERENCE}"
		(at -8.85 0 90)
		(layer "F.SilkS")
		(uuid "243d9576-9eb1-4956-b3db-9287f7383e20")
		(effects
			(font
				(size 1.5 1.5)
				(thickness 0.15)
			)
		)
	)
	(pad "1" thru_hole circle
		(at -6.35 0)
		(size 1.6 1.6)
		(drill 1)
		(layers "*.Cu" "*.Mask")
		(remove_unused_layers no)
		(uuid "0add22b1-5aa1-4570-b050-ec4e197b004b")
	)
	(pad "2" thru_hole circle
		(at -3.81 0)
		(size 1.6 1.6)
		(drill 1)
		(layers "*.Cu" "*.Mask")
		(remove_unused_layers no)
		(uuid "53e923c4-9bed-4814-bfe8-db0fae92a00b")
	)
	(pad "3" thru_hole circle
		(at -1.27 0)
		(size 1.6 1.6)
		(drill 1)
		(layers "*.Cu" "*.Mask")
		(remove_unused_layers no)
		(uuid "edcb250d-21a5-4e23-ab67-6b79839f4f71")
	)
	(pad "4" thru_hole circle
		(at 1.27 0)
		(size 1.6 1.6)
		(drill 1)
		(layers "*.Cu" "*.Mask")
		(remove_unused_layers no)
		(uuid "dc100b9c-1515-41c0-846f-e8ee9bb9659a")
	)
	(pad "5" thru_hole circle
		(at 3.81 0)
		(size 1.6 1.6)
		(drill 1)
		(layers "*.Cu" "*.Mask")
		(remove_unused_layers no)
		(uuid "575bc1e6-062c-419f-ac9a-7c1c4b97ace6")
	)
	(pad "6" thru_hole circle
		(at 6.35 0)
		(size 1.6 1.6)
		(drill 1)
		(layers "*.Cu" "*.Mask")
		(remove_unused_layers no)
		(uuid "73c7def9-fd16-4224-8e38-39f94eb5651f")
	)
	(model "${KISYS3DMOD}/WE/WR-PHD-61300611121.wrl"
		(offset
			(xyz 0 0 0)
		)
		(scale
			(xyz 1 1 1)
		)
		(rotate
			(xyz 0 0 0)
		)
	)
)
