(footprint "Chipled-0603"
	(version 20240108)
	(generator "pcbnew")
	(generator_version "8.0")
	(layer "F.Cu")
	(descr "Chipled 0603")
	(tags "0603")
	(property "Reference" "CHIPLED0603"
		(at 0 0 0)
		(layer "F.Fab")
		(uuid "6a8be075-fcee-440b-b97d-ef24c07f9d75")
		(effects
			(font
				(size 0.2 0.2)
				(thickness 0.02)
			)
		)
	)
	(property "Value" "CHIPLED0603"
		(at 0 0 0)
		(layer "F.Fab")
		(hide yes)
		(uuid "f0faf614-84fe-448c-bb92-53e038aa39c2")
		(effects
			(font
				(size 0.2 0.2)
				(thickness 0.02)
			)
		)
	)
	(property "Footprint" ""
		(at 0 0 0)
		(unlocked yes)
		(layer "F.Fab")
		(hide yes)
		(uuid "b747dd4f-c9df-4ad4-8e6f-466a65e54eb6")
		(effects
			(font
				(size 1.27 1.27)
				(thickness 0.15)
			)
		)
	)
	(property "Datasheet" ""
		(at 0 0 0)
		(unlocked yes)
		(layer "F.Fab")
		(hide yes)
		(uuid "c6c6522e-188c-464e-8172-9c529101770d")
		(effects
			(font
				(size 1.27 1.27)
				(thickness 0.15)
			)
		)
	)
	(property "Description" ""
		(at 0 0 0)
		(unlocked yes)
		(layer "F.Fab")
		(hide yes)
		(uuid "c1bf463f-837a-4228-abcc-4b063ed2a1f4")
		(effects
			(font
				(size 1.27 1.27)
				(thickness 0.15)
			)
		)
	)
	(attr smd)
	(fp_line
		(start -0.3 -0.65)
		(end -1.1 -0.65)
		(stroke
			(width 0.12)
			(type default)
		)
		(layer "F.SilkS")
		(uuid "bf5276ad-4c94-45bf-a8e9-24451fd5a412")
	)
	(fp_line
		(start -0.3 -0.5)
		(end -0.3 -0.65)
		(stroke
			(width 0.12)
			(type default)
		)
		(layer "F.SilkS")
		(uuid "86a3fcc3-ef05-403e-a300-0d1e6e0e6f21")
	)
	(fp_line
		(start -0.3 -0.5)
		(end 0.3 -0.5)
		(stroke
			(width 0.12)
			(type default)
		)
		(layer "F.SilkS")
		(uuid "bcd87c11-9cad-474c-b8f7-9bc2fc2389d8")
	)
	(fp_line
		(start -0.3 0.5)
		(end 0.3 0.5)
		(stroke
			(width 0.12)
			(type default)
		)
		(layer "F.SilkS")
		(uuid "603acbdc-8b64-45fa-8348-36b697762fd6")
	)
	(fp_line
		(start -0.3 0.65)
		(end -1.1 0.65)
		(stroke
			(width 0.12)
			(type default)
		)
		(layer "F.SilkS")
		(uuid "6de1875f-aa26-480c-a0ce-8a3a8e509536")
	)
	(fp_line
		(start -0.3 0.65)
		(end -0.3 0.5)
		(stroke
			(width 0.12)
			(type default)
		)
		(layer "F.SilkS")
		(uuid "54e25b20-709e-4820-8283-3b05d9dd0638")
	)
	(fp_rect
		(start -1.3 -0.65)
		(end 1.3 0.65)
		(stroke
			(width 0.01)
			(type solid)
		)
		(fill none)
		(layer "F.CrtYd")
		(uuid "8072a679-bf80-4884-bfba-f1cde62963a8")
	)
	(fp_line
		(start -0.85 0)
		(end -0.4 0.45)
		(stroke
			(width 0.1)
			(type default)
		)
		(layer "F.Fab")
		(uuid "9c5b4a5e-6d52-437a-8958-0868793a448e")
	)
	(fp_rect
		(start -0.85 -0.45)
		(end 0.85 0.45)
		(stroke
			(width 0.1)
			(type solid)
		)
		(fill none)
		(layer "F.Fab")
		(uuid "d30ce358-ca55-41a7-8b55-78931b82fe29")
	)
	(pad "A" smd custom
		(at 0.85 0)
		(size 0.5 0.8)
		(layers "F.Cu" "F.Paste" "F.Mask")
		(zone_connect 0)
		(options
			(clearance outline)
			(anchor rect)
		)
		(primitives
			(gr_poly
				(pts
					(xy 0.25 -0.4) (xy -0.25 -0.4) (xy -0.25 -0.2) (xy -0.55 -0.2) (xy -0.55 0.2) (xy -0.25 0.2) (xy -0.25 0.4)
					(xy 0.25 0.4)
				)
				(width 0)
				(fill yes)
			)
		)
		(uuid "c64aa338-bf99-449d-9b36-4df37fd78051")
	)
	(pad "K" smd custom
		(at -0.85 0)
		(size 0.5 0.8)
		(layers "F.Cu" "F.Paste" "F.Mask")
		(zone_connect 0)
		(options
			(clearance outline)
			(anchor rect)
		)
		(primitives
			(gr_poly
				(pts
					(xy -0.25 -0.4) (xy 0.25 -0.4) (xy 0.25 -0.2) (xy 0.55 -0.2) (xy 0.55 0.2) (xy 0.25 0.2) (xy 0.25 0.4)
					(xy -0.25 0.4)
				)
				(width 0)
				(fill yes)
			)
		)
		(uuid "7d6054e3-bee0-4115-9e44-7aab47cc2888")
	)
	(model "${KISYS3DMOD}/Chipled/0603-Castellated.wrl"
		(offset
			(xyz 0 0 0)
		)
		(scale
			(xyz 1 1 1)
		)
		(rotate
			(xyz 0 0 0)
		)
	)
)
