(footprint "EA-DOGL128-6"
	(version 20240108)
	(generator "pcbnew")
	(generator_version "8.0")
	(layer "F.Cu")
	(property "Reference" "DOGL128-6"
		(at 0 0 0)
		(layer "F.Fab")
		(uuid "d3dd0a90-b919-4e79-a992-9ce5926bcc38")
		(effects
			(font
				(size 1.2 1.2)
				(thickness 0.12)
			)
		)
	)
	(property "Value" "DOGL128-6"
		(at 0 0 0)
		(layer "F.Fab")
		(hide yes)
		(uuid "9f4aef60-1a73-45b9-8010-3fab4bead7db")
		(effects
			(font
				(size 1.2 1.2)
				(thickness 0.12)
			)
		)
	)
	(property "Footprint" ""
		(at 0 0 0)
		(unlocked yes)
		(layer "F.Fab")
		(hide yes)
		(uuid "99905126-9b62-4624-a04b-e0a1da55749c")
		(effects
			(font
				(size 1.27 1.27)
			)
		)
	)
	(property "Datasheet" ""
		(at 0 0 0)
		(unlocked yes)
		(layer "F.Fab")
		(hide yes)
		(uuid "cc94515b-bfa6-4cf7-be36-554a270388cf")
		(effects
			(font
				(size 1.27 1.27)
			)
		)
	)
	(property "Description" ""
		(at 0 0 0)
		(unlocked yes)
		(layer "F.Fab")
		(hide yes)
		(uuid "8366765d-feb7-4d8d-9edb-560cf67ead5b")
		(effects
			(font
				(size 1.27 1.27)
			)
		)
	)
	(attr through_hole)
	(fp_line
		(start -33.9 -26.3)
		(end -25.6 -26.3)
		(stroke
			(width 0.12)
			(type solid)
		)
		(layer "F.SilkS")
		(uuid "8830a268-8ed1-4849-af53-d2f759cda1ae")
	)
	(fp_line
		(start -33.9 21.7)
		(end -33.9 -26.3)
		(stroke
			(width 0.12)
			(type solid)
		)
		(layer "F.SilkS")
		(uuid "7f86fc94-3150-4518-840f-2470e6c69907")
	)
	(fp_line
		(start -25.6 21.7)
		(end -33.9 21.7)
		(stroke
			(width 0.12)
			(type solid)
		)
		(layer "F.SilkS")
		(uuid "5a71023f-b42c-474c-af97-04f11a7d83c6")
	)
	(fp_line
		(start -25.6 21.7)
		(end -25.6 22.85)
		(stroke
			(width 0.12)
			(type solid)
		)
		(layer "F.SilkS")
		(uuid "d8de8428-bc12-4eed-ae7f-5a3baa29619c")
	)
	(fp_line
		(start 17.55 21.7)
		(end -17.55 21.7)
		(stroke
			(width 0.12)
			(type solid)
		)
		(layer "F.SilkS")
		(uuid "740694dd-7feb-410d-a721-ce11a0b5f963")
	)
	(fp_line
		(start 25.6 -26.3)
		(end 33.9 -26.3)
		(stroke
			(width 0.12)
			(type solid)
		)
		(layer "F.SilkS")
		(uuid "73daffd1-fa86-442c-aa3a-214f173b1da8")
	)
	(fp_line
		(start 33.9 -26.3)
		(end 33.9 21.7)
		(stroke
			(width 0.12)
			(type solid)
		)
		(layer "F.SilkS")
		(uuid "f9788875-a862-42be-886e-eb215ed9e2cd")
	)
	(fp_line
		(start 33.9 21.7)
		(end 25.6 21.7)
		(stroke
			(width 0.12)
			(type solid)
		)
		(layer "F.SilkS")
		(uuid "85115cd3-cfc7-43b9-a1dc-681fdb8da530")
	)
	(fp_line
		(start -32.05 -17.5)
		(end 31.95 -17.5)
		(stroke
			(width 0.1)
			(type solid)
		)
		(layer "Dwgs.User")
		(uuid "a3634f6c-41dd-4b45-93a8-fda725bd1237")
	)
	(fp_line
		(start -32.05 17.5)
		(end -32.05 -17.5)
		(stroke
			(width 0.1)
			(type solid)
		)
		(layer "Dwgs.User")
		(uuid "a0af41b2-2d8f-4d02-b029-463d88036df7")
	)
	(fp_line
		(start 31.95 -17.5)
		(end 31.95 17.5)
		(stroke
			(width 0.1)
			(type solid)
		)
		(layer "Dwgs.User")
		(uuid "e1aef2ef-a791-48e9-9928-559cfc10209f")
	)
	(fp_line
		(start 31.95 17.5)
		(end -32.05 17.5)
		(stroke
			(width 0.1)
			(type solid)
		)
		(layer "Dwgs.User")
		(uuid "4aa74574-63a9-47a2-9d1d-05e3ea13f34c")
	)
	(fp_line
		(start -34.4 -27.7)
		(end -34.4 23.1)
		(stroke
			(width 0.01)
			(type solid)
		)
		(layer "F.CrtYd")
		(uuid "fe850548-960e-48a8-a8dd-ae2b1dfc3884")
	)
	(fp_line
		(start -34.4 23.1)
		(end 34.4 23.1)
		(stroke
			(width 0.01)
			(type solid)
		)
		(layer "F.CrtYd")
		(uuid "06738346-eeb2-4e96-9b79-4548bc63519d")
	)
	(fp_line
		(start 34.4 -27.7)
		(end -34.4 -27.7)
		(stroke
			(width 0.01)
			(type solid)
		)
		(layer "F.CrtYd")
		(uuid "fde397c6-251a-46db-a5ab-33c19722068c")
	)
	(fp_line
		(start 34.4 23.1)
		(end 34.4 -27.7)
		(stroke
			(width 0.01)
			(type solid)
		)
		(layer "F.CrtYd")
		(uuid "1efac2ba-4894-4983-bd8f-6d6d1fab28a3")
	)
	(fp_line
		(start -33.9 -26.3)
		(end -33.9 21.7)
		(stroke
			(width 0.1)
			(type solid)
		)
		(layer "F.Fab")
		(uuid "30f9d829-69f3-4cd4-82ad-cabf0157e87d")
	)
	(fp_line
		(start -33.9 21.7)
		(end 33.9 21.7)
		(stroke
			(width 0.1)
			(type solid)
		)
		(layer "F.Fab")
		(uuid "cf9e429a-1733-49c3-b837-a0085baeda87")
	)
	(fp_line
		(start 33.9 -26.3)
		(end -33.9 -26.3)
		(stroke
			(width 0.1)
			(type solid)
		)
		(layer "F.Fab")
		(uuid "3351956c-ec20-4883-8b6a-690a18f139bc")
	)
	(fp_line
		(start 33.9 21.7)
		(end 33.9 -26.3)
		(stroke
			(width 0.1)
			(type solid)
		)
		(layer "F.Fab")
		(uuid "ff8eae4a-42c7-471e-abfb-b3cdc98ede1c")
	)
	(pad "1" thru_hole circle
		(at -24.13 21.7)
		(size 2.3 2.3)
		(drill 1.4)
		(layers "*.Cu" "*.Mask")
		(remove_unused_layers no)
		(uuid "81148bdc-6bdc-4855-93b5-f9ba2c72e35e")
	)
	(pad "2" thru_hole circle
		(at -21.59 21.7)
		(size 2.3 2.3)
		(drill 1.4)
		(layers "*.Cu" "*.Mask")
		(remove_unused_layers no)
		(uuid "13b67166-a3fb-4e41-9df7-31d2f825eae8")
	)
	(pad "3" thru_hole circle
		(at -19.05 21.7)
		(size 2.3 2.3)
		(drill 1.4)
		(layers "*.Cu" "*.Mask")
		(remove_unused_layers no)
		(uuid "a89b5d26-12db-4c38-9a16-5b67a33da53d")
	)
	(pad "18" thru_hole circle
		(at 19.05 21.7)
		(size 2.3 2.3)
		(drill 1.4)
		(layers "*.Cu" "*.Mask")
		(remove_unused_layers no)
		(uuid "d9afdc08-1d06-4adc-a59f-bc515cb50ccc")
	)
	(pad "19" thru_hole circle
		(at 21.59 21.7)
		(size 2.3 2.3)
		(drill 1.4)
		(layers "*.Cu" "*.Mask")
		(remove_unused_layers no)
		(uuid "08149e98-a67b-4be0-8775-5b731081b677")
	)
	(pad "20" thru_hole circle
		(at 24.13 21.7)
		(size 2.3 2.3)
		(drill 1.4)
		(layers "*.Cu" "*.Mask")
		(remove_unused_layers no)
		(uuid "483feb19-6b9e-4f26-80ca-b8cfe3cff71a")
	)
	(pad "21" thru_hole circle
		(at 24.13 -26.3)
		(size 2.3 2.3)
		(drill 1.4)
		(layers "*.Cu" "*.Mask")
		(remove_unused_layers no)
		(uuid "bc652f82-920a-45aa-a113-fbe216f0a2d7")
	)
	(pad "22" thru_hole circle
		(at 21.59 -26.3)
		(size 2.3 2.3)
		(drill 1.4)
		(layers "*.Cu" "*.Mask")
		(remove_unused_layers no)
		(uuid "95fa3bcc-edd0-4210-9901-87c8a4fdd7b4")
	)
	(pad "23" thru_hole circle
		(at 19.05 -26.3)
		(size 2.3 2.3)
		(drill 1.4)
		(layers "*.Cu" "*.Mask")
		(remove_unused_layers no)
		(uuid "19419ee7-25ee-4179-a06d-11fbc8dc1f7b")
	)
	(pad "24" thru_hole circle
		(at 16.51 -26.3)
		(size 2.3 2.3)
		(drill 1.4)
		(layers "*.Cu" "*.Mask")
		(remove_unused_layers no)
		(uuid "d6f0d5c7-caa2-494b-899a-078b00d51758")
	)
	(pad "25" thru_hole circle
		(at 13.97 -26.3)
		(size 2.3 2.3)
		(drill 1.4)
		(layers "*.Cu" "*.Mask")
		(remove_unused_layers no)
		(uuid "27472c29-a400-4b0e-bffc-7a091571793d")
	)
	(pad "26" thru_hole circle
		(at 11.43 -26.3)
		(size 2.3 2.3)
		(drill 1.4)
		(layers "*.Cu" "*.Mask")
		(remove_unused_layers no)
		(uuid "c294b162-bed0-4a66-8d6c-2448bd1977bd")
	)
	(pad "27" thru_hole circle
		(at 8.89 -26.3)
		(size 2.3 2.3)
		(drill 1.4)
		(layers "*.Cu" "*.Mask")
		(remove_unused_layers no)
		(uuid "09233c5b-17a4-45cc-9bf9-5df75ecb6117")
	)
	(pad "28" thru_hole circle
		(at 6.35 -26.3)
		(size 2.3 2.3)
		(drill 1.4)
		(layers "*.Cu" "*.Mask")
		(remove_unused_layers no)
		(uuid "2719debf-d2e9-40ad-a716-c474e426af48")
	)
	(pad "29" thru_hole circle
		(at 3.81 -26.3)
		(size 2.3 2.3)
		(drill 1.4)
		(layers "*.Cu" "*.Mask")
		(remove_unused_layers no)
		(uuid "79819fef-e01c-4f8e-b3bc-6787a81790de")
	)
	(pad "30" thru_hole circle
		(at 1.27 -26.3)
		(size 2.3 2.3)
		(drill 1.4)
		(layers "*.Cu" "*.Mask")
		(remove_unused_layers no)
		(uuid "87691da2-dc51-4432-ad00-c58983d7a8a6")
	)
	(pad "31" thru_hole circle
		(at -1.27 -26.3)
		(size 2.3 2.3)
		(drill 1.4)
		(layers "*.Cu" "*.Mask")
		(remove_unused_layers no)
		(uuid "e4f8e70a-41dd-482d-831a-ddec5734df51")
	)
	(pad "32" thru_hole circle
		(at -3.81 -26.3)
		(size 2.3 2.3)
		(drill 1.4)
		(layers "*.Cu" "*.Mask")
		(remove_unused_layers no)
		(uuid "42cf5ec9-7d94-4aef-bc2b-c733938b6511")
	)
	(pad "33" thru_hole circle
		(at -6.35 -26.3)
		(size 2.3 2.3)
		(drill 1.4)
		(layers "*.Cu" "*.Mask")
		(remove_unused_layers no)
		(uuid "b04d5808-0960-4028-bd50-bd81df4b5e0e")
	)
	(pad "34" thru_hole circle
		(at -8.89 -26.3)
		(size 2.3 2.3)
		(drill 1.4)
		(layers "*.Cu" "*.Mask")
		(remove_unused_layers no)
		(uuid "a70a7019-e98d-4992-9932-12af145fcffa")
	)
	(pad "35" thru_hole circle
		(at -11.43 -26.3)
		(size 2.3 2.3)
		(drill 1.4)
		(layers "*.Cu" "*.Mask")
		(remove_unused_layers no)
		(uuid "5f07d3ae-64be-451e-be04-53b25f277831")
	)
	(pad "36" thru_hole circle
		(at -13.97 -26.3)
		(size 2.3 2.3)
		(drill 1.4)
		(layers "*.Cu" "*.Mask")
		(remove_unused_layers no)
		(uuid "9cce57b1-711d-4a01-a050-ae35012bcfcc")
	)
	(pad "37" thru_hole circle
		(at -16.51 -26.3)
		(size 2.3 2.3)
		(drill 1.4)
		(layers "*.Cu" "*.Mask")
		(remove_unused_layers no)
		(uuid "d311d274-5efb-4f7d-ac98-704067d4b8ef")
	)
	(pad "38" thru_hole circle
		(at -19.05 -26.3)
		(size 2.3 2.3)
		(drill 1.4)
		(layers "*.Cu" "*.Mask")
		(remove_unused_layers no)
		(uuid "bc081818-f679-4d92-9ee6-488d184211c8")
	)
	(pad "39" thru_hole circle
		(at -21.59 -26.3)
		(size 2.3 2.3)
		(drill 1.4)
		(layers "*.Cu" "*.Mask")
		(remove_unused_layers no)
		(uuid "77f8aaa9-6c54-457e-9aa0-c0046eefad7f")
	)
	(pad "40" thru_hole circle
		(at -24.13 -26.3)
		(size 2.3 2.3)
		(drill 1.4)
		(layers "*.Cu" "*.Mask")
		(remove_unused_layers no)
		(uuid "6eff7ccc-f3fa-47bb-ae7d-f42e2b4b2cf5")
	)
)