(footprint "Kingbright-Dx56"
	(version 20240108)
	(generator "pcbnew")
	(generator_version "8.0")
	(layer "F.Cu")
	(descr "14.22mm (0.56\") Dual Digit Numeric Display")
	(property "Reference" "KINGBRIGHT-Dx56"
		(at 0 0 0)
		(layer "F.SilkS")
		(hide yes)
		(uuid "f57fef22-236d-47d3-a7f2-94e6c95aa5d9")
		(effects
			(font
				(size 1.2 1.2)
				(thickness 0.12)
			)
		)
	)
	(property "Value" "KINGBRIGHT-Dx56"
		(at 0 0 0)
		(layer "F.SilkS")
		(hide yes)
		(uuid "d1a66524-73bc-4618-b334-76cb767d3726")
		(effects
			(font
				(size 1.2 1.2)
				(thickness 0.12)
			)
		)
	)
	(property "Footprint" ""
		(at 0 0 0)
		(unlocked yes)
		(layer "F.Fab")
		(hide yes)
		(uuid "7889dd99-4823-4c55-bc7d-4f72542fcfa1")
		(effects
			(font
				(size 1.27 1.27)
			)
		)
	)
	(property "Datasheet" ""
		(at 0 0 0)
		(unlocked yes)
		(layer "F.Fab")
		(hide yes)
		(uuid "550b7bfb-36a3-4c1b-b256-46ab082f3685")
		(effects
			(font
				(size 1.27 1.27)
			)
		)
	)
	(property "Description" ""
		(at 0 0 0)
		(unlocked yes)
		(layer "F.Fab")
		(hide yes)
		(uuid "b7ef8eb6-27d4-4388-bd76-291b40351d9d")
		(effects
			(font
				(size 1.27 1.27)
			)
		)
	)
	(attr through_hole)
	(fp_line
		(start -12.5 -9.55)
		(end 12.5 -9.55)
		(stroke
			(width 0.12)
			(type solid)
		)
		(layer "F.SilkS")
		(uuid "c00785e1-7550-4bfb-be6c-8ec186867f80")
	)
	(fp_line
		(start -12.5 9.55)
		(end -12.5 -9.55)
		(stroke
			(width 0.12)
			(type solid)
		)
		(layer "F.SilkS")
		(uuid "47a7ae5d-6b72-4919-9343-cd4776428afd")
	)
	(fp_line
		(start -11 9.55)
		(end -12.5 9.55)
		(stroke
			(width 0.12)
			(type solid)
		)
		(layer "F.SilkS")
		(uuid "e398ab4c-d38d-46cc-8f62-2290b57bb1b8")
	)
	(fp_line
		(start 12.5 -9.55)
		(end 12.5 9.55)
		(stroke
			(width 0.12)
			(type solid)
		)
		(layer "F.SilkS")
		(uuid "0c66c2cd-b6bb-4d88-a391-c335b1fe0d08")
	)
	(fp_line
		(start 12.5 9.55)
		(end -9.3 9.55)
		(stroke
			(width 0.12)
			(type solid)
		)
		(layer "F.SilkS")
		(uuid "b72bd7af-d722-43d7-b2b5-0adcd891f482")
	)
	(fp_line
		(start -11.5 7.15)
		(end -9.5 -7.15)
		(stroke
			(width 0.1)
			(type solid)
		)
		(layer "F.Fab")
		(uuid "7490a10c-6118-44fd-803e-f3ddcc74f7e7")
	)
	(fp_line
		(start -11.5 9.55)
		(end -12.5 8.55)
		(stroke
			(width 0.1)
			(type solid)
		)
		(layer "F.Fab")
		(uuid "5e046bdd-44dc-4f67-a2ca-e6913ca50073")
	)
	(fp_line
		(start -10.5 0)
		(end -2.5 0)
		(stroke
			(width 0.1)
			(type solid)
		)
		(layer "F.Fab")
		(uuid "66736a0c-05a4-43a5-a8c8-d58fa9b503d9")
	)
	(fp_line
		(start -9.5 -7.15)
		(end -1.5 -7.15)
		(stroke
			(width 0.1)
			(type solid)
		)
		(layer "F.Fab")
		(uuid "554fd0b1-72a6-44d8-b33e-c4f16c908d81")
	)
	(fp_line
		(start -3.5 7.15)
		(end -11.5 7.15)
		(stroke
			(width 0.1)
			(type solid)
		)
		(layer "F.Fab")
		(uuid "a238003b-1d6c-4e00-b121-0873d3dc03b0")
	)
	(fp_line
		(start -1.5 -7.15)
		(end -3.5 7.15)
		(stroke
			(width 0.1)
			(type solid)
		)
		(layer "F.Fab")
		(uuid "f9ea9f10-1d7e-4817-ad4a-9a7f1ffc00ac")
	)
	(fp_line
		(start 1 7.15)
		(end 3 -7.15)
		(stroke
			(width 0.1)
			(type solid)
		)
		(layer "F.Fab")
		(uuid "cd3dfb8c-4374-4906-b236-f6d0b5268a75")
	)
	(fp_line
		(start 2 0)
		(end 10 0)
		(stroke
			(width 0.1)
			(type solid)
		)
		(layer "F.Fab")
		(uuid "fd8fb82e-2610-4350-a6f8-eacc7fd90fe5")
	)
	(fp_line
		(start 3 -7.15)
		(end 11 -7.15)
		(stroke
			(width 0.1)
			(type solid)
		)
		(layer "F.Fab")
		(uuid "19ad7420-3b1c-49ba-b5c3-2ce5d8382237")
	)
	(fp_line
		(start 9 7.15)
		(end 1 7.15)
		(stroke
			(width 0.1)
			(type solid)
		)
		(layer "F.Fab")
		(uuid "eeac1ff4-8cc6-46d4-b928-d37090c19745")
	)
	(fp_line
		(start 11 -7.15)
		(end 9 7.15)
		(stroke
			(width 0.1)
			(type solid)
		)
		(layer "F.Fab")
		(uuid "bbbc898f-f936-4167-a1ba-fdbcc9b327e2")
	)
	(fp_rect
		(start -12.5 -9.55)
		(end 12.5 9.55)
		(stroke
			(width 0.1)
			(type solid)
		)
		(fill none)
		(layer "F.Fab")
		(uuid "552f1116-bc06-4aa8-a419-0db5975716ac")
	)
	(fp_circle
		(center -1.5 7.15)
		(end -0.65 7.15)
		(stroke
			(width 0.1)
			(type solid)
		)
		(fill none)
		(layer "F.Fab")
		(uuid "7a240eb6-bcce-4ca3-975e-092ba8fa55ce")
	)
	(fp_circle
		(center 11 7.15)
		(end 11.85 7.15)
		(stroke
			(width 0.1)
			(type solid)
		)
		(fill none)
		(layer "F.Fab")
		(uuid "6881201f-47e9-4097-90c7-dad1a08a6b34")
	)
	(pad "1" thru_hole circle
		(at -10.16 7.62)
		(size 1.7 1.7)
		(drill 1.1)
		(layers "*.Cu" "*.Mask")
		(remove_unused_layers no)
		(uuid "bc6e6ef9-e49f-40e4-8fb8-6df8f17bd91a")
	)
	(pad "2" thru_hole circle
		(at -7.62 7.62)
		(size 1.7 1.7)
		(drill 1.1)
		(layers "*.Cu" "*.Mask")
		(remove_unused_layers no)
		(uuid "6fb489fa-fd56-4d6c-854a-64704e3f5fcb")
	)
	(pad "3" thru_hole circle
		(at -5.08 7.62)
		(size 1.7 1.7)
		(drill 1.1)
		(layers "*.Cu" "*.Mask")
		(remove_unused_layers no)
		(uuid "6d0068e3-fc9b-409f-96f8-17b89ff29dc4")
	)
	(pad "4" thru_hole circle
		(at -2.54 7.62)
		(size 1.7 1.7)
		(drill 1.1)
		(layers "*.Cu" "*.Mask")
		(remove_unused_layers no)
		(uuid "f0423889-4878-4d29-bf86-cdc076d380f3")
	)
	(pad "5" thru_hole circle
		(at 0 7.62)
		(size 1.7 1.7)
		(drill 1.1)
		(layers "*.Cu" "*.Mask")
		(remove_unused_layers no)
		(uuid "bf478443-2fe2-4e3a-a252-0be33f6d135b")
	)
	(pad "6" thru_hole circle
		(at 2.54 7.62)
		(size 1.7 1.7)
		(drill 1.1)
		(layers "*.Cu" "*.Mask")
		(remove_unused_layers no)
		(uuid "64cd70b3-39dd-4001-9efa-f807a09355a0")
	)
	(pad "7" thru_hole circle
		(at 5.08 7.62)
		(size 1.7 1.7)
		(drill 1.1)
		(layers "*.Cu" "*.Mask")
		(remove_unused_layers no)
		(uuid "06fda7fa-05c2-4f42-89d1-5361eaabbbe1")
	)
	(pad "8" thru_hole circle
		(at 7.62 7.62)
		(size 1.7 1.7)
		(drill 1.1)
		(layers "*.Cu" "*.Mask")
		(remove_unused_layers no)
		(uuid "22c8d99f-85d2-40d0-9ce1-5337eb67ef5b")
	)
	(pad "9" thru_hole circle
		(at 10.16 7.62)
		(size 1.7 1.7)
		(drill 1.1)
		(layers "*.Cu" "*.Mask")
		(remove_unused_layers no)
		(uuid "5815e384-6b35-4830-a90e-30fc43023d56")
	)
	(pad "10" thru_hole circle
		(at 10.16 -7.62)
		(size 1.7 1.7)
		(drill 1.1)
		(layers "*.Cu" "*.Mask")
		(remove_unused_layers no)
		(uuid "89256488-51d1-4f48-9307-6b8d851e2000")
	)
	(pad "11" thru_hole circle
		(at 7.62 -7.62)
		(size 1.7 1.7)
		(drill 1.1)
		(layers "*.Cu" "*.Mask")
		(remove_unused_layers no)
		(uuid "d8a30b6b-b4f0-4523-9a94-88a758616738")
	)
	(pad "12" thru_hole circle
		(at 5.08 -7.62)
		(size 1.7 1.7)
		(drill 1.1)
		(layers "*.Cu" "*.Mask")
		(remove_unused_layers no)
		(uuid "b8b6db38-f470-4c69-9912-9fcdf28dd265")
	)
	(pad "13" thru_hole circle
		(at 2.54 -7.62)
		(size 1.7 1.7)
		(drill 1.1)
		(layers "*.Cu" "*.Mask")
		(remove_unused_layers no)
		(uuid "dc0c9ace-24a0-40b4-a8c8-567aa1115768")
	)
	(pad "14" thru_hole circle
		(at 0 -7.62)
		(size 1.7 1.7)
		(drill 1.1)
		(layers "*.Cu" "*.Mask")
		(remove_unused_layers no)
		(uuid "3a8140a6-ea58-499d-ab66-e55bc7d392c7")
	)
	(pad "15" thru_hole circle
		(at -2.54 -7.62)
		(size 1.7 1.7)
		(drill 1.1)
		(layers "*.Cu" "*.Mask")
		(remove_unused_layers no)
		(uuid "4ead714c-abb5-46a6-aea2-4d6a89e19c3a")
	)
	(pad "16" thru_hole circle
		(at -5.08 -7.62)
		(size 1.7 1.7)
		(drill 1.1)
		(layers "*.Cu" "*.Mask")
		(remove_unused_layers no)
		(uuid "2a88f2f4-e6c8-47a4-a829-5f97bee44ff2")
	)
	(pad "17" thru_hole circle
		(at -7.62 -7.62)
		(size 1.7 1.7)
		(drill 1.1)
		(layers "*.Cu" "*.Mask")
		(remove_unused_layers no)
		(uuid "35841113-4230-4043-bc8b-8c06d9995d12")
	)
	(pad "18" thru_hole circle
		(at -10.16 -7.62)
		(size 1.7 1.7)
		(drill 1.1)
		(layers "*.Cu" "*.Mask")
		(remove_unused_layers no)
		(uuid "19a24304-7150-482b-a2c7-3dabe6ab4c35")
	)
	(model "${KISYS3DMOD}/Kingbright/Dx56.wrl"
		(offset
			(xyz 0 0 0)
		)
		(scale
			(xyz 1 1 1)
		)
		(rotate
			(xyz 0 0 0)
		)
	)
)