(footprint "Kingbright-Dx04"
	(version 20240108)
	(generator "pcbnew")
	(generator_version "8.0")
	(layer "F.Cu")
	(descr "Dual 7 segments display")
	(property "Reference" "Dx04"
		(at 0 0 0)
		(layer "F.Fab")
		(uuid "939ac6cf-96c8-4305-9cad-48813e724924")
		(effects
			(font
				(size 1.2 1.2)
				(thickness 0.12)
			)
		)
	)
	(property "Value" "Dx04"
		(at 0 0 0)
		(layer "F.Fab")
		(hide yes)
		(uuid "d9adc70a-12fb-4dfa-8b61-7a5f0b83ad0d")
		(effects
			(font
				(size 1.2 1.2)
				(thickness 0.12)
			)
		)
	)
	(property "Footprint" ""
		(at 0 0 0)
		(unlocked yes)
		(layer "F.Fab")
		(hide yes)
		(uuid "79015e91-97cd-4cda-b111-fb4803c77da9")
		(effects
			(font
				(size 1.27 1.27)
			)
		)
	)
	(property "Datasheet" ""
		(at 0 0 0)
		(unlocked yes)
		(layer "F.Fab")
		(hide yes)
		(uuid "a1a70d31-fb14-4f85-9153-7764e52e7a26")
		(effects
			(font
				(size 1.27 1.27)
			)
		)
	)
	(property "Description" ""
		(at 0 0 0)
		(unlocked yes)
		(layer "F.Fab")
		(hide yes)
		(uuid "fde3426d-1a9c-4c91-a2f1-df54e2b2c7fe")
		(effects
			(font
				(size 1.27 1.27)
			)
		)
	)
	(attr through_hole)
	(fp_line
		(start -11.43 -9.525)
		(end -11.43 9.525)
		(stroke
			(width 0.12)
			(type solid)
		)
		(layer "F.SilkS")
		(uuid "e6a7fb69-0384-4071-a0e1-ae4a6055be19")
	)
	(fp_line
		(start -11.43 9.525)
		(end -10.16 9.525)
		(stroke
			(width 0.12)
			(type solid)
		)
		(layer "F.SilkS")
		(uuid "2a323e12-8179-4ed8-958c-980d2020c1bc")
	)
	(fp_line
		(start -10.16 -9.525)
		(end -11.43 -9.525)
		(stroke
			(width 0.12)
			(type solid)
		)
		(layer "F.SilkS")
		(uuid "64f928ae-e1b9-4c16-ab07-877d89df9053")
	)
	(fp_line
		(start -10.16 9.525)
		(end 0 9.525)
		(stroke
			(width 0.12)
			(type solid)
		)
		(layer "F.SilkS")
		(uuid "d878c04b-5cd9-4aed-968d-2b92258319b8")
	)
	(fp_line
		(start -8.89 5.715)
		(end -4.445 5.715)
		(stroke
			(width 0.12)
			(type solid)
		)
		(layer "F.SilkS")
		(uuid "7ba782ac-79b0-423c-be34-82a85ec006c4")
	)
	(fp_line
		(start -8.255 -0.635)
		(end -6.985 -5.715)
		(stroke
			(width 0.12)
			(type solid)
		)
		(layer "F.SilkS")
		(uuid "651b940a-6f62-4a2a-aedb-26c4ed4f9050")
	)
	(fp_line
		(start -8.255 0.635)
		(end -9.525 5.715)
		(stroke
			(width 0.12)
			(type solid)
		)
		(layer "F.SilkS")
		(uuid "a291bfa7-3be1-4da7-985b-c7bd03a6f08e")
	)
	(fp_line
		(start -7.493 0)
		(end -3.175 0)
		(stroke
			(width 0.12)
			(type solid)
		)
		(layer "F.SilkS")
		(uuid "3c7e0943-5348-4f8a-a683-68c5ebf671d1")
	)
	(fp_line
		(start -7.366 0)
		(end -3.302 0)
		(stroke
			(width 0.12)
			(type solid)
		)
		(layer "F.SilkS")
		(uuid "2301df85-69e1-48ce-9fb3-73762b19298d")
	)
	(fp_line
		(start -6.35 -5.715)
		(end -1.9 -5.715)
		(stroke
			(width 0.12)
			(type solid)
		)
		(layer "F.SilkS")
		(uuid "506732ac-f757-4e30-abc8-8855ab31e025")
	)
	(fp_line
		(start -2.54 -0.635)
		(end -1.27 -5.715)
		(stroke
			(width 0.12)
			(type solid)
		)
		(layer "F.SilkS")
		(uuid "2e25e3f7-0a8d-473e-9267-cd89fc51137a")
	)
	(fp_line
		(start -2.54 0.635)
		(end -3.81 5.715)
		(stroke
			(width 0.12)
			(type solid)
		)
		(layer "F.SilkS")
		(uuid "68fa61ae-1d51-4a41-85d6-4d7047ee5afc")
	)
	(fp_line
		(start 0 -9.525)
		(end -10.16 -9.525)
		(stroke
			(width 0.12)
			(type solid)
		)
		(layer "F.SilkS")
		(uuid "f63f5721-30d8-46a4-b2e0-4a64e49e8b30")
	)
	(fp_line
		(start 0 9.525)
		(end 1.27 9.525)
		(stroke
			(width 0.12)
			(type solid)
		)
		(layer "F.SilkS")
		(uuid "0b89e7b6-4911-435b-bd05-b22e88e46b6c")
	)
	(fp_line
		(start 0.635 5.715)
		(end 1.9 0.635)
		(stroke
			(width 0.12)
			(type solid)
		)
		(layer "F.SilkS")
		(uuid "94cee33e-35d3-401c-b98b-49268fc8de05")
	)
	(fp_line
		(start 1.27 -9.525)
		(end 0 -9.525)
		(stroke
			(width 0.12)
			(type solid)
		)
		(layer "F.SilkS")
		(uuid "a021fb61-816c-4f08-98f6-a055b5d44ace")
	)
	(fp_line
		(start 1.27 -9.525)
		(end 11.43 -9.525)
		(stroke
			(width 0.12)
			(type solid)
		)
		(layer "F.SilkS")
		(uuid "a3f06175-2625-41b5-a652-7f04aca52e6e")
	)
	(fp_line
		(start 1.27 5.715)
		(end 5.715 5.715)
		(stroke
			(width 0.12)
			(type solid)
		)
		(layer "F.SilkS")
		(uuid "1051891f-b0b0-4e78-903e-fbc6ce1d2c97")
	)
	(fp_line
		(start 1.9 -0.635)
		(end 3.175 -5.715)
		(stroke
			(width 0.12)
			(type solid)
		)
		(layer "F.SilkS")
		(uuid "486c6cbd-fb07-4c3e-9314-84034262226e")
	)
	(fp_line
		(start 2.54 0)
		(end 6.985 0)
		(stroke
			(width 0.12)
			(type solid)
		)
		(layer "F.SilkS")
		(uuid "39f10b0b-c23b-4e82-b660-6445c9450113")
	)
	(fp_line
		(start 3.81 -5.715)
		(end 8.255 -5.715)
		(stroke
			(width 0.12)
			(type solid)
		)
		(layer "F.SilkS")
		(uuid "b801f39f-e03b-4183-bb6b-e69333a3cbfe")
	)
	(fp_line
		(start 7.62 -0.635)
		(end 8.89 -5.715)
		(stroke
			(width 0.12)
			(type solid)
		)
		(layer "F.SilkS")
		(uuid "aae65633-9594-455d-b834-12e481758572")
	)
	(fp_line
		(start 7.62 0.635)
		(end 6.35 5.715)
		(stroke
			(width 0.12)
			(type solid)
		)
		(layer "F.SilkS")
		(uuid "82900d76-e300-4b36-a5b0-245c67daf424")
	)
	(fp_line
		(start 11.43 -9.525)
		(end 11.43 9.525)
		(stroke
			(width 0.12)
			(type solid)
		)
		(layer "F.SilkS")
		(uuid "d27bd9db-1627-46dd-8474-30b44ca06f31")
	)
	(fp_line
		(start 11.43 9.525)
		(end 1.27 9.525)
		(stroke
			(width 0.12)
			(type solid)
		)
		(layer "F.SilkS")
		(uuid "665d788a-f9d9-48d4-ad33-a62d1816ea0b")
	)
	(fp_circle
		(center -1.524 5.588)
		(end -1.524 5.08)
		(stroke
			(width 0.12)
			(type solid)
		)
		(fill none)
		(layer "F.SilkS")
		(uuid "17f1869d-a800-4f7c-bc04-31ed1c053896")
	)
	(fp_circle
		(center 8.636 5.588)
		(end 8.636 5.08)
		(stroke
			(width 0.12)
			(type solid)
		)
		(fill none)
		(layer "F.SilkS")
		(uuid "314220cc-5657-4071-a7d5-43cef55fe049")
	)
	(pad "1" thru_hole circle
		(at -8.89 7.62)
		(size 1.3 1.3)
		(drill 0.8)
		(layers "*.Cu" "*.Mask")
		(remove_unused_layers no)
		(uuid "b1ce0900-fae5-43f2-b6b8-e9350bc7411a")
	)
	(pad "2" thru_hole circle
		(at -6.35 7.62)
		(size 1.3 1.3)
		(drill 0.8)
		(layers "*.Cu" "*.Mask")
		(remove_unused_layers no)
		(uuid "6faf6c28-bf41-4d4b-b839-d2ee7d257cc0")
	)
	(pad "3" thru_hole circle
		(at -3.81 7.62)
		(size 1.3 1.3)
		(drill 0.8)
		(layers "*.Cu" "*.Mask")
		(remove_unused_layers no)
		(uuid "afebc6aa-65e0-4935-8f20-0ad9e3641eaa")
	)
	(pad "4" thru_hole circle
		(at -1.27 7.62)
		(size 1.3 1.3)
		(drill 0.8)
		(layers "*.Cu" "*.Mask")
		(remove_unused_layers no)
		(uuid "94ca6a77-4ab0-4057-bfd8-72a7ed545075")
	)
	(pad "5" thru_hole circle
		(at 1.27 7.62)
		(size 1.3 1.3)
		(drill 0.8)
		(layers "*.Cu" "*.Mask")
		(remove_unused_layers no)
		(uuid "8caf4826-25f0-42e6-8f6a-b75f40ab0f79")
	)
	(pad "6" thru_hole circle
		(at 3.81 7.62)
		(size 1.3 1.3)
		(drill 0.8)
		(layers "*.Cu" "*.Mask")
		(remove_unused_layers no)
		(uuid "c2ee1985-4cd5-4476-9b01-4b7923059384")
	)
	(pad "7" thru_hole circle
		(at 6.35 7.62)
		(size 1.3 1.3)
		(drill 0.8)
		(layers "*.Cu" "*.Mask")
		(remove_unused_layers no)
		(uuid "2b10f592-ede3-4ad1-9b70-04796e9651bf")
	)
	(pad "8" thru_hole circle
		(at 8.89 7.62)
		(size 1.3 1.3)
		(drill 0.8)
		(layers "*.Cu" "*.Mask")
		(remove_unused_layers no)
		(uuid "aa87bd83-15b6-49c7-af9f-2770d06d9bcc")
	)
	(pad "9" thru_hole circle
		(at 8.89 -7.62)
		(size 1.3 1.3)
		(drill 0.8)
		(layers "*.Cu" "*.Mask")
		(remove_unused_layers no)
		(uuid "adebbabb-9a7a-4717-8472-dc5c2525ec71")
	)
	(pad "10" thru_hole circle
		(at 6.35 -7.62)
		(size 1.3 1.3)
		(drill 0.8)
		(layers "*.Cu" "*.Mask")
		(remove_unused_layers no)
		(uuid "8a18831d-71c3-42f2-b22f-999489c7608e")
	)
	(pad "11" thru_hole circle
		(at 3.81 -7.62)
		(size 1.3 1.3)
		(drill 0.8)
		(layers "*.Cu" "*.Mask")
		(remove_unused_layers no)
		(uuid "09a84e86-cc65-4870-a799-2caa40f9ff98")
	)
	(pad "12" thru_hole circle
		(at 1.27 -7.62)
		(size 1.3 1.3)
		(drill 0.8)
		(layers "*.Cu" "*.Mask")
		(remove_unused_layers no)
		(uuid "eb30d7b3-0d21-482e-8d26-65cc87ec9b1e")
	)
	(pad "13" thru_hole circle
		(at -1.27 -7.62)
		(size 1.3 1.3)
		(drill 0.8)
		(layers "*.Cu" "*.Mask")
		(remove_unused_layers no)
		(uuid "2f9078f5-dc4b-4b2f-86d0-e20423a520a7")
	)
	(pad "14" thru_hole circle
		(at -3.81 -7.62)
		(size 1.3 1.3)
		(drill 0.8)
		(layers "*.Cu" "*.Mask")
		(remove_unused_layers no)
		(uuid "96fa5247-beb9-43f7-a313-64f9df5bdbfa")
	)
	(pad "15" thru_hole circle
		(at -6.35 -7.62)
		(size 1.3 1.3)
		(drill 0.8)
		(layers "*.Cu" "*.Mask")
		(remove_unused_layers no)
		(uuid "13744fea-502a-4f53-9b58-b10a140b0fe2")
	)
	(pad "16" thru_hole circle
		(at -8.89 -7.62)
		(size 1.3 1.3)
		(drill 0.8)
		(layers "*.Cu" "*.Mask")
		(remove_unused_layers no)
		(uuid "b333499a-349d-4e84-be28-6b3bde469076")
	)
)