(footprint "Led-5mm"
	(version 20240108)
	(generator "pcbnew")
	(generator_version "8.0")
	(layer "F.Cu")
	(descr "Vertical round LED, 5mm")
	(property "Reference" "LED-5MM"
		(at 0 0 180)
		(layer "F.Fab")
		(uuid "7f9c9c04-c01d-4816-9cf9-e81e281204e4")
		(effects
			(font
				(size 0.8 0.8)
				(thickness 0.08)
			)
		)
	)
	(property "Value" "LED-5MM"
		(at 0 0 180)
		(layer "F.Fab")
		(hide yes)
		(uuid "8913cf62-6626-43d7-9067-632bc9606196")
		(effects
			(font
				(size 0.8 0.8)
				(thickness 0.08)
			)
		)
	)
	(property "Footprint" ""
		(at 0 0 180)
		(unlocked yes)
		(layer "F.Fab")
		(hide yes)
		(uuid "963664f3-8bf4-4330-8dbf-b25c8decc39b")
		(effects
			(font
				(size 1.27 1.27)
				(thickness 0.15)
			)
		)
	)
	(property "Datasheet" ""
		(at 0 0 180)
		(unlocked yes)
		(layer "F.Fab")
		(hide yes)
		(uuid "3c7ab097-5ed2-4ccf-bbef-57c721e7da38")
		(effects
			(font
				(size 1.27 1.27)
				(thickness 0.15)
			)
		)
	)
	(property "Description" ""
		(at 0 0 180)
		(unlocked yes)
		(layer "F.Fab")
		(hide yes)
		(uuid "2d0dc06e-b934-4ef4-98ae-6e4f195227a5")
		(effects
			(font
				(size 1.27 1.27)
				(thickness 0.15)
			)
		)
	)
	(attr through_hole)
	(fp_circle
		(center -2.2 -2.2)
		(end -2 -2.2)
		(stroke
			(width 0.12)
			(type solid)
		)
		(fill solid)
		(layer "F.SilkS")
		(uuid "b88bd979-f486-4501-a4ee-c16fb5581aca")
	)
	(fp_circle
		(center 0 0)
		(end 2.65 0)
		(stroke
			(width 0.12)
			(type solid)
		)
		(fill none)
		(layer "F.SilkS")
		(uuid "77de75c3-a55a-4b72-8fa6-fd3b9f05f1c9")
	)
	(fp_circle
		(center 0 0)
		(end 3.15 0)
		(stroke
			(width 0.01)
			(type default)
		)
		(fill none)
		(layer "F.CrtYd")
		(uuid "00733720-ca92-4502-a8cb-0f3f2dd282ae")
	)
	(fp_line
		(start -1.65 2.05)
		(end -1.65 -2.05)
		(stroke
			(width 0.1)
			(type solid)
		)
		(layer "F.Fab")
		(uuid "118b87de-1622-4478-821e-18a3e13ff750")
	)
	(fp_circle
		(center 0 0)
		(end 0 2.65)
		(stroke
			(width 0.1)
			(type solid)
		)
		(fill none)
		(layer "F.Fab")
		(uuid "0cec53ce-aa91-467e-a7af-884794b73673")
	)
	(pad "A" thru_hole circle
		(at 1.27 0 180)
		(size 1.5 1.5)
		(drill 1)
		(layers "*.Cu" "*.Mask")
		(remove_unused_layers no)
		(uuid "efc3b682-ecaf-4b7a-a931-c4a08c637c04")
	)
	(pad "K" thru_hole circle
		(at -1.27 0 180)
		(size 1.5 1.5)
		(drill 1)
		(layers "*.Cu" "*.Mask")
		(remove_unused_layers no)
		(uuid "55b4a121-2d98-46e2-b35f-4bf32feadf67")
	)
	(model "${KICAD8_3DMODEL_DIR}/WE/WL-TMRW-151053.wrl"
		(offset
			(xyz 0 0 0)
		)
		(scale
			(xyz 1 1 1)
		)
		(rotate
			(xyz 0 0 0)
		)
	)
)
