(footprint "WE-WL-SFTW-150141M173100"
	(version 20240108)
	(generator "pcbnew")
	(generator_version "8.0")
	(layer "F.Cu")
	(descr "PLCC3528 RGB LED")
	(property "Reference" "WL-SFTW"
		(at 0 0 0)
		(layer "F.Fab")
		(uuid "669e3b34-230a-40b2-a552-868eb6663525")
		(effects
			(font
				(size 1.2 1.2)
				(thickness 0.12)
			)
		)
	)
	(property "Value" "WL-SFTW"
		(at 0 0 0)
		(layer "F.Fab")
		(hide yes)
		(uuid "86912ce4-20f7-4335-bff4-d4ff57943361")
		(effects
			(font
				(size 1.2 1.2)
				(thickness 0.12)
			)
		)
	)
	(property "Footprint" ""
		(at 0 0 0)
		(unlocked yes)
		(layer "F.Fab")
		(hide yes)
		(uuid "5440eaaf-f4bf-4288-a49c-0245b3dc840e")
		(effects
			(font
				(size 1.27 1.27)
			)
		)
	)
	(property "Datasheet" ""
		(at 0 0 0)
		(unlocked yes)
		(layer "F.Fab")
		(hide yes)
		(uuid "c4d60411-5732-4958-bdfb-397371792368")
		(effects
			(font
				(size 1.27 1.27)
			)
		)
	)
	(property "Description" ""
		(at 0 0 0)
		(unlocked yes)
		(layer "F.Fab")
		(hide yes)
		(uuid "95d7c23e-a418-491f-ba0a-1da926cc116f")
		(effects
			(font
				(size 1.27 1.27)
			)
		)
	)
	(attr smd)
	(fp_line
		(start -1.85 1.65)
		(end 1.85 1.65)
		(stroke
			(width 0.12)
			(type solid)
		)
		(layer "F.SilkS")
		(uuid "4e9d8de4-e899-4d50-bf4b-0ac8404fb2eb")
	)
	(fp_line
		(start 1.85 -1.65)
		(end -2.5 -1.65)
		(stroke
			(width 0.12)
			(type solid)
		)
		(layer "F.SilkS")
		(uuid "d3fe26c9-0fee-4a35-9503-fe72bf627918")
	)
	(fp_circle
		(center 0 0)
		(end 1.2 0)
		(stroke
			(width 0.1)
			(type solid)
		)
		(fill none)
		(layer "Dwgs.User")
		(uuid "95c117c5-0897-4b3e-a1bb-44d48520f4e8")
	)
	(fp_line
		(start -1.85 -0.5)
		(end -0.85 -1.5)
		(stroke
			(width 0.1)
			(type solid)
		)
		(layer "F.Fab")
		(uuid "46c5d0f2-2ddd-4f56-a5fb-68cb716a5b50")
	)
	(fp_rect
		(start -1.85 -1.5)
		(end 1.85 1.5)
		(stroke
			(width 0.1)
			(type solid)
		)
		(fill none)
		(layer "F.Fab")
		(uuid "2abc7c20-4773-4b55-ade3-fabe85079d1d")
	)
	(fp_circle
		(center 0 0)
		(end 1.2 0)
		(stroke
			(width 0.1)
			(type solid)
		)
		(fill none)
		(layer "F.Fab")
		(uuid "bee47304-b778-446a-b209-dd06d7b250bc")
	)
	(pad "1" smd rect
		(at 1.55 -0.8)
		(size 1.9 1.1)
		(layers "F.Cu" "F.Paste" "F.Mask")
		(uuid "901c89b9-513a-48d9-ad04-8bdbc55c53ee")
	)
	(pad "2" smd rect
		(at 1.55 0.8)
		(size 1.9 1.1)
		(layers "F.Cu" "F.Paste" "F.Mask")
		(uuid "a34f41b4-17ee-49ae-8bd3-ece14c303409")
	)
	(pad "3" smd rect
		(at -1.55 -0.8)
		(size 1.9 1.1)
		(layers "F.Cu" "F.Paste" "F.Mask")
		(uuid "e9007ce6-e19a-4117-a78b-3464a1153378")
	)
	(pad "4" smd rect
		(at -1.55 0.8)
		(size 1.9 1.1)
		(layers "F.Cu" "F.Paste" "F.Mask")
		(uuid "98155958-b559-46ce-9699-ae447ee92dee")
	)
	(model "${KISYS3DMOD}/WE/WL-SFTW-150141M173100.wrl"
		(offset
			(xyz 0 0 0)
		)
		(scale
			(xyz 1 1 1)
		)
		(rotate
			(xyz 0 0 0)
		)
	)
)