ISO-10303-21;
HEADER;
FILE_DESCRIPTION(('FreeCAD Model'),'2;1');
FILE_NAME('Open CASCADE Shape Model','2021-06-28T13:35:28',(
    'kicad StepUp'),('ksu MCAD'),'Open CASCADE STEP processor 7.5',
  'FreeCAD','Unknown');
FILE_SCHEMA(('AUTOMOTIVE_DESIGN { 1 0 10303 214 1 1 1 1 }'));
ENDSEC;
DATA;
#1 = APPLICATION_PROTOCOL_DEFINITION('international standard',
  'automotive_design',2000,#2);
#2 = APPLICATION_CONTEXT(
  'core data for automotive mechanical design processes');
#3 = SHAPE_DEFINITION_REPRESENTATION(#4,#10);
#4 = PRODUCT_DEFINITION_SHAPE('','',#5);
#5 = PRODUCT_DEFINITION('design','',#6,#9);
#6 = PRODUCT_DEFINITION_FORMATION('','',#7);
#7 = PRODUCT('017AA','017AA','',(#8));
#8 = PRODUCT_CONTEXT('',#2,'mechanical');
#9 = PRODUCT_DEFINITION_CONTEXT('part definition',#2,'design');
#10 = ADVANCED_BREP_SHAPE_REPRESENTATION('',(#11,#15),#400);
#11 = AXIS2_PLACEMENT_3D('',#12,#13,#14);
#12 = CARTESIAN_POINT('',(0.,0.,0.));
#13 = DIRECTION('',(0.,0.,1.));
#14 = DIRECTION('',(1.,0.,-0.));
#15 = MANIFOLD_SOLID_BREP('',#16);
#16 = CLOSED_SHELL('',(#17,#34,#59,#84,#110,#135,#155,#180,#200,#225,
    #245,#270,#290,#315,#341,#366,#391));
#17 = ADVANCED_FACE('',(#18),#29,.T.);
#18 = FACE_BOUND('',#19,.T.);
#19 = EDGE_LOOP('',(#20));
#20 = ORIENTED_EDGE('',*,*,#21,.T.);
#21 = EDGE_CURVE('',#22,#22,#24,.T.);
#22 = VERTEX_POINT('',#23);
#23 = CARTESIAN_POINT('',(-8.12,0.,-2.6));
#24 = CIRCLE('',#25,0.5);
#25 = AXIS2_PLACEMENT_3D('',#26,#27,#28);
#26 = CARTESIAN_POINT('',(-7.62,0.,-2.6));
#27 = DIRECTION('',(-1.415325E-11,4.4E-16,-1.));
#28 = DIRECTION('',(-1.,0.,1.415325E-11));
#29 = PLANE('',#30);
#30 = AXIS2_PLACEMENT_3D('',#31,#32,#33);
#31 = CARTESIAN_POINT('',(-7.62,4.E-17,-2.6));
#32 = DIRECTION('',(-1.415312E-11,5.1E-16,-1.));
#33 = DIRECTION('',(-1.,0.,1.415312E-11));
#34 = ADVANCED_FACE('',(#35),#54,.T.);
#35 = FACE_BOUND('',#36,.T.);
#36 = EDGE_LOOP('',(#37,#45,#52,#53));
#37 = ORIENTED_EDGE('',*,*,#38,.T.);
#38 = EDGE_CURVE('',#22,#39,#41,.T.);
#39 = VERTEX_POINT('',#40);
#40 = CARTESIAN_POINT('',(-8.12,-1.E-15,7.077E-12));
#41 = LINE('',#42,#43);
#42 = CARTESIAN_POINT('',(-8.12,1.2E-16,-2.6));
#43 = VECTOR('',#44,1.);
#44 = DIRECTION('',(0.,-2.2E-16,1.));
#45 = ORIENTED_EDGE('',*,*,#46,.F.);
#46 = EDGE_CURVE('',#39,#39,#47,.T.);
#47 = CIRCLE('',#48,0.5);
#48 = AXIS2_PLACEMENT_3D('',#49,#50,#51);
#49 = CARTESIAN_POINT('',(-7.62,-5.8E-16,0.));
#50 = DIRECTION('',(0.,-2.2E-16,1.));
#51 = DIRECTION('',(-1.,0.,0.));
#52 = ORIENTED_EDGE('',*,*,#38,.F.);
#53 = ORIENTED_EDGE('',*,*,#21,.F.);
#54 = CYLINDRICAL_SURFACE('',#55,0.5);
#55 = AXIS2_PLACEMENT_3D('',#56,#57,#58);
#56 = CARTESIAN_POINT('',(-7.62,0.,-2.6));
#57 = DIRECTION('',(0.,-2.2E-16,1.));
#58 = DIRECTION('',(-1.,0.,0.));
#59 = ADVANCED_FACE('',(#60),#79,.T.);
#60 = FACE_BOUND('',#61,.T.);
#61 = EDGE_LOOP('',(#62,#70,#77,#78));
#62 = ORIENTED_EDGE('',*,*,#63,.T.);
#63 = EDGE_CURVE('',#39,#64,#66,.T.);
#64 = VERTEX_POINT('',#65);
#65 = CARTESIAN_POINT('',(-8.12,-1.E-15,0.500000000007));
#66 = LINE('',#67,#68);
#67 = CARTESIAN_POINT('',(-8.12,-4.5E-16,0.));
#68 = VECTOR('',#69,1.);
#69 = DIRECTION('',(0.,-2.2E-16,1.));
#70 = ORIENTED_EDGE('',*,*,#71,.F.);
#71 = EDGE_CURVE('',#64,#64,#72,.T.);
#72 = CIRCLE('',#73,0.5);
#73 = AXIS2_PLACEMENT_3D('',#74,#75,#76);
#74 = CARTESIAN_POINT('',(-7.62,-6.9E-16,0.5));
#75 = DIRECTION('',(0.,-2.2E-16,1.));
#76 = DIRECTION('',(-1.,0.,0.));
#77 = ORIENTED_EDGE('',*,*,#63,.F.);
#78 = ORIENTED_EDGE('',*,*,#46,.T.);
#79 = CYLINDRICAL_SURFACE('',#80,0.5);
#80 = AXIS2_PLACEMENT_3D('',#81,#82,#83);
#81 = CARTESIAN_POINT('',(-7.62,-5.8E-16,0.));
#82 = DIRECTION('',(0.,-2.2E-16,1.));
#83 = DIRECTION('',(-1.,0.,0.));
#84 = ADVANCED_FACE('',(#85),#105,.T.);
#85 = FACE_BOUND('',#86,.T.);
#86 = EDGE_LOOP('',(#87,#96,#103,#104));
#87 = ORIENTED_EDGE('',*,*,#88,.T.);
#88 = EDGE_CURVE('',#64,#89,#91,.T.);
#89 = VERTEX_POINT('',#90);
#90 = CARTESIAN_POINT('',(-6.119999999993,-1.E-15,2.5));
#91 = CIRCLE('',#92,2.);
#92 = AXIS2_PLACEMENT_3D('',#93,#94,#95);
#93 = CARTESIAN_POINT('',(-6.12,-6.9E-16,0.5));
#94 = DIRECTION('',(-0.,1.,2.2E-16));
#95 = DIRECTION('',(1.,0.,0.));
#96 = ORIENTED_EDGE('',*,*,#97,.T.);
#97 = EDGE_CURVE('',#89,#89,#98,.T.);
#98 = CIRCLE('',#99,0.5);
#99 = AXIS2_PLACEMENT_3D('',#100,#101,#102);
#100 = CARTESIAN_POINT('',(-6.12,-1.02E-15,2.));
#101 = DIRECTION('',(-1.,0.,-1.8E-16));
#102 = DIRECTION('',(-1.8E-16,-2.2E-16,1.));
#103 = ORIENTED_EDGE('',*,*,#88,.F.);
#104 = ORIENTED_EDGE('',*,*,#71,.T.);
#105 = TOROIDAL_SURFACE('',#106,1.5,0.5);
#106 = AXIS2_PLACEMENT_3D('',#107,#108,#109);
#107 = CARTESIAN_POINT('',(-6.12,-6.9E-16,0.5));
#108 = DIRECTION('',(0.,1.,2.2E-16));
#109 = DIRECTION('',(1.,0.,0.));
#110 = ADVANCED_FACE('',(#111),#130,.T.);
#111 = FACE_BOUND('',#112,.T.);
#112 = EDGE_LOOP('',(#113,#114,#122,#129));
#113 = ORIENTED_EDGE('',*,*,#97,.F.);
#114 = ORIENTED_EDGE('',*,*,#115,.T.);
#115 = EDGE_CURVE('',#89,#116,#118,.T.);
#116 = VERTEX_POINT('',#117);
#117 = CARTESIAN_POINT('',(-4.35,-1.E-15,2.5));
#118 = LINE('',#119,#120);
#119 = CARTESIAN_POINT('',(-6.12,-1.01E-15,2.5));
#120 = VECTOR('',#121,1.);
#121 = DIRECTION('',(1.,0.,0.));
#122 = ORIENTED_EDGE('',*,*,#123,.F.);
#123 = EDGE_CURVE('',#116,#116,#124,.T.);
#124 = CIRCLE('',#125,0.5);
#125 = AXIS2_PLACEMENT_3D('',#126,#127,#128);
#126 = CARTESIAN_POINT('',(-4.35,-1.02E-15,2.));
#127 = DIRECTION('',(1.,0.,0.));
#128 = DIRECTION('',(0.,-2.2E-16,1.));
#129 = ORIENTED_EDGE('',*,*,#115,.F.);
#130 = CYLINDRICAL_SURFACE('',#131,0.5);
#131 = AXIS2_PLACEMENT_3D('',#132,#133,#134);
#132 = CARTESIAN_POINT('',(-6.12,-1.02E-15,2.));
#133 = DIRECTION('',(1.,0.,0.));
#134 = DIRECTION('',(0.,-2.2E-16,1.));
#135 = ADVANCED_FACE('',(#136,#147),#150,.T.);
#136 = FACE_BOUND('',#137,.T.);
#137 = EDGE_LOOP('',(#138));
#138 = ORIENTED_EDGE('',*,*,#139,.T.);
#139 = EDGE_CURVE('',#140,#140,#142,.T.);
#140 = VERTEX_POINT('',#141);
#141 = CARTESIAN_POINT('',(-4.35,0.,3.75));
#142 = CIRCLE('',#143,1.75);
#143 = AXIS2_PLACEMENT_3D('',#144,#145,#146);
#144 = CARTESIAN_POINT('',(-4.35,-4.4E-16,2.));
#145 = DIRECTION('',(-1.,0.,0.));
#146 = DIRECTION('',(0.,-2.2E-16,1.));
#147 = FACE_BOUND('',#148,.T.);
#148 = EDGE_LOOP('',(#149));
#149 = ORIENTED_EDGE('',*,*,#123,.T.);
#150 = PLANE('',#151);
#151 = AXIS2_PLACEMENT_3D('',#152,#153,#154);
#152 = CARTESIAN_POINT('',(-4.35,-4.4E-16,2.));
#153 = DIRECTION('',(-1.,0.,0.));
#154 = DIRECTION('',(0.,-2.2E-16,1.));
#155 = ADVANCED_FACE('',(#156),#175,.T.);
#156 = FACE_BOUND('',#157,.T.);
#157 = EDGE_LOOP('',(#158,#166,#173,#174));
#158 = ORIENTED_EDGE('',*,*,#159,.T.);
#159 = EDGE_CURVE('',#140,#160,#162,.T.);
#160 = VERTEX_POINT('',#161);
#161 = CARTESIAN_POINT('',(1.85,0.,3.75));
#162 = LINE('',#163,#164);
#163 = CARTESIAN_POINT('',(-4.35,0.,3.75));
#164 = VECTOR('',#165,1.);
#165 = DIRECTION('',(1.,0.,0.));
#166 = ORIENTED_EDGE('',*,*,#167,.T.);
#167 = EDGE_CURVE('',#160,#160,#168,.T.);
#168 = CIRCLE('',#169,1.75);
#169 = AXIS2_PLACEMENT_3D('',#170,#171,#172);
#170 = CARTESIAN_POINT('',(1.85,-4.4E-16,2.));
#171 = DIRECTION('',(-1.,0.,0.));
#172 = DIRECTION('',(0.,-2.2E-16,1.));
#173 = ORIENTED_EDGE('',*,*,#159,.F.);
#174 = ORIENTED_EDGE('',*,*,#139,.F.);
#175 = CYLINDRICAL_SURFACE('',#176,1.75);
#176 = AXIS2_PLACEMENT_3D('',#177,#178,#179);
#177 = CARTESIAN_POINT('',(-4.35,-4.4E-16,2.));
#178 = DIRECTION('',(1.,0.,0.));
#179 = DIRECTION('',(0.,-2.2E-16,1.));
#180 = ADVANCED_FACE('',(#181,#184),#195,.F.);
#181 = FACE_BOUND('',#182,.F.);
#182 = EDGE_LOOP('',(#183));
#183 = ORIENTED_EDGE('',*,*,#167,.T.);
#184 = FACE_BOUND('',#185,.F.);
#185 = EDGE_LOOP('',(#186));
#186 = ORIENTED_EDGE('',*,*,#187,.F.);
#187 = EDGE_CURVE('',#188,#188,#190,.T.);
#188 = VERTEX_POINT('',#189);
#189 = CARTESIAN_POINT('',(1.85,0.,3.65));
#190 = CIRCLE('',#191,1.65);
#191 = AXIS2_PLACEMENT_3D('',#192,#193,#194);
#192 = CARTESIAN_POINT('',(1.85,-4.4E-16,2.));
#193 = DIRECTION('',(-1.,0.,0.));
#194 = DIRECTION('',(0.,-2.2E-16,1.));
#195 = PLANE('',#196);
#196 = AXIS2_PLACEMENT_3D('',#197,#198,#199);
#197 = CARTESIAN_POINT('',(1.85,-4.4E-16,2.));
#198 = DIRECTION('',(-1.,0.,0.));
#199 = DIRECTION('',(0.,-2.2E-16,1.));
#200 = ADVANCED_FACE('',(#201),#220,.T.);
#201 = FACE_BOUND('',#202,.T.);
#202 = EDGE_LOOP('',(#203,#211,#218,#219));
#203 = ORIENTED_EDGE('',*,*,#204,.T.);
#204 = EDGE_CURVE('',#188,#205,#207,.T.);
#205 = VERTEX_POINT('',#206);
#206 = CARTESIAN_POINT('',(2.85,0.,3.65));
#207 = LINE('',#208,#209);
#208 = CARTESIAN_POINT('',(1.85,0.,3.65));
#209 = VECTOR('',#210,1.);
#210 = DIRECTION('',(1.,0.,0.));
#211 = ORIENTED_EDGE('',*,*,#212,.T.);
#212 = EDGE_CURVE('',#205,#205,#213,.T.);
#213 = CIRCLE('',#214,1.65);
#214 = AXIS2_PLACEMENT_3D('',#215,#216,#217);
#215 = CARTESIAN_POINT('',(2.85,-4.4E-16,2.));
#216 = DIRECTION('',(-1.,0.,0.));
#217 = DIRECTION('',(0.,-2.2E-16,1.));
#218 = ORIENTED_EDGE('',*,*,#204,.F.);
#219 = ORIENTED_EDGE('',*,*,#187,.F.);
#220 = CYLINDRICAL_SURFACE('',#221,1.65);
#221 = AXIS2_PLACEMENT_3D('',#222,#223,#224);
#222 = CARTESIAN_POINT('',(1.85,-4.4E-16,2.));
#223 = DIRECTION('',(1.,0.,0.));
#224 = DIRECTION('',(0.,-2.2E-16,1.));
#225 = ADVANCED_FACE('',(#226,#229),#240,.T.);
#226 = FACE_BOUND('',#227,.F.);
#227 = EDGE_LOOP('',(#228));
#228 = ORIENTED_EDGE('',*,*,#212,.T.);
#229 = FACE_BOUND('',#230,.F.);
#230 = EDGE_LOOP('',(#231));
#231 = ORIENTED_EDGE('',*,*,#232,.F.);
#232 = EDGE_CURVE('',#233,#233,#235,.T.);
#233 = VERTEX_POINT('',#234);
#234 = CARTESIAN_POINT('',(2.85,0.,3.75));
#235 = CIRCLE('',#236,1.75);
#236 = AXIS2_PLACEMENT_3D('',#237,#238,#239);
#237 = CARTESIAN_POINT('',(2.85,-4.4E-16,2.));
#238 = DIRECTION('',(-1.,0.,0.));
#239 = DIRECTION('',(0.,-2.2E-16,1.));
#240 = PLANE('',#241);
#241 = AXIS2_PLACEMENT_3D('',#242,#243,#244);
#242 = CARTESIAN_POINT('',(2.85,-4.4E-16,2.));
#243 = DIRECTION('',(-1.,0.,0.));
#244 = DIRECTION('',(0.,-2.2E-16,1.));
#245 = ADVANCED_FACE('',(#246),#265,.T.);
#246 = FACE_BOUND('',#247,.T.);
#247 = EDGE_LOOP('',(#248,#256,#263,#264));
#248 = ORIENTED_EDGE('',*,*,#249,.T.);
#249 = EDGE_CURVE('',#233,#250,#252,.T.);
#250 = VERTEX_POINT('',#251);
#251 = CARTESIAN_POINT('',(4.35,0.,3.75));
#252 = LINE('',#253,#254);
#253 = CARTESIAN_POINT('',(2.85,0.,3.75));
#254 = VECTOR('',#255,1.);
#255 = DIRECTION('',(1.,0.,0.));
#256 = ORIENTED_EDGE('',*,*,#257,.T.);
#257 = EDGE_CURVE('',#250,#250,#258,.T.);
#258 = CIRCLE('',#259,1.75);
#259 = AXIS2_PLACEMENT_3D('',#260,#261,#262);
#260 = CARTESIAN_POINT('',(4.35,-4.4E-16,2.));
#261 = DIRECTION('',(-1.,0.,0.));
#262 = DIRECTION('',(0.,-2.2E-16,1.));
#263 = ORIENTED_EDGE('',*,*,#249,.F.);
#264 = ORIENTED_EDGE('',*,*,#232,.F.);
#265 = CYLINDRICAL_SURFACE('',#266,1.75);
#266 = AXIS2_PLACEMENT_3D('',#267,#268,#269);
#267 = CARTESIAN_POINT('',(2.85,-4.4E-16,2.));
#268 = DIRECTION('',(1.,0.,0.));
#269 = DIRECTION('',(0.,-2.2E-16,1.));
#270 = ADVANCED_FACE('',(#271,#274),#285,.F.);
#271 = FACE_BOUND('',#272,.F.);
#272 = EDGE_LOOP('',(#273));
#273 = ORIENTED_EDGE('',*,*,#257,.T.);
#274 = FACE_BOUND('',#275,.F.);
#275 = EDGE_LOOP('',(#276));
#276 = ORIENTED_EDGE('',*,*,#277,.T.);
#277 = EDGE_CURVE('',#278,#278,#280,.T.);
#278 = VERTEX_POINT('',#279);
#279 = CARTESIAN_POINT('',(4.35,-1.E-15,2.5));
#280 = CIRCLE('',#281,0.5);
#281 = AXIS2_PLACEMENT_3D('',#282,#283,#284);
#282 = CARTESIAN_POINT('',(4.35,-1.02E-15,2.));
#283 = DIRECTION('',(1.,0.,0.));
#284 = DIRECTION('',(0.,-2.2E-16,1.));
#285 = PLANE('',#286);
#286 = AXIS2_PLACEMENT_3D('',#287,#288,#289);
#287 = CARTESIAN_POINT('',(4.35,-4.4E-16,2.));
#288 = DIRECTION('',(-1.,0.,0.));
#289 = DIRECTION('',(0.,-2.2E-16,1.));
#290 = ADVANCED_FACE('',(#291),#310,.T.);
#291 = FACE_BOUND('',#292,.T.);
#292 = EDGE_LOOP('',(#293,#294,#302,#309));
#293 = ORIENTED_EDGE('',*,*,#277,.T.);
#294 = ORIENTED_EDGE('',*,*,#295,.T.);
#295 = EDGE_CURVE('',#278,#296,#298,.T.);
#296 = VERTEX_POINT('',#297);
#297 = CARTESIAN_POINT('',(6.120000000007,-1.E-15,2.5));
#298 = LINE('',#299,#300);
#299 = CARTESIAN_POINT('',(-6.12,-1.01E-15,2.5));
#300 = VECTOR('',#301,1.);
#301 = DIRECTION('',(1.,0.,0.));
#302 = ORIENTED_EDGE('',*,*,#303,.F.);
#303 = EDGE_CURVE('',#296,#296,#304,.T.);
#304 = CIRCLE('',#305,0.5);
#305 = AXIS2_PLACEMENT_3D('',#306,#307,#308);
#306 = CARTESIAN_POINT('',(6.12,-1.02E-15,2.));
#307 = DIRECTION('',(1.,0.,0.));
#308 = DIRECTION('',(0.,-2.2E-16,1.));
#309 = ORIENTED_EDGE('',*,*,#295,.F.);
#310 = CYLINDRICAL_SURFACE('',#311,0.5);
#311 = AXIS2_PLACEMENT_3D('',#312,#313,#314);
#312 = CARTESIAN_POINT('',(-6.12,-1.02E-15,2.));
#313 = DIRECTION('',(1.,0.,0.));
#314 = DIRECTION('',(0.,-2.2E-16,1.));
#315 = ADVANCED_FACE('',(#316),#336,.T.);
#316 = FACE_BOUND('',#317,.T.);
#317 = EDGE_LOOP('',(#318,#327,#334,#335));
#318 = ORIENTED_EDGE('',*,*,#319,.T.);
#319 = EDGE_CURVE('',#296,#320,#322,.T.);
#320 = VERTEX_POINT('',#321);
#321 = CARTESIAN_POINT('',(8.119999999989,-1.E-15,0.5));
#322 = CIRCLE('',#323,2.);
#323 = AXIS2_PLACEMENT_3D('',#324,#325,#326);
#324 = CARTESIAN_POINT('',(6.119999999979,-6.9E-16,0.5));
#325 = DIRECTION('',(-0.,1.,2.2E-16));
#326 = DIRECTION('',(1.,0.,0.));
#327 = ORIENTED_EDGE('',*,*,#328,.T.);
#328 = EDGE_CURVE('',#320,#320,#329,.T.);
#329 = CIRCLE('',#330,0.5);
#330 = AXIS2_PLACEMENT_3D('',#331,#332,#333);
#331 = CARTESIAN_POINT('',(7.619999999979,-6.9E-16,0.5));
#332 = DIRECTION('',(-1.13E-15,-2.2E-16,1.));
#333 = DIRECTION('',(1.,0.,1.13E-15));
#334 = ORIENTED_EDGE('',*,*,#319,.F.);
#335 = ORIENTED_EDGE('',*,*,#303,.T.);
#336 = TOROIDAL_SURFACE('',#337,1.5,0.5);
#337 = AXIS2_PLACEMENT_3D('',#338,#339,#340);
#338 = CARTESIAN_POINT('',(6.119999999979,-6.9E-16,0.5));
#339 = DIRECTION('',(0.,1.,2.2E-16));
#340 = DIRECTION('',(1.,0.,0.));
#341 = ADVANCED_FACE('',(#342),#361,.T.);
#342 = FACE_BOUND('',#343,.T.);
#343 = EDGE_LOOP('',(#344,#352,#359,#360));
#344 = ORIENTED_EDGE('',*,*,#345,.T.);
#345 = EDGE_CURVE('',#320,#346,#348,.T.);
#346 = VERTEX_POINT('',#347);
#347 = CARTESIAN_POINT('',(8.12,-1.E-15,0.));
#348 = LINE('',#349,#350);
#349 = CARTESIAN_POINT('',(8.12,-5.7E-16,0.5));
#350 = VECTOR('',#351,1.);
#351 = DIRECTION('',(0.,2.2E-16,-1.));
#352 = ORIENTED_EDGE('',*,*,#353,.F.);
#353 = EDGE_CURVE('',#346,#346,#354,.T.);
#354 = CIRCLE('',#355,0.5);
#355 = AXIS2_PLACEMENT_3D('',#356,#357,#358);
#356 = CARTESIAN_POINT('',(7.62,-5.8E-16,0.));
#357 = DIRECTION('',(0.,2.2E-16,-1.));
#358 = DIRECTION('',(1.,0.,0.));
#359 = ORIENTED_EDGE('',*,*,#345,.F.);
#360 = ORIENTED_EDGE('',*,*,#328,.F.);
#361 = CYLINDRICAL_SURFACE('',#362,0.5);
#362 = AXIS2_PLACEMENT_3D('',#363,#364,#365);
#363 = CARTESIAN_POINT('',(7.62,-6.9E-16,0.5));
#364 = DIRECTION('',(0.,2.2E-16,-1.));
#365 = DIRECTION('',(1.,0.,0.));
#366 = ADVANCED_FACE('',(#367),#386,.T.);
#367 = FACE_BOUND('',#368,.T.);
#368 = EDGE_LOOP('',(#369,#377,#384,#385));
#369 = ORIENTED_EDGE('',*,*,#370,.T.);
#370 = EDGE_CURVE('',#346,#371,#373,.T.);
#371 = VERTEX_POINT('',#372);
#372 = CARTESIAN_POINT('',(8.12,0.,-2.6));
#373 = LINE('',#374,#375);
#374 = CARTESIAN_POINT('',(8.12,-4.5E-16,0.));
#375 = VECTOR('',#376,1.);
#376 = DIRECTION('',(0.,2.2E-16,-1.));
#377 = ORIENTED_EDGE('',*,*,#378,.T.);
#378 = EDGE_CURVE('',#371,#371,#379,.T.);
#379 = CIRCLE('',#380,0.5);
#380 = AXIS2_PLACEMENT_3D('',#381,#382,#383);
#381 = CARTESIAN_POINT('',(7.62,0.,-2.6));
#382 = DIRECTION('',(0.,0.,1.));
#383 = DIRECTION('',(1.,0.,0.));
#384 = ORIENTED_EDGE('',*,*,#370,.F.);
#385 = ORIENTED_EDGE('',*,*,#353,.T.);
#386 = CYLINDRICAL_SURFACE('',#387,0.5);
#387 = AXIS2_PLACEMENT_3D('',#388,#389,#390);
#388 = CARTESIAN_POINT('',(7.62,-5.8E-16,0.));
#389 = DIRECTION('',(0.,2.2E-16,-1.));
#390 = DIRECTION('',(1.,0.,0.));
#391 = ADVANCED_FACE('',(#392),#395,.F.);
#392 = FACE_BOUND('',#393,.F.);
#393 = EDGE_LOOP('',(#394));
#394 = ORIENTED_EDGE('',*,*,#378,.T.);
#395 = PLANE('',#396);
#396 = AXIS2_PLACEMENT_3D('',#397,#398,#399);
#397 = CARTESIAN_POINT('',(7.62,7.E-17,-2.6));
#398 = DIRECTION('',(0.,0.,1.));
#399 = DIRECTION('',(1.,0.,0.));
#400 = ( GEOMETRIC_REPRESENTATION_CONTEXT(3) 
GLOBAL_UNCERTAINTY_ASSIGNED_CONTEXT((#404)) GLOBAL_UNIT_ASSIGNED_CONTEXT
((#401,#402,#403)) REPRESENTATION_CONTEXT('Context #1',
  '3D Context with UNIT and UNCERTAINTY') );
#401 = ( LENGTH_UNIT() NAMED_UNIT(*) SI_UNIT(.MILLI.,.METRE.) );
#402 = ( NAMED_UNIT(*) PLANE_ANGLE_UNIT() SI_UNIT($,.RADIAN.) );
#403 = ( NAMED_UNIT(*) SI_UNIT($,.STERADIAN.) SOLID_ANGLE_UNIT() );
#404 = UNCERTAINTY_MEASURE_WITH_UNIT(LENGTH_MEASURE(1.E-07),#401,
  'distance_accuracy_value','confusion accuracy');
#405 = PRODUCT_RELATED_PRODUCT_CATEGORY('part',$,(#7));
#406 = MECHANICAL_DESIGN_GEOMETRIC_PRESENTATION_REPRESENTATION('',(#407,
    #418,#426,#433,#440,#447,#454,#462,#469,#476,#484,#491,#498,#505,
    #512,#519,#526,#533),#400);
#407 = STYLED_ITEM('color',(#408),#15);
#408 = PRESENTATION_STYLE_ASSIGNMENT((#409,#415));
#409 = SURFACE_STYLE_USAGE(.BOTH.,#410);
#410 = SURFACE_SIDE_STYLE('',(#411));
#411 = SURFACE_STYLE_FILL_AREA(#412);
#412 = FILL_AREA_STYLE('',(#413));
#413 = FILL_AREA_STYLE_COLOUR('',#414);
#414 = COLOUR_RGB('',0.906331759313,0.906331759313,0.906331759313);
#415 = CURVE_STYLE('',#416,POSITIVE_LENGTH_MEASURE(0.1),#417);
#416 = DRAUGHTING_PRE_DEFINED_CURVE_FONT('continuous');
#417 = COLOUR_RGB('',0.345868924627,0.345868924627,0.345868924627);
#418 = OVER_RIDING_STYLED_ITEM('overriding color',(#419),#17,#407);
#419 = PRESENTATION_STYLE_ASSIGNMENT((#420));
#420 = SURFACE_STYLE_USAGE(.BOTH.,#421);
#421 = SURFACE_SIDE_STYLE('',(#422));
#422 = SURFACE_STYLE_FILL_AREA(#423);
#423 = FILL_AREA_STYLE('',(#424));
#424 = FILL_AREA_STYLE_COLOUR('',#425);
#425 = COLOUR_RGB('',0.918244888298,0.916273552573,0.896751846243);
#426 = OVER_RIDING_STYLED_ITEM('overriding color',(#427),#34,#407);
#427 = PRESENTATION_STYLE_ASSIGNMENT((#428));
#428 = SURFACE_STYLE_USAGE(.BOTH.,#429);
#429 = SURFACE_SIDE_STYLE('',(#430));
#430 = SURFACE_STYLE_FILL_AREA(#431);
#431 = FILL_AREA_STYLE('',(#432));
#432 = FILL_AREA_STYLE_COLOUR('',#425);
#433 = OVER_RIDING_STYLED_ITEM('overriding color',(#434),#59,#407);
#434 = PRESENTATION_STYLE_ASSIGNMENT((#435));
#435 = SURFACE_STYLE_USAGE(.BOTH.,#436);
#436 = SURFACE_SIDE_STYLE('',(#437));
#437 = SURFACE_STYLE_FILL_AREA(#438);
#438 = FILL_AREA_STYLE('',(#439));
#439 = FILL_AREA_STYLE_COLOUR('',#425);
#440 = OVER_RIDING_STYLED_ITEM('overriding color',(#441),#84,#407);
#441 = PRESENTATION_STYLE_ASSIGNMENT((#442));
#442 = SURFACE_STYLE_USAGE(.BOTH.,#443);
#443 = SURFACE_SIDE_STYLE('',(#444));
#444 = SURFACE_STYLE_FILL_AREA(#445);
#445 = FILL_AREA_STYLE('',(#446));
#446 = FILL_AREA_STYLE_COLOUR('',#425);
#447 = OVER_RIDING_STYLED_ITEM('overriding color',(#448),#110,#407);
#448 = PRESENTATION_STYLE_ASSIGNMENT((#449));
#449 = SURFACE_STYLE_USAGE(.BOTH.,#450);
#450 = SURFACE_SIDE_STYLE('',(#451));
#451 = SURFACE_STYLE_FILL_AREA(#452);
#452 = FILL_AREA_STYLE('',(#453));
#453 = FILL_AREA_STYLE_COLOUR('',#425);
#454 = OVER_RIDING_STYLED_ITEM('overriding color',(#455),#135,#407);
#455 = PRESENTATION_STYLE_ASSIGNMENT((#456));
#456 = SURFACE_STYLE_USAGE(.BOTH.,#457);
#457 = SURFACE_SIDE_STYLE('',(#458));
#458 = SURFACE_STYLE_FILL_AREA(#459);
#459 = FILL_AREA_STYLE('',(#460));
#460 = FILL_AREA_STYLE_COLOUR('',#461);
#461 = COLOUR_RGB('',0.420913666924,0.416870095837,0.416870095837);
#462 = OVER_RIDING_STYLED_ITEM('overriding color',(#463),#155,#407);
#463 = PRESENTATION_STYLE_ASSIGNMENT((#464));
#464 = SURFACE_STYLE_USAGE(.BOTH.,#465);
#465 = SURFACE_SIDE_STYLE('',(#466));
#466 = SURFACE_STYLE_FILL_AREA(#467);
#467 = FILL_AREA_STYLE('',(#468));
#468 = FILL_AREA_STYLE_COLOUR('',#461);
#469 = OVER_RIDING_STYLED_ITEM('overriding color',(#470),#180,#407);
#470 = PRESENTATION_STYLE_ASSIGNMENT((#471));
#471 = SURFACE_STYLE_USAGE(.BOTH.,#472);
#472 = SURFACE_SIDE_STYLE('',(#473));
#473 = SURFACE_STYLE_FILL_AREA(#474);
#474 = FILL_AREA_STYLE('',(#475));
#475 = FILL_AREA_STYLE_COLOUR('',#461);
#476 = OVER_RIDING_STYLED_ITEM('overriding color',(#477),#200,#407);
#477 = PRESENTATION_STYLE_ASSIGNMENT((#478));
#478 = SURFACE_STYLE_USAGE(.BOTH.,#479);
#479 = SURFACE_SIDE_STYLE('',(#480));
#480 = SURFACE_STYLE_FILL_AREA(#481);
#481 = FILL_AREA_STYLE('',(#482));
#482 = FILL_AREA_STYLE_COLOUR('',#483);
#483 = COLOUR_RGB('',0.849416149683,0.834520208767,0.796552215638);
#484 = OVER_RIDING_STYLED_ITEM('overriding color',(#485),#225,#407);
#485 = PRESENTATION_STYLE_ASSIGNMENT((#486));
#486 = SURFACE_STYLE_USAGE(.BOTH.,#487);
#487 = SURFACE_SIDE_STYLE('',(#488));
#488 = SURFACE_STYLE_FILL_AREA(#489);
#489 = FILL_AREA_STYLE('',(#490));
#490 = FILL_AREA_STYLE_COLOUR('',#461);
#491 = OVER_RIDING_STYLED_ITEM('overriding color',(#492),#245,#407);
#492 = PRESENTATION_STYLE_ASSIGNMENT((#493));
#493 = SURFACE_STYLE_USAGE(.BOTH.,#494);
#494 = SURFACE_SIDE_STYLE('',(#495));
#495 = SURFACE_STYLE_FILL_AREA(#496);
#496 = FILL_AREA_STYLE('',(#497));
#497 = FILL_AREA_STYLE_COLOUR('',#461);
#498 = OVER_RIDING_STYLED_ITEM('overriding color',(#499),#270,#407);
#499 = PRESENTATION_STYLE_ASSIGNMENT((#500));
#500 = SURFACE_STYLE_USAGE(.BOTH.,#501);
#501 = SURFACE_SIDE_STYLE('',(#502));
#502 = SURFACE_STYLE_FILL_AREA(#503);
#503 = FILL_AREA_STYLE('',(#504));
#504 = FILL_AREA_STYLE_COLOUR('',#461);
#505 = OVER_RIDING_STYLED_ITEM('overriding color',(#506),#290,#407);
#506 = PRESENTATION_STYLE_ASSIGNMENT((#507));
#507 = SURFACE_STYLE_USAGE(.BOTH.,#508);
#508 = SURFACE_SIDE_STYLE('',(#509));
#509 = SURFACE_STYLE_FILL_AREA(#510);
#510 = FILL_AREA_STYLE('',(#511));
#511 = FILL_AREA_STYLE_COLOUR('',#425);
#512 = OVER_RIDING_STYLED_ITEM('overriding color',(#513),#315,#407);
#513 = PRESENTATION_STYLE_ASSIGNMENT((#514));
#514 = SURFACE_STYLE_USAGE(.BOTH.,#515);
#515 = SURFACE_SIDE_STYLE('',(#516));
#516 = SURFACE_STYLE_FILL_AREA(#517);
#517 = FILL_AREA_STYLE('',(#518));
#518 = FILL_AREA_STYLE_COLOUR('',#425);
#519 = OVER_RIDING_STYLED_ITEM('overriding color',(#520),#341,#407);
#520 = PRESENTATION_STYLE_ASSIGNMENT((#521));
#521 = SURFACE_STYLE_USAGE(.BOTH.,#522);
#522 = SURFACE_SIDE_STYLE('',(#523));
#523 = SURFACE_STYLE_FILL_AREA(#524);
#524 = FILL_AREA_STYLE('',(#525));
#525 = FILL_AREA_STYLE_COLOUR('',#425);
#526 = OVER_RIDING_STYLED_ITEM('overriding color',(#527),#366,#407);
#527 = PRESENTATION_STYLE_ASSIGNMENT((#528));
#528 = SURFACE_STYLE_USAGE(.BOTH.,#529);
#529 = SURFACE_SIDE_STYLE('',(#530));
#530 = SURFACE_STYLE_FILL_AREA(#531);
#531 = FILL_AREA_STYLE('',(#532));
#532 = FILL_AREA_STYLE_COLOUR('',#425);
#533 = OVER_RIDING_STYLED_ITEM('overriding color',(#534),#391,#407);
#534 = PRESENTATION_STYLE_ASSIGNMENT((#535));
#535 = SURFACE_STYLE_USAGE(.BOTH.,#536);
#536 = SURFACE_SIDE_STYLE('',(#537));
#537 = SURFACE_STYLE_FILL_AREA(#538);
#538 = FILL_AREA_STYLE('',(#539));
#539 = FILL_AREA_STYLE_COLOUR('',#425);
ENDSEC;
END-ISO-10303-21;
