ISO-10303-21;
HEADER;
FILE_DESCRIPTION(('FreeCAD Model'),'2;1');
FILE_NAME('Open CASCADE Shape Model','2022-03-01T13:52:48',(''),(''),
  'Open CASCADE STEP processor 7.5','FreeCAD','Unknown');
FILE_SCHEMA(('AUTOMOTIVE_DESIGN { 1 0 10303 214 1 1 1 1 }'));
ENDSEC;
DATA;
#1 = APPLICATION_PROTOCOL_DEFINITION('international standard',
  'automotive_design',2000,#2);
#2 = APPLICATION_CONTEXT(
  'core data for automotive mechanical design processes');
#3 = SHAPE_DEFINITION_REPRESENTATION(#4,#10);
#4 = PRODUCT_DEFINITION_SHAPE('','',#5);
#5 = PRODUCT_DEFINITION('design','',#6,#9);
#6 = PRODUCT_DEFINITION_FORMATION('','',#7);
#7 = PRODUCT('UDFN16-517BE-01','UDFN16-517BE-01','',(#8));
#8 = PRODUCT_CONTEXT('',#2,'mechanical');
#9 = PRODUCT_DEFINITION_CONTEXT('part definition',#2,'design');
#10 = SHAPE_REPRESENTATION('',(#11,#15,#19,#23,#27,#31,#35,#39,#43,#47,
    #51,#55,#59,#63,#67,#71,#75,#79,#83),#87);
#11 = AXIS2_PLACEMENT_3D('',#12,#13,#14);
#12 = CARTESIAN_POINT('',(0.,0.,0.));
#13 = DIRECTION('',(0.,0.,1.));
#14 = DIRECTION('',(1.,0.,-0.));
#15 = AXIS2_PLACEMENT_3D('',#16,#17,#18);
#16 = CARTESIAN_POINT('',(0.,0.,0.));
#17 = DIRECTION('',(0.,0.,1.));
#18 = DIRECTION('',(1.,0.,0.));
#19 = AXIS2_PLACEMENT_3D('',#20,#21,#22);
#20 = CARTESIAN_POINT('',(0.,0.,0.));
#21 = DIRECTION('',(0.,0.,1.));
#22 = DIRECTION('',(1.,0.,0.));
#23 = AXIS2_PLACEMENT_3D('',#24,#25,#26);
#24 = CARTESIAN_POINT('',(-1.4,0.,0.));
#25 = DIRECTION('',(0.,0.,1.));
#26 = DIRECTION('',(1.,0.,0.));
#27 = AXIS2_PLACEMENT_3D('',#28,#29,#30);
#28 = CARTESIAN_POINT('',(-1.,0.,0.));
#29 = DIRECTION('',(0.,0.,1.));
#30 = DIRECTION('',(1.,0.,0.));
#31 = AXIS2_PLACEMENT_3D('',#32,#33,#34);
#32 = CARTESIAN_POINT('',(-0.6,0.,0.));
#33 = DIRECTION('',(0.,0.,1.));
#34 = DIRECTION('',(1.,0.,0.));
#35 = AXIS2_PLACEMENT_3D('',#36,#37,#38);
#36 = CARTESIAN_POINT('',(-0.2,0.,0.));
#37 = DIRECTION('',(0.,0.,1.));
#38 = DIRECTION('',(1.,0.,0.));
#39 = AXIS2_PLACEMENT_3D('',#40,#41,#42);
#40 = CARTESIAN_POINT('',(0.2,0.,0.));
#41 = DIRECTION('',(0.,0.,1.));
#42 = DIRECTION('',(1.,0.,0.));
#43 = AXIS2_PLACEMENT_3D('',#44,#45,#46);
#44 = CARTESIAN_POINT('',(0.6,0.,0.));
#45 = DIRECTION('',(0.,0.,1.));
#46 = DIRECTION('',(1.,0.,0.));
#47 = AXIS2_PLACEMENT_3D('',#48,#49,#50);
#48 = CARTESIAN_POINT('',(1.,0.,0.));
#49 = DIRECTION('',(0.,0.,1.));
#50 = DIRECTION('',(1.,0.,0.));
#51 = AXIS2_PLACEMENT_3D('',#52,#53,#54);
#52 = CARTESIAN_POINT('',(1.4,0.,0.));
#53 = DIRECTION('',(0.,0.,1.));
#54 = DIRECTION('',(1.,0.,0.));
#55 = AXIS2_PLACEMENT_3D('',#56,#57,#58);
#56 = CARTESIAN_POINT('',(0.,0.,0.));
#57 = DIRECTION('',(0.,0.,1.));
#58 = DIRECTION('',(1.,0.,0.));
#59 = AXIS2_PLACEMENT_3D('',#60,#61,#62);
#60 = CARTESIAN_POINT('',(0.4,0.,0.));
#61 = DIRECTION('',(0.,0.,1.));
#62 = DIRECTION('',(1.,0.,0.));
#63 = AXIS2_PLACEMENT_3D('',#64,#65,#66);
#64 = CARTESIAN_POINT('',(0.8,0.,0.));
#65 = DIRECTION('',(0.,0.,1.));
#66 = DIRECTION('',(1.,0.,0.));
#67 = AXIS2_PLACEMENT_3D('',#68,#69,#70);
#68 = CARTESIAN_POINT('',(1.2,0.,0.));
#69 = DIRECTION('',(0.,0.,1.));
#70 = DIRECTION('',(1.,0.,0.));
#71 = AXIS2_PLACEMENT_3D('',#72,#73,#74);
#72 = CARTESIAN_POINT('',(1.6,0.,0.));
#73 = DIRECTION('',(0.,0.,1.));
#74 = DIRECTION('',(1.,0.,0.));
#75 = AXIS2_PLACEMENT_3D('',#76,#77,#78);
#76 = CARTESIAN_POINT('',(2.,0.,0.));
#77 = DIRECTION('',(0.,0.,1.));
#78 = DIRECTION('',(1.,0.,0.));
#79 = AXIS2_PLACEMENT_3D('',#80,#81,#82);
#80 = CARTESIAN_POINT('',(2.4,0.,0.));
#81 = DIRECTION('',(0.,0.,1.));
#82 = DIRECTION('',(1.,0.,0.));
#83 = AXIS2_PLACEMENT_3D('',#84,#85,#86);
#84 = CARTESIAN_POINT('',(2.8,0.,0.));
#85 = DIRECTION('',(0.,0.,1.));
#86 = DIRECTION('',(1.,0.,0.));
#87 = ( GEOMETRIC_REPRESENTATION_CONTEXT(3) 
GLOBAL_UNCERTAINTY_ASSIGNED_CONTEXT((#91)) GLOBAL_UNIT_ASSIGNED_CONTEXT(
(#88,#89,#90)) REPRESENTATION_CONTEXT('Context #1',
  '3D Context with UNIT and UNCERTAINTY') );
#88 = ( LENGTH_UNIT() NAMED_UNIT(*) SI_UNIT(.MILLI.,.METRE.) );
#89 = ( NAMED_UNIT(*) PLANE_ANGLE_UNIT() SI_UNIT($,.RADIAN.) );
#90 = ( NAMED_UNIT(*) SI_UNIT($,.STERADIAN.) SOLID_ANGLE_UNIT() );
#91 = UNCERTAINTY_MEASURE_WITH_UNIT(LENGTH_MEASURE(1.E-07),#88,
  'distance_accuracy_value','confusion accuracy');
#92 = PRODUCT_RELATED_PRODUCT_CATEGORY('part',$,(#7));
#93 = ADVANCED_BREP_SHAPE_REPRESENTATION('',(#11,#94),#244);
#94 = MANIFOLD_SOLID_BREP('',#95);
#95 = CLOSED_SHELL('',(#96,#136,#167,#198,#220,#232));
#96 = ADVANCED_FACE('',(#97),#131,.T.);
#97 = FACE_BOUND('',#98,.T.);
#98 = EDGE_LOOP('',(#99,#109,#117,#125));
#99 = ORIENTED_EDGE('',*,*,#100,.T.);
#100 = EDGE_CURVE('',#101,#103,#105,.T.);
#101 = VERTEX_POINT('',#102);
#102 = CARTESIAN_POINT('',(-1.65,0.675,2.E-02));
#103 = VERTEX_POINT('',#104);
#104 = CARTESIAN_POINT('',(-1.61293878967,0.63793878967,0.55));
#105 = LINE('',#106,#107);
#106 = CARTESIAN_POINT('',(-1.646731378202,0.671731378202,
    6.674346945825E-02));
#107 = VECTOR('',#108,1.);
#108 = DIRECTION('',(6.958737431666E-02,-6.958737431666E-02,
    0.995145815784));
#109 = ORIENTED_EDGE('',*,*,#110,.T.);
#110 = EDGE_CURVE('',#103,#111,#113,.T.);
#111 = VERTEX_POINT('',#112);
#112 = CARTESIAN_POINT('',(1.61293878967,0.63793878967,0.55));
#113 = LINE('',#114,#115);
#114 = CARTESIAN_POINT('',(-0.825,0.63793878967,0.55));
#115 = VECTOR('',#116,1.);
#116 = DIRECTION('',(1.,0.,0.));
#117 = ORIENTED_EDGE('',*,*,#118,.F.);
#118 = EDGE_CURVE('',#119,#111,#121,.T.);
#119 = VERTEX_POINT('',#120);
#120 = CARTESIAN_POINT('',(1.65,0.675,2.E-02));
#121 = LINE('',#122,#123);
#122 = CARTESIAN_POINT('',(1.642010035604,0.667010035604,0.134261814231)
  );
#123 = VECTOR('',#124,1.);
#124 = DIRECTION('',(-6.958737431666E-02,-6.958737431666E-02,
    0.995145815784));
#125 = ORIENTED_EDGE('',*,*,#126,.F.);
#126 = EDGE_CURVE('',#101,#119,#127,.T.);
#127 = LINE('',#128,#129);
#128 = CARTESIAN_POINT('',(-0.825,0.675,2.E-02));
#129 = VECTOR('',#130,1.);
#130 = DIRECTION('',(1.,0.,0.));
#131 = PLANE('',#132);
#132 = AXIS2_PLACEMENT_3D('',#133,#134,#135);
#133 = CARTESIAN_POINT('',(-1.65,0.675,2.E-02));
#134 = DIRECTION('',(0.,0.99756405026,6.975647374413E-02));
#135 = DIRECTION('',(1.,0.,0.));
#136 = ADVANCED_FACE('',(#137),#162,.T.);
#137 = FACE_BOUND('',#138,.T.);
#138 = EDGE_LOOP('',(#139,#140,#148,#156));
#139 = ORIENTED_EDGE('',*,*,#118,.T.);
#140 = ORIENTED_EDGE('',*,*,#141,.T.);
#141 = EDGE_CURVE('',#111,#142,#144,.T.);
#142 = VERTEX_POINT('',#143);
#143 = CARTESIAN_POINT('',(1.61293878967,-0.63793878967,0.55));
#144 = LINE('',#145,#146);
#145 = CARTESIAN_POINT('',(1.61293878967,0.3375,0.55));
#146 = VECTOR('',#147,1.);
#147 = DIRECTION('',(-0.,-1.,-0.));
#148 = ORIENTED_EDGE('',*,*,#149,.F.);
#149 = EDGE_CURVE('',#150,#142,#152,.T.);
#150 = VERTEX_POINT('',#151);
#151 = CARTESIAN_POINT('',(1.65,-0.675,2.E-02));
#152 = LINE('',#153,#154);
#153 = CARTESIAN_POINT('',(1.646731378202,-0.671731378202,
    6.674346945825E-02));
#154 = VECTOR('',#155,1.);
#155 = DIRECTION('',(-6.958737431666E-02,6.958737431666E-02,
    0.995145815784));
#156 = ORIENTED_EDGE('',*,*,#157,.F.);
#157 = EDGE_CURVE('',#119,#150,#158,.T.);
#158 = LINE('',#159,#160);
#159 = CARTESIAN_POINT('',(1.65,0.3375,2.E-02));
#160 = VECTOR('',#161,1.);
#161 = DIRECTION('',(-0.,-1.,-0.));
#162 = PLANE('',#163);
#163 = AXIS2_PLACEMENT_3D('',#164,#165,#166);
#164 = CARTESIAN_POINT('',(1.65,0.675,2.E-02));
#165 = DIRECTION('',(0.99756405026,0.,6.975647374413E-02));
#166 = DIRECTION('',(0.,-1.,0.));
#167 = ADVANCED_FACE('',(#168),#193,.T.);
#168 = FACE_BOUND('',#169,.T.);
#169 = EDGE_LOOP('',(#170,#171,#179,#187));
#170 = ORIENTED_EDGE('',*,*,#149,.T.);
#171 = ORIENTED_EDGE('',*,*,#172,.T.);
#172 = EDGE_CURVE('',#142,#173,#175,.T.);
#173 = VERTEX_POINT('',#174);
#174 = CARTESIAN_POINT('',(-1.61293878967,-0.63793878967,0.55));
#175 = LINE('',#176,#177);
#176 = CARTESIAN_POINT('',(0.825,-0.63793878967,0.55));
#177 = VECTOR('',#178,1.);
#178 = DIRECTION('',(-1.,0.,0.));
#179 = ORIENTED_EDGE('',*,*,#180,.F.);
#180 = EDGE_CURVE('',#181,#173,#183,.T.);
#181 = VERTEX_POINT('',#182);
#182 = CARTESIAN_POINT('',(-1.65,-0.675,2.E-02));
#183 = LINE('',#184,#185);
#184 = CARTESIAN_POINT('',(-1.642010035604,-0.667010035604,
    0.134261814231));
#185 = VECTOR('',#186,1.);
#186 = DIRECTION('',(6.958737431666E-02,6.958737431666E-02,
    0.995145815784));
#187 = ORIENTED_EDGE('',*,*,#188,.F.);
#188 = EDGE_CURVE('',#150,#181,#189,.T.);
#189 = LINE('',#190,#191);
#190 = CARTESIAN_POINT('',(0.825,-0.675,2.E-02));
#191 = VECTOR('',#192,1.);
#192 = DIRECTION('',(-1.,0.,0.));
#193 = PLANE('',#194);
#194 = AXIS2_PLACEMENT_3D('',#195,#196,#197);
#195 = CARTESIAN_POINT('',(1.65,-0.675,2.E-02));
#196 = DIRECTION('',(0.,-0.99756405026,6.975647374413E-02));
#197 = DIRECTION('',(-1.,0.,0.));
#198 = ADVANCED_FACE('',(#199),#215,.T.);
#199 = FACE_BOUND('',#200,.T.);
#200 = EDGE_LOOP('',(#201,#202,#208,#209));
#201 = ORIENTED_EDGE('',*,*,#180,.T.);
#202 = ORIENTED_EDGE('',*,*,#203,.T.);
#203 = EDGE_CURVE('',#173,#103,#204,.T.);
#204 = LINE('',#205,#206);
#205 = CARTESIAN_POINT('',(-1.61293878967,-0.3375,0.55));
#206 = VECTOR('',#207,1.);
#207 = DIRECTION('',(0.,1.,0.));
#208 = ORIENTED_EDGE('',*,*,#100,.F.);
#209 = ORIENTED_EDGE('',*,*,#210,.F.);
#210 = EDGE_CURVE('',#181,#101,#211,.T.);
#211 = LINE('',#212,#213);
#212 = CARTESIAN_POINT('',(-1.65,-0.3375,2.E-02));
#213 = VECTOR('',#214,1.);
#214 = DIRECTION('',(0.,1.,0.));
#215 = PLANE('',#216);
#216 = AXIS2_PLACEMENT_3D('',#217,#218,#219);
#217 = CARTESIAN_POINT('',(-1.65,-0.675,2.E-02));
#218 = DIRECTION('',(-0.99756405026,0.,6.975647374413E-02));
#219 = DIRECTION('',(0.,1.,0.));
#220 = ADVANCED_FACE('',(#221),#227,.T.);
#221 = FACE_BOUND('',#222,.T.);
#222 = EDGE_LOOP('',(#223,#224,#225,#226));
#223 = ORIENTED_EDGE('',*,*,#126,.T.);
#224 = ORIENTED_EDGE('',*,*,#157,.T.);
#225 = ORIENTED_EDGE('',*,*,#188,.T.);
#226 = ORIENTED_EDGE('',*,*,#210,.T.);
#227 = PLANE('',#228);
#228 = AXIS2_PLACEMENT_3D('',#229,#230,#231);
#229 = CARTESIAN_POINT('',(-5.E-17,0.,2.E-02));
#230 = DIRECTION('',(-0.,-0.,-1.));
#231 = DIRECTION('',(-1.,0.,0.));
#232 = ADVANCED_FACE('',(#233),#239,.F.);
#233 = FACE_BOUND('',#234,.F.);
#234 = EDGE_LOOP('',(#235,#236,#237,#238));
#235 = ORIENTED_EDGE('',*,*,#110,.T.);
#236 = ORIENTED_EDGE('',*,*,#141,.T.);
#237 = ORIENTED_EDGE('',*,*,#172,.T.);
#238 = ORIENTED_EDGE('',*,*,#203,.T.);
#239 = PLANE('',#240);
#240 = AXIS2_PLACEMENT_3D('',#241,#242,#243);
#241 = CARTESIAN_POINT('',(-5.E-17,0.,0.55));
#242 = DIRECTION('',(-0.,-0.,-1.));
#243 = DIRECTION('',(-1.,0.,0.));
#244 = ( GEOMETRIC_REPRESENTATION_CONTEXT(3) 
GLOBAL_UNCERTAINTY_ASSIGNED_CONTEXT((#248)) GLOBAL_UNIT_ASSIGNED_CONTEXT
((#245,#246,#247)) REPRESENTATION_CONTEXT('Context #1',
  '3D Context with UNIT and UNCERTAINTY') );
#245 = ( LENGTH_UNIT() NAMED_UNIT(*) SI_UNIT(.MILLI.,.METRE.) );
#246 = ( NAMED_UNIT(*) PLANE_ANGLE_UNIT() SI_UNIT($,.RADIAN.) );
#247 = ( NAMED_UNIT(*) SI_UNIT($,.STERADIAN.) SOLID_ANGLE_UNIT() );
#248 = UNCERTAINTY_MEASURE_WITH_UNIT(LENGTH_MEASURE(1.E-07),#245,
  'distance_accuracy_value','confusion accuracy');
#249 = SHAPE_DEFINITION_REPRESENTATION(#250,#93);
#250 = PRODUCT_DEFINITION_SHAPE('','',#251);
#251 = PRODUCT_DEFINITION('design','',#252,#255);
#252 = PRODUCT_DEFINITION_FORMATION('','',#253);
#253 = PRODUCT('Body003','Body003','',(#254));
#254 = PRODUCT_CONTEXT('',#2,'mechanical');
#255 = PRODUCT_DEFINITION_CONTEXT('part definition',#2,'design');
#256 = CONTEXT_DEPENDENT_SHAPE_REPRESENTATION(#257,#259);
#257 = ( REPRESENTATION_RELATIONSHIP('','',#93,#10) 
REPRESENTATION_RELATIONSHIP_WITH_TRANSFORMATION(#258) 
SHAPE_REPRESENTATION_RELATIONSHIP() );
#258 = ITEM_DEFINED_TRANSFORMATION('','',#11,#15);
#259 = PRODUCT_DEFINITION_SHAPE('Placement','Placement of an item',#260
  );
#260 = NEXT_ASSEMBLY_USAGE_OCCURRENCE('1','Body003','',#5,#251,$);
#261 = PRODUCT_RELATED_PRODUCT_CATEGORY('part',$,(#253));
#262 = ADVANCED_BREP_SHAPE_REPRESENTATION('',(#11,#263),#413);
#263 = MANIFOLD_SOLID_BREP('',#264);
#264 = CLOSED_SHELL('',(#265,#305,#336,#367,#389,#401));
#265 = ADVANCED_FACE('',(#266),#300,.T.);
#266 = FACE_BOUND('',#267,.T.);
#267 = EDGE_LOOP('',(#268,#278,#286,#294));
#268 = ORIENTED_EDGE('',*,*,#269,.T.);
#269 = EDGE_CURVE('',#270,#272,#274,.T.);
#270 = VERTEX_POINT('',#271);
#271 = CARTESIAN_POINT('',(-1.4,0.2,0.));
#272 = VERTEX_POINT('',#273);
#273 = CARTESIAN_POINT('',(-1.4,0.2,0.13));
#274 = LINE('',#275,#276);
#275 = CARTESIAN_POINT('',(-1.4,0.2,0.));
#276 = VECTOR('',#277,1.);
#277 = DIRECTION('',(0.,0.,1.));
#278 = ORIENTED_EDGE('',*,*,#279,.T.);
#279 = EDGE_CURVE('',#272,#280,#282,.T.);
#280 = VERTEX_POINT('',#281);
#281 = CARTESIAN_POINT('',(1.4,0.2,0.13));
#282 = LINE('',#283,#284);
#283 = CARTESIAN_POINT('',(-1.4,0.2,0.13));
#284 = VECTOR('',#285,1.);
#285 = DIRECTION('',(1.,0.,0.));
#286 = ORIENTED_EDGE('',*,*,#287,.F.);
#287 = EDGE_CURVE('',#288,#280,#290,.T.);
#288 = VERTEX_POINT('',#289);
#289 = CARTESIAN_POINT('',(1.4,0.2,0.));
#290 = LINE('',#291,#292);
#291 = CARTESIAN_POINT('',(1.4,0.2,0.));
#292 = VECTOR('',#293,1.);
#293 = DIRECTION('',(0.,0.,1.));
#294 = ORIENTED_EDGE('',*,*,#295,.F.);
#295 = EDGE_CURVE('',#270,#288,#296,.T.);
#296 = LINE('',#297,#298);
#297 = CARTESIAN_POINT('',(-1.4,0.2,0.));
#298 = VECTOR('',#299,1.);
#299 = DIRECTION('',(1.,0.,0.));
#300 = PLANE('',#301);
#301 = AXIS2_PLACEMENT_3D('',#302,#303,#304);
#302 = CARTESIAN_POINT('',(-1.4,0.2,0.));
#303 = DIRECTION('',(0.,1.,0.));
#304 = DIRECTION('',(1.,0.,0.));
#305 = ADVANCED_FACE('',(#306),#331,.T.);
#306 = FACE_BOUND('',#307,.T.);
#307 = EDGE_LOOP('',(#308,#309,#317,#325));
#308 = ORIENTED_EDGE('',*,*,#287,.T.);
#309 = ORIENTED_EDGE('',*,*,#310,.T.);
#310 = EDGE_CURVE('',#280,#311,#313,.T.);
#311 = VERTEX_POINT('',#312);
#312 = CARTESIAN_POINT('',(1.4,-0.2,0.13));
#313 = LINE('',#314,#315);
#314 = CARTESIAN_POINT('',(1.4,0.2,0.13));
#315 = VECTOR('',#316,1.);
#316 = DIRECTION('',(0.,-1.,0.));
#317 = ORIENTED_EDGE('',*,*,#318,.F.);
#318 = EDGE_CURVE('',#319,#311,#321,.T.);
#319 = VERTEX_POINT('',#320);
#320 = CARTESIAN_POINT('',(1.4,-0.2,0.));
#321 = LINE('',#322,#323);
#322 = CARTESIAN_POINT('',(1.4,-0.2,0.));
#323 = VECTOR('',#324,1.);
#324 = DIRECTION('',(0.,0.,1.));
#325 = ORIENTED_EDGE('',*,*,#326,.F.);
#326 = EDGE_CURVE('',#288,#319,#327,.T.);
#327 = LINE('',#328,#329);
#328 = CARTESIAN_POINT('',(1.4,0.2,0.));
#329 = VECTOR('',#330,1.);
#330 = DIRECTION('',(0.,-1.,0.));
#331 = PLANE('',#332);
#332 = AXIS2_PLACEMENT_3D('',#333,#334,#335);
#333 = CARTESIAN_POINT('',(1.4,0.2,0.));
#334 = DIRECTION('',(1.,0.,0.));
#335 = DIRECTION('',(0.,-1.,0.));
#336 = ADVANCED_FACE('',(#337),#362,.T.);
#337 = FACE_BOUND('',#338,.T.);
#338 = EDGE_LOOP('',(#339,#340,#348,#356));
#339 = ORIENTED_EDGE('',*,*,#318,.T.);
#340 = ORIENTED_EDGE('',*,*,#341,.T.);
#341 = EDGE_CURVE('',#311,#342,#344,.T.);
#342 = VERTEX_POINT('',#343);
#343 = CARTESIAN_POINT('',(-1.4,-0.2,0.13));
#344 = LINE('',#345,#346);
#345 = CARTESIAN_POINT('',(1.4,-0.2,0.13));
#346 = VECTOR('',#347,1.);
#347 = DIRECTION('',(-1.,0.,0.));
#348 = ORIENTED_EDGE('',*,*,#349,.F.);
#349 = EDGE_CURVE('',#350,#342,#352,.T.);
#350 = VERTEX_POINT('',#351);
#351 = CARTESIAN_POINT('',(-1.4,-0.2,0.));
#352 = LINE('',#353,#354);
#353 = CARTESIAN_POINT('',(-1.4,-0.2,0.));
#354 = VECTOR('',#355,1.);
#355 = DIRECTION('',(0.,0.,1.));
#356 = ORIENTED_EDGE('',*,*,#357,.F.);
#357 = EDGE_CURVE('',#319,#350,#358,.T.);
#358 = LINE('',#359,#360);
#359 = CARTESIAN_POINT('',(1.4,-0.2,0.));
#360 = VECTOR('',#361,1.);
#361 = DIRECTION('',(-1.,0.,0.));
#362 = PLANE('',#363);
#363 = AXIS2_PLACEMENT_3D('',#364,#365,#366);
#364 = CARTESIAN_POINT('',(1.4,-0.2,0.));
#365 = DIRECTION('',(0.,-1.,0.));
#366 = DIRECTION('',(-1.,0.,0.));
#367 = ADVANCED_FACE('',(#368),#384,.T.);
#368 = FACE_BOUND('',#369,.T.);
#369 = EDGE_LOOP('',(#370,#371,#377,#378));
#370 = ORIENTED_EDGE('',*,*,#349,.T.);
#371 = ORIENTED_EDGE('',*,*,#372,.T.);
#372 = EDGE_CURVE('',#342,#272,#373,.T.);
#373 = LINE('',#374,#375);
#374 = CARTESIAN_POINT('',(-1.4,-0.2,0.13));
#375 = VECTOR('',#376,1.);
#376 = DIRECTION('',(0.,1.,0.));
#377 = ORIENTED_EDGE('',*,*,#269,.F.);
#378 = ORIENTED_EDGE('',*,*,#379,.F.);
#379 = EDGE_CURVE('',#350,#270,#380,.T.);
#380 = LINE('',#381,#382);
#381 = CARTESIAN_POINT('',(-1.4,-0.2,0.));
#382 = VECTOR('',#383,1.);
#383 = DIRECTION('',(0.,1.,0.));
#384 = PLANE('',#385);
#385 = AXIS2_PLACEMENT_3D('',#386,#387,#388);
#386 = CARTESIAN_POINT('',(-1.4,-0.2,0.));
#387 = DIRECTION('',(-1.,0.,0.));
#388 = DIRECTION('',(0.,1.,0.));
#389 = ADVANCED_FACE('',(#390),#396,.T.);
#390 = FACE_BOUND('',#391,.T.);
#391 = EDGE_LOOP('',(#392,#393,#394,#395));
#392 = ORIENTED_EDGE('',*,*,#295,.T.);
#393 = ORIENTED_EDGE('',*,*,#326,.T.);
#394 = ORIENTED_EDGE('',*,*,#357,.T.);
#395 = ORIENTED_EDGE('',*,*,#379,.T.);
#396 = PLANE('',#397);
#397 = AXIS2_PLACEMENT_3D('',#398,#399,#400);
#398 = CARTESIAN_POINT('',(-2.E-17,0.,0.));
#399 = DIRECTION('',(-0.,-0.,-1.));
#400 = DIRECTION('',(-1.,0.,0.));
#401 = ADVANCED_FACE('',(#402),#408,.F.);
#402 = FACE_BOUND('',#403,.F.);
#403 = EDGE_LOOP('',(#404,#405,#406,#407));
#404 = ORIENTED_EDGE('',*,*,#279,.T.);
#405 = ORIENTED_EDGE('',*,*,#310,.T.);
#406 = ORIENTED_EDGE('',*,*,#341,.T.);
#407 = ORIENTED_EDGE('',*,*,#372,.T.);
#408 = PLANE('',#409);
#409 = AXIS2_PLACEMENT_3D('',#410,#411,#412);
#410 = CARTESIAN_POINT('',(-2.E-17,0.,0.13));
#411 = DIRECTION('',(-0.,-0.,-1.));
#412 = DIRECTION('',(-1.,0.,0.));
#413 = ( GEOMETRIC_REPRESENTATION_CONTEXT(3) 
GLOBAL_UNCERTAINTY_ASSIGNED_CONTEXT((#417)) GLOBAL_UNIT_ASSIGNED_CONTEXT
((#414,#415,#416)) REPRESENTATION_CONTEXT('Context #1',
  '3D Context with UNIT and UNCERTAINTY') );
#414 = ( LENGTH_UNIT() NAMED_UNIT(*) SI_UNIT(.MILLI.,.METRE.) );
#415 = ( NAMED_UNIT(*) PLANE_ANGLE_UNIT() SI_UNIT($,.RADIAN.) );
#416 = ( NAMED_UNIT(*) SI_UNIT($,.STERADIAN.) SOLID_ANGLE_UNIT() );
#417 = UNCERTAINTY_MEASURE_WITH_UNIT(LENGTH_MEASURE(1.E-07),#414,
  'distance_accuracy_value','confusion accuracy');
#418 = SHAPE_DEFINITION_REPRESENTATION(#419,#262);
#419 = PRODUCT_DEFINITION_SHAPE('','',#420);
#420 = PRODUCT_DEFINITION('design','',#421,#424);
#421 = PRODUCT_DEFINITION_FORMATION('','',#422);
#422 = PRODUCT('Thermal001','Thermal001','',(#423));
#423 = PRODUCT_CONTEXT('',#2,'mechanical');
#424 = PRODUCT_DEFINITION_CONTEXT('part definition',#2,'design');
#425 = CONTEXT_DEPENDENT_SHAPE_REPRESENTATION(#426,#428);
#426 = ( REPRESENTATION_RELATIONSHIP('','',#262,#10) 
REPRESENTATION_RELATIONSHIP_WITH_TRANSFORMATION(#427) 
SHAPE_REPRESENTATION_RELATIONSHIP() );
#427 = ITEM_DEFINED_TRANSFORMATION('','',#11,#19);
#428 = PRODUCT_DEFINITION_SHAPE('Placement','Placement of an item',#429
  );
#429 = NEXT_ASSEMBLY_USAGE_OCCURRENCE('2','Thermal001','',#5,#420,$);
#430 = PRODUCT_RELATED_PRODUCT_CATEGORY('part',$,(#422));
#431 = ADVANCED_BREP_SHAPE_REPRESENTATION('',(#11,#432),#582);
#432 = MANIFOLD_SOLID_BREP('',#433);
#433 = CLOSED_SHELL('',(#434,#474,#505,#536,#558,#570));
#434 = ADVANCED_FACE('',(#435),#469,.T.);
#435 = FACE_BOUND('',#436,.T.);
#436 = EDGE_LOOP('',(#437,#447,#455,#463));
#437 = ORIENTED_EDGE('',*,*,#438,.T.);
#438 = EDGE_CURVE('',#439,#441,#443,.T.);
#439 = VERTEX_POINT('',#440);
#440 = CARTESIAN_POINT('',(-0.1,-0.425,0.));
#441 = VERTEX_POINT('',#442);
#442 = CARTESIAN_POINT('',(-0.1,-0.425,0.13));
#443 = LINE('',#444,#445);
#444 = CARTESIAN_POINT('',(-0.1,-0.425,0.));
#445 = VECTOR('',#446,1.);
#446 = DIRECTION('',(0.,0.,1.));
#447 = ORIENTED_EDGE('',*,*,#448,.T.);
#448 = EDGE_CURVE('',#441,#449,#451,.T.);
#449 = VERTEX_POINT('',#450);
#450 = CARTESIAN_POINT('',(0.1,-0.425,0.13));
#451 = LINE('',#452,#453);
#452 = CARTESIAN_POINT('',(-0.1,-0.425,0.13));
#453 = VECTOR('',#454,1.);
#454 = DIRECTION('',(1.,0.,0.));
#455 = ORIENTED_EDGE('',*,*,#456,.F.);
#456 = EDGE_CURVE('',#457,#449,#459,.T.);
#457 = VERTEX_POINT('',#458);
#458 = CARTESIAN_POINT('',(0.1,-0.425,0.));
#459 = LINE('',#460,#461);
#460 = CARTESIAN_POINT('',(0.1,-0.425,0.));
#461 = VECTOR('',#462,1.);
#462 = DIRECTION('',(0.,0.,1.));
#463 = ORIENTED_EDGE('',*,*,#464,.F.);
#464 = EDGE_CURVE('',#439,#457,#465,.T.);
#465 = LINE('',#466,#467);
#466 = CARTESIAN_POINT('',(-0.1,-0.425,0.));
#467 = VECTOR('',#468,1.);
#468 = DIRECTION('',(1.,0.,0.));
#469 = PLANE('',#470);
#470 = AXIS2_PLACEMENT_3D('',#471,#472,#473);
#471 = CARTESIAN_POINT('',(-0.1,-0.425,0.));
#472 = DIRECTION('',(0.,1.,0.));
#473 = DIRECTION('',(1.,0.,0.));
#474 = ADVANCED_FACE('',(#475),#500,.T.);
#475 = FACE_BOUND('',#476,.T.);
#476 = EDGE_LOOP('',(#477,#478,#486,#494));
#477 = ORIENTED_EDGE('',*,*,#456,.T.);
#478 = ORIENTED_EDGE('',*,*,#479,.T.);
#479 = EDGE_CURVE('',#449,#480,#482,.T.);
#480 = VERTEX_POINT('',#481);
#481 = CARTESIAN_POINT('',(0.1,-0.675,0.13));
#482 = LINE('',#483,#484);
#483 = CARTESIAN_POINT('',(0.1,-0.425,0.13));
#484 = VECTOR('',#485,1.);
#485 = DIRECTION('',(0.,-1.,0.));
#486 = ORIENTED_EDGE('',*,*,#487,.F.);
#487 = EDGE_CURVE('',#488,#480,#490,.T.);
#488 = VERTEX_POINT('',#489);
#489 = CARTESIAN_POINT('',(0.1,-0.675,0.));
#490 = LINE('',#491,#492);
#491 = CARTESIAN_POINT('',(0.1,-0.675,0.));
#492 = VECTOR('',#493,1.);
#493 = DIRECTION('',(0.,0.,1.));
#494 = ORIENTED_EDGE('',*,*,#495,.F.);
#495 = EDGE_CURVE('',#457,#488,#496,.T.);
#496 = LINE('',#497,#498);
#497 = CARTESIAN_POINT('',(0.1,-0.425,0.));
#498 = VECTOR('',#499,1.);
#499 = DIRECTION('',(0.,-1.,0.));
#500 = PLANE('',#501);
#501 = AXIS2_PLACEMENT_3D('',#502,#503,#504);
#502 = CARTESIAN_POINT('',(0.1,-0.425,0.));
#503 = DIRECTION('',(1.,0.,0.));
#504 = DIRECTION('',(0.,-1.,0.));
#505 = ADVANCED_FACE('',(#506),#531,.T.);
#506 = FACE_BOUND('',#507,.T.);
#507 = EDGE_LOOP('',(#508,#509,#517,#525));
#508 = ORIENTED_EDGE('',*,*,#487,.T.);
#509 = ORIENTED_EDGE('',*,*,#510,.T.);
#510 = EDGE_CURVE('',#480,#511,#513,.T.);
#511 = VERTEX_POINT('',#512);
#512 = CARTESIAN_POINT('',(-0.1,-0.675,0.13));
#513 = LINE('',#514,#515);
#514 = CARTESIAN_POINT('',(0.1,-0.675,0.13));
#515 = VECTOR('',#516,1.);
#516 = DIRECTION('',(-1.,0.,0.));
#517 = ORIENTED_EDGE('',*,*,#518,.F.);
#518 = EDGE_CURVE('',#519,#511,#521,.T.);
#519 = VERTEX_POINT('',#520);
#520 = CARTESIAN_POINT('',(-0.1,-0.675,0.));
#521 = LINE('',#522,#523);
#522 = CARTESIAN_POINT('',(-0.1,-0.675,0.));
#523 = VECTOR('',#524,1.);
#524 = DIRECTION('',(0.,0.,1.));
#525 = ORIENTED_EDGE('',*,*,#526,.F.);
#526 = EDGE_CURVE('',#488,#519,#527,.T.);
#527 = LINE('',#528,#529);
#528 = CARTESIAN_POINT('',(0.1,-0.675,0.));
#529 = VECTOR('',#530,1.);
#530 = DIRECTION('',(-1.,0.,0.));
#531 = PLANE('',#532);
#532 = AXIS2_PLACEMENT_3D('',#533,#534,#535);
#533 = CARTESIAN_POINT('',(0.1,-0.675,0.));
#534 = DIRECTION('',(0.,-1.,0.));
#535 = DIRECTION('',(-1.,0.,0.));
#536 = ADVANCED_FACE('',(#537),#553,.T.);
#537 = FACE_BOUND('',#538,.T.);
#538 = EDGE_LOOP('',(#539,#540,#546,#547));
#539 = ORIENTED_EDGE('',*,*,#518,.T.);
#540 = ORIENTED_EDGE('',*,*,#541,.T.);
#541 = EDGE_CURVE('',#511,#441,#542,.T.);
#542 = LINE('',#543,#544);
#543 = CARTESIAN_POINT('',(-0.1,-0.675,0.13));
#544 = VECTOR('',#545,1.);
#545 = DIRECTION('',(0.,1.,0.));
#546 = ORIENTED_EDGE('',*,*,#438,.F.);
#547 = ORIENTED_EDGE('',*,*,#548,.F.);
#548 = EDGE_CURVE('',#519,#439,#549,.T.);
#549 = LINE('',#550,#551);
#550 = CARTESIAN_POINT('',(-0.1,-0.675,0.));
#551 = VECTOR('',#552,1.);
#552 = DIRECTION('',(0.,1.,0.));
#553 = PLANE('',#554);
#554 = AXIS2_PLACEMENT_3D('',#555,#556,#557);
#555 = CARTESIAN_POINT('',(-0.1,-0.675,0.));
#556 = DIRECTION('',(-1.,0.,0.));
#557 = DIRECTION('',(0.,1.,0.));
#558 = ADVANCED_FACE('',(#559),#565,.T.);
#559 = FACE_BOUND('',#560,.T.);
#560 = EDGE_LOOP('',(#561,#562,#563,#564));
#561 = ORIENTED_EDGE('',*,*,#464,.T.);
#562 = ORIENTED_EDGE('',*,*,#495,.T.);
#563 = ORIENTED_EDGE('',*,*,#526,.T.);
#564 = ORIENTED_EDGE('',*,*,#548,.T.);
#565 = PLANE('',#566);
#566 = AXIS2_PLACEMENT_3D('',#567,#568,#569);
#567 = CARTESIAN_POINT('',(0.,-0.55,0.));
#568 = DIRECTION('',(-0.,-0.,-1.));
#569 = DIRECTION('',(-1.,0.,0.));
#570 = ADVANCED_FACE('',(#571),#577,.F.);
#571 = FACE_BOUND('',#572,.F.);
#572 = EDGE_LOOP('',(#573,#574,#575,#576));
#573 = ORIENTED_EDGE('',*,*,#448,.T.);
#574 = ORIENTED_EDGE('',*,*,#479,.T.);
#575 = ORIENTED_EDGE('',*,*,#510,.T.);
#576 = ORIENTED_EDGE('',*,*,#541,.T.);
#577 = PLANE('',#578);
#578 = AXIS2_PLACEMENT_3D('',#579,#580,#581);
#579 = CARTESIAN_POINT('',(0.,-0.55,0.13));
#580 = DIRECTION('',(-0.,-0.,-1.));
#581 = DIRECTION('',(-1.,0.,0.));
#582 = ( GEOMETRIC_REPRESENTATION_CONTEXT(3) 
GLOBAL_UNCERTAINTY_ASSIGNED_CONTEXT((#586)) GLOBAL_UNIT_ASSIGNED_CONTEXT
((#583,#584,#585)) REPRESENTATION_CONTEXT('Context #1',
  '3D Context with UNIT and UNCERTAINTY') );
#583 = ( LENGTH_UNIT() NAMED_UNIT(*) SI_UNIT(.MILLI.,.METRE.) );
#584 = ( NAMED_UNIT(*) PLANE_ANGLE_UNIT() SI_UNIT($,.RADIAN.) );
#585 = ( NAMED_UNIT(*) SI_UNIT($,.STERADIAN.) SOLID_ANGLE_UNIT() );
#586 = UNCERTAINTY_MEASURE_WITH_UNIT(LENGTH_MEASURE(1.E-07),#583,
  'distance_accuracy_value','confusion accuracy');
#587 = SHAPE_DEFINITION_REPRESENTATION(#588,#431);
#588 = PRODUCT_DEFINITION_SHAPE('','',#589);
#589 = PRODUCT_DEFINITION('design','',#590,#593);
#590 = PRODUCT_DEFINITION_FORMATION('','',#591);
#591 = PRODUCT('Solid','Solid','',(#592));
#592 = PRODUCT_CONTEXT('',#2,'mechanical');
#593 = PRODUCT_DEFINITION_CONTEXT('part definition',#2,'design');
#594 = CONTEXT_DEPENDENT_SHAPE_REPRESENTATION(#595,#597);
#595 = ( REPRESENTATION_RELATIONSHIP('','',#431,#10) 
REPRESENTATION_RELATIONSHIP_WITH_TRANSFORMATION(#596) 
SHAPE_REPRESENTATION_RELATIONSHIP() );
#596 = ITEM_DEFINED_TRANSFORMATION('','',#11,#23);
#597 = PRODUCT_DEFINITION_SHAPE('Placement','Placement of an item',#598
  );
#598 = NEXT_ASSEMBLY_USAGE_OCCURRENCE('3','Solid','',#5,#589,$);
#599 = PRODUCT_RELATED_PRODUCT_CATEGORY('part',$,(#591));
#600 = CONTEXT_DEPENDENT_SHAPE_REPRESENTATION(#601,#603);
#601 = ( REPRESENTATION_RELATIONSHIP('','',#431,#10) 
REPRESENTATION_RELATIONSHIP_WITH_TRANSFORMATION(#602) 
SHAPE_REPRESENTATION_RELATIONSHIP() );
#602 = ITEM_DEFINED_TRANSFORMATION('','',#11,#27);
#603 = PRODUCT_DEFINITION_SHAPE('Placement','Placement of an item',#604
  );
#604 = NEXT_ASSEMBLY_USAGE_OCCURRENCE('4','Solid001','',#5,#589,$);
#605 = CONTEXT_DEPENDENT_SHAPE_REPRESENTATION(#606,#608);
#606 = ( REPRESENTATION_RELATIONSHIP('','',#431,#10) 
REPRESENTATION_RELATIONSHIP_WITH_TRANSFORMATION(#607) 
SHAPE_REPRESENTATION_RELATIONSHIP() );
#607 = ITEM_DEFINED_TRANSFORMATION('','',#11,#31);
#608 = PRODUCT_DEFINITION_SHAPE('Placement','Placement of an item',#609
  );
#609 = NEXT_ASSEMBLY_USAGE_OCCURRENCE('5','Solid002','',#5,#589,$);
#610 = CONTEXT_DEPENDENT_SHAPE_REPRESENTATION(#611,#613);
#611 = ( REPRESENTATION_RELATIONSHIP('','',#431,#10) 
REPRESENTATION_RELATIONSHIP_WITH_TRANSFORMATION(#612) 
SHAPE_REPRESENTATION_RELATIONSHIP() );
#612 = ITEM_DEFINED_TRANSFORMATION('','',#11,#35);
#613 = PRODUCT_DEFINITION_SHAPE('Placement','Placement of an item',#614
  );
#614 = NEXT_ASSEMBLY_USAGE_OCCURRENCE('6','Solid003','',#5,#589,$);
#615 = CONTEXT_DEPENDENT_SHAPE_REPRESENTATION(#616,#618);
#616 = ( REPRESENTATION_RELATIONSHIP('','',#431,#10) 
REPRESENTATION_RELATIONSHIP_WITH_TRANSFORMATION(#617) 
SHAPE_REPRESENTATION_RELATIONSHIP() );
#617 = ITEM_DEFINED_TRANSFORMATION('','',#11,#39);
#618 = PRODUCT_DEFINITION_SHAPE('Placement','Placement of an item',#619
  );
#619 = NEXT_ASSEMBLY_USAGE_OCCURRENCE('7','Solid004','',#5,#589,$);
#620 = CONTEXT_DEPENDENT_SHAPE_REPRESENTATION(#621,#623);
#621 = ( REPRESENTATION_RELATIONSHIP('','',#431,#10) 
REPRESENTATION_RELATIONSHIP_WITH_TRANSFORMATION(#622) 
SHAPE_REPRESENTATION_RELATIONSHIP() );
#622 = ITEM_DEFINED_TRANSFORMATION('','',#11,#43);
#623 = PRODUCT_DEFINITION_SHAPE('Placement','Placement of an item',#624
  );
#624 = NEXT_ASSEMBLY_USAGE_OCCURRENCE('8','Solid005','',#5,#589,$);
#625 = CONTEXT_DEPENDENT_SHAPE_REPRESENTATION(#626,#628);
#626 = ( REPRESENTATION_RELATIONSHIP('','',#431,#10) 
REPRESENTATION_RELATIONSHIP_WITH_TRANSFORMATION(#627) 
SHAPE_REPRESENTATION_RELATIONSHIP() );
#627 = ITEM_DEFINED_TRANSFORMATION('','',#11,#47);
#628 = PRODUCT_DEFINITION_SHAPE('Placement','Placement of an item',#629
  );
#629 = NEXT_ASSEMBLY_USAGE_OCCURRENCE('9','Solid006','',#5,#589,$);
#630 = CONTEXT_DEPENDENT_SHAPE_REPRESENTATION(#631,#633);
#631 = ( REPRESENTATION_RELATIONSHIP('','',#431,#10) 
REPRESENTATION_RELATIONSHIP_WITH_TRANSFORMATION(#632) 
SHAPE_REPRESENTATION_RELATIONSHIP() );
#632 = ITEM_DEFINED_TRANSFORMATION('','',#11,#51);
#633 = PRODUCT_DEFINITION_SHAPE('Placement','Placement of an item',#634
  );
#634 = NEXT_ASSEMBLY_USAGE_OCCURRENCE('10','Solid007','',#5,#589,$);
#635 = ADVANCED_BREP_SHAPE_REPRESENTATION('',(#11,#636),#786);
#636 = MANIFOLD_SOLID_BREP('',#637);
#637 = CLOSED_SHELL('',(#638,#678,#709,#740,#762,#774));
#638 = ADVANCED_FACE('',(#639),#673,.T.);
#639 = FACE_BOUND('',#640,.F.);
#640 = EDGE_LOOP('',(#641,#651,#659,#667));
#641 = ORIENTED_EDGE('',*,*,#642,.T.);
#642 = EDGE_CURVE('',#643,#645,#647,.T.);
#643 = VERTEX_POINT('',#644);
#644 = CARTESIAN_POINT('',(-1.5,0.425,0.));
#645 = VERTEX_POINT('',#646);
#646 = CARTESIAN_POINT('',(-1.5,0.425,0.13));
#647 = LINE('',#648,#649);
#648 = CARTESIAN_POINT('',(-1.5,0.425,0.));
#649 = VECTOR('',#650,1.);
#650 = DIRECTION('',(-0.,-0.,1.));
#651 = ORIENTED_EDGE('',*,*,#652,.T.);
#652 = EDGE_CURVE('',#645,#653,#655,.T.);
#653 = VERTEX_POINT('',#654);
#654 = CARTESIAN_POINT('',(-1.3,0.425,0.13));
#655 = LINE('',#656,#657);
#656 = CARTESIAN_POINT('',(-1.5,0.425,0.13));
#657 = VECTOR('',#658,1.);
#658 = DIRECTION('',(1.,0.,0.));
#659 = ORIENTED_EDGE('',*,*,#660,.F.);
#660 = EDGE_CURVE('',#661,#653,#663,.T.);
#661 = VERTEX_POINT('',#662);
#662 = CARTESIAN_POINT('',(-1.3,0.425,0.));
#663 = LINE('',#664,#665);
#664 = CARTESIAN_POINT('',(-1.3,0.425,0.));
#665 = VECTOR('',#666,1.);
#666 = DIRECTION('',(-0.,-0.,1.));
#667 = ORIENTED_EDGE('',*,*,#668,.F.);
#668 = EDGE_CURVE('',#643,#661,#669,.T.);
#669 = LINE('',#670,#671);
#670 = CARTESIAN_POINT('',(-1.5,0.425,0.));
#671 = VECTOR('',#672,1.);
#672 = DIRECTION('',(1.,0.,0.));
#673 = PLANE('',#674);
#674 = AXIS2_PLACEMENT_3D('',#675,#676,#677);
#675 = CARTESIAN_POINT('',(-1.5,0.425,0.));
#676 = DIRECTION('',(-0.,-1.,-0.));
#677 = DIRECTION('',(-1.,0.,-0.));
#678 = ADVANCED_FACE('',(#679),#704,.T.);
#679 = FACE_BOUND('',#680,.F.);
#680 = EDGE_LOOP('',(#681,#682,#690,#698));
#681 = ORIENTED_EDGE('',*,*,#660,.T.);
#682 = ORIENTED_EDGE('',*,*,#683,.T.);
#683 = EDGE_CURVE('',#653,#684,#686,.T.);
#684 = VERTEX_POINT('',#685);
#685 = CARTESIAN_POINT('',(-1.3,0.675,0.13));
#686 = LINE('',#687,#688);
#687 = CARTESIAN_POINT('',(-1.3,0.425,0.13));
#688 = VECTOR('',#689,1.);
#689 = DIRECTION('',(0.,1.,0.));
#690 = ORIENTED_EDGE('',*,*,#691,.F.);
#691 = EDGE_CURVE('',#692,#684,#694,.T.);
#692 = VERTEX_POINT('',#693);
#693 = CARTESIAN_POINT('',(-1.3,0.675,0.));
#694 = LINE('',#695,#696);
#695 = CARTESIAN_POINT('',(-1.3,0.675,0.));
#696 = VECTOR('',#697,1.);
#697 = DIRECTION('',(-0.,-0.,1.));
#698 = ORIENTED_EDGE('',*,*,#699,.F.);
#699 = EDGE_CURVE('',#661,#692,#700,.T.);
#700 = LINE('',#701,#702);
#701 = CARTESIAN_POINT('',(-1.3,0.425,0.));
#702 = VECTOR('',#703,1.);
#703 = DIRECTION('',(0.,1.,0.));
#704 = PLANE('',#705);
#705 = AXIS2_PLACEMENT_3D('',#706,#707,#708);
#706 = CARTESIAN_POINT('',(-1.3,0.425,0.));
#707 = DIRECTION('',(1.,-0.,-0.));
#708 = DIRECTION('',(-0.,-1.,0.));
#709 = ADVANCED_FACE('',(#710),#735,.T.);
#710 = FACE_BOUND('',#711,.F.);
#711 = EDGE_LOOP('',(#712,#713,#721,#729));
#712 = ORIENTED_EDGE('',*,*,#691,.T.);
#713 = ORIENTED_EDGE('',*,*,#714,.T.);
#714 = EDGE_CURVE('',#684,#715,#717,.T.);
#715 = VERTEX_POINT('',#716);
#716 = CARTESIAN_POINT('',(-1.5,0.675,0.13));
#717 = LINE('',#718,#719);
#718 = CARTESIAN_POINT('',(-1.3,0.675,0.13));
#719 = VECTOR('',#720,1.);
#720 = DIRECTION('',(-1.,-0.,-0.));
#721 = ORIENTED_EDGE('',*,*,#722,.F.);
#722 = EDGE_CURVE('',#723,#715,#725,.T.);
#723 = VERTEX_POINT('',#724);
#724 = CARTESIAN_POINT('',(-1.5,0.675,0.));
#725 = LINE('',#726,#727);
#726 = CARTESIAN_POINT('',(-1.5,0.675,0.));
#727 = VECTOR('',#728,1.);
#728 = DIRECTION('',(-0.,-0.,1.));
#729 = ORIENTED_EDGE('',*,*,#730,.F.);
#730 = EDGE_CURVE('',#692,#723,#731,.T.);
#731 = LINE('',#732,#733);
#732 = CARTESIAN_POINT('',(-1.3,0.675,0.));
#733 = VECTOR('',#734,1.);
#734 = DIRECTION('',(-1.,-0.,-0.));
#735 = PLANE('',#736);
#736 = AXIS2_PLACEMENT_3D('',#737,#738,#739);
#737 = CARTESIAN_POINT('',(-1.3,0.675,0.));
#738 = DIRECTION('',(-0.,1.,-0.));
#739 = DIRECTION('',(1.,0.,0.));
#740 = ADVANCED_FACE('',(#741),#757,.T.);
#741 = FACE_BOUND('',#742,.F.);
#742 = EDGE_LOOP('',(#743,#744,#750,#751));
#743 = ORIENTED_EDGE('',*,*,#722,.T.);
#744 = ORIENTED_EDGE('',*,*,#745,.T.);
#745 = EDGE_CURVE('',#715,#645,#746,.T.);
#746 = LINE('',#747,#748);
#747 = CARTESIAN_POINT('',(-1.5,0.675,0.13));
#748 = VECTOR('',#749,1.);
#749 = DIRECTION('',(-0.,-1.,-0.));
#750 = ORIENTED_EDGE('',*,*,#642,.F.);
#751 = ORIENTED_EDGE('',*,*,#752,.F.);
#752 = EDGE_CURVE('',#723,#643,#753,.T.);
#753 = LINE('',#754,#755);
#754 = CARTESIAN_POINT('',(-1.5,0.675,0.));
#755 = VECTOR('',#756,1.);
#756 = DIRECTION('',(-0.,-1.,-0.));
#757 = PLANE('',#758);
#758 = AXIS2_PLACEMENT_3D('',#759,#760,#761);
#759 = CARTESIAN_POINT('',(-1.5,0.675,0.));
#760 = DIRECTION('',(-1.,-0.,-0.));
#761 = DIRECTION('',(-0.,1.,-0.));
#762 = ADVANCED_FACE('',(#763),#769,.T.);
#763 = FACE_BOUND('',#764,.F.);
#764 = EDGE_LOOP('',(#765,#766,#767,#768));
#765 = ORIENTED_EDGE('',*,*,#668,.T.);
#766 = ORIENTED_EDGE('',*,*,#699,.T.);
#767 = ORIENTED_EDGE('',*,*,#730,.T.);
#768 = ORIENTED_EDGE('',*,*,#752,.T.);
#769 = PLANE('',#770);
#770 = AXIS2_PLACEMENT_3D('',#771,#772,#773);
#771 = CARTESIAN_POINT('',(-1.4,0.55,0.));
#772 = DIRECTION('',(0.,0.,-1.));
#773 = DIRECTION('',(1.,0.,0.));
#774 = ADVANCED_FACE('',(#775),#781,.F.);
#775 = FACE_BOUND('',#776,.T.);
#776 = EDGE_LOOP('',(#777,#778,#779,#780));
#777 = ORIENTED_EDGE('',*,*,#652,.T.);
#778 = ORIENTED_EDGE('',*,*,#683,.T.);
#779 = ORIENTED_EDGE('',*,*,#714,.T.);
#780 = ORIENTED_EDGE('',*,*,#745,.T.);
#781 = PLANE('',#782);
#782 = AXIS2_PLACEMENT_3D('',#783,#784,#785);
#783 = CARTESIAN_POINT('',(-1.4,0.55,0.13));
#784 = DIRECTION('',(0.,0.,-1.));
#785 = DIRECTION('',(1.,0.,0.));
#786 = ( GEOMETRIC_REPRESENTATION_CONTEXT(3) 
GLOBAL_UNCERTAINTY_ASSIGNED_CONTEXT((#790)) GLOBAL_UNIT_ASSIGNED_CONTEXT
((#787,#788,#789)) REPRESENTATION_CONTEXT('Context #1',
  '3D Context with UNIT and UNCERTAINTY') );
#787 = ( LENGTH_UNIT() NAMED_UNIT(*) SI_UNIT(.MILLI.,.METRE.) );
#788 = ( NAMED_UNIT(*) PLANE_ANGLE_UNIT() SI_UNIT($,.RADIAN.) );
#789 = ( NAMED_UNIT(*) SI_UNIT($,.STERADIAN.) SOLID_ANGLE_UNIT() );
#790 = UNCERTAINTY_MEASURE_WITH_UNIT(LENGTH_MEASURE(1.E-07),#787,
  'distance_accuracy_value','confusion accuracy');
#791 = SHAPE_DEFINITION_REPRESENTATION(#792,#635);
#792 = PRODUCT_DEFINITION_SHAPE('','',#793);
#793 = PRODUCT_DEFINITION('design','',#794,#797);
#794 = PRODUCT_DEFINITION_FORMATION('','',#795);
#795 = PRODUCT('Solid008','Solid008','',(#796));
#796 = PRODUCT_CONTEXT('',#2,'mechanical');
#797 = PRODUCT_DEFINITION_CONTEXT('part definition',#2,'design');
#798 = CONTEXT_DEPENDENT_SHAPE_REPRESENTATION(#799,#801);
#799 = ( REPRESENTATION_RELATIONSHIP('','',#635,#10) 
REPRESENTATION_RELATIONSHIP_WITH_TRANSFORMATION(#800) 
SHAPE_REPRESENTATION_RELATIONSHIP() );
#800 = ITEM_DEFINED_TRANSFORMATION('','',#11,#55);
#801 = PRODUCT_DEFINITION_SHAPE('Placement','Placement of an item',#802
  );
#802 = NEXT_ASSEMBLY_USAGE_OCCURRENCE('11','Solid008','',#5,#793,$);
#803 = PRODUCT_RELATED_PRODUCT_CATEGORY('part',$,(#795));
#804 = ADVANCED_BREP_SHAPE_REPRESENTATION('',(#11,#805),#955);
#805 = MANIFOLD_SOLID_BREP('',#806);
#806 = CLOSED_SHELL('',(#807,#847,#878,#909,#931,#943));
#807 = ADVANCED_FACE('',(#808),#842,.T.);
#808 = FACE_BOUND('',#809,.F.);
#809 = EDGE_LOOP('',(#810,#820,#828,#836));
#810 = ORIENTED_EDGE('',*,*,#811,.T.);
#811 = EDGE_CURVE('',#812,#814,#816,.T.);
#812 = VERTEX_POINT('',#813);
#813 = CARTESIAN_POINT('',(-1.5,0.425,0.));
#814 = VERTEX_POINT('',#815);
#815 = CARTESIAN_POINT('',(-1.5,0.425,0.13));
#816 = LINE('',#817,#818);
#817 = CARTESIAN_POINT('',(-1.5,0.425,0.));
#818 = VECTOR('',#819,1.);
#819 = DIRECTION('',(-0.,-0.,1.));
#820 = ORIENTED_EDGE('',*,*,#821,.T.);
#821 = EDGE_CURVE('',#814,#822,#824,.T.);
#822 = VERTEX_POINT('',#823);
#823 = CARTESIAN_POINT('',(-1.3,0.425,0.13));
#824 = LINE('',#825,#826);
#825 = CARTESIAN_POINT('',(-1.5,0.425,0.13));
#826 = VECTOR('',#827,1.);
#827 = DIRECTION('',(1.,0.,0.));
#828 = ORIENTED_EDGE('',*,*,#829,.F.);
#829 = EDGE_CURVE('',#830,#822,#832,.T.);
#830 = VERTEX_POINT('',#831);
#831 = CARTESIAN_POINT('',(-1.3,0.425,0.));
#832 = LINE('',#833,#834);
#833 = CARTESIAN_POINT('',(-1.3,0.425,0.));
#834 = VECTOR('',#835,1.);
#835 = DIRECTION('',(-0.,-0.,1.));
#836 = ORIENTED_EDGE('',*,*,#837,.F.);
#837 = EDGE_CURVE('',#812,#830,#838,.T.);
#838 = LINE('',#839,#840);
#839 = CARTESIAN_POINT('',(-1.5,0.425,0.));
#840 = VECTOR('',#841,1.);
#841 = DIRECTION('',(1.,0.,0.));
#842 = PLANE('',#843);
#843 = AXIS2_PLACEMENT_3D('',#844,#845,#846);
#844 = CARTESIAN_POINT('',(-1.5,0.425,0.));
#845 = DIRECTION('',(-0.,-1.,-0.));
#846 = DIRECTION('',(-1.,0.,-0.));
#847 = ADVANCED_FACE('',(#848),#873,.T.);
#848 = FACE_BOUND('',#849,.F.);
#849 = EDGE_LOOP('',(#850,#851,#859,#867));
#850 = ORIENTED_EDGE('',*,*,#829,.T.);
#851 = ORIENTED_EDGE('',*,*,#852,.T.);
#852 = EDGE_CURVE('',#822,#853,#855,.T.);
#853 = VERTEX_POINT('',#854);
#854 = CARTESIAN_POINT('',(-1.3,0.675,0.13));
#855 = LINE('',#856,#857);
#856 = CARTESIAN_POINT('',(-1.3,0.425,0.13));
#857 = VECTOR('',#858,1.);
#858 = DIRECTION('',(0.,1.,0.));
#859 = ORIENTED_EDGE('',*,*,#860,.F.);
#860 = EDGE_CURVE('',#861,#853,#863,.T.);
#861 = VERTEX_POINT('',#862);
#862 = CARTESIAN_POINT('',(-1.3,0.675,0.));
#863 = LINE('',#864,#865);
#864 = CARTESIAN_POINT('',(-1.3,0.675,0.));
#865 = VECTOR('',#866,1.);
#866 = DIRECTION('',(-0.,-0.,1.));
#867 = ORIENTED_EDGE('',*,*,#868,.F.);
#868 = EDGE_CURVE('',#830,#861,#869,.T.);
#869 = LINE('',#870,#871);
#870 = CARTESIAN_POINT('',(-1.3,0.425,0.));
#871 = VECTOR('',#872,1.);
#872 = DIRECTION('',(0.,1.,0.));
#873 = PLANE('',#874);
#874 = AXIS2_PLACEMENT_3D('',#875,#876,#877);
#875 = CARTESIAN_POINT('',(-1.3,0.425,0.));
#876 = DIRECTION('',(1.,-0.,-0.));
#877 = DIRECTION('',(-0.,-1.,0.));
#878 = ADVANCED_FACE('',(#879),#904,.T.);
#879 = FACE_BOUND('',#880,.F.);
#880 = EDGE_LOOP('',(#881,#882,#890,#898));
#881 = ORIENTED_EDGE('',*,*,#860,.T.);
#882 = ORIENTED_EDGE('',*,*,#883,.T.);
#883 = EDGE_CURVE('',#853,#884,#886,.T.);
#884 = VERTEX_POINT('',#885);
#885 = CARTESIAN_POINT('',(-1.5,0.675,0.13));
#886 = LINE('',#887,#888);
#887 = CARTESIAN_POINT('',(-1.3,0.675,0.13));
#888 = VECTOR('',#889,1.);
#889 = DIRECTION('',(-1.,-0.,-0.));
#890 = ORIENTED_EDGE('',*,*,#891,.F.);
#891 = EDGE_CURVE('',#892,#884,#894,.T.);
#892 = VERTEX_POINT('',#893);
#893 = CARTESIAN_POINT('',(-1.5,0.675,0.));
#894 = LINE('',#895,#896);
#895 = CARTESIAN_POINT('',(-1.5,0.675,0.));
#896 = VECTOR('',#897,1.);
#897 = DIRECTION('',(-0.,-0.,1.));
#898 = ORIENTED_EDGE('',*,*,#899,.F.);
#899 = EDGE_CURVE('',#861,#892,#900,.T.);
#900 = LINE('',#901,#902);
#901 = CARTESIAN_POINT('',(-1.3,0.675,0.));
#902 = VECTOR('',#903,1.);
#903 = DIRECTION('',(-1.,-0.,-0.));
#904 = PLANE('',#905);
#905 = AXIS2_PLACEMENT_3D('',#906,#907,#908);
#906 = CARTESIAN_POINT('',(-1.3,0.675,0.));
#907 = DIRECTION('',(-0.,1.,-0.));
#908 = DIRECTION('',(1.,0.,0.));
#909 = ADVANCED_FACE('',(#910),#926,.T.);
#910 = FACE_BOUND('',#911,.F.);
#911 = EDGE_LOOP('',(#912,#913,#919,#920));
#912 = ORIENTED_EDGE('',*,*,#891,.T.);
#913 = ORIENTED_EDGE('',*,*,#914,.T.);
#914 = EDGE_CURVE('',#884,#814,#915,.T.);
#915 = LINE('',#916,#917);
#916 = CARTESIAN_POINT('',(-1.5,0.675,0.13));
#917 = VECTOR('',#918,1.);
#918 = DIRECTION('',(-0.,-1.,-0.));
#919 = ORIENTED_EDGE('',*,*,#811,.F.);
#920 = ORIENTED_EDGE('',*,*,#921,.F.);
#921 = EDGE_CURVE('',#892,#812,#922,.T.);
#922 = LINE('',#923,#924);
#923 = CARTESIAN_POINT('',(-1.5,0.675,0.));
#924 = VECTOR('',#925,1.);
#925 = DIRECTION('',(-0.,-1.,-0.));
#926 = PLANE('',#927);
#927 = AXIS2_PLACEMENT_3D('',#928,#929,#930);
#928 = CARTESIAN_POINT('',(-1.5,0.675,0.));
#929 = DIRECTION('',(-1.,-0.,-0.));
#930 = DIRECTION('',(-0.,1.,-0.));
#931 = ADVANCED_FACE('',(#932),#938,.T.);
#932 = FACE_BOUND('',#933,.F.);
#933 = EDGE_LOOP('',(#934,#935,#936,#937));
#934 = ORIENTED_EDGE('',*,*,#837,.T.);
#935 = ORIENTED_EDGE('',*,*,#868,.T.);
#936 = ORIENTED_EDGE('',*,*,#899,.T.);
#937 = ORIENTED_EDGE('',*,*,#921,.T.);
#938 = PLANE('',#939);
#939 = AXIS2_PLACEMENT_3D('',#940,#941,#942);
#940 = CARTESIAN_POINT('',(-1.4,0.55,0.));
#941 = DIRECTION('',(0.,0.,-1.));
#942 = DIRECTION('',(1.,0.,0.));
#943 = ADVANCED_FACE('',(#944),#950,.F.);
#944 = FACE_BOUND('',#945,.T.);
#945 = EDGE_LOOP('',(#946,#947,#948,#949));
#946 = ORIENTED_EDGE('',*,*,#821,.T.);
#947 = ORIENTED_EDGE('',*,*,#852,.T.);
#948 = ORIENTED_EDGE('',*,*,#883,.T.);
#949 = ORIENTED_EDGE('',*,*,#914,.T.);
#950 = PLANE('',#951);
#951 = AXIS2_PLACEMENT_3D('',#952,#953,#954);
#952 = CARTESIAN_POINT('',(-1.4,0.55,0.13));
#953 = DIRECTION('',(0.,0.,-1.));
#954 = DIRECTION('',(1.,0.,0.));
#955 = ( GEOMETRIC_REPRESENTATION_CONTEXT(3) 
GLOBAL_UNCERTAINTY_ASSIGNED_CONTEXT((#959)) GLOBAL_UNIT_ASSIGNED_CONTEXT
((#956,#957,#958)) REPRESENTATION_CONTEXT('Context #1',
  '3D Context with UNIT and UNCERTAINTY') );
#956 = ( LENGTH_UNIT() NAMED_UNIT(*) SI_UNIT(.MILLI.,.METRE.) );
#957 = ( NAMED_UNIT(*) PLANE_ANGLE_UNIT() SI_UNIT($,.RADIAN.) );
#958 = ( NAMED_UNIT(*) SI_UNIT($,.STERADIAN.) SOLID_ANGLE_UNIT() );
#959 = UNCERTAINTY_MEASURE_WITH_UNIT(LENGTH_MEASURE(1.E-07),#956,
  'distance_accuracy_value','confusion accuracy');
#960 = SHAPE_DEFINITION_REPRESENTATION(#961,#804);
#961 = PRODUCT_DEFINITION_SHAPE('','',#962);
#962 = PRODUCT_DEFINITION('design','',#963,#966);
#963 = PRODUCT_DEFINITION_FORMATION('','',#964);
#964 = PRODUCT('Solid009','Solid009','',(#965));
#965 = PRODUCT_CONTEXT('',#2,'mechanical');
#966 = PRODUCT_DEFINITION_CONTEXT('part definition',#2,'design');
#967 = CONTEXT_DEPENDENT_SHAPE_REPRESENTATION(#968,#970);
#968 = ( REPRESENTATION_RELATIONSHIP('','',#804,#10) 
REPRESENTATION_RELATIONSHIP_WITH_TRANSFORMATION(#969) 
SHAPE_REPRESENTATION_RELATIONSHIP() );
#969 = ITEM_DEFINED_TRANSFORMATION('','',#11,#59);
#970 = PRODUCT_DEFINITION_SHAPE('Placement','Placement of an item',#971
  );
#971 = NEXT_ASSEMBLY_USAGE_OCCURRENCE('12','Solid009','',#5,#962,$);
#972 = PRODUCT_RELATED_PRODUCT_CATEGORY('part',$,(#964));
#973 = ADVANCED_BREP_SHAPE_REPRESENTATION('',(#11,#974),#1124);
#974 = MANIFOLD_SOLID_BREP('',#975);
#975 = CLOSED_SHELL('',(#976,#1016,#1047,#1078,#1100,#1112));
#976 = ADVANCED_FACE('',(#977),#1011,.T.);
#977 = FACE_BOUND('',#978,.F.);
#978 = EDGE_LOOP('',(#979,#989,#997,#1005));
#979 = ORIENTED_EDGE('',*,*,#980,.T.);
#980 = EDGE_CURVE('',#981,#983,#985,.T.);
#981 = VERTEX_POINT('',#982);
#982 = CARTESIAN_POINT('',(-1.5,0.425,0.));
#983 = VERTEX_POINT('',#984);
#984 = CARTESIAN_POINT('',(-1.5,0.425,0.13));
#985 = LINE('',#986,#987);
#986 = CARTESIAN_POINT('',(-1.5,0.425,0.));
#987 = VECTOR('',#988,1.);
#988 = DIRECTION('',(-0.,-0.,1.));
#989 = ORIENTED_EDGE('',*,*,#990,.T.);
#990 = EDGE_CURVE('',#983,#991,#993,.T.);
#991 = VERTEX_POINT('',#992);
#992 = CARTESIAN_POINT('',(-1.3,0.425,0.13));
#993 = LINE('',#994,#995);
#994 = CARTESIAN_POINT('',(-1.5,0.425,0.13));
#995 = VECTOR('',#996,1.);
#996 = DIRECTION('',(1.,0.,0.));
#997 = ORIENTED_EDGE('',*,*,#998,.F.);
#998 = EDGE_CURVE('',#999,#991,#1001,.T.);
#999 = VERTEX_POINT('',#1000);
#1000 = CARTESIAN_POINT('',(-1.3,0.425,0.));
#1001 = LINE('',#1002,#1003);
#1002 = CARTESIAN_POINT('',(-1.3,0.425,0.));
#1003 = VECTOR('',#1004,1.);
#1004 = DIRECTION('',(-0.,-0.,1.));
#1005 = ORIENTED_EDGE('',*,*,#1006,.F.);
#1006 = EDGE_CURVE('',#981,#999,#1007,.T.);
#1007 = LINE('',#1008,#1009);
#1008 = CARTESIAN_POINT('',(-1.5,0.425,0.));
#1009 = VECTOR('',#1010,1.);
#1010 = DIRECTION('',(1.,0.,0.));
#1011 = PLANE('',#1012);
#1012 = AXIS2_PLACEMENT_3D('',#1013,#1014,#1015);
#1013 = CARTESIAN_POINT('',(-1.5,0.425,0.));
#1014 = DIRECTION('',(-0.,-1.,-0.));
#1015 = DIRECTION('',(-1.,0.,-0.));
#1016 = ADVANCED_FACE('',(#1017),#1042,.T.);
#1017 = FACE_BOUND('',#1018,.F.);
#1018 = EDGE_LOOP('',(#1019,#1020,#1028,#1036));
#1019 = ORIENTED_EDGE('',*,*,#998,.T.);
#1020 = ORIENTED_EDGE('',*,*,#1021,.T.);
#1021 = EDGE_CURVE('',#991,#1022,#1024,.T.);
#1022 = VERTEX_POINT('',#1023);
#1023 = CARTESIAN_POINT('',(-1.3,0.675,0.13));
#1024 = LINE('',#1025,#1026);
#1025 = CARTESIAN_POINT('',(-1.3,0.425,0.13));
#1026 = VECTOR('',#1027,1.);
#1027 = DIRECTION('',(0.,1.,0.));
#1028 = ORIENTED_EDGE('',*,*,#1029,.F.);
#1029 = EDGE_CURVE('',#1030,#1022,#1032,.T.);
#1030 = VERTEX_POINT('',#1031);
#1031 = CARTESIAN_POINT('',(-1.3,0.675,0.));
#1032 = LINE('',#1033,#1034);
#1033 = CARTESIAN_POINT('',(-1.3,0.675,0.));
#1034 = VECTOR('',#1035,1.);
#1035 = DIRECTION('',(-0.,-0.,1.));
#1036 = ORIENTED_EDGE('',*,*,#1037,.F.);
#1037 = EDGE_CURVE('',#999,#1030,#1038,.T.);
#1038 = LINE('',#1039,#1040);
#1039 = CARTESIAN_POINT('',(-1.3,0.425,0.));
#1040 = VECTOR('',#1041,1.);
#1041 = DIRECTION('',(0.,1.,0.));
#1042 = PLANE('',#1043);
#1043 = AXIS2_PLACEMENT_3D('',#1044,#1045,#1046);
#1044 = CARTESIAN_POINT('',(-1.3,0.425,0.));
#1045 = DIRECTION('',(1.,-0.,-0.));
#1046 = DIRECTION('',(-0.,-1.,0.));
#1047 = ADVANCED_FACE('',(#1048),#1073,.T.);
#1048 = FACE_BOUND('',#1049,.F.);
#1049 = EDGE_LOOP('',(#1050,#1051,#1059,#1067));
#1050 = ORIENTED_EDGE('',*,*,#1029,.T.);
#1051 = ORIENTED_EDGE('',*,*,#1052,.T.);
#1052 = EDGE_CURVE('',#1022,#1053,#1055,.T.);
#1053 = VERTEX_POINT('',#1054);
#1054 = CARTESIAN_POINT('',(-1.5,0.675,0.13));
#1055 = LINE('',#1056,#1057);
#1056 = CARTESIAN_POINT('',(-1.3,0.675,0.13));
#1057 = VECTOR('',#1058,1.);
#1058 = DIRECTION('',(-1.,-0.,-0.));
#1059 = ORIENTED_EDGE('',*,*,#1060,.F.);
#1060 = EDGE_CURVE('',#1061,#1053,#1063,.T.);
#1061 = VERTEX_POINT('',#1062);
#1062 = CARTESIAN_POINT('',(-1.5,0.675,0.));
#1063 = LINE('',#1064,#1065);
#1064 = CARTESIAN_POINT('',(-1.5,0.675,0.));
#1065 = VECTOR('',#1066,1.);
#1066 = DIRECTION('',(-0.,-0.,1.));
#1067 = ORIENTED_EDGE('',*,*,#1068,.F.);
#1068 = EDGE_CURVE('',#1030,#1061,#1069,.T.);
#1069 = LINE('',#1070,#1071);
#1070 = CARTESIAN_POINT('',(-1.3,0.675,0.));
#1071 = VECTOR('',#1072,1.);
#1072 = DIRECTION('',(-1.,-0.,-0.));
#1073 = PLANE('',#1074);
#1074 = AXIS2_PLACEMENT_3D('',#1075,#1076,#1077);
#1075 = CARTESIAN_POINT('',(-1.3,0.675,0.));
#1076 = DIRECTION('',(-0.,1.,-0.));
#1077 = DIRECTION('',(1.,0.,0.));
#1078 = ADVANCED_FACE('',(#1079),#1095,.T.);
#1079 = FACE_BOUND('',#1080,.F.);
#1080 = EDGE_LOOP('',(#1081,#1082,#1088,#1089));
#1081 = ORIENTED_EDGE('',*,*,#1060,.T.);
#1082 = ORIENTED_EDGE('',*,*,#1083,.T.);
#1083 = EDGE_CURVE('',#1053,#983,#1084,.T.);
#1084 = LINE('',#1085,#1086);
#1085 = CARTESIAN_POINT('',(-1.5,0.675,0.13));
#1086 = VECTOR('',#1087,1.);
#1087 = DIRECTION('',(-0.,-1.,-0.));
#1088 = ORIENTED_EDGE('',*,*,#980,.F.);
#1089 = ORIENTED_EDGE('',*,*,#1090,.F.);
#1090 = EDGE_CURVE('',#1061,#981,#1091,.T.);
#1091 = LINE('',#1092,#1093);
#1092 = CARTESIAN_POINT('',(-1.5,0.675,0.));
#1093 = VECTOR('',#1094,1.);
#1094 = DIRECTION('',(-0.,-1.,-0.));
#1095 = PLANE('',#1096);
#1096 = AXIS2_PLACEMENT_3D('',#1097,#1098,#1099);
#1097 = CARTESIAN_POINT('',(-1.5,0.675,0.));
#1098 = DIRECTION('',(-1.,-0.,-0.));
#1099 = DIRECTION('',(-0.,1.,-0.));
#1100 = ADVANCED_FACE('',(#1101),#1107,.T.);
#1101 = FACE_BOUND('',#1102,.F.);
#1102 = EDGE_LOOP('',(#1103,#1104,#1105,#1106));
#1103 = ORIENTED_EDGE('',*,*,#1006,.T.);
#1104 = ORIENTED_EDGE('',*,*,#1037,.T.);
#1105 = ORIENTED_EDGE('',*,*,#1068,.T.);
#1106 = ORIENTED_EDGE('',*,*,#1090,.T.);
#1107 = PLANE('',#1108);
#1108 = AXIS2_PLACEMENT_3D('',#1109,#1110,#1111);
#1109 = CARTESIAN_POINT('',(-1.4,0.55,0.));
#1110 = DIRECTION('',(0.,0.,-1.));
#1111 = DIRECTION('',(1.,0.,0.));
#1112 = ADVANCED_FACE('',(#1113),#1119,.F.);
#1113 = FACE_BOUND('',#1114,.T.);
#1114 = EDGE_LOOP('',(#1115,#1116,#1117,#1118));
#1115 = ORIENTED_EDGE('',*,*,#990,.T.);
#1116 = ORIENTED_EDGE('',*,*,#1021,.T.);
#1117 = ORIENTED_EDGE('',*,*,#1052,.T.);
#1118 = ORIENTED_EDGE('',*,*,#1083,.T.);
#1119 = PLANE('',#1120);
#1120 = AXIS2_PLACEMENT_3D('',#1121,#1122,#1123);
#1121 = CARTESIAN_POINT('',(-1.4,0.55,0.13));
#1122 = DIRECTION('',(0.,0.,-1.));
#1123 = DIRECTION('',(1.,0.,0.));
#1124 = ( GEOMETRIC_REPRESENTATION_CONTEXT(3) 
GLOBAL_UNCERTAINTY_ASSIGNED_CONTEXT((#1128)) 
GLOBAL_UNIT_ASSIGNED_CONTEXT((#1125,#1126,#1127)) REPRESENTATION_CONTEXT
('Context #1','3D Context with UNIT and UNCERTAINTY') );
#1125 = ( LENGTH_UNIT() NAMED_UNIT(*) SI_UNIT(.MILLI.,.METRE.) );
#1126 = ( NAMED_UNIT(*) PLANE_ANGLE_UNIT() SI_UNIT($,.RADIAN.) );
#1127 = ( NAMED_UNIT(*) SI_UNIT($,.STERADIAN.) SOLID_ANGLE_UNIT() );
#1128 = UNCERTAINTY_MEASURE_WITH_UNIT(LENGTH_MEASURE(1.E-07),#1125,
  'distance_accuracy_value','confusion accuracy');
#1129 = SHAPE_DEFINITION_REPRESENTATION(#1130,#973);
#1130 = PRODUCT_DEFINITION_SHAPE('','',#1131);
#1131 = PRODUCT_DEFINITION('design','',#1132,#1135);
#1132 = PRODUCT_DEFINITION_FORMATION('','',#1133);
#1133 = PRODUCT('Solid010','Solid010','',(#1134));
#1134 = PRODUCT_CONTEXT('',#2,'mechanical');
#1135 = PRODUCT_DEFINITION_CONTEXT('part definition',#2,'design');
#1136 = CONTEXT_DEPENDENT_SHAPE_REPRESENTATION(#1137,#1139);
#1137 = ( REPRESENTATION_RELATIONSHIP('','',#973,#10) 
REPRESENTATION_RELATIONSHIP_WITH_TRANSFORMATION(#1138) 
SHAPE_REPRESENTATION_RELATIONSHIP() );
#1138 = ITEM_DEFINED_TRANSFORMATION('','',#11,#63);
#1139 = PRODUCT_DEFINITION_SHAPE('Placement','Placement of an item',
  #1140);
#1140 = NEXT_ASSEMBLY_USAGE_OCCURRENCE('13','Solid010','',#5,#1131,$);
#1141 = PRODUCT_RELATED_PRODUCT_CATEGORY('part',$,(#1133));
#1142 = ADVANCED_BREP_SHAPE_REPRESENTATION('',(#11,#1143),#1293);
#1143 = MANIFOLD_SOLID_BREP('',#1144);
#1144 = CLOSED_SHELL('',(#1145,#1185,#1216,#1247,#1269,#1281));
#1145 = ADVANCED_FACE('',(#1146),#1180,.T.);
#1146 = FACE_BOUND('',#1147,.F.);
#1147 = EDGE_LOOP('',(#1148,#1158,#1166,#1174));
#1148 = ORIENTED_EDGE('',*,*,#1149,.T.);
#1149 = EDGE_CURVE('',#1150,#1152,#1154,.T.);
#1150 = VERTEX_POINT('',#1151);
#1151 = CARTESIAN_POINT('',(-1.5,0.425,0.));
#1152 = VERTEX_POINT('',#1153);
#1153 = CARTESIAN_POINT('',(-1.5,0.425,0.13));
#1154 = LINE('',#1155,#1156);
#1155 = CARTESIAN_POINT('',(-1.5,0.425,0.));
#1156 = VECTOR('',#1157,1.);
#1157 = DIRECTION('',(-0.,-0.,1.));
#1158 = ORIENTED_EDGE('',*,*,#1159,.T.);
#1159 = EDGE_CURVE('',#1152,#1160,#1162,.T.);
#1160 = VERTEX_POINT('',#1161);
#1161 = CARTESIAN_POINT('',(-1.3,0.425,0.13));
#1162 = LINE('',#1163,#1164);
#1163 = CARTESIAN_POINT('',(-1.5,0.425,0.13));
#1164 = VECTOR('',#1165,1.);
#1165 = DIRECTION('',(1.,0.,0.));
#1166 = ORIENTED_EDGE('',*,*,#1167,.F.);
#1167 = EDGE_CURVE('',#1168,#1160,#1170,.T.);
#1168 = VERTEX_POINT('',#1169);
#1169 = CARTESIAN_POINT('',(-1.3,0.425,0.));
#1170 = LINE('',#1171,#1172);
#1171 = CARTESIAN_POINT('',(-1.3,0.425,0.));
#1172 = VECTOR('',#1173,1.);
#1173 = DIRECTION('',(-0.,-0.,1.));
#1174 = ORIENTED_EDGE('',*,*,#1175,.F.);
#1175 = EDGE_CURVE('',#1150,#1168,#1176,.T.);
#1176 = LINE('',#1177,#1178);
#1177 = CARTESIAN_POINT('',(-1.5,0.425,0.));
#1178 = VECTOR('',#1179,1.);
#1179 = DIRECTION('',(1.,0.,0.));
#1180 = PLANE('',#1181);
#1181 = AXIS2_PLACEMENT_3D('',#1182,#1183,#1184);
#1182 = CARTESIAN_POINT('',(-1.5,0.425,0.));
#1183 = DIRECTION('',(-0.,-1.,-0.));
#1184 = DIRECTION('',(-1.,0.,-0.));
#1185 = ADVANCED_FACE('',(#1186),#1211,.T.);
#1186 = FACE_BOUND('',#1187,.F.);
#1187 = EDGE_LOOP('',(#1188,#1189,#1197,#1205));
#1188 = ORIENTED_EDGE('',*,*,#1167,.T.);
#1189 = ORIENTED_EDGE('',*,*,#1190,.T.);
#1190 = EDGE_CURVE('',#1160,#1191,#1193,.T.);
#1191 = VERTEX_POINT('',#1192);
#1192 = CARTESIAN_POINT('',(-1.3,0.675,0.13));
#1193 = LINE('',#1194,#1195);
#1194 = CARTESIAN_POINT('',(-1.3,0.425,0.13));
#1195 = VECTOR('',#1196,1.);
#1196 = DIRECTION('',(0.,1.,0.));
#1197 = ORIENTED_EDGE('',*,*,#1198,.F.);
#1198 = EDGE_CURVE('',#1199,#1191,#1201,.T.);
#1199 = VERTEX_POINT('',#1200);
#1200 = CARTESIAN_POINT('',(-1.3,0.675,0.));
#1201 = LINE('',#1202,#1203);
#1202 = CARTESIAN_POINT('',(-1.3,0.675,0.));
#1203 = VECTOR('',#1204,1.);
#1204 = DIRECTION('',(-0.,-0.,1.));
#1205 = ORIENTED_EDGE('',*,*,#1206,.F.);
#1206 = EDGE_CURVE('',#1168,#1199,#1207,.T.);
#1207 = LINE('',#1208,#1209);
#1208 = CARTESIAN_POINT('',(-1.3,0.425,0.));
#1209 = VECTOR('',#1210,1.);
#1210 = DIRECTION('',(0.,1.,0.));
#1211 = PLANE('',#1212);
#1212 = AXIS2_PLACEMENT_3D('',#1213,#1214,#1215);
#1213 = CARTESIAN_POINT('',(-1.3,0.425,0.));
#1214 = DIRECTION('',(1.,-0.,-0.));
#1215 = DIRECTION('',(-0.,-1.,0.));
#1216 = ADVANCED_FACE('',(#1217),#1242,.T.);
#1217 = FACE_BOUND('',#1218,.F.);
#1218 = EDGE_LOOP('',(#1219,#1220,#1228,#1236));
#1219 = ORIENTED_EDGE('',*,*,#1198,.T.);
#1220 = ORIENTED_EDGE('',*,*,#1221,.T.);
#1221 = EDGE_CURVE('',#1191,#1222,#1224,.T.);
#1222 = VERTEX_POINT('',#1223);
#1223 = CARTESIAN_POINT('',(-1.5,0.675,0.13));
#1224 = LINE('',#1225,#1226);
#1225 = CARTESIAN_POINT('',(-1.3,0.675,0.13));
#1226 = VECTOR('',#1227,1.);
#1227 = DIRECTION('',(-1.,-0.,-0.));
#1228 = ORIENTED_EDGE('',*,*,#1229,.F.);
#1229 = EDGE_CURVE('',#1230,#1222,#1232,.T.);
#1230 = VERTEX_POINT('',#1231);
#1231 = CARTESIAN_POINT('',(-1.5,0.675,0.));
#1232 = LINE('',#1233,#1234);
#1233 = CARTESIAN_POINT('',(-1.5,0.675,0.));
#1234 = VECTOR('',#1235,1.);
#1235 = DIRECTION('',(-0.,-0.,1.));
#1236 = ORIENTED_EDGE('',*,*,#1237,.F.);
#1237 = EDGE_CURVE('',#1199,#1230,#1238,.T.);
#1238 = LINE('',#1239,#1240);
#1239 = CARTESIAN_POINT('',(-1.3,0.675,0.));
#1240 = VECTOR('',#1241,1.);
#1241 = DIRECTION('',(-1.,-0.,-0.));
#1242 = PLANE('',#1243);
#1243 = AXIS2_PLACEMENT_3D('',#1244,#1245,#1246);
#1244 = CARTESIAN_POINT('',(-1.3,0.675,0.));
#1245 = DIRECTION('',(-0.,1.,-0.));
#1246 = DIRECTION('',(1.,0.,0.));
#1247 = ADVANCED_FACE('',(#1248),#1264,.T.);
#1248 = FACE_BOUND('',#1249,.F.);
#1249 = EDGE_LOOP('',(#1250,#1251,#1257,#1258));
#1250 = ORIENTED_EDGE('',*,*,#1229,.T.);
#1251 = ORIENTED_EDGE('',*,*,#1252,.T.);
#1252 = EDGE_CURVE('',#1222,#1152,#1253,.T.);
#1253 = LINE('',#1254,#1255);
#1254 = CARTESIAN_POINT('',(-1.5,0.675,0.13));
#1255 = VECTOR('',#1256,1.);
#1256 = DIRECTION('',(-0.,-1.,-0.));
#1257 = ORIENTED_EDGE('',*,*,#1149,.F.);
#1258 = ORIENTED_EDGE('',*,*,#1259,.F.);
#1259 = EDGE_CURVE('',#1230,#1150,#1260,.T.);
#1260 = LINE('',#1261,#1262);
#1261 = CARTESIAN_POINT('',(-1.5,0.675,0.));
#1262 = VECTOR('',#1263,1.);
#1263 = DIRECTION('',(-0.,-1.,-0.));
#1264 = PLANE('',#1265);
#1265 = AXIS2_PLACEMENT_3D('',#1266,#1267,#1268);
#1266 = CARTESIAN_POINT('',(-1.5,0.675,0.));
#1267 = DIRECTION('',(-1.,-0.,-0.));
#1268 = DIRECTION('',(-0.,1.,-0.));
#1269 = ADVANCED_FACE('',(#1270),#1276,.T.);
#1270 = FACE_BOUND('',#1271,.F.);
#1271 = EDGE_LOOP('',(#1272,#1273,#1274,#1275));
#1272 = ORIENTED_EDGE('',*,*,#1175,.T.);
#1273 = ORIENTED_EDGE('',*,*,#1206,.T.);
#1274 = ORIENTED_EDGE('',*,*,#1237,.T.);
#1275 = ORIENTED_EDGE('',*,*,#1259,.T.);
#1276 = PLANE('',#1277);
#1277 = AXIS2_PLACEMENT_3D('',#1278,#1279,#1280);
#1278 = CARTESIAN_POINT('',(-1.4,0.55,0.));
#1279 = DIRECTION('',(0.,0.,-1.));
#1280 = DIRECTION('',(1.,0.,0.));
#1281 = ADVANCED_FACE('',(#1282),#1288,.F.);
#1282 = FACE_BOUND('',#1283,.T.);
#1283 = EDGE_LOOP('',(#1284,#1285,#1286,#1287));
#1284 = ORIENTED_EDGE('',*,*,#1159,.T.);
#1285 = ORIENTED_EDGE('',*,*,#1190,.T.);
#1286 = ORIENTED_EDGE('',*,*,#1221,.T.);
#1287 = ORIENTED_EDGE('',*,*,#1252,.T.);
#1288 = PLANE('',#1289);
#1289 = AXIS2_PLACEMENT_3D('',#1290,#1291,#1292);
#1290 = CARTESIAN_POINT('',(-1.4,0.55,0.13));
#1291 = DIRECTION('',(0.,0.,-1.));
#1292 = DIRECTION('',(1.,0.,0.));
#1293 = ( GEOMETRIC_REPRESENTATION_CONTEXT(3) 
GLOBAL_UNCERTAINTY_ASSIGNED_CONTEXT((#1297)) 
GLOBAL_UNIT_ASSIGNED_CONTEXT((#1294,#1295,#1296)) REPRESENTATION_CONTEXT
('Context #1','3D Context with UNIT and UNCERTAINTY') );
#1294 = ( LENGTH_UNIT() NAMED_UNIT(*) SI_UNIT(.MILLI.,.METRE.) );
#1295 = ( NAMED_UNIT(*) PLANE_ANGLE_UNIT() SI_UNIT($,.RADIAN.) );
#1296 = ( NAMED_UNIT(*) SI_UNIT($,.STERADIAN.) SOLID_ANGLE_UNIT() );
#1297 = UNCERTAINTY_MEASURE_WITH_UNIT(LENGTH_MEASURE(1.E-07),#1294,
  'distance_accuracy_value','confusion accuracy');
#1298 = SHAPE_DEFINITION_REPRESENTATION(#1299,#1142);
#1299 = PRODUCT_DEFINITION_SHAPE('','',#1300);
#1300 = PRODUCT_DEFINITION('design','',#1301,#1304);
#1301 = PRODUCT_DEFINITION_FORMATION('','',#1302);
#1302 = PRODUCT('Solid011','Solid011','',(#1303));
#1303 = PRODUCT_CONTEXT('',#2,'mechanical');
#1304 = PRODUCT_DEFINITION_CONTEXT('part definition',#2,'design');
#1305 = CONTEXT_DEPENDENT_SHAPE_REPRESENTATION(#1306,#1308);
#1306 = ( REPRESENTATION_RELATIONSHIP('','',#1142,#10) 
REPRESENTATION_RELATIONSHIP_WITH_TRANSFORMATION(#1307) 
SHAPE_REPRESENTATION_RELATIONSHIP() );
#1307 = ITEM_DEFINED_TRANSFORMATION('','',#11,#67);
#1308 = PRODUCT_DEFINITION_SHAPE('Placement','Placement of an item',
  #1309);
#1309 = NEXT_ASSEMBLY_USAGE_OCCURRENCE('14','Solid011','',#5,#1300,$);
#1310 = PRODUCT_RELATED_PRODUCT_CATEGORY('part',$,(#1302));
#1311 = ADVANCED_BREP_SHAPE_REPRESENTATION('',(#11,#1312),#1462);
#1312 = MANIFOLD_SOLID_BREP('',#1313);
#1313 = CLOSED_SHELL('',(#1314,#1354,#1385,#1416,#1438,#1450));
#1314 = ADVANCED_FACE('',(#1315),#1349,.T.);
#1315 = FACE_BOUND('',#1316,.F.);
#1316 = EDGE_LOOP('',(#1317,#1327,#1335,#1343));
#1317 = ORIENTED_EDGE('',*,*,#1318,.T.);
#1318 = EDGE_CURVE('',#1319,#1321,#1323,.T.);
#1319 = VERTEX_POINT('',#1320);
#1320 = CARTESIAN_POINT('',(-1.5,0.425,0.));
#1321 = VERTEX_POINT('',#1322);
#1322 = CARTESIAN_POINT('',(-1.5,0.425,0.13));
#1323 = LINE('',#1324,#1325);
#1324 = CARTESIAN_POINT('',(-1.5,0.425,0.));
#1325 = VECTOR('',#1326,1.);
#1326 = DIRECTION('',(-0.,-0.,1.));
#1327 = ORIENTED_EDGE('',*,*,#1328,.T.);
#1328 = EDGE_CURVE('',#1321,#1329,#1331,.T.);
#1329 = VERTEX_POINT('',#1330);
#1330 = CARTESIAN_POINT('',(-1.3,0.425,0.13));
#1331 = LINE('',#1332,#1333);
#1332 = CARTESIAN_POINT('',(-1.5,0.425,0.13));
#1333 = VECTOR('',#1334,1.);
#1334 = DIRECTION('',(1.,0.,0.));
#1335 = ORIENTED_EDGE('',*,*,#1336,.F.);
#1336 = EDGE_CURVE('',#1337,#1329,#1339,.T.);
#1337 = VERTEX_POINT('',#1338);
#1338 = CARTESIAN_POINT('',(-1.3,0.425,0.));
#1339 = LINE('',#1340,#1341);
#1340 = CARTESIAN_POINT('',(-1.3,0.425,0.));
#1341 = VECTOR('',#1342,1.);
#1342 = DIRECTION('',(-0.,-0.,1.));
#1343 = ORIENTED_EDGE('',*,*,#1344,.F.);
#1344 = EDGE_CURVE('',#1319,#1337,#1345,.T.);
#1345 = LINE('',#1346,#1347);
#1346 = CARTESIAN_POINT('',(-1.5,0.425,0.));
#1347 = VECTOR('',#1348,1.);
#1348 = DIRECTION('',(1.,0.,0.));
#1349 = PLANE('',#1350);
#1350 = AXIS2_PLACEMENT_3D('',#1351,#1352,#1353);
#1351 = CARTESIAN_POINT('',(-1.5,0.425,0.));
#1352 = DIRECTION('',(-0.,-1.,-0.));
#1353 = DIRECTION('',(-1.,0.,-0.));
#1354 = ADVANCED_FACE('',(#1355),#1380,.T.);
#1355 = FACE_BOUND('',#1356,.F.);
#1356 = EDGE_LOOP('',(#1357,#1358,#1366,#1374));
#1357 = ORIENTED_EDGE('',*,*,#1336,.T.);
#1358 = ORIENTED_EDGE('',*,*,#1359,.T.);
#1359 = EDGE_CURVE('',#1329,#1360,#1362,.T.);
#1360 = VERTEX_POINT('',#1361);
#1361 = CARTESIAN_POINT('',(-1.3,0.675,0.13));
#1362 = LINE('',#1363,#1364);
#1363 = CARTESIAN_POINT('',(-1.3,0.425,0.13));
#1364 = VECTOR('',#1365,1.);
#1365 = DIRECTION('',(0.,1.,0.));
#1366 = ORIENTED_EDGE('',*,*,#1367,.F.);
#1367 = EDGE_CURVE('',#1368,#1360,#1370,.T.);
#1368 = VERTEX_POINT('',#1369);
#1369 = CARTESIAN_POINT('',(-1.3,0.675,0.));
#1370 = LINE('',#1371,#1372);
#1371 = CARTESIAN_POINT('',(-1.3,0.675,0.));
#1372 = VECTOR('',#1373,1.);
#1373 = DIRECTION('',(-0.,-0.,1.));
#1374 = ORIENTED_EDGE('',*,*,#1375,.F.);
#1375 = EDGE_CURVE('',#1337,#1368,#1376,.T.);
#1376 = LINE('',#1377,#1378);
#1377 = CARTESIAN_POINT('',(-1.3,0.425,0.));
#1378 = VECTOR('',#1379,1.);
#1379 = DIRECTION('',(0.,1.,0.));
#1380 = PLANE('',#1381);
#1381 = AXIS2_PLACEMENT_3D('',#1382,#1383,#1384);
#1382 = CARTESIAN_POINT('',(-1.3,0.425,0.));
#1383 = DIRECTION('',(1.,-0.,-0.));
#1384 = DIRECTION('',(-0.,-1.,0.));
#1385 = ADVANCED_FACE('',(#1386),#1411,.T.);
#1386 = FACE_BOUND('',#1387,.F.);
#1387 = EDGE_LOOP('',(#1388,#1389,#1397,#1405));
#1388 = ORIENTED_EDGE('',*,*,#1367,.T.);
#1389 = ORIENTED_EDGE('',*,*,#1390,.T.);
#1390 = EDGE_CURVE('',#1360,#1391,#1393,.T.);
#1391 = VERTEX_POINT('',#1392);
#1392 = CARTESIAN_POINT('',(-1.5,0.675,0.13));
#1393 = LINE('',#1394,#1395);
#1394 = CARTESIAN_POINT('',(-1.3,0.675,0.13));
#1395 = VECTOR('',#1396,1.);
#1396 = DIRECTION('',(-1.,-0.,-0.));
#1397 = ORIENTED_EDGE('',*,*,#1398,.F.);
#1398 = EDGE_CURVE('',#1399,#1391,#1401,.T.);
#1399 = VERTEX_POINT('',#1400);
#1400 = CARTESIAN_POINT('',(-1.5,0.675,0.));
#1401 = LINE('',#1402,#1403);
#1402 = CARTESIAN_POINT('',(-1.5,0.675,0.));
#1403 = VECTOR('',#1404,1.);
#1404 = DIRECTION('',(-0.,-0.,1.));
#1405 = ORIENTED_EDGE('',*,*,#1406,.F.);
#1406 = EDGE_CURVE('',#1368,#1399,#1407,.T.);
#1407 = LINE('',#1408,#1409);
#1408 = CARTESIAN_POINT('',(-1.3,0.675,0.));
#1409 = VECTOR('',#1410,1.);
#1410 = DIRECTION('',(-1.,-0.,-0.));
#1411 = PLANE('',#1412);
#1412 = AXIS2_PLACEMENT_3D('',#1413,#1414,#1415);
#1413 = CARTESIAN_POINT('',(-1.3,0.675,0.));
#1414 = DIRECTION('',(-0.,1.,-0.));
#1415 = DIRECTION('',(1.,0.,0.));
#1416 = ADVANCED_FACE('',(#1417),#1433,.T.);
#1417 = FACE_BOUND('',#1418,.F.);
#1418 = EDGE_LOOP('',(#1419,#1420,#1426,#1427));
#1419 = ORIENTED_EDGE('',*,*,#1398,.T.);
#1420 = ORIENTED_EDGE('',*,*,#1421,.T.);
#1421 = EDGE_CURVE('',#1391,#1321,#1422,.T.);
#1422 = LINE('',#1423,#1424);
#1423 = CARTESIAN_POINT('',(-1.5,0.675,0.13));
#1424 = VECTOR('',#1425,1.);
#1425 = DIRECTION('',(-0.,-1.,-0.));
#1426 = ORIENTED_EDGE('',*,*,#1318,.F.);
#1427 = ORIENTED_EDGE('',*,*,#1428,.F.);
#1428 = EDGE_CURVE('',#1399,#1319,#1429,.T.);
#1429 = LINE('',#1430,#1431);
#1430 = CARTESIAN_POINT('',(-1.5,0.675,0.));
#1431 = VECTOR('',#1432,1.);
#1432 = DIRECTION('',(-0.,-1.,-0.));
#1433 = PLANE('',#1434);
#1434 = AXIS2_PLACEMENT_3D('',#1435,#1436,#1437);
#1435 = CARTESIAN_POINT('',(-1.5,0.675,0.));
#1436 = DIRECTION('',(-1.,-0.,-0.));
#1437 = DIRECTION('',(-0.,1.,-0.));
#1438 = ADVANCED_FACE('',(#1439),#1445,.T.);
#1439 = FACE_BOUND('',#1440,.F.);
#1440 = EDGE_LOOP('',(#1441,#1442,#1443,#1444));
#1441 = ORIENTED_EDGE('',*,*,#1344,.T.);
#1442 = ORIENTED_EDGE('',*,*,#1375,.T.);
#1443 = ORIENTED_EDGE('',*,*,#1406,.T.);
#1444 = ORIENTED_EDGE('',*,*,#1428,.T.);
#1445 = PLANE('',#1446);
#1446 = AXIS2_PLACEMENT_3D('',#1447,#1448,#1449);
#1447 = CARTESIAN_POINT('',(-1.4,0.55,0.));
#1448 = DIRECTION('',(0.,0.,-1.));
#1449 = DIRECTION('',(1.,0.,0.));
#1450 = ADVANCED_FACE('',(#1451),#1457,.F.);
#1451 = FACE_BOUND('',#1452,.T.);
#1452 = EDGE_LOOP('',(#1453,#1454,#1455,#1456));
#1453 = ORIENTED_EDGE('',*,*,#1328,.T.);
#1454 = ORIENTED_EDGE('',*,*,#1359,.T.);
#1455 = ORIENTED_EDGE('',*,*,#1390,.T.);
#1456 = ORIENTED_EDGE('',*,*,#1421,.T.);
#1457 = PLANE('',#1458);
#1458 = AXIS2_PLACEMENT_3D('',#1459,#1460,#1461);
#1459 = CARTESIAN_POINT('',(-1.4,0.55,0.13));
#1460 = DIRECTION('',(0.,0.,-1.));
#1461 = DIRECTION('',(1.,0.,0.));
#1462 = ( GEOMETRIC_REPRESENTATION_CONTEXT(3) 
GLOBAL_UNCERTAINTY_ASSIGNED_CONTEXT((#1466)) 
GLOBAL_UNIT_ASSIGNED_CONTEXT((#1463,#1464,#1465)) REPRESENTATION_CONTEXT
('Context #1','3D Context with UNIT and UNCERTAINTY') );
#1463 = ( LENGTH_UNIT() NAMED_UNIT(*) SI_UNIT(.MILLI.,.METRE.) );
#1464 = ( NAMED_UNIT(*) PLANE_ANGLE_UNIT() SI_UNIT($,.RADIAN.) );
#1465 = ( NAMED_UNIT(*) SI_UNIT($,.STERADIAN.) SOLID_ANGLE_UNIT() );
#1466 = UNCERTAINTY_MEASURE_WITH_UNIT(LENGTH_MEASURE(1.E-07),#1463,
  'distance_accuracy_value','confusion accuracy');
#1467 = SHAPE_DEFINITION_REPRESENTATION(#1468,#1311);
#1468 = PRODUCT_DEFINITION_SHAPE('','',#1469);
#1469 = PRODUCT_DEFINITION('design','',#1470,#1473);
#1470 = PRODUCT_DEFINITION_FORMATION('','',#1471);
#1471 = PRODUCT('Solid012','Solid012','',(#1472));
#1472 = PRODUCT_CONTEXT('',#2,'mechanical');
#1473 = PRODUCT_DEFINITION_CONTEXT('part definition',#2,'design');
#1474 = CONTEXT_DEPENDENT_SHAPE_REPRESENTATION(#1475,#1477);
#1475 = ( REPRESENTATION_RELATIONSHIP('','',#1311,#10) 
REPRESENTATION_RELATIONSHIP_WITH_TRANSFORMATION(#1476) 
SHAPE_REPRESENTATION_RELATIONSHIP() );
#1476 = ITEM_DEFINED_TRANSFORMATION('','',#11,#71);
#1477 = PRODUCT_DEFINITION_SHAPE('Placement','Placement of an item',
  #1478);
#1478 = NEXT_ASSEMBLY_USAGE_OCCURRENCE('15','Solid012','',#5,#1469,$);
#1479 = PRODUCT_RELATED_PRODUCT_CATEGORY('part',$,(#1471));
#1480 = ADVANCED_BREP_SHAPE_REPRESENTATION('',(#11,#1481),#1631);
#1481 = MANIFOLD_SOLID_BREP('',#1482);
#1482 = CLOSED_SHELL('',(#1483,#1523,#1554,#1585,#1607,#1619));
#1483 = ADVANCED_FACE('',(#1484),#1518,.T.);
#1484 = FACE_BOUND('',#1485,.F.);
#1485 = EDGE_LOOP('',(#1486,#1496,#1504,#1512));
#1486 = ORIENTED_EDGE('',*,*,#1487,.T.);
#1487 = EDGE_CURVE('',#1488,#1490,#1492,.T.);
#1488 = VERTEX_POINT('',#1489);
#1489 = CARTESIAN_POINT('',(-1.5,0.425,0.));
#1490 = VERTEX_POINT('',#1491);
#1491 = CARTESIAN_POINT('',(-1.5,0.425,0.13));
#1492 = LINE('',#1493,#1494);
#1493 = CARTESIAN_POINT('',(-1.5,0.425,0.));
#1494 = VECTOR('',#1495,1.);
#1495 = DIRECTION('',(-0.,-0.,1.));
#1496 = ORIENTED_EDGE('',*,*,#1497,.T.);
#1497 = EDGE_CURVE('',#1490,#1498,#1500,.T.);
#1498 = VERTEX_POINT('',#1499);
#1499 = CARTESIAN_POINT('',(-1.3,0.425,0.13));
#1500 = LINE('',#1501,#1502);
#1501 = CARTESIAN_POINT('',(-1.5,0.425,0.13));
#1502 = VECTOR('',#1503,1.);
#1503 = DIRECTION('',(1.,0.,0.));
#1504 = ORIENTED_EDGE('',*,*,#1505,.F.);
#1505 = EDGE_CURVE('',#1506,#1498,#1508,.T.);
#1506 = VERTEX_POINT('',#1507);
#1507 = CARTESIAN_POINT('',(-1.3,0.425,0.));
#1508 = LINE('',#1509,#1510);
#1509 = CARTESIAN_POINT('',(-1.3,0.425,0.));
#1510 = VECTOR('',#1511,1.);
#1511 = DIRECTION('',(-0.,-0.,1.));
#1512 = ORIENTED_EDGE('',*,*,#1513,.F.);
#1513 = EDGE_CURVE('',#1488,#1506,#1514,.T.);
#1514 = LINE('',#1515,#1516);
#1515 = CARTESIAN_POINT('',(-1.5,0.425,0.));
#1516 = VECTOR('',#1517,1.);
#1517 = DIRECTION('',(1.,0.,0.));
#1518 = PLANE('',#1519);
#1519 = AXIS2_PLACEMENT_3D('',#1520,#1521,#1522);
#1520 = CARTESIAN_POINT('',(-1.5,0.425,0.));
#1521 = DIRECTION('',(-0.,-1.,-0.));
#1522 = DIRECTION('',(-1.,0.,-0.));
#1523 = ADVANCED_FACE('',(#1524),#1549,.T.);
#1524 = FACE_BOUND('',#1525,.F.);
#1525 = EDGE_LOOP('',(#1526,#1527,#1535,#1543));
#1526 = ORIENTED_EDGE('',*,*,#1505,.T.);
#1527 = ORIENTED_EDGE('',*,*,#1528,.T.);
#1528 = EDGE_CURVE('',#1498,#1529,#1531,.T.);
#1529 = VERTEX_POINT('',#1530);
#1530 = CARTESIAN_POINT('',(-1.3,0.675,0.13));
#1531 = LINE('',#1532,#1533);
#1532 = CARTESIAN_POINT('',(-1.3,0.425,0.13));
#1533 = VECTOR('',#1534,1.);
#1534 = DIRECTION('',(0.,1.,0.));
#1535 = ORIENTED_EDGE('',*,*,#1536,.F.);
#1536 = EDGE_CURVE('',#1537,#1529,#1539,.T.);
#1537 = VERTEX_POINT('',#1538);
#1538 = CARTESIAN_POINT('',(-1.3,0.675,0.));
#1539 = LINE('',#1540,#1541);
#1540 = CARTESIAN_POINT('',(-1.3,0.675,0.));
#1541 = VECTOR('',#1542,1.);
#1542 = DIRECTION('',(-0.,-0.,1.));
#1543 = ORIENTED_EDGE('',*,*,#1544,.F.);
#1544 = EDGE_CURVE('',#1506,#1537,#1545,.T.);
#1545 = LINE('',#1546,#1547);
#1546 = CARTESIAN_POINT('',(-1.3,0.425,0.));
#1547 = VECTOR('',#1548,1.);
#1548 = DIRECTION('',(0.,1.,0.));
#1549 = PLANE('',#1550);
#1550 = AXIS2_PLACEMENT_3D('',#1551,#1552,#1553);
#1551 = CARTESIAN_POINT('',(-1.3,0.425,0.));
#1552 = DIRECTION('',(1.,-0.,-0.));
#1553 = DIRECTION('',(-0.,-1.,0.));
#1554 = ADVANCED_FACE('',(#1555),#1580,.T.);
#1555 = FACE_BOUND('',#1556,.F.);
#1556 = EDGE_LOOP('',(#1557,#1558,#1566,#1574));
#1557 = ORIENTED_EDGE('',*,*,#1536,.T.);
#1558 = ORIENTED_EDGE('',*,*,#1559,.T.);
#1559 = EDGE_CURVE('',#1529,#1560,#1562,.T.);
#1560 = VERTEX_POINT('',#1561);
#1561 = CARTESIAN_POINT('',(-1.5,0.675,0.13));
#1562 = LINE('',#1563,#1564);
#1563 = CARTESIAN_POINT('',(-1.3,0.675,0.13));
#1564 = VECTOR('',#1565,1.);
#1565 = DIRECTION('',(-1.,-0.,-0.));
#1566 = ORIENTED_EDGE('',*,*,#1567,.F.);
#1567 = EDGE_CURVE('',#1568,#1560,#1570,.T.);
#1568 = VERTEX_POINT('',#1569);
#1569 = CARTESIAN_POINT('',(-1.5,0.675,0.));
#1570 = LINE('',#1571,#1572);
#1571 = CARTESIAN_POINT('',(-1.5,0.675,0.));
#1572 = VECTOR('',#1573,1.);
#1573 = DIRECTION('',(-0.,-0.,1.));
#1574 = ORIENTED_EDGE('',*,*,#1575,.F.);
#1575 = EDGE_CURVE('',#1537,#1568,#1576,.T.);
#1576 = LINE('',#1577,#1578);
#1577 = CARTESIAN_POINT('',(-1.3,0.675,0.));
#1578 = VECTOR('',#1579,1.);
#1579 = DIRECTION('',(-1.,-0.,-0.));
#1580 = PLANE('',#1581);
#1581 = AXIS2_PLACEMENT_3D('',#1582,#1583,#1584);
#1582 = CARTESIAN_POINT('',(-1.3,0.675,0.));
#1583 = DIRECTION('',(-0.,1.,-0.));
#1584 = DIRECTION('',(1.,0.,0.));
#1585 = ADVANCED_FACE('',(#1586),#1602,.T.);
#1586 = FACE_BOUND('',#1587,.F.);
#1587 = EDGE_LOOP('',(#1588,#1589,#1595,#1596));
#1588 = ORIENTED_EDGE('',*,*,#1567,.T.);
#1589 = ORIENTED_EDGE('',*,*,#1590,.T.);
#1590 = EDGE_CURVE('',#1560,#1490,#1591,.T.);
#1591 = LINE('',#1592,#1593);
#1592 = CARTESIAN_POINT('',(-1.5,0.675,0.13));
#1593 = VECTOR('',#1594,1.);
#1594 = DIRECTION('',(-0.,-1.,-0.));
#1595 = ORIENTED_EDGE('',*,*,#1487,.F.);
#1596 = ORIENTED_EDGE('',*,*,#1597,.F.);
#1597 = EDGE_CURVE('',#1568,#1488,#1598,.T.);
#1598 = LINE('',#1599,#1600);
#1599 = CARTESIAN_POINT('',(-1.5,0.675,0.));
#1600 = VECTOR('',#1601,1.);
#1601 = DIRECTION('',(-0.,-1.,-0.));
#1602 = PLANE('',#1603);
#1603 = AXIS2_PLACEMENT_3D('',#1604,#1605,#1606);
#1604 = CARTESIAN_POINT('',(-1.5,0.675,0.));
#1605 = DIRECTION('',(-1.,-0.,-0.));
#1606 = DIRECTION('',(-0.,1.,-0.));
#1607 = ADVANCED_FACE('',(#1608),#1614,.T.);
#1608 = FACE_BOUND('',#1609,.F.);
#1609 = EDGE_LOOP('',(#1610,#1611,#1612,#1613));
#1610 = ORIENTED_EDGE('',*,*,#1513,.T.);
#1611 = ORIENTED_EDGE('',*,*,#1544,.T.);
#1612 = ORIENTED_EDGE('',*,*,#1575,.T.);
#1613 = ORIENTED_EDGE('',*,*,#1597,.T.);
#1614 = PLANE('',#1615);
#1615 = AXIS2_PLACEMENT_3D('',#1616,#1617,#1618);
#1616 = CARTESIAN_POINT('',(-1.4,0.55,0.));
#1617 = DIRECTION('',(0.,0.,-1.));
#1618 = DIRECTION('',(1.,0.,0.));
#1619 = ADVANCED_FACE('',(#1620),#1626,.F.);
#1620 = FACE_BOUND('',#1621,.T.);
#1621 = EDGE_LOOP('',(#1622,#1623,#1624,#1625));
#1622 = ORIENTED_EDGE('',*,*,#1497,.T.);
#1623 = ORIENTED_EDGE('',*,*,#1528,.T.);
#1624 = ORIENTED_EDGE('',*,*,#1559,.T.);
#1625 = ORIENTED_EDGE('',*,*,#1590,.T.);
#1626 = PLANE('',#1627);
#1627 = AXIS2_PLACEMENT_3D('',#1628,#1629,#1630);
#1628 = CARTESIAN_POINT('',(-1.4,0.55,0.13));
#1629 = DIRECTION('',(0.,0.,-1.));
#1630 = DIRECTION('',(1.,0.,0.));
#1631 = ( GEOMETRIC_REPRESENTATION_CONTEXT(3) 
GLOBAL_UNCERTAINTY_ASSIGNED_CONTEXT((#1635)) 
GLOBAL_UNIT_ASSIGNED_CONTEXT((#1632,#1633,#1634)) REPRESENTATION_CONTEXT
('Context #1','3D Context with UNIT and UNCERTAINTY') );
#1632 = ( LENGTH_UNIT() NAMED_UNIT(*) SI_UNIT(.MILLI.,.METRE.) );
#1633 = ( NAMED_UNIT(*) PLANE_ANGLE_UNIT() SI_UNIT($,.RADIAN.) );
#1634 = ( NAMED_UNIT(*) SI_UNIT($,.STERADIAN.) SOLID_ANGLE_UNIT() );
#1635 = UNCERTAINTY_MEASURE_WITH_UNIT(LENGTH_MEASURE(1.E-07),#1632,
  'distance_accuracy_value','confusion accuracy');
#1636 = SHAPE_DEFINITION_REPRESENTATION(#1637,#1480);
#1637 = PRODUCT_DEFINITION_SHAPE('','',#1638);
#1638 = PRODUCT_DEFINITION('design','',#1639,#1642);
#1639 = PRODUCT_DEFINITION_FORMATION('','',#1640);
#1640 = PRODUCT('Solid013','Solid013','',(#1641));
#1641 = PRODUCT_CONTEXT('',#2,'mechanical');
#1642 = PRODUCT_DEFINITION_CONTEXT('part definition',#2,'design');
#1643 = CONTEXT_DEPENDENT_SHAPE_REPRESENTATION(#1644,#1646);
#1644 = ( REPRESENTATION_RELATIONSHIP('','',#1480,#10) 
REPRESENTATION_RELATIONSHIP_WITH_TRANSFORMATION(#1645) 
SHAPE_REPRESENTATION_RELATIONSHIP() );
#1645 = ITEM_DEFINED_TRANSFORMATION('','',#11,#75);
#1646 = PRODUCT_DEFINITION_SHAPE('Placement','Placement of an item',
  #1647);
#1647 = NEXT_ASSEMBLY_USAGE_OCCURRENCE('16','Solid013','',#5,#1638,$);
#1648 = PRODUCT_RELATED_PRODUCT_CATEGORY('part',$,(#1640));
#1649 = ADVANCED_BREP_SHAPE_REPRESENTATION('',(#11,#1650),#1800);
#1650 = MANIFOLD_SOLID_BREP('',#1651);
#1651 = CLOSED_SHELL('',(#1652,#1692,#1723,#1754,#1776,#1788));
#1652 = ADVANCED_FACE('',(#1653),#1687,.T.);
#1653 = FACE_BOUND('',#1654,.F.);
#1654 = EDGE_LOOP('',(#1655,#1665,#1673,#1681));
#1655 = ORIENTED_EDGE('',*,*,#1656,.T.);
#1656 = EDGE_CURVE('',#1657,#1659,#1661,.T.);
#1657 = VERTEX_POINT('',#1658);
#1658 = CARTESIAN_POINT('',(-1.5,0.425,0.));
#1659 = VERTEX_POINT('',#1660);
#1660 = CARTESIAN_POINT('',(-1.5,0.425,0.13));
#1661 = LINE('',#1662,#1663);
#1662 = CARTESIAN_POINT('',(-1.5,0.425,0.));
#1663 = VECTOR('',#1664,1.);
#1664 = DIRECTION('',(-0.,-0.,1.));
#1665 = ORIENTED_EDGE('',*,*,#1666,.T.);
#1666 = EDGE_CURVE('',#1659,#1667,#1669,.T.);
#1667 = VERTEX_POINT('',#1668);
#1668 = CARTESIAN_POINT('',(-1.3,0.425,0.13));
#1669 = LINE('',#1670,#1671);
#1670 = CARTESIAN_POINT('',(-1.5,0.425,0.13));
#1671 = VECTOR('',#1672,1.);
#1672 = DIRECTION('',(1.,0.,0.));
#1673 = ORIENTED_EDGE('',*,*,#1674,.F.);
#1674 = EDGE_CURVE('',#1675,#1667,#1677,.T.);
#1675 = VERTEX_POINT('',#1676);
#1676 = CARTESIAN_POINT('',(-1.3,0.425,0.));
#1677 = LINE('',#1678,#1679);
#1678 = CARTESIAN_POINT('',(-1.3,0.425,0.));
#1679 = VECTOR('',#1680,1.);
#1680 = DIRECTION('',(-0.,-0.,1.));
#1681 = ORIENTED_EDGE('',*,*,#1682,.F.);
#1682 = EDGE_CURVE('',#1657,#1675,#1683,.T.);
#1683 = LINE('',#1684,#1685);
#1684 = CARTESIAN_POINT('',(-1.5,0.425,0.));
#1685 = VECTOR('',#1686,1.);
#1686 = DIRECTION('',(1.,0.,0.));
#1687 = PLANE('',#1688);
#1688 = AXIS2_PLACEMENT_3D('',#1689,#1690,#1691);
#1689 = CARTESIAN_POINT('',(-1.5,0.425,0.));
#1690 = DIRECTION('',(-0.,-1.,-0.));
#1691 = DIRECTION('',(-1.,0.,-0.));
#1692 = ADVANCED_FACE('',(#1693),#1718,.T.);
#1693 = FACE_BOUND('',#1694,.F.);
#1694 = EDGE_LOOP('',(#1695,#1696,#1704,#1712));
#1695 = ORIENTED_EDGE('',*,*,#1674,.T.);
#1696 = ORIENTED_EDGE('',*,*,#1697,.T.);
#1697 = EDGE_CURVE('',#1667,#1698,#1700,.T.);
#1698 = VERTEX_POINT('',#1699);
#1699 = CARTESIAN_POINT('',(-1.3,0.675,0.13));
#1700 = LINE('',#1701,#1702);
#1701 = CARTESIAN_POINT('',(-1.3,0.425,0.13));
#1702 = VECTOR('',#1703,1.);
#1703 = DIRECTION('',(0.,1.,0.));
#1704 = ORIENTED_EDGE('',*,*,#1705,.F.);
#1705 = EDGE_CURVE('',#1706,#1698,#1708,.T.);
#1706 = VERTEX_POINT('',#1707);
#1707 = CARTESIAN_POINT('',(-1.3,0.675,0.));
#1708 = LINE('',#1709,#1710);
#1709 = CARTESIAN_POINT('',(-1.3,0.675,0.));
#1710 = VECTOR('',#1711,1.);
#1711 = DIRECTION('',(-0.,-0.,1.));
#1712 = ORIENTED_EDGE('',*,*,#1713,.F.);
#1713 = EDGE_CURVE('',#1675,#1706,#1714,.T.);
#1714 = LINE('',#1715,#1716);
#1715 = CARTESIAN_POINT('',(-1.3,0.425,0.));
#1716 = VECTOR('',#1717,1.);
#1717 = DIRECTION('',(0.,1.,0.));
#1718 = PLANE('',#1719);
#1719 = AXIS2_PLACEMENT_3D('',#1720,#1721,#1722);
#1720 = CARTESIAN_POINT('',(-1.3,0.425,0.));
#1721 = DIRECTION('',(1.,-0.,-0.));
#1722 = DIRECTION('',(-0.,-1.,0.));
#1723 = ADVANCED_FACE('',(#1724),#1749,.T.);
#1724 = FACE_BOUND('',#1725,.F.);
#1725 = EDGE_LOOP('',(#1726,#1727,#1735,#1743));
#1726 = ORIENTED_EDGE('',*,*,#1705,.T.);
#1727 = ORIENTED_EDGE('',*,*,#1728,.T.);
#1728 = EDGE_CURVE('',#1698,#1729,#1731,.T.);
#1729 = VERTEX_POINT('',#1730);
#1730 = CARTESIAN_POINT('',(-1.5,0.675,0.13));
#1731 = LINE('',#1732,#1733);
#1732 = CARTESIAN_POINT('',(-1.3,0.675,0.13));
#1733 = VECTOR('',#1734,1.);
#1734 = DIRECTION('',(-1.,-0.,-0.));
#1735 = ORIENTED_EDGE('',*,*,#1736,.F.);
#1736 = EDGE_CURVE('',#1737,#1729,#1739,.T.);
#1737 = VERTEX_POINT('',#1738);
#1738 = CARTESIAN_POINT('',(-1.5,0.675,0.));
#1739 = LINE('',#1740,#1741);
#1740 = CARTESIAN_POINT('',(-1.5,0.675,0.));
#1741 = VECTOR('',#1742,1.);
#1742 = DIRECTION('',(-0.,-0.,1.));
#1743 = ORIENTED_EDGE('',*,*,#1744,.F.);
#1744 = EDGE_CURVE('',#1706,#1737,#1745,.T.);
#1745 = LINE('',#1746,#1747);
#1746 = CARTESIAN_POINT('',(-1.3,0.675,0.));
#1747 = VECTOR('',#1748,1.);
#1748 = DIRECTION('',(-1.,-0.,-0.));
#1749 = PLANE('',#1750);
#1750 = AXIS2_PLACEMENT_3D('',#1751,#1752,#1753);
#1751 = CARTESIAN_POINT('',(-1.3,0.675,0.));
#1752 = DIRECTION('',(-0.,1.,-0.));
#1753 = DIRECTION('',(1.,0.,0.));
#1754 = ADVANCED_FACE('',(#1755),#1771,.T.);
#1755 = FACE_BOUND('',#1756,.F.);
#1756 = EDGE_LOOP('',(#1757,#1758,#1764,#1765));
#1757 = ORIENTED_EDGE('',*,*,#1736,.T.);
#1758 = ORIENTED_EDGE('',*,*,#1759,.T.);
#1759 = EDGE_CURVE('',#1729,#1659,#1760,.T.);
#1760 = LINE('',#1761,#1762);
#1761 = CARTESIAN_POINT('',(-1.5,0.675,0.13));
#1762 = VECTOR('',#1763,1.);
#1763 = DIRECTION('',(-0.,-1.,-0.));
#1764 = ORIENTED_EDGE('',*,*,#1656,.F.);
#1765 = ORIENTED_EDGE('',*,*,#1766,.F.);
#1766 = EDGE_CURVE('',#1737,#1657,#1767,.T.);
#1767 = LINE('',#1768,#1769);
#1768 = CARTESIAN_POINT('',(-1.5,0.675,0.));
#1769 = VECTOR('',#1770,1.);
#1770 = DIRECTION('',(-0.,-1.,-0.));
#1771 = PLANE('',#1772);
#1772 = AXIS2_PLACEMENT_3D('',#1773,#1774,#1775);
#1773 = CARTESIAN_POINT('',(-1.5,0.675,0.));
#1774 = DIRECTION('',(-1.,-0.,-0.));
#1775 = DIRECTION('',(-0.,1.,-0.));
#1776 = ADVANCED_FACE('',(#1777),#1783,.T.);
#1777 = FACE_BOUND('',#1778,.F.);
#1778 = EDGE_LOOP('',(#1779,#1780,#1781,#1782));
#1779 = ORIENTED_EDGE('',*,*,#1682,.T.);
#1780 = ORIENTED_EDGE('',*,*,#1713,.T.);
#1781 = ORIENTED_EDGE('',*,*,#1744,.T.);
#1782 = ORIENTED_EDGE('',*,*,#1766,.T.);
#1783 = PLANE('',#1784);
#1784 = AXIS2_PLACEMENT_3D('',#1785,#1786,#1787);
#1785 = CARTESIAN_POINT('',(-1.4,0.55,0.));
#1786 = DIRECTION('',(0.,0.,-1.));
#1787 = DIRECTION('',(1.,0.,0.));
#1788 = ADVANCED_FACE('',(#1789),#1795,.F.);
#1789 = FACE_BOUND('',#1790,.T.);
#1790 = EDGE_LOOP('',(#1791,#1792,#1793,#1794));
#1791 = ORIENTED_EDGE('',*,*,#1666,.T.);
#1792 = ORIENTED_EDGE('',*,*,#1697,.T.);
#1793 = ORIENTED_EDGE('',*,*,#1728,.T.);
#1794 = ORIENTED_EDGE('',*,*,#1759,.T.);
#1795 = PLANE('',#1796);
#1796 = AXIS2_PLACEMENT_3D('',#1797,#1798,#1799);
#1797 = CARTESIAN_POINT('',(-1.4,0.55,0.13));
#1798 = DIRECTION('',(0.,0.,-1.));
#1799 = DIRECTION('',(1.,0.,0.));
#1800 = ( GEOMETRIC_REPRESENTATION_CONTEXT(3) 
GLOBAL_UNCERTAINTY_ASSIGNED_CONTEXT((#1804)) 
GLOBAL_UNIT_ASSIGNED_CONTEXT((#1801,#1802,#1803)) REPRESENTATION_CONTEXT
('Context #1','3D Context with UNIT and UNCERTAINTY') );
#1801 = ( LENGTH_UNIT() NAMED_UNIT(*) SI_UNIT(.MILLI.,.METRE.) );
#1802 = ( NAMED_UNIT(*) PLANE_ANGLE_UNIT() SI_UNIT($,.RADIAN.) );
#1803 = ( NAMED_UNIT(*) SI_UNIT($,.STERADIAN.) SOLID_ANGLE_UNIT() );
#1804 = UNCERTAINTY_MEASURE_WITH_UNIT(LENGTH_MEASURE(1.E-07),#1801,
  'distance_accuracy_value','confusion accuracy');
#1805 = SHAPE_DEFINITION_REPRESENTATION(#1806,#1649);
#1806 = PRODUCT_DEFINITION_SHAPE('','',#1807);
#1807 = PRODUCT_DEFINITION('design','',#1808,#1811);
#1808 = PRODUCT_DEFINITION_FORMATION('','',#1809);
#1809 = PRODUCT('Solid014','Solid014','',(#1810));
#1810 = PRODUCT_CONTEXT('',#2,'mechanical');
#1811 = PRODUCT_DEFINITION_CONTEXT('part definition',#2,'design');
#1812 = CONTEXT_DEPENDENT_SHAPE_REPRESENTATION(#1813,#1815);
#1813 = ( REPRESENTATION_RELATIONSHIP('','',#1649,#10) 
REPRESENTATION_RELATIONSHIP_WITH_TRANSFORMATION(#1814) 
SHAPE_REPRESENTATION_RELATIONSHIP() );
#1814 = ITEM_DEFINED_TRANSFORMATION('','',#11,#79);
#1815 = PRODUCT_DEFINITION_SHAPE('Placement','Placement of an item',
  #1816);
#1816 = NEXT_ASSEMBLY_USAGE_OCCURRENCE('17','Solid014','',#5,#1807,$);
#1817 = PRODUCT_RELATED_PRODUCT_CATEGORY('part',$,(#1809));
#1818 = ADVANCED_BREP_SHAPE_REPRESENTATION('',(#11,#1819),#1969);
#1819 = MANIFOLD_SOLID_BREP('',#1820);
#1820 = CLOSED_SHELL('',(#1821,#1861,#1892,#1923,#1945,#1957));
#1821 = ADVANCED_FACE('',(#1822),#1856,.T.);
#1822 = FACE_BOUND('',#1823,.F.);
#1823 = EDGE_LOOP('',(#1824,#1834,#1842,#1850));
#1824 = ORIENTED_EDGE('',*,*,#1825,.T.);
#1825 = EDGE_CURVE('',#1826,#1828,#1830,.T.);
#1826 = VERTEX_POINT('',#1827);
#1827 = CARTESIAN_POINT('',(-1.5,0.425,0.));
#1828 = VERTEX_POINT('',#1829);
#1829 = CARTESIAN_POINT('',(-1.5,0.425,0.13));
#1830 = LINE('',#1831,#1832);
#1831 = CARTESIAN_POINT('',(-1.5,0.425,0.));
#1832 = VECTOR('',#1833,1.);
#1833 = DIRECTION('',(-0.,-0.,1.));
#1834 = ORIENTED_EDGE('',*,*,#1835,.T.);
#1835 = EDGE_CURVE('',#1828,#1836,#1838,.T.);
#1836 = VERTEX_POINT('',#1837);
#1837 = CARTESIAN_POINT('',(-1.3,0.425,0.13));
#1838 = LINE('',#1839,#1840);
#1839 = CARTESIAN_POINT('',(-1.5,0.425,0.13));
#1840 = VECTOR('',#1841,1.);
#1841 = DIRECTION('',(1.,0.,0.));
#1842 = ORIENTED_EDGE('',*,*,#1843,.F.);
#1843 = EDGE_CURVE('',#1844,#1836,#1846,.T.);
#1844 = VERTEX_POINT('',#1845);
#1845 = CARTESIAN_POINT('',(-1.3,0.425,0.));
#1846 = LINE('',#1847,#1848);
#1847 = CARTESIAN_POINT('',(-1.3,0.425,0.));
#1848 = VECTOR('',#1849,1.);
#1849 = DIRECTION('',(-0.,-0.,1.));
#1850 = ORIENTED_EDGE('',*,*,#1851,.F.);
#1851 = EDGE_CURVE('',#1826,#1844,#1852,.T.);
#1852 = LINE('',#1853,#1854);
#1853 = CARTESIAN_POINT('',(-1.5,0.425,0.));
#1854 = VECTOR('',#1855,1.);
#1855 = DIRECTION('',(1.,0.,0.));
#1856 = PLANE('',#1857);
#1857 = AXIS2_PLACEMENT_3D('',#1858,#1859,#1860);
#1858 = CARTESIAN_POINT('',(-1.5,0.425,0.));
#1859 = DIRECTION('',(-0.,-1.,-0.));
#1860 = DIRECTION('',(-1.,0.,-0.));
#1861 = ADVANCED_FACE('',(#1862),#1887,.T.);
#1862 = FACE_BOUND('',#1863,.F.);
#1863 = EDGE_LOOP('',(#1864,#1865,#1873,#1881));
#1864 = ORIENTED_EDGE('',*,*,#1843,.T.);
#1865 = ORIENTED_EDGE('',*,*,#1866,.T.);
#1866 = EDGE_CURVE('',#1836,#1867,#1869,.T.);
#1867 = VERTEX_POINT('',#1868);
#1868 = CARTESIAN_POINT('',(-1.3,0.675,0.13));
#1869 = LINE('',#1870,#1871);
#1870 = CARTESIAN_POINT('',(-1.3,0.425,0.13));
#1871 = VECTOR('',#1872,1.);
#1872 = DIRECTION('',(0.,1.,0.));
#1873 = ORIENTED_EDGE('',*,*,#1874,.F.);
#1874 = EDGE_CURVE('',#1875,#1867,#1877,.T.);
#1875 = VERTEX_POINT('',#1876);
#1876 = CARTESIAN_POINT('',(-1.3,0.675,0.));
#1877 = LINE('',#1878,#1879);
#1878 = CARTESIAN_POINT('',(-1.3,0.675,0.));
#1879 = VECTOR('',#1880,1.);
#1880 = DIRECTION('',(-0.,-0.,1.));
#1881 = ORIENTED_EDGE('',*,*,#1882,.F.);
#1882 = EDGE_CURVE('',#1844,#1875,#1883,.T.);
#1883 = LINE('',#1884,#1885);
#1884 = CARTESIAN_POINT('',(-1.3,0.425,0.));
#1885 = VECTOR('',#1886,1.);
#1886 = DIRECTION('',(0.,1.,0.));
#1887 = PLANE('',#1888);
#1888 = AXIS2_PLACEMENT_3D('',#1889,#1890,#1891);
#1889 = CARTESIAN_POINT('',(-1.3,0.425,0.));
#1890 = DIRECTION('',(1.,-0.,-0.));
#1891 = DIRECTION('',(-0.,-1.,0.));
#1892 = ADVANCED_FACE('',(#1893),#1918,.T.);
#1893 = FACE_BOUND('',#1894,.F.);
#1894 = EDGE_LOOP('',(#1895,#1896,#1904,#1912));
#1895 = ORIENTED_EDGE('',*,*,#1874,.T.);
#1896 = ORIENTED_EDGE('',*,*,#1897,.T.);
#1897 = EDGE_CURVE('',#1867,#1898,#1900,.T.);
#1898 = VERTEX_POINT('',#1899);
#1899 = CARTESIAN_POINT('',(-1.5,0.675,0.13));
#1900 = LINE('',#1901,#1902);
#1901 = CARTESIAN_POINT('',(-1.3,0.675,0.13));
#1902 = VECTOR('',#1903,1.);
#1903 = DIRECTION('',(-1.,-0.,-0.));
#1904 = ORIENTED_EDGE('',*,*,#1905,.F.);
#1905 = EDGE_CURVE('',#1906,#1898,#1908,.T.);
#1906 = VERTEX_POINT('',#1907);
#1907 = CARTESIAN_POINT('',(-1.5,0.675,0.));
#1908 = LINE('',#1909,#1910);
#1909 = CARTESIAN_POINT('',(-1.5,0.675,0.));
#1910 = VECTOR('',#1911,1.);
#1911 = DIRECTION('',(-0.,-0.,1.));
#1912 = ORIENTED_EDGE('',*,*,#1913,.F.);
#1913 = EDGE_CURVE('',#1875,#1906,#1914,.T.);
#1914 = LINE('',#1915,#1916);
#1915 = CARTESIAN_POINT('',(-1.3,0.675,0.));
#1916 = VECTOR('',#1917,1.);
#1917 = DIRECTION('',(-1.,-0.,-0.));
#1918 = PLANE('',#1919);
#1919 = AXIS2_PLACEMENT_3D('',#1920,#1921,#1922);
#1920 = CARTESIAN_POINT('',(-1.3,0.675,0.));
#1921 = DIRECTION('',(-0.,1.,-0.));
#1922 = DIRECTION('',(1.,0.,0.));
#1923 = ADVANCED_FACE('',(#1924),#1940,.T.);
#1924 = FACE_BOUND('',#1925,.F.);
#1925 = EDGE_LOOP('',(#1926,#1927,#1933,#1934));
#1926 = ORIENTED_EDGE('',*,*,#1905,.T.);
#1927 = ORIENTED_EDGE('',*,*,#1928,.T.);
#1928 = EDGE_CURVE('',#1898,#1828,#1929,.T.);
#1929 = LINE('',#1930,#1931);
#1930 = CARTESIAN_POINT('',(-1.5,0.675,0.13));
#1931 = VECTOR('',#1932,1.);
#1932 = DIRECTION('',(-0.,-1.,-0.));
#1933 = ORIENTED_EDGE('',*,*,#1825,.F.);
#1934 = ORIENTED_EDGE('',*,*,#1935,.F.);
#1935 = EDGE_CURVE('',#1906,#1826,#1936,.T.);
#1936 = LINE('',#1937,#1938);
#1937 = CARTESIAN_POINT('',(-1.5,0.675,0.));
#1938 = VECTOR('',#1939,1.);
#1939 = DIRECTION('',(-0.,-1.,-0.));
#1940 = PLANE('',#1941);
#1941 = AXIS2_PLACEMENT_3D('',#1942,#1943,#1944);
#1942 = CARTESIAN_POINT('',(-1.5,0.675,0.));
#1943 = DIRECTION('',(-1.,-0.,-0.));
#1944 = DIRECTION('',(-0.,1.,-0.));
#1945 = ADVANCED_FACE('',(#1946),#1952,.T.);
#1946 = FACE_BOUND('',#1947,.F.);
#1947 = EDGE_LOOP('',(#1948,#1949,#1950,#1951));
#1948 = ORIENTED_EDGE('',*,*,#1851,.T.);
#1949 = ORIENTED_EDGE('',*,*,#1882,.T.);
#1950 = ORIENTED_EDGE('',*,*,#1913,.T.);
#1951 = ORIENTED_EDGE('',*,*,#1935,.T.);
#1952 = PLANE('',#1953);
#1953 = AXIS2_PLACEMENT_3D('',#1954,#1955,#1956);
#1954 = CARTESIAN_POINT('',(-1.4,0.55,0.));
#1955 = DIRECTION('',(0.,0.,-1.));
#1956 = DIRECTION('',(1.,0.,0.));
#1957 = ADVANCED_FACE('',(#1958),#1964,.F.);
#1958 = FACE_BOUND('',#1959,.T.);
#1959 = EDGE_LOOP('',(#1960,#1961,#1962,#1963));
#1960 = ORIENTED_EDGE('',*,*,#1835,.T.);
#1961 = ORIENTED_EDGE('',*,*,#1866,.T.);
#1962 = ORIENTED_EDGE('',*,*,#1897,.T.);
#1963 = ORIENTED_EDGE('',*,*,#1928,.T.);
#1964 = PLANE('',#1965);
#1965 = AXIS2_PLACEMENT_3D('',#1966,#1967,#1968);
#1966 = CARTESIAN_POINT('',(-1.4,0.55,0.13));
#1967 = DIRECTION('',(0.,0.,-1.));
#1968 = DIRECTION('',(1.,0.,0.));
#1969 = ( GEOMETRIC_REPRESENTATION_CONTEXT(3) 
GLOBAL_UNCERTAINTY_ASSIGNED_CONTEXT((#1973)) 
GLOBAL_UNIT_ASSIGNED_CONTEXT((#1970,#1971,#1972)) REPRESENTATION_CONTEXT
('Context #1','3D Context with UNIT and UNCERTAINTY') );
#1970 = ( LENGTH_UNIT() NAMED_UNIT(*) SI_UNIT(.MILLI.,.METRE.) );
#1971 = ( NAMED_UNIT(*) PLANE_ANGLE_UNIT() SI_UNIT($,.RADIAN.) );
#1972 = ( NAMED_UNIT(*) SI_UNIT($,.STERADIAN.) SOLID_ANGLE_UNIT() );
#1973 = UNCERTAINTY_MEASURE_WITH_UNIT(LENGTH_MEASURE(1.E-07),#1970,
  'distance_accuracy_value','confusion accuracy');
#1974 = SHAPE_DEFINITION_REPRESENTATION(#1975,#1818);
#1975 = PRODUCT_DEFINITION_SHAPE('','',#1976);
#1976 = PRODUCT_DEFINITION('design','',#1977,#1980);
#1977 = PRODUCT_DEFINITION_FORMATION('','',#1978);
#1978 = PRODUCT('Solid015','Solid015','',(#1979));
#1979 = PRODUCT_CONTEXT('',#2,'mechanical');
#1980 = PRODUCT_DEFINITION_CONTEXT('part definition',#2,'design');
#1981 = CONTEXT_DEPENDENT_SHAPE_REPRESENTATION(#1982,#1984);
#1982 = ( REPRESENTATION_RELATIONSHIP('','',#1818,#10) 
REPRESENTATION_RELATIONSHIP_WITH_TRANSFORMATION(#1983) 
SHAPE_REPRESENTATION_RELATIONSHIP() );
#1983 = ITEM_DEFINED_TRANSFORMATION('','',#11,#83);
#1984 = PRODUCT_DEFINITION_SHAPE('Placement','Placement of an item',
  #1985);
#1985 = NEXT_ASSEMBLY_USAGE_OCCURRENCE('18','Solid015','',#5,#1976,$);
#1986 = PRODUCT_RELATED_PRODUCT_CATEGORY('part',$,(#1978));
#1987 = SHAPE_DEFINITION_REPRESENTATION(#603,#1988);
#1988 = SHAPE_REPRESENTATION('',(#27),#582);
#1989 = SHAPE_DEFINITION_REPRESENTATION(#608,#1990);
#1990 = SHAPE_REPRESENTATION('',(#31),#582);
#1991 = SHAPE_DEFINITION_REPRESENTATION(#613,#1992);
#1992 = SHAPE_REPRESENTATION('',(#35),#582);
#1993 = SHAPE_DEFINITION_REPRESENTATION(#618,#1994);
#1994 = SHAPE_REPRESENTATION('',(#39),#582);
#1995 = SHAPE_DEFINITION_REPRESENTATION(#623,#1996);
#1996 = SHAPE_REPRESENTATION('',(#43),#582);
#1997 = SHAPE_DEFINITION_REPRESENTATION(#628,#1998);
#1998 = SHAPE_REPRESENTATION('',(#47),#582);
#1999 = SHAPE_DEFINITION_REPRESENTATION(#633,#2000);
#2000 = SHAPE_REPRESENTATION('',(#51),#582);
#2001 = MECHANICAL_DESIGN_GEOMETRIC_PRESENTATION_REPRESENTATION('',(
    #2002),#1293);
#2002 = STYLED_ITEM('color',(#2003),#1143);
#2003 = PRESENTATION_STYLE_ASSIGNMENT((#2004,#2010));
#2004 = SURFACE_STYLE_USAGE(.BOTH.,#2005);
#2005 = SURFACE_SIDE_STYLE('',(#2006));
#2006 = SURFACE_STYLE_FILL_AREA(#2007);
#2007 = FILL_AREA_STYLE('',(#2008));
#2008 = FILL_AREA_STYLE_COLOUR('',#2009);
#2009 = COLOUR_RGB('',0.823999987314,0.819999987296,0.781000009244);
#2010 = CURVE_STYLE('',#2011,POSITIVE_LENGTH_MEASURE(0.1),#2012);
#2011 = DRAUGHTING_PRE_DEFINED_CURVE_FONT('continuous');
#2012 = COLOUR_RGB('',9.803921802644E-02,9.803921802644E-02,
  9.803921802644E-02);
#2013 = MECHANICAL_DESIGN_GEOMETRIC_PRESENTATION_REPRESENTATION('',(
    #2014),#1631);
#2014 = STYLED_ITEM('color',(#2015),#1481);
#2015 = PRESENTATION_STYLE_ASSIGNMENT((#2016,#2021));
#2016 = SURFACE_STYLE_USAGE(.BOTH.,#2017);
#2017 = SURFACE_SIDE_STYLE('',(#2018));
#2018 = SURFACE_STYLE_FILL_AREA(#2019);
#2019 = FILL_AREA_STYLE('',(#2020));
#2020 = FILL_AREA_STYLE_COLOUR('',#2009);
#2021 = CURVE_STYLE('',#2022,POSITIVE_LENGTH_MEASURE(0.1),#2012);
#2022 = DRAUGHTING_PRE_DEFINED_CURVE_FONT('continuous');
#2023 = MECHANICAL_DESIGN_GEOMETRIC_PRESENTATION_REPRESENTATION('',(
    #2024),#1124);
#2024 = STYLED_ITEM('color',(#2025),#974);
#2025 = PRESENTATION_STYLE_ASSIGNMENT((#2026,#2031));
#2026 = SURFACE_STYLE_USAGE(.BOTH.,#2027);
#2027 = SURFACE_SIDE_STYLE('',(#2028));
#2028 = SURFACE_STYLE_FILL_AREA(#2029);
#2029 = FILL_AREA_STYLE('',(#2030));
#2030 = FILL_AREA_STYLE_COLOUR('',#2009);
#2031 = CURVE_STYLE('',#2032,POSITIVE_LENGTH_MEASURE(0.1),#2012);
#2032 = DRAUGHTING_PRE_DEFINED_CURVE_FONT('continuous');
#2033 = MECHANICAL_DESIGN_GEOMETRIC_PRESENTATION_REPRESENTATION('',(
    #2034),#1969);
#2034 = STYLED_ITEM('color',(#2035),#1819);
#2035 = PRESENTATION_STYLE_ASSIGNMENT((#2036,#2041));
#2036 = SURFACE_STYLE_USAGE(.BOTH.,#2037);
#2037 = SURFACE_SIDE_STYLE('',(#2038));
#2038 = SURFACE_STYLE_FILL_AREA(#2039);
#2039 = FILL_AREA_STYLE('',(#2040));
#2040 = FILL_AREA_STYLE_COLOUR('',#2009);
#2041 = CURVE_STYLE('',#2042,POSITIVE_LENGTH_MEASURE(0.1),#2012);
#2042 = DRAUGHTING_PRE_DEFINED_CURVE_FONT('continuous');
#2043 = MECHANICAL_DESIGN_GEOMETRIC_PRESENTATION_REPRESENTATION('',(
    #2044),#1462);
#2044 = STYLED_ITEM('color',(#2045),#1312);
#2045 = PRESENTATION_STYLE_ASSIGNMENT((#2046,#2051));
#2046 = SURFACE_STYLE_USAGE(.BOTH.,#2047);
#2047 = SURFACE_SIDE_STYLE('',(#2048));
#2048 = SURFACE_STYLE_FILL_AREA(#2049);
#2049 = FILL_AREA_STYLE('',(#2050));
#2050 = FILL_AREA_STYLE_COLOUR('',#2009);
#2051 = CURVE_STYLE('',#2052,POSITIVE_LENGTH_MEASURE(0.1),#2012);
#2052 = DRAUGHTING_PRE_DEFINED_CURVE_FONT('continuous');
#2053 = MECHANICAL_DESIGN_GEOMETRIC_PRESENTATION_REPRESENTATION('',(
    #2054),#955);
#2054 = STYLED_ITEM('color',(#2055),#805);
#2055 = PRESENTATION_STYLE_ASSIGNMENT((#2056,#2061));
#2056 = SURFACE_STYLE_USAGE(.BOTH.,#2057);
#2057 = SURFACE_SIDE_STYLE('',(#2058));
#2058 = SURFACE_STYLE_FILL_AREA(#2059);
#2059 = FILL_AREA_STYLE('',(#2060));
#2060 = FILL_AREA_STYLE_COLOUR('',#2009);
#2061 = CURVE_STYLE('',#2062,POSITIVE_LENGTH_MEASURE(0.1),#2012);
#2062 = DRAUGHTING_PRE_DEFINED_CURVE_FONT('continuous');
#2063 = MECHANICAL_DESIGN_GEOMETRIC_PRESENTATION_REPRESENTATION('',(
    #2064),#244);
#2064 = STYLED_ITEM('color',(#2065),#94);
#2065 = PRESENTATION_STYLE_ASSIGNMENT((#2066,#2072));
#2066 = SURFACE_STYLE_USAGE(.BOTH.,#2067);
#2067 = SURFACE_SIDE_STYLE('',(#2068));
#2068 = SURFACE_STYLE_FILL_AREA(#2069);
#2069 = FILL_AREA_STYLE('',(#2070));
#2070 = FILL_AREA_STYLE_COLOUR('',#2071);
#2071 = COLOUR_RGB('',0.149019617616,0.145098047169,0.145098047169);
#2072 = CURVE_STYLE('',#2073,POSITIVE_LENGTH_MEASURE(0.1),#2012);
#2073 = DRAUGHTING_PRE_DEFINED_CURVE_FONT('continuous');
#2074 = MECHANICAL_DESIGN_GEOMETRIC_PRESENTATION_REPRESENTATION('',(
    #2075),#413);
#2075 = STYLED_ITEM('color',(#2076),#263);
#2076 = PRESENTATION_STYLE_ASSIGNMENT((#2077,#2082));
#2077 = SURFACE_STYLE_USAGE(.BOTH.,#2078);
#2078 = SURFACE_SIDE_STYLE('',(#2079));
#2079 = SURFACE_STYLE_FILL_AREA(#2080);
#2080 = FILL_AREA_STYLE('',(#2081));
#2081 = FILL_AREA_STYLE_COLOUR('',#2009);
#2082 = CURVE_STYLE('',#2083,POSITIVE_LENGTH_MEASURE(0.1),#2012);
#2083 = DRAUGHTING_PRE_DEFINED_CURVE_FONT('continuous');
#2084 = MECHANICAL_DESIGN_GEOMETRIC_PRESENTATION_REPRESENTATION('',(
    #2085),#786);
#2085 = STYLED_ITEM('color',(#2086),#636);
#2086 = PRESENTATION_STYLE_ASSIGNMENT((#2087,#2092));
#2087 = SURFACE_STYLE_USAGE(.BOTH.,#2088);
#2088 = SURFACE_SIDE_STYLE('',(#2089));
#2089 = SURFACE_STYLE_FILL_AREA(#2090);
#2090 = FILL_AREA_STYLE('',(#2091));
#2091 = FILL_AREA_STYLE_COLOUR('',#2009);
#2092 = CURVE_STYLE('',#2093,POSITIVE_LENGTH_MEASURE(0.1),#2012);
#2093 = DRAUGHTING_PRE_DEFINED_CURVE_FONT('continuous');
#2094 = MECHANICAL_DESIGN_GEOMETRIC_PRESENTATION_REPRESENTATION('',(
    #2095,#2104,#2115,#2124,#2133,#2142,#2151,#2160),#582);
#2095 = STYLED_ITEM('color',(#2096),#432);
#2096 = PRESENTATION_STYLE_ASSIGNMENT((#2097,#2102));
#2097 = SURFACE_STYLE_USAGE(.BOTH.,#2098);
#2098 = SURFACE_SIDE_STYLE('',(#2099));
#2099 = SURFACE_STYLE_FILL_AREA(#2100);
#2100 = FILL_AREA_STYLE('',(#2101));
#2101 = FILL_AREA_STYLE_COLOUR('',#2009);
#2102 = CURVE_STYLE('',#2103,POSITIVE_LENGTH_MEASURE(0.1),#2012);
#2103 = DRAUGHTING_PRE_DEFINED_CURVE_FONT('continuous');
#2104 = OVER_RIDING_STYLED_ITEM('overriding color',(#2105),#432,#2095);
#2105 = PRESENTATION_STYLE_BY_CONTEXT((#2106,#2112),#1988);
#2106 = SURFACE_STYLE_USAGE(.BOTH.,#2107);
#2107 = SURFACE_SIDE_STYLE('',(#2108));
#2108 = SURFACE_STYLE_FILL_AREA(#2109);
#2109 = FILL_AREA_STYLE('',(#2110));
#2110 = FILL_AREA_STYLE_COLOUR('',#2111);
#2111 = COLOUR_RGB('',0.823999987314,0.819999987296,0.781000009244);
#2112 = CURVE_STYLE('',#2113,POSITIVE_LENGTH_MEASURE(0.1),#2114);
#2113 = DRAUGHTING_PRE_DEFINED_CURVE_FONT('continuous');
#2114 = COLOUR_RGB('',9.803921802644E-02,9.803921802644E-02,
  9.803921802644E-02);
#2115 = OVER_RIDING_STYLED_ITEM('overriding color',(#2116),#432,#2095);
#2116 = PRESENTATION_STYLE_BY_CONTEXT((#2117,#2122),#1990);
#2117 = SURFACE_STYLE_USAGE(.BOTH.,#2118);
#2118 = SURFACE_SIDE_STYLE('',(#2119));
#2119 = SURFACE_STYLE_FILL_AREA(#2120);
#2120 = FILL_AREA_STYLE('',(#2121));
#2121 = FILL_AREA_STYLE_COLOUR('',#2111);
#2122 = CURVE_STYLE('',#2123,POSITIVE_LENGTH_MEASURE(0.1),#2114);
#2123 = DRAUGHTING_PRE_DEFINED_CURVE_FONT('continuous');
#2124 = OVER_RIDING_STYLED_ITEM('overriding color',(#2125),#432,#2095);
#2125 = PRESENTATION_STYLE_BY_CONTEXT((#2126,#2131),#1992);
#2126 = SURFACE_STYLE_USAGE(.BOTH.,#2127);
#2127 = SURFACE_SIDE_STYLE('',(#2128));
#2128 = SURFACE_STYLE_FILL_AREA(#2129);
#2129 = FILL_AREA_STYLE('',(#2130));
#2130 = FILL_AREA_STYLE_COLOUR('',#2111);
#2131 = CURVE_STYLE('',#2132,POSITIVE_LENGTH_MEASURE(0.1),#2114);
#2132 = DRAUGHTING_PRE_DEFINED_CURVE_FONT('continuous');
#2133 = OVER_RIDING_STYLED_ITEM('overriding color',(#2134),#432,#2095);
#2134 = PRESENTATION_STYLE_BY_CONTEXT((#2135,#2140),#1994);
#2135 = SURFACE_STYLE_USAGE(.BOTH.,#2136);
#2136 = SURFACE_SIDE_STYLE('',(#2137));
#2137 = SURFACE_STYLE_FILL_AREA(#2138);
#2138 = FILL_AREA_STYLE('',(#2139));
#2139 = FILL_AREA_STYLE_COLOUR('',#2111);
#2140 = CURVE_STYLE('',#2141,POSITIVE_LENGTH_MEASURE(0.1),#2114);
#2141 = DRAUGHTING_PRE_DEFINED_CURVE_FONT('continuous');
#2142 = OVER_RIDING_STYLED_ITEM('overriding color',(#2143),#432,#2095);
#2143 = PRESENTATION_STYLE_BY_CONTEXT((#2144,#2149),#1996);
#2144 = SURFACE_STYLE_USAGE(.BOTH.,#2145);
#2145 = SURFACE_SIDE_STYLE('',(#2146));
#2146 = SURFACE_STYLE_FILL_AREA(#2147);
#2147 = FILL_AREA_STYLE('',(#2148));
#2148 = FILL_AREA_STYLE_COLOUR('',#2111);
#2149 = CURVE_STYLE('',#2150,POSITIVE_LENGTH_MEASURE(0.1),#2114);
#2150 = DRAUGHTING_PRE_DEFINED_CURVE_FONT('continuous');
#2151 = OVER_RIDING_STYLED_ITEM('overriding color',(#2152),#432,#2095);
#2152 = PRESENTATION_STYLE_BY_CONTEXT((#2153,#2158),#1998);
#2153 = SURFACE_STYLE_USAGE(.BOTH.,#2154);
#2154 = SURFACE_SIDE_STYLE('',(#2155));
#2155 = SURFACE_STYLE_FILL_AREA(#2156);
#2156 = FILL_AREA_STYLE('',(#2157));
#2157 = FILL_AREA_STYLE_COLOUR('',#2111);
#2158 = CURVE_STYLE('',#2159,POSITIVE_LENGTH_MEASURE(0.1),#2114);
#2159 = DRAUGHTING_PRE_DEFINED_CURVE_FONT('continuous');
#2160 = OVER_RIDING_STYLED_ITEM('overriding color',(#2161),#432,#2095);
#2161 = PRESENTATION_STYLE_BY_CONTEXT((#2162,#2167),#2000);
#2162 = SURFACE_STYLE_USAGE(.BOTH.,#2163);
#2163 = SURFACE_SIDE_STYLE('',(#2164));
#2164 = SURFACE_STYLE_FILL_AREA(#2165);
#2165 = FILL_AREA_STYLE('',(#2166));
#2166 = FILL_AREA_STYLE_COLOUR('',#2111);
#2167 = CURVE_STYLE('',#2168,POSITIVE_LENGTH_MEASURE(0.1),#2114);
#2168 = DRAUGHTING_PRE_DEFINED_CURVE_FONT('continuous');
#2169 = MECHANICAL_DESIGN_GEOMETRIC_PRESENTATION_REPRESENTATION('',(
    #2170),#1800);
#2170 = STYLED_ITEM('color',(#2171),#1650);
#2171 = PRESENTATION_STYLE_ASSIGNMENT((#2172,#2177));
#2172 = SURFACE_STYLE_USAGE(.BOTH.,#2173);
#2173 = SURFACE_SIDE_STYLE('',(#2174));
#2174 = SURFACE_STYLE_FILL_AREA(#2175);
#2175 = FILL_AREA_STYLE('',(#2176));
#2176 = FILL_AREA_STYLE_COLOUR('',#2009);
#2177 = CURVE_STYLE('',#2178,POSITIVE_LENGTH_MEASURE(0.1),#2012);
#2178 = DRAUGHTING_PRE_DEFINED_CURVE_FONT('continuous');
ENDSEC;
END-ISO-10303-21;
