(footprint "60x1642"
	(version 20240108)
	(generator "pcbnew")
	(generator_version "8.0")
	(layer "F.Cu")
	(property "Reference" "60x1642"
		(at 0 0 0)
		(layer "F.Fab")
		(uuid "301085e1-6ac3-43b0-9034-5ac27bb614eb")
		(effects
			(font
				(size 1.2 1.2)
				(thickness 0.12)
			)
		)
	)
	(property "Value" "60x1642"
		(at 0 0 0)
		(layer "F.Fab")
		(hide yes)
		(uuid "25e85e36-1d8b-4508-842a-2528940e7b1e")
		(effects
			(font
				(size 1.2 1.2)
				(thickness 0.12)
			)
		)
	)
	(property "Footprint" ""
		(at 0 0 0)
		(unlocked yes)
		(layer "F.Fab")
		(hide yes)
		(uuid "b8b6fbd9-77d5-4e29-b4c7-1c44cf212819")
		(effects
			(font
				(size 1.27 1.27)
				(thickness 0.15)
			)
		)
	)
	(property "Datasheet" ""
		(at 0 0 0)
		(unlocked yes)
		(layer "F.Fab")
		(hide yes)
		(uuid "3f5a33ea-7139-4d35-8997-ec5df97bf4a6")
		(effects
			(font
				(size 1.27 1.27)
				(thickness 0.15)
			)
		)
	)
	(property "Description" ""
		(at 0 0 0)
		(unlocked yes)
		(layer "F.Fab")
		(hide yes)
		(uuid "86c7aeb6-c1bd-4e59-a4bd-44570b99a32e")
		(effects
			(font
				(size 1.27 1.27)
				(thickness 0.15)
			)
		)
	)
	(attr smd)
	(fp_line
		(start -7.9 -2.4)
		(end -7.9 2.4)
		(stroke
			(width 0.12)
			(type solid)
		)
		(layer "F.SilkS")
		(uuid "4f78f8ad-f7b6-4c70-90d8-f718d6d22938")
	)
	(fp_line
		(start -5.93 -1.5)
		(end -5.93 -0.7)
		(stroke
			(width 0.12)
			(type solid)
		)
		(layer "F.SilkS")
		(uuid "74a03c36-54b9-424f-b596-4af85851505c")
	)
	(fp_line
		(start -5.93 -1.5)
		(end 5.93 -1.5)
		(stroke
			(width 0.12)
			(type solid)
		)
		(layer "F.SilkS")
		(uuid "05b2dc7b-9a8c-4511-940d-1d1e6bf5a7df")
	)
	(fp_line
		(start -5.43 0)
		(end -5.53 0)
		(stroke
			(width 0.12)
			(type solid)
		)
		(layer "F.SilkS")
		(uuid "15507a95-4ce7-4dcd-a2fe-fc1f816b8ca5")
	)
	(fp_line
		(start -5.43 1.5)
		(end 5.43 1.5)
		(stroke
			(width 0.12)
			(type solid)
		)
		(layer "F.SilkS")
		(uuid "289c0134-7498-486c-8adc-5ada935f7f14")
	)
	(fp_line
		(start -5.43 3.3)
		(end -5.43 0)
		(stroke
			(width 0.12)
			(type solid)
		)
		(layer "F.SilkS")
		(uuid "86b573e0-45c7-41ef-937f-a6c582f21cf2")
	)
	(fp_line
		(start 5.43 0)
		(end 5.53 0)
		(stroke
			(width 0.12)
			(type solid)
		)
		(layer "F.SilkS")
		(uuid "8aaaea72-dd14-4522-8874-915fa60a1eb1")
	)
	(fp_line
		(start 5.43 1.5)
		(end 5.43 0)
		(stroke
			(width 0.12)
			(type solid)
		)
		(layer "F.SilkS")
		(uuid "281fab17-e515-400f-af6a-d1cae49f126e")
	)
	(fp_line
		(start 5.93 -1.5)
		(end 5.93 -0.7)
		(stroke
			(width 0.12)
			(type solid)
		)
		(layer "F.SilkS")
		(uuid "70e252db-b466-4f13-a710-aa3d36797096")
	)
	(fp_line
		(start 6.05 -2.4)
		(end 5.2 -2.4)
		(stroke
			(width 0.12)
			(type solid)
		)
		(layer "F.SilkS")
		(uuid "fe090dc7-cf80-44db-937d-53a97f52a3e6")
	)
	(fp_line
		(start 6.05 2.4)
		(end 5.2 2.4)
		(stroke
			(width 0.12)
			(type solid)
		)
		(layer "F.SilkS")
		(uuid "ceef4ab7-e797-4480-a049-cf7afa0ecab2")
	)
	(fp_line
		(start 7.9 -2.4)
		(end 7.9 2.4)
		(stroke
			(width 0.12)
			(type solid)
		)
		(layer "F.SilkS")
		(uuid "2a7bca73-6cec-4e54-8c80-fb92816bf686")
	)
	(fp_line
		(start -8.1 -4.3)
		(end 8.1 -4.3)
		(stroke
			(width 0.01)
			(type solid)
		)
		(layer "F.CrtYd")
		(uuid "a926deb8-1de3-40a6-aa59-d858defa1cc1")
	)
	(fp_line
		(start -8.1 4.3)
		(end -8.1 -4.3)
		(stroke
			(width 0.01)
			(type solid)
		)
		(layer "F.CrtYd")
		(uuid "0a9eba1f-a643-4e4e-ab2f-6d90a0b47e21")
	)
	(fp_line
		(start 8.1 -4.3)
		(end 8.1 4.3)
		(stroke
			(width 0.01)
			(type solid)
		)
		(layer "F.CrtYd")
		(uuid "4f178f72-38ef-4ce0-8f8b-f15e9f94cbe7")
	)
	(fp_line
		(start 8.1 4.3)
		(end -8.1 4.3)
		(stroke
			(width 0.01)
			(type solid)
		)
		(layer "F.CrtYd")
		(uuid "a8b13a8c-ab66-43a8-9966-6d86df61d9d9")
	)
	(fp_line
		(start -7.62 -2.4)
		(end -7.62 2.4)
		(stroke
			(width 0.1)
			(type solid)
		)
		(layer "F.Fab")
		(uuid "3ef9a1f5-6d89-4b05-ac43-e242a2342a08")
	)
	(fp_line
		(start -7.62 1.39)
		(end -6.62 2.39)
		(stroke
			(width 0.1)
			(type solid)
		)
		(layer "F.Fab")
		(uuid "9be0f535-5363-44c9-ae90-9f3e5d632333")
	)
	(fp_line
		(start -7.62 2.4)
		(end 7.62 2.4)
		(stroke
			(width 0.1)
			(type solid)
		)
		(layer "F.Fab")
		(uuid "9646ccd9-1a05-42ee-b3b2-fb68c4d07dc3")
	)
	(fp_line
		(start 7.62 -2.4)
		(end -7.62 -2.4)
		(stroke
			(width 0.1)
			(type solid)
		)
		(layer "F.Fab")
		(uuid "30d7bdd3-0d0d-4150-80af-145dd9034170")
	)
	(fp_line
		(start 7.62 2.4)
		(end 7.62 -2.4)
		(stroke
			(width 0.1)
			(type solid)
		)
		(layer "F.Fab")
		(uuid "0c4124ca-2969-4f0e-acd9-4324953093be")
	)
	(fp_text user "${REFERENCE}"
		(at 0 -4.05 0)
		(unlocked yes)
		(layer "F.SilkS")
		(uuid "fa68534c-1ec6-439a-a54b-0f77193d655e")
		(effects
			(font
				(size 0.8 0.8)
				(thickness 0.15)
			)
		)
	)
	(pad "" smd rect
		(at -6.94 -2.45)
		(size 1.2 2.7)
		(layers "F.Cu" "F.Paste" "F.Mask")
		(uuid "6b4b07af-6b72-4c67-aacf-700899a4d9a2")
	)
	(pad "" smd rect
		(at -6.94 2.45)
		(size 1.2 2.7)
		(layers "F.Cu" "F.Paste" "F.Mask")
		(uuid "e1779c56-d970-4d58-ac1c-7453da1dc2d5")
	)
	(pad "" np_thru_hole circle
		(at -6.655 0)
		(size 1.65 1.65)
		(drill 1.65)
		(layers "*.Cu" "*.Mask")
		(uuid "b8ca6879-b692-4217-b650-2d63d1934675")
	)
	(pad "" np_thru_hole circle
		(at 6.655 0)
		(size 1.65 1.65)
		(drill 1.65)
		(layers "*.Cu" "*.Mask")
		(uuid "c4cd0455-72b3-441a-a73b-3d362123dbab")
	)
	(pad "" smd rect
		(at 6.94 -2.45)
		(size 1.2 2.7)
		(layers "F.Cu" "F.Paste" "F.Mask")
		(uuid "82378f8d-863f-443e-95eb-7a1611ba147f")
	)
	(pad "" smd rect
		(at 6.94 2.45)
		(size 1.2 2.7)
		(layers "F.Cu" "F.Paste" "F.Mask")
		(uuid "fa285006-3b5c-43ef-a044-daa54001137a")
	)
	(pad "a1" smd rect
		(at -4.445 2.75)
		(size 0.8 1.1)
		(layers "F.Cu" "F.Paste" "F.Mask")
		(uuid "9634e6be-bef6-4588-aca2-43fc91004b72")
	)
	(pad "a2" smd rect
		(at -3.175 2.75)
		(size 0.8 1.1)
		(layers "F.Cu" "F.Paste" "F.Mask")
		(uuid "1abaa200-8e67-4342-a7d4-be0913837067")
	)
	(pad "a3" smd rect
		(at -1.905 2.75)
		(size 0.8 1.1)
		(layers "F.Cu" "F.Paste" "F.Mask")
		(uuid "9995c342-b985-4163-83c3-440599fb9888")
	)
	(pad "a4" smd rect
		(at -0.635 2.75)
		(size 0.8 1.1)
		(layers "F.Cu" "F.Paste" "F.Mask")
		(uuid "717aefc9-706b-49e6-9fec-a1bf09d4795e")
	)
	(pad "a5" smd rect
		(at 0.635 2.75)
		(size 0.8 1.1)
		(layers "F.Cu" "F.Paste" "F.Mask")
		(uuid "4dd6c1e3-5816-4194-9e80-eb6035e6a0c5")
	)
	(pad "a6" smd rect
		(at 1.905 2.75)
		(size 0.8 1.1)
		(layers "F.Cu" "F.Paste" "F.Mask")
		(uuid "76896cda-0432-4aa1-a49a-d785ff0cc8f7")
	)
	(pad "a7" smd rect
		(at 3.175 2.75)
		(size 0.8 1.1)
		(layers "F.Cu" "F.Paste" "F.Mask")
		(uuid "179add3e-e480-4467-b305-07bef67e19d8")
	)
	(pad "a8" smd rect
		(at 4.445 2.75)
		(size 0.8 1.1)
		(layers "F.Cu" "F.Paste" "F.Mask")
		(uuid "050ae94e-55c4-4d3a-a5b3-f1273e143383")
	)
	(pad "b1" smd rect
		(at -4.445 -2.75)
		(size 0.8 1.1)
		(layers "F.Cu" "F.Paste" "F.Mask")
		(uuid "69f4db98-2b5d-4e89-9783-4e4b9b4736dc")
	)
	(pad "b2" smd rect
		(at -3.175 -2.75)
		(size 0.8 1.1)
		(layers "F.Cu" "F.Paste" "F.Mask")
		(uuid "594a08e8-fe0a-4775-870f-718264754819")
	)
	(pad "b3" smd rect
		(at -1.905 -2.75)
		(size 0.8 1.1)
		(layers "F.Cu" "F.Paste" "F.Mask")
		(uuid "a782b769-63f3-4e2f-bb2f-bf9c5a9ac8ee")
	)
	(pad "b4" smd rect
		(at -0.635 -2.75)
		(size 0.8 1.1)
		(layers "F.Cu" "F.Paste" "F.Mask")
		(uuid "237edac0-2085-4b10-bb3b-0dfb6910cbd7")
	)
	(pad "b5" smd rect
		(at 0.635 -2.75)
		(size 0.8 1.1)
		(layers "F.Cu" "F.Paste" "F.Mask")
		(uuid "9de02a27-4704-4db7-956f-46a8cee13289")
	)
	(pad "b6" smd rect
		(at 1.905 -2.75)
		(size 0.8 1.1)
		(layers "F.Cu" "F.Paste" "F.Mask")
		(uuid "bf915ce8-e6d2-4eb0-94c1-a9cfeb5979ad")
	)
	(pad "b7" smd rect
		(at 3.175 -2.75)
		(size 0.8 1.1)
		(layers "F.Cu" "F.Paste" "F.Mask")
		(uuid "d1f3ba93-1912-44c2-bc50-7ec59f6bdabc")
	)
	(pad "b8" smd rect
		(at 4.445 -2.75)
		(size 0.8 1.1)
		(layers "F.Cu" "F.Paste" "F.Mask")
		(uuid "fe9fc7d9-b382-4a63-886d-0316d90c5384")
	)
	(model "${KISYS3DMOD}/Harwin/M55-6001642.wrl"
		(offset
			(xyz 0 0 0)
		)
		(scale
			(xyz 1 1 1)
		)
		(rotate
			(xyz 0 0 0)
		)
	)
)
