(footprint "CUI-PJ-011"
	(version 20240108)
	(generator "pcbnew")
	(generator_version "8.0")
	(layer "F.Cu")
	(descr "CUI DC Power Jack")
	(property "Reference" "CUI-PJ-011"
		(at 0 0 0)
		(unlocked yes)
		(layer "F.Fab")
		(uuid "c3248439-a907-4b56-bc9a-c2b0f97e3b8f")
		(effects
			(font
				(size 1.2 1.2)
				(thickness 0.12)
			)
		)
	)
	(property "Value" "CUI-PJ-011"
		(at 0 0 0)
		(unlocked yes)
		(layer "F.Fab")
		(hide yes)
		(uuid "e53db167-cf17-4a06-9222-6222a8cbd337")
		(effects
			(font
				(size 1.2 1.2)
				(thickness 0.12)
			)
		)
	)
	(property "Footprint" ""
		(at 0 0 0)
		(unlocked yes)
		(layer "F.Fab")
		(hide yes)
		(uuid "f62235a1-10fe-4bb9-9b07-a69df9df9432")
		(effects
			(font
				(size 1.27 1.27)
				(thickness 0.15)
			)
		)
	)
	(property "Datasheet" ""
		(at 0 0 0)
		(unlocked yes)
		(layer "F.Fab")
		(hide yes)
		(uuid "d86aed35-4eae-438a-b2ea-a9847ccd9ab9")
		(effects
			(font
				(size 1.27 1.27)
				(thickness 0.15)
			)
		)
	)
	(property "Description" ""
		(at 0 0 0)
		(unlocked yes)
		(layer "F.Fab")
		(hide yes)
		(uuid "332fa5da-053f-4309-ad3b-072e3ffbd349")
		(effects
			(font
				(size 1.27 1.27)
				(thickness 0.15)
			)
		)
	)
	(attr through_hole)
	(fp_circle
		(center 0 0)
		(end 7.9 0)
		(stroke
			(width 0.12)
			(type solid)
		)
		(fill none)
		(layer "F.SilkS")
		(uuid "e2757f63-2e88-4954-a604-21b4ec6a8371")
	)
	(fp_line
		(start -3 -5.999999)
		(end 3 -5.999999)
		(stroke
			(width 0.1)
			(type solid)
		)
		(layer "Dwgs.User")
		(uuid "03f60684-3eb6-4a9d-9ede-e78bdf9b3552")
	)
	(fp_line
		(start -3 5.999999)
		(end 3 5.999999)
		(stroke
			(width 0.1)
			(type solid)
		)
		(layer "Dwgs.User")
		(uuid "23fd378c-c0bf-4abd-82a9-537db6e4f013")
	)
	(fp_arc
		(start -2.999999 5.999999)
		(mid -6.708203 0)
		(end -3 -5.999999)
		(stroke
			(width 0.1)
			(type solid)
		)
		(layer "Dwgs.User")
		(uuid "c03843fe-69ff-416e-b552-76fd4e218101")
	)
	(fp_arc
		(start 2.999999 -5.999999)
		(mid 6.708203 0)
		(end 3 5.999999)
		(stroke
			(width 0.1)
			(type solid)
		)
		(layer "Dwgs.User")
		(uuid "76c8dbe4-b317-41e2-83d1-6248f20e8267")
	)
	(fp_circle
		(center 0 0)
		(end 9 0)
		(stroke
			(width 0.01)
			(type solid)
		)
		(fill none)
		(layer "F.CrtYd")
		(uuid "be324a98-919a-4d9f-90f4-38eb5456bbed")
	)
	(fp_line
		(start -8.6 0)
		(end -4.2 7.5)
		(stroke
			(width 0.1)
			(type solid)
		)
		(layer "F.Fab")
		(uuid "b0326e51-5a3a-46d3-911a-f31cf454630f")
	)
	(fp_line
		(start -4.2 -7.5)
		(end -8.6 0)
		(stroke
			(width 0.1)
			(type solid)
		)
		(layer "F.Fab")
		(uuid "4ecfc763-fc93-4ab8-b9ec-ead3221399b3")
	)
	(fp_line
		(start -4.2 7.5)
		(end 4.2 7.5)
		(stroke
			(width 0.1)
			(type solid)
		)
		(layer "F.Fab")
		(uuid "7356f8d8-61e9-4cde-b6cd-aa9e9dc4687f")
	)
	(fp_line
		(start 4.2 -7.5)
		(end -4.2 -7.5)
		(stroke
			(width 0.1)
			(type solid)
		)
		(layer "F.Fab")
		(uuid "00f977b2-8f0c-45fb-b1e9-f160ab59c08f")
	)
	(fp_line
		(start 4.2 7.5)
		(end 8.6 0)
		(stroke
			(width 0.1)
			(type solid)
		)
		(layer "F.Fab")
		(uuid "489eb6d7-79e8-4552-815a-5310279bb5a6")
	)
	(fp_line
		(start 8.6 0)
		(end 4.2 -7.5)
		(stroke
			(width 0.1)
			(type solid)
		)
		(layer "F.Fab")
		(uuid "5a700f90-4892-4362-8798-54c6e46977b9")
	)
	(fp_circle
		(center 0 0)
		(end 7.9 0)
		(stroke
			(width 0.1)
			(type solid)
		)
		(fill none)
		(layer "F.Fab")
		(uuid "762f0820-126c-416e-a9fb-70ee2bf5eb01")
	)
	(fp_text user "${REFERENCE}"
		(at 0 -8.55 0)
		(unlocked yes)
		(layer "F.SilkS")
		(uuid "40caaaf2-d220-4998-b132-b496f0b41da4")
		(effects
			(font
				(size 0.8 0.8)
				(thickness 0.15)
			)
		)
	)
	(pad "1" thru_hole oval
		(at -4.5 -1.75)
		(size 1.8 4.5)
		(drill oval 0.8 3.5)
		(layers "*.Cu" "*.Mask")
		(remove_unused_layers no)
		(uuid "f59dfd92-2804-4b73-8fde-0d077030d460")
	)
	(pad "2" thru_hole oval
		(at -1.88 3.4)
		(size 4 1.6)
		(drill oval 3 0.6)
		(layers "*.Cu" "*.Mask")
		(remove_unused_layers no)
		(uuid "7ec44205-09cf-465a-aa24-1da9fb5a878e")
	)
	(pad "3" thru_hole oval
		(at 1.52 1.25)
		(size 4 1.6)
		(drill oval 3 0.6)
		(layers "*.Cu" "*.Mask")
		(remove_unused_layers no)
		(uuid "ebf617ca-b74a-486f-9ef2-8562c3393e86")
	)
	(model "${KISYS3DMOD}/CUI/PJ-011B.wrl"
		(offset
			(xyz 0 0 0)
		)
		(scale
			(xyz 1 1 1)
		)
		(rotate
			(xyz 0 0 0)
		)
	)
)
