(footprint "MO220VGGD1"
	(version 20240108)
	(generator "pcbnew")
	(generator_version "8.0")
	(layer "F.Cu")
	(descr "0.5mm pitch, 20-pin QFN, 4×4×1mm Body")
	(property "Reference" "MO220VGGD1"
		(at 0 0 180)
		(layer "F.Fab")
		(uuid "f0a15e49-9870-4c18-b80d-ab9a3b0f72e4")
		(effects
			(font
				(size 0.8 0.8)
				(thickness 0.08)
			)
		)
	)
	(property "Value" "MO220VGGD1"
		(at 0 0 180)
		(layer "F.Fab")
		(hide yes)
		(uuid "eaa5c11b-03cd-4978-9202-cb8789f8919a")
		(effects
			(font
				(size 0.8 0.8)
				(thickness 0.08)
			)
		)
	)
	(property "Footprint" ""
		(at 0 0 -90)
		(layer "F.Fab")
		(hide yes)
		(uuid "56db61e6-610f-4ef9-8019-4ae9136af3cb")
		(effects
			(font
				(size 1.27 1.27)
				(thickness 0.15)
			)
		)
	)
	(property "Datasheet" ""
		(at 0 0 -90)
		(layer "F.Fab")
		(hide yes)
		(uuid "ec5e6f19-2a9f-4e5a-b9dd-e8975a06bd1c")
		(effects
			(font
				(size 1.27 1.27)
				(thickness 0.15)
			)
		)
	)
	(property "Description" ""
		(at 0 0 -90)
		(layer "F.Fab")
		(hide yes)
		(uuid "941954aa-9098-4175-b9f8-d9827d54ed1f")
		(effects
			(font
				(size 1.27 1.27)
				(thickness 0.15)
			)
		)
	)
	(attr smd)
	(fp_line
		(start -2.05 2.05)
		(end -2.05 1.45)
		(stroke
			(width 0.12)
			(type solid)
		)
		(layer "F.SilkS")
		(uuid "344f56bc-8be9-434e-8b31-2d6067e0f65c")
	)
	(fp_line
		(start -1.45 -2.05)
		(end -2.05 -2.05)
		(stroke
			(width 0.12)
			(type default)
		)
		(layer "F.SilkS")
		(uuid "c18464fb-8dc0-4c7a-aab3-a6018979ec7a")
	)
	(fp_line
		(start -1.45 2.05)
		(end -2.05 2.05)
		(stroke
			(width 0.12)
			(type solid)
		)
		(layer "F.SilkS")
		(uuid "a5f96cc9-e9d6-4f62-babc-d3aff4fa940c")
	)
	(fp_line
		(start 1.45 -2.05)
		(end 2.05 -2.05)
		(stroke
			(width 0.12)
			(type solid)
		)
		(layer "F.SilkS")
		(uuid "cca55d6b-fc1d-4496-81b9-437fc3b0fced")
	)
	(fp_line
		(start 2.05 -2.05)
		(end 2.05 -1.45)
		(stroke
			(width 0.12)
			(type solid)
		)
		(layer "F.SilkS")
		(uuid "a80cdc3f-f547-4d2f-b33c-4804589c2e82")
	)
	(fp_line
		(start 2.05 1.45)
		(end 2.05 2.05)
		(stroke
			(width 0.12)
			(type solid)
		)
		(layer "F.SilkS")
		(uuid "be74eba4-694e-4205-9236-15faa47c4253")
	)
	(fp_line
		(start 2.05 2.05)
		(end 1.45 2.05)
		(stroke
			(width 0.12)
			(type solid)
		)
		(layer "F.SilkS")
		(uuid "991f03d0-6006-4945-a70a-118bbb72e222")
	)
	(fp_circle
		(center -2.05 -2.05)
		(end -1.85 -2.05)
		(stroke
			(width 0.12)
			(type solid)
		)
		(fill solid)
		(layer "F.SilkS")
		(uuid "6a7c1d62-01b1-4bea-883d-2cc5fa62ac9b")
	)
	(fp_rect
		(start -2.6 -2.65)
		(end 2.65 2.65)
		(stroke
			(width 0.01)
			(type solid)
		)
		(fill none)
		(layer "F.CrtYd")
		(uuid "5022ff72-c327-4e07-b0e9-467444a05592")
	)
	(fp_line
		(start -1.05 -2.05)
		(end -2.05 -1.05)
		(stroke
			(width 0.1)
			(type solid)
		)
		(layer "F.Fab")
		(uuid "83a4ff50-4b91-43e0-b9b7-303ec2c7357e")
	)
	(fp_rect
		(start -2.05 -2.05)
		(end 2.05 2.05)
		(stroke
			(width 0.1)
			(type solid)
		)
		(fill none)
		(layer "F.Fab")
		(uuid "5e94ae3c-40ec-4ada-9552-519f1a1d1691")
	)
	(pad "" smd rect
		(at -0.5 -0.5)
		(size 0.8 0.8)
		(layers "F.Paste")
		(uuid "a17aa321-9494-4652-89d0-0902832dea44")
	)
	(pad "" smd rect
		(at -0.5 0.5)
		(size 0.8 0.8)
		(layers "F.Paste")
		(uuid "4b50d660-ed33-4555-916e-5688c8a872ee")
	)
	(pad "" smd rect
		(at 0.5 -0.5)
		(size 0.8 0.8)
		(layers "F.Paste")
		(uuid "429862ef-d40d-4ed7-95a4-3c9495e63fc3")
	)
	(pad "" smd rect
		(at 0.5 0.5)
		(size 0.8 0.8)
		(layers "F.Paste")
		(uuid "22e6ac62-98b4-4300-ac90-b61a373dfd02")
	)
	(pad "1" smd rect
		(at -1.9 -1)
		(size 1.1 0.3)
		(layers "F.Cu" "F.Paste" "F.Mask")
		(uuid "d6d75699-b403-4e73-8a17-9d3dd27c25fc")
	)
	(pad "2" smd rect
		(at -1.9 -0.5)
		(size 1.1 0.3)
		(layers "F.Cu" "F.Paste" "F.Mask")
		(uuid "7223cc02-bbfb-489a-96a3-2709e248bf1e")
	)
	(pad "3" smd rect
		(at -1.9 0)
		(size 1.1 0.3)
		(layers "F.Cu" "F.Paste" "F.Mask")
		(uuid "80d84173-d43a-402e-992a-5dc6d967a74c")
	)
	(pad "4" smd rect
		(at -1.9 0.5)
		(size 1.1 0.3)
		(layers "F.Cu" "F.Paste" "F.Mask")
		(uuid "0df588af-0eb2-497b-a57b-833b38bb81e2")
	)
	(pad "5" smd rect
		(at -1.9 1)
		(size 1.1 0.3)
		(layers "F.Cu" "F.Paste" "F.Mask")
		(uuid "115e26cc-7451-49fa-9755-d43194a6451b")
	)
	(pad "6" smd rect
		(at -1 1.9 90)
		(size 1.1 0.3)
		(layers "F.Cu" "F.Paste" "F.Mask")
		(uuid "cfd0bae8-b5da-4d17-9396-a427bbe9e2d2")
	)
	(pad "7" smd rect
		(at -0.5 1.9 90)
		(size 1.1 0.3)
		(layers "F.Cu" "F.Paste" "F.Mask")
		(uuid "806c8e71-7608-4db6-8361-80222671a9ee")
	)
	(pad "8" smd rect
		(at 0 1.9 90)
		(size 1.1 0.3)
		(layers "F.Cu" "F.Paste" "F.Mask")
		(uuid "95a8145c-e37e-4f4c-8c07-03cadcad19e7")
	)
	(pad "9" smd rect
		(at 0.5 1.9 90)
		(size 1.1 0.3)
		(layers "F.Cu" "F.Paste" "F.Mask")
		(uuid "c6589ddd-e306-465d-ba18-655a4ff84e27")
	)
	(pad "10" smd rect
		(at 1 1.9 90)
		(size 1.1 0.3)
		(layers "F.Cu" "F.Paste" "F.Mask")
		(uuid "075d537f-9f94-4679-9c53-084ab9554616")
	)
	(pad "11" smd rect
		(at 1.9 1)
		(size 1.1 0.3)
		(layers "F.Cu" "F.Paste" "F.Mask")
		(uuid "a6152d56-1093-4071-b3aa-2c5c385310b3")
	)
	(pad "12" smd rect
		(at 1.9 0.5)
		(size 1.1 0.3)
		(layers "F.Cu" "F.Paste" "F.Mask")
		(uuid "83e6137c-7af2-4f33-9b82-ea5bd0bd2e58")
	)
	(pad "13" smd rect
		(at 1.9 0)
		(size 1.1 0.3)
		(layers "F.Cu" "F.Paste" "F.Mask")
		(uuid "7fcfc9ef-ef19-4f50-919b-519d69ef8ed8")
	)
	(pad "14" smd rect
		(at 1.9 -0.5)
		(size 1.1 0.3)
		(layers "F.Cu" "F.Paste" "F.Mask")
		(uuid "d50ad82e-ca83-4367-80f7-c97a5007265e")
	)
	(pad "15" smd rect
		(at 1.9 -1)
		(size 1.1 0.3)
		(layers "F.Cu" "F.Paste" "F.Mask")
		(uuid "3fa83ac8-e860-43f2-bb9d-a6148e1a6b1c")
	)
	(pad "16" smd rect
		(at 1 -1.9 90)
		(size 1.1 0.3)
		(layers "F.Cu" "F.Paste" "F.Mask")
		(uuid "8a655d9b-a97d-4b47-b4dc-b6e6832243fe")
	)
	(pad "17" smd rect
		(at 0.5 -1.9 90)
		(size 1.1 0.3)
		(layers "F.Cu" "F.Paste" "F.Mask")
		(uuid "8d0ffd47-1b1c-4d0e-9f43-730d483ad4bb")
	)
	(pad "18" smd rect
		(at 0 -1.9 90)
		(size 1.1 0.3)
		(layers "F.Cu" "F.Paste" "F.Mask")
		(uuid "40e5ad39-239c-4c6f-8388-2d6ba2c33daf")
	)
	(pad "19" smd rect
		(at -0.5 -1.9 90)
		(size 1.1 0.3)
		(layers "F.Cu" "F.Paste" "F.Mask")
		(uuid "1dd2e225-b85e-4ded-98ac-2970585eaedd")
	)
	(pad "20" smd rect
		(at -1 -1.9 90)
		(size 1.1 0.3)
		(layers "F.Cu" "F.Paste" "F.Mask")
		(uuid "e2571e65-4f5c-4892-a87f-0112e9a17a66")
	)
	(pad "P" smd rect
		(at 0 0)
		(size 2.3 2.3)
		(layers "F.Cu" "F.Mask")
		(zone_connect 0)
		(thermal_bridge_angle 45)
		(uuid "dab2e210-a956-4685-8a51-4fea595ac90a")
	)
)
