(footprint "MO220VHHD5"
	(version 20240108)
	(generator "pcbnew")
	(generator_version "8.0")
	(layer "F.Cu")
	(descr "0.5mm pitch, 32-pin QFN, 5×5×1mm Body")
	(property "Reference" "MO220VHHD5"
		(at 0 0 0)
		(layer "F.Fab")
		(uuid "ba97aa9d-a65f-4c78-b21d-87ced6a71d79")
		(effects
			(font
				(size 0.8 0.8)
				(thickness 0.08)
			)
		)
	)
	(property "Value" "MO220VHHD5"
		(at 0 0 180)
		(layer "F.Fab")
		(hide yes)
		(uuid "0bc0a794-73c4-4316-8922-2b2e60114603")
		(effects
			(font
				(size 0.8 0.8)
				(thickness 0.08)
			)
		)
	)
	(property "Footprint" ""
		(at 0 0 -90)
		(layer "F.Fab")
		(hide yes)
		(uuid "fdc858e9-c7da-4fc8-bb03-52b89657d174")
		(effects
			(font
				(size 1.27 1.27)
				(thickness 0.15)
			)
		)
	)
	(property "Datasheet" ""
		(at 0 0 -90)
		(layer "F.Fab")
		(hide yes)
		(uuid "ce60f75d-be3a-430f-87bd-b7571f49f520")
		(effects
			(font
				(size 1.27 1.27)
				(thickness 0.15)
			)
		)
	)
	(property "Description" ""
		(at 0 0 -90)
		(layer "F.Fab")
		(hide yes)
		(uuid "03a9f71f-a4de-4222-851d-ad5832b96cba")
		(effects
			(font
				(size 1.27 1.27)
				(thickness 0.15)
			)
		)
	)
	(attr smd)
	(fp_line
		(start -2.55 2.55)
		(end -2.55 2.2)
		(stroke
			(width 0.12)
			(type solid)
		)
		(layer "F.SilkS")
		(uuid "451e164f-5c02-44c9-aaf3-84241466c864")
	)
	(fp_line
		(start -2.2 -2.55)
		(end -2.55 -2.55)
		(stroke
			(width 0.12)
			(type default)
		)
		(layer "F.SilkS")
		(uuid "b25c6cae-d6d4-4e9f-8962-708a330e2f21")
	)
	(fp_line
		(start -2.2 2.55)
		(end -2.55 2.55)
		(stroke
			(width 0.12)
			(type solid)
		)
		(layer "F.SilkS")
		(uuid "ec6b6583-56c5-4404-a666-f424baa56c7c")
	)
	(fp_line
		(start 2.2 -2.55)
		(end 2.55 -2.55)
		(stroke
			(width 0.12)
			(type solid)
		)
		(layer "F.SilkS")
		(uuid "f7bf0c5a-c32b-4cfc-8637-356b520de2b9")
	)
	(fp_line
		(start 2.55 -2.55)
		(end 2.55 -2.2)
		(stroke
			(width 0.12)
			(type solid)
		)
		(layer "F.SilkS")
		(uuid "ffcdd5c6-1dc5-4e20-beb1-9e36f38dee36")
	)
	(fp_line
		(start 2.55 2.2)
		(end 2.55 2.55)
		(stroke
			(width 0.12)
			(type solid)
		)
		(layer "F.SilkS")
		(uuid "d863827b-3e4f-4600-9fcd-d748872f5231")
	)
	(fp_line
		(start 2.55 2.55)
		(end 2.2 2.55)
		(stroke
			(width 0.12)
			(type solid)
		)
		(layer "F.SilkS")
		(uuid "a4191bf6-ed0c-4fcb-9077-2612bee53bdd")
	)
	(fp_circle
		(center -2.55 -2.55)
		(end -2.35 -2.55)
		(stroke
			(width 0.12)
			(type solid)
		)
		(fill solid)
		(layer "F.SilkS")
		(uuid "b746595f-033e-4223-84e7-adc2e926ca70")
	)
	(fp_rect
		(start -3.1 -3.1)
		(end 3.1 3.1)
		(stroke
			(width 0.01)
			(type solid)
		)
		(fill none)
		(layer "F.CrtYd")
		(uuid "60805836-a8bb-4a41-8422-a817d887aa39")
	)
	(fp_line
		(start -1.55 -2.55)
		(end -2.55 -1.55)
		(stroke
			(width 0.1)
			(type solid)
		)
		(layer "F.Fab")
		(uuid "a3ea8c58-85aa-4616-a062-ba5d89935684")
	)
	(fp_rect
		(start -2.55 -2.55)
		(end 2.55 2.55)
		(stroke
			(width 0.1)
			(type solid)
		)
		(fill none)
		(layer "F.Fab")
		(uuid "ddd46c47-98d5-4267-824e-3d554e3cc4db")
	)
	(pad "" smd rect
		(at -0.7 -0.7)
		(size 1 1)
		(layers "F.Paste")
		(uuid "62c15537-ce09-4687-b1b0-7e647dfa7b9c")
	)
	(pad "" smd rect
		(at -0.7 0.7)
		(size 1 1)
		(layers "F.Paste")
		(uuid "b695a320-8fff-4ed9-9947-243b0e228cbf")
	)
	(pad "" smd rect
		(at 0.7 -0.7)
		(size 1 1)
		(layers "F.Paste")
		(uuid "ae6989b8-47f6-490e-9669-85dc466f79f3")
	)
	(pad "" smd rect
		(at 0.7 0.7)
		(size 1 1)
		(layers "F.Paste")
		(uuid "afac2c86-9fa4-4fa2-9bff-4b02f98b6388")
	)
	(pad "1" smd rect
		(at -2.5 -1.75 90)
		(size 0.3 0.8)
		(layers "F.Cu" "F.Paste" "F.Mask")
		(uuid "c67d74e4-c9d9-47f8-b44a-94ae65ec8679")
	)
	(pad "2" smd rect
		(at -2.5 -1.25 90)
		(size 0.3 0.8)
		(layers "F.Cu" "F.Paste" "F.Mask")
		(uuid "727cb1e5-f0cb-4339-a7f3-16a77b49b5c3")
	)
	(pad "3" smd rect
		(at -2.5 -0.75 90)
		(size 0.3 0.8)
		(layers "F.Cu" "F.Paste" "F.Mask")
		(uuid "18a5b69b-0f48-4f7b-a65e-7f37d583247c")
	)
	(pad "4" smd rect
		(at -2.5 -0.25 90)
		(size 0.3 0.8)
		(layers "F.Cu" "F.Paste" "F.Mask")
		(uuid "0a9231b9-97f7-4333-8c6d-7ec5c9968ca4")
	)
	(pad "5" smd rect
		(at -2.5 0.25 90)
		(size 0.3 0.8)
		(layers "F.Cu" "F.Paste" "F.Mask")
		(uuid "ab3c7061-70d6-4bbf-bd47-da4a956a5a35")
	)
	(pad "6" smd rect
		(at -2.5 0.75 90)
		(size 0.3 0.8)
		(layers "F.Cu" "F.Paste" "F.Mask")
		(uuid "fa5eb3d1-4946-4ea1-9935-d37a48a43d59")
	)
	(pad "7" smd rect
		(at -2.5 1.25 90)
		(size 0.3 0.8)
		(layers "F.Cu" "F.Paste" "F.Mask")
		(uuid "64a21a04-e0f0-47f4-9e20-278c5819f077")
	)
	(pad "8" smd rect
		(at -2.5 1.75 90)
		(size 0.3 0.8)
		(layers "F.Cu" "F.Paste" "F.Mask")
		(uuid "902d80e7-de77-4918-98a1-608742a6e15d")
	)
	(pad "9" smd rect
		(at -1.75 2.5)
		(size 0.3 0.8)
		(layers "F.Cu" "F.Paste" "F.Mask")
		(uuid "bfcd2baf-a79c-4ae8-ae22-faa633f9212f")
	)
	(pad "10" smd rect
		(at -1.25 2.5)
		(size 0.3 0.8)
		(layers "F.Cu" "F.Paste" "F.Mask")
		(uuid "87ad12e4-6999-444f-8047-d18caab96083")
	)
	(pad "11" smd rect
		(at -0.75 2.5)
		(size 0.3 0.8)
		(layers "F.Cu" "F.Paste" "F.Mask")
		(uuid "9f6c51c5-a653-431d-ad4e-4d75a86ecf15")
	)
	(pad "12" smd rect
		(at -0.25 2.5)
		(size 0.3 0.8)
		(layers "F.Cu" "F.Paste" "F.Mask")
		(uuid "42ac02e7-94c4-4964-af3c-81d8bcb0f415")
	)
	(pad "13" smd rect
		(at 0.25 2.5)
		(size 0.3 0.8)
		(layers "F.Cu" "F.Paste" "F.Mask")
		(uuid "883de858-7938-4db0-926c-2d3013d03042")
	)
	(pad "14" smd rect
		(at 0.75 2.5)
		(size 0.3 0.8)
		(layers "F.Cu" "F.Paste" "F.Mask")
		(uuid "8901529b-e449-456b-861c-e03368e19ee9")
	)
	(pad "15" smd rect
		(at 1.25 2.5)
		(size 0.3 0.8)
		(layers "F.Cu" "F.Paste" "F.Mask")
		(uuid "01f37e75-84b2-4529-b4d2-82b588634dab")
	)
	(pad "16" smd rect
		(at 1.75 2.5)
		(size 0.3 0.8)
		(layers "F.Cu" "F.Paste" "F.Mask")
		(uuid "2598f693-a39c-442a-9132-8d0bd1eacaa3")
	)
	(pad "17" smd rect
		(at 2.5 1.75 90)
		(size 0.3 0.8)
		(layers "F.Cu" "F.Paste" "F.Mask")
		(uuid "d3e2d585-d443-487a-bfdc-b84f9189b522")
	)
	(pad "18" smd rect
		(at 2.5 1.25 90)
		(size 0.3 0.8)
		(layers "F.Cu" "F.Paste" "F.Mask")
		(uuid "50332bf1-dddd-4699-9000-f72018452721")
	)
	(pad "19" smd rect
		(at 2.5 0.75 90)
		(size 0.3 0.8)
		(layers "F.Cu" "F.Paste" "F.Mask")
		(uuid "2e029c70-bba5-4238-825e-7314fc4f5528")
	)
	(pad "20" smd rect
		(at 2.5 0.25 90)
		(size 0.3 0.8)
		(layers "F.Cu" "F.Paste" "F.Mask")
		(uuid "9a1f0107-3bab-4634-a981-424c65d1c201")
	)
	(pad "21" smd rect
		(at 2.5 -0.25 90)
		(size 0.3 0.8)
		(layers "F.Cu" "F.Paste" "F.Mask")
		(uuid "04d8607e-5c1d-426b-9cba-5edc7e393dc2")
	)
	(pad "22" smd rect
		(at 2.5 -0.75 90)
		(size 0.3 0.8)
		(layers "F.Cu" "F.Paste" "F.Mask")
		(uuid "3868e055-3611-406a-9c20-de8fa3363a71")
	)
	(pad "23" smd rect
		(at 2.5 -1.25 90)
		(size 0.3 0.8)
		(layers "F.Cu" "F.Paste" "F.Mask")
		(uuid "43050ae7-03dd-482c-bb3f-b9ee2136bcda")
	)
	(pad "24" smd rect
		(at 2.5 -1.75 90)
		(size 0.3 0.8)
		(layers "F.Cu" "F.Paste" "F.Mask")
		(uuid "424ec3d3-ab8e-454d-a930-b53ad92cf874")
	)
	(pad "25" smd rect
		(at 1.75 -2.5)
		(size 0.3 0.8)
		(layers "F.Cu" "F.Paste" "F.Mask")
		(uuid "c6149a0c-3a1b-4413-aafd-ab0df8c6044f")
	)
	(pad "26" smd rect
		(at 1.25 -2.5)
		(size 0.3 0.8)
		(layers "F.Cu" "F.Paste" "F.Mask")
		(uuid "5450ba53-2bce-455e-9b3d-a0997616590e")
	)
	(pad "27" smd rect
		(at 0.75 -2.5)
		(size 0.3 0.8)
		(layers "F.Cu" "F.Paste" "F.Mask")
		(uuid "38c025da-5db1-4be6-93dd-dd88fbe566be")
	)
	(pad "28" smd rect
		(at 0.25 -2.5)
		(size 0.3 0.8)
		(layers "F.Cu" "F.Paste" "F.Mask")
		(uuid "e1489a98-9509-4c26-8662-e22d17c1359d")
	)
	(pad "29" smd rect
		(at -0.25 -2.5)
		(size 0.3 0.8)
		(layers "F.Cu" "F.Paste" "F.Mask")
		(uuid "96731e6f-e739-4b92-a50e-49b303a9e58b")
	)
	(pad "30" smd rect
		(at -0.75 -2.5)
		(size 0.3 0.8)
		(layers "F.Cu" "F.Paste" "F.Mask")
		(uuid "c12702db-2b8d-4bff-8519-26a62dc818a8")
	)
	(pad "31" smd rect
		(at -1.25 -2.5)
		(size 0.3 0.8)
		(layers "F.Cu" "F.Paste" "F.Mask")
		(uuid "b5d2c945-1126-4327-8694-2ca1ec996f25")
	)
	(pad "32" smd rect
		(at -1.75 -2.5)
		(size 0.3 0.8)
		(layers "F.Cu" "F.Paste" "F.Mask")
		(uuid "74b7cff5-60c2-41a0-8c25-69161754f985")
	)
	(pad "P" smd rect
		(at 0 0)
		(size 3.1 3.1)
		(layers "F.Cu" "F.Mask")
		(zone_connect 0)
		(thermal_bridge_angle 45)
		(uuid "c159e16c-538a-4aa9-8342-1131f01c2f54")
	)
)
