(footprint "MO248UHHD1"
	(version 20240108)
	(generator "pcbnew")
	(generator_version "8.0")
	(layer "F.Cu")
	(descr "0.5mm pitch, 32-pin QFN, 5×5×0.65mm Body")
	(property "Reference" "MO248UHHD1"
		(at 0 0 180)
		(layer "F.Fab")
		(uuid "4e486637-fb45-445f-8bd9-95136ef4f693")
		(effects
			(font
				(size 0.8 0.8)
				(thickness 0.08)
			)
		)
	)
	(property "Value" "MO248UHHD1"
		(at 0 0 180)
		(layer "F.Fab")
		(hide yes)
		(uuid "77a58df7-4989-4606-8593-c828ca82a4a2")
		(effects
			(font
				(size 0.8 0.8)
				(thickness 0.08)
			)
		)
	)
	(property "Footprint" ""
		(at 0 0 -90)
		(layer "F.Fab")
		(hide yes)
		(uuid "3e75e110-d98d-4b39-bc56-654bee1cf00c")
		(effects
			(font
				(size 1.27 1.27)
				(thickness 0.15)
			)
		)
	)
	(property "Datasheet" ""
		(at 0 0 -90)
		(layer "F.Fab")
		(hide yes)
		(uuid "fe947016-d23c-419d-a47f-f308999af596")
		(effects
			(font
				(size 1.27 1.27)
				(thickness 0.15)
			)
		)
	)
	(property "Description" ""
		(at 0 0 -90)
		(layer "F.Fab")
		(hide yes)
		(uuid "f04687c3-027c-454b-b8bd-047283486329")
		(effects
			(font
				(size 1.27 1.27)
				(thickness 0.15)
			)
		)
	)
	(attr smd)
	(fp_line
		(start -2.55 2.55)
		(end -2.55 2.2)
		(stroke
			(width 0.12)
			(type solid)
		)
		(layer "F.SilkS")
		(uuid "b5454e69-3968-4dfe-8441-1dd16693fbe2")
	)
	(fp_line
		(start -2.2 -2.55)
		(end -2.55 -2.55)
		(stroke
			(width 0.12)
			(type default)
		)
		(layer "F.SilkS")
		(uuid "eab91408-1854-4294-b8c3-4b78bc1c5acb")
	)
	(fp_line
		(start -2.2 2.55)
		(end -2.55 2.55)
		(stroke
			(width 0.12)
			(type solid)
		)
		(layer "F.SilkS")
		(uuid "23b1b3be-bcb2-42c8-9f08-74f5093d85d1")
	)
	(fp_line
		(start 2.2 -2.55)
		(end 2.55 -2.55)
		(stroke
			(width 0.12)
			(type solid)
		)
		(layer "F.SilkS")
		(uuid "14c34b7d-604e-42cd-934d-c68a2f77e745")
	)
	(fp_line
		(start 2.55 -2.55)
		(end 2.55 -2.2)
		(stroke
			(width 0.12)
			(type solid)
		)
		(layer "F.SilkS")
		(uuid "3fbe5b1d-c6bc-49ba-b60d-eadf80f1cd9f")
	)
	(fp_line
		(start 2.55 2.2)
		(end 2.55 2.55)
		(stroke
			(width 0.12)
			(type solid)
		)
		(layer "F.SilkS")
		(uuid "fae6efe6-4f48-41b3-aac0-176a9bba1f78")
	)
	(fp_line
		(start 2.55 2.55)
		(end 2.2 2.55)
		(stroke
			(width 0.12)
			(type solid)
		)
		(layer "F.SilkS")
		(uuid "e332d133-cf04-497d-bd8b-e76f0a0b99af")
	)
	(fp_circle
		(center -2.55 -2.55)
		(end -2.35 -2.55)
		(stroke
			(width 0.12)
			(type solid)
		)
		(fill solid)
		(layer "F.SilkS")
		(uuid "225d8bf7-466c-4243-91a2-715ed6c70e3c")
	)
	(fp_rect
		(start -3 -3)
		(end 3 3)
		(stroke
			(width 0.01)
			(type solid)
		)
		(fill none)
		(layer "F.CrtYd")
		(uuid "27628812-87ac-4ee1-80ef-00794c60d6fd")
	)
	(fp_line
		(start -1.55 -2.55)
		(end -2.55 -1.55)
		(stroke
			(width 0.1)
			(type solid)
		)
		(layer "F.Fab")
		(uuid "d6a5d228-04ef-4131-83bb-5106f75b5934")
	)
	(fp_rect
		(start -2.55 -2.55)
		(end 2.55 2.55)
		(stroke
			(width 0.1)
			(type solid)
		)
		(fill none)
		(layer "F.Fab")
		(uuid "df845b2c-4d55-4825-b1b0-a6df1f88b673")
	)
	(pad "" smd rect
		(at -0.8 -0.8)
		(size 1.3 1.3)
		(layers "F.Paste")
		(uuid "4d35aeec-424e-41a3-bf1a-9402c4a52274")
	)
	(pad "" smd rect
		(at -0.8 0.8)
		(size 1.3 1.3)
		(layers "F.Paste")
		(uuid "1b79375a-1f3f-4e9e-8bdd-e344e9198846")
	)
	(pad "" smd rect
		(at 0.8 -0.8)
		(size 1.3 1.3)
		(layers "F.Paste")
		(uuid "c992e718-d081-45f4-a8cc-ed7251492eb1")
	)
	(pad "" smd rect
		(at 0.8 0.8)
		(size 1.3 1.3)
		(layers "F.Paste")
		(uuid "1415afad-378b-4e88-b4bb-8a61cb15f402")
	)
	(pad "1" smd rect
		(at -2.45 -1.75)
		(size 0.7 0.3)
		(layers "F.Cu" "F.Paste" "F.Mask")
		(uuid "9fd145d2-e870-47ed-9deb-a0474534cc95")
	)
	(pad "2" smd rect
		(at -2.45 -1.25)
		(size 0.7 0.3)
		(layers "F.Cu" "F.Paste" "F.Mask")
		(uuid "7be7779a-264c-42ba-8234-e22aa4cec373")
	)
	(pad "3" smd rect
		(at -2.45 -0.75)
		(size 0.7 0.3)
		(layers "F.Cu" "F.Paste" "F.Mask")
		(uuid "7ceef3ac-6cfe-4d8b-a711-3fb8bdb23644")
	)
	(pad "4" smd rect
		(at -2.45 -0.25)
		(size 0.7 0.3)
		(layers "F.Cu" "F.Paste" "F.Mask")
		(uuid "ebcf69ac-639f-4e12-a7f9-1958f965e44e")
	)
	(pad "5" smd rect
		(at -2.45 0.25)
		(size 0.7 0.3)
		(layers "F.Cu" "F.Paste" "F.Mask")
		(uuid "cf29e0b8-fab0-4df0-99a1-f64d6504bacc")
	)
	(pad "6" smd rect
		(at -2.45 0.75)
		(size 0.7 0.3)
		(layers "F.Cu" "F.Paste" "F.Mask")
		(uuid "541374b0-903a-4da7-97d3-d0efd37e2d62")
	)
	(pad "7" smd rect
		(at -2.45 1.25)
		(size 0.7 0.3)
		(layers "F.Cu" "F.Paste" "F.Mask")
		(uuid "0b32b568-8e6a-44e4-886d-ac5ad5ce7227")
	)
	(pad "8" smd rect
		(at -2.45 1.75)
		(size 0.7 0.3)
		(layers "F.Cu" "F.Paste" "F.Mask")
		(uuid "0b436cbc-255a-4ad9-b44e-9b13a54b93a5")
	)
	(pad "9" smd rect
		(at -1.75 2.45 90)
		(size 0.7 0.3)
		(layers "F.Cu" "F.Paste" "F.Mask")
		(uuid "bf577ac9-dac4-4750-9048-d057e30632d2")
	)
	(pad "10" smd rect
		(at -1.25 2.45 90)
		(size 0.7 0.3)
		(layers "F.Cu" "F.Paste" "F.Mask")
		(uuid "6af57dd2-517b-49c8-8f20-50d32c1880f4")
	)
	(pad "11" smd rect
		(at -0.75 2.45 90)
		(size 0.7 0.3)
		(layers "F.Cu" "F.Paste" "F.Mask")
		(uuid "0849cf0f-5abb-412c-b172-149f904ec7d8")
	)
	(pad "12" smd rect
		(at -0.25 2.45 90)
		(size 0.7 0.3)
		(layers "F.Cu" "F.Paste" "F.Mask")
		(uuid "ec1ca850-49ce-49df-874d-99393b4c4322")
	)
	(pad "13" smd rect
		(at 0.25 2.45 90)
		(size 0.7 0.3)
		(layers "F.Cu" "F.Paste" "F.Mask")
		(uuid "6fd2d5d8-7a46-4baa-a8a6-4a2d171527f1")
	)
	(pad "14" smd rect
		(at 0.75 2.45 90)
		(size 0.7 0.3)
		(layers "F.Cu" "F.Paste" "F.Mask")
		(uuid "c20bca16-2970-408e-a118-a8c8a8dad08b")
	)
	(pad "15" smd rect
		(at 1.25 2.45 90)
		(size 0.7 0.3)
		(layers "F.Cu" "F.Paste" "F.Mask")
		(uuid "40871026-a349-47ae-9b85-1e5d63aa0b43")
	)
	(pad "16" smd rect
		(at 1.75 2.45 90)
		(size 0.7 0.3)
		(layers "F.Cu" "F.Paste" "F.Mask")
		(uuid "4a557509-3dfa-4bfd-b516-f74afd089801")
	)
	(pad "17" smd rect
		(at 2.45 1.75)
		(size 0.7 0.3)
		(layers "F.Cu" "F.Paste" "F.Mask")
		(uuid "1a207216-f656-47f3-9137-2947b997ac7f")
	)
	(pad "18" smd rect
		(at 2.45 1.25)
		(size 0.7 0.3)
		(layers "F.Cu" "F.Paste" "F.Mask")
		(uuid "35830f7e-b214-455b-b66e-15f47a82a997")
	)
	(pad "19" smd rect
		(at 2.45 0.75)
		(size 0.7 0.3)
		(layers "F.Cu" "F.Paste" "F.Mask")
		(uuid "ae2ea6b1-40d2-4c9b-a69c-344d0b125f58")
	)
	(pad "20" smd rect
		(at 2.45 0.25)
		(size 0.7 0.3)
		(layers "F.Cu" "F.Paste" "F.Mask")
		(uuid "7fe52378-88a0-4d56-8797-dd9ba70fece4")
	)
	(pad "21" smd rect
		(at 2.45 -0.25)
		(size 0.7 0.3)
		(layers "F.Cu" "F.Paste" "F.Mask")
		(uuid "532217bc-310d-4f47-ace3-bceaf896f834")
	)
	(pad "22" smd rect
		(at 2.45 -0.75)
		(size 0.7 0.3)
		(layers "F.Cu" "F.Paste" "F.Mask")
		(uuid "8c127876-80cc-496f-9f86-e794c7ddb574")
	)
	(pad "23" smd rect
		(at 2.45 -1.25)
		(size 0.7 0.3)
		(layers "F.Cu" "F.Paste" "F.Mask")
		(uuid "ec83d22b-a05b-4ced-aa5d-2e08afd04722")
	)
	(pad "24" smd rect
		(at 2.45 -1.75)
		(size 0.7 0.3)
		(layers "F.Cu" "F.Paste" "F.Mask")
		(uuid "0eace2a9-ce8a-4154-8508-a0a308bd3a4d")
	)
	(pad "25" smd rect
		(at 1.75 -2.45 90)
		(size 0.7 0.3)
		(layers "F.Cu" "F.Paste" "F.Mask")
		(uuid "e8069e3a-0d0a-4602-a218-5c7231d38609")
	)
	(pad "26" smd rect
		(at 1.25 -2.45 90)
		(size 0.7 0.3)
		(layers "F.Cu" "F.Paste" "F.Mask")
		(uuid "dfdf2fbb-16f0-4fd9-8e56-658ed1b874f3")
	)
	(pad "27" smd rect
		(at 0.75 -2.45 90)
		(size 0.7 0.3)
		(layers "F.Cu" "F.Paste" "F.Mask")
		(uuid "aff537a5-6f1e-4fdd-af81-49ae36aeb803")
	)
	(pad "28" smd rect
		(at 0.25 -2.45 90)
		(size 0.7 0.3)
		(layers "F.Cu" "F.Paste" "F.Mask")
		(uuid "69b33e13-8c12-45ae-84d4-44c41e971be9")
	)
	(pad "29" smd rect
		(at -0.25 -2.45 90)
		(size 0.7 0.3)
		(layers "F.Cu" "F.Paste" "F.Mask")
		(uuid "37dd9f84-7e06-4e80-949f-2eff46ba1a70")
	)
	(pad "30" smd rect
		(at -0.75 -2.45 90)
		(size 0.7 0.3)
		(layers "F.Cu" "F.Paste" "F.Mask")
		(uuid "53672554-9348-4b84-8a9b-4ae374d98d60")
	)
	(pad "31" smd rect
		(at -1.25 -2.45 90)
		(size 0.7 0.3)
		(layers "F.Cu" "F.Paste" "F.Mask")
		(uuid "f8a00485-7430-4351-8cbb-430c4c0b0fb6")
	)
	(pad "32" smd rect
		(at -1.75 -2.45 90)
		(size 0.7 0.3)
		(layers "F.Cu" "F.Paste" "F.Mask")
		(uuid "028a56cb-1a67-4724-81ef-7e3fecd97966")
	)
	(pad "P" smd rect
		(at 0 0)
		(size 3.6 3.6)
		(layers "F.Cu" "F.Mask")
		(zone_connect 0)
		(thermal_bridge_angle 45)
		(uuid "183ac267-8858-4be6-af93-74ca493d33b2")
	)
	(model "${KISYS3DMOD}/MO/MO248UHHD1.wrl"
		(offset
			(xyz 0 0 0)
		)
		(scale
			(xyz 1 1 1)
		)
		(rotate
			(xyz 0 0 0)
		)
	)
)
