(footprint "TI-RXZ16"
	(version 20240108)
	(generator "pcbnew")
	(generator_version "8.0")
	(layer "F.Cu")
	(tags "NonIPC")
	(property "Reference" "RXZ16"
		(at 0.125 0.125 -90)
		(layer "F.Fab")
		(uuid "08ecebb7-e5e7-4ffa-a89a-7fd1b4edf25b")
		(effects
			(font
				(size 0.8 0.8)
				(thickness 0.08)
			)
		)
	)
	(property "Value" "RXZ16"
		(at 0.125 0.125 -90)
		(layer "F.Fab")
		(hide yes)
		(uuid "83f0a694-b4ea-4db6-82cb-2af596934de3")
		(effects
			(font
				(size 0.8 0.8)
				(thickness 0.08)
			)
		)
	)
	(property "Footprint" ""
		(at 0.125 0.125 -90)
		(layer "F.Fab")
		(hide yes)
		(uuid "c944a230-4eb3-4104-92ce-6a75b90502f2")
		(effects
			(font
				(size 1.27 1.27)
				(thickness 0.15)
			)
		)
	)
	(property "Datasheet" ""
		(at 0.125 0.125 -90)
		(layer "F.Fab")
		(hide yes)
		(uuid "6a917133-ec45-4a17-97a1-b5fbe6cb497c")
		(effects
			(font
				(size 1.27 1.27)
				(thickness 0.15)
			)
		)
	)
	(property "Description" ""
		(at 0.125 0.125 -90)
		(layer "F.Fab")
		(hide yes)
		(uuid "9c02d86a-ba7a-4366-8093-05b524007445")
		(effects
			(font
				(size 1.27 1.27)
				(thickness 0.15)
			)
		)
	)
	(attr smd)
	(fp_line
		(start -1.675 2.925)
		(end -1.675 2.475)
		(stroke
			(width 0.12)
			(type default)
		)
		(layer "F.SilkS")
		(uuid "aabd3c05-9420-4b41-af3a-740cc0d66ffc")
	)
	(fp_line
		(start -1.675 2.925)
		(end -1.025 2.925)
		(stroke
			(width 0.12)
			(type default)
		)
		(layer "F.SilkS")
		(uuid "ba077faa-b225-4d3b-ab57-0f07d873ac73")
	)
	(fp_line
		(start -1.025 -2.675)
		(end -1.675 -2.675)
		(stroke
			(width 0.12)
			(type default)
		)
		(layer "F.SilkS")
		(uuid "92d9c04c-2e63-4183-bb9c-6a015f31f726")
	)
	(fp_line
		(start 1.275 -2.675)
		(end 1.925 -2.675)
		(stroke
			(width 0.12)
			(type default)
		)
		(layer "F.SilkS")
		(uuid "cd5e9d48-832e-49c7-921c-352499014c14")
	)
	(fp_line
		(start 1.275 2.925)
		(end 1.925 2.925)
		(stroke
			(width 0.12)
			(type default)
		)
		(layer "F.SilkS")
		(uuid "1e9f48f3-eec9-4bf5-b251-ac410185eee6")
	)
	(fp_line
		(start 1.925 2.925)
		(end 1.925 2.475)
		(stroke
			(width 0.12)
			(type default)
		)
		(layer "F.SilkS")
		(uuid "9f888713-ce48-4c3a-854a-348b4ef32df1")
	)
	(fp_circle
		(center -1.7 -2.9)
		(end -1.5 -2.9)
		(stroke
			(width 0.12)
			(type solid)
		)
		(fill solid)
		(layer "F.SilkS")
		(uuid "b29ab3e0-a27a-47db-b0f4-870337ab8d3b")
	)
	(fp_rect
		(start -2.05 -3.05)
		(end 2.3 3.3)
		(stroke
			(width 0.01)
			(type default)
		)
		(fill none)
		(layer "F.CrtYd")
		(uuid "ad51aeb2-2291-409f-b7a5-6f7d7f9f6dcc")
	)
	(fp_rect
		(start -1.675 -2.675)
		(end 1.925 2.925)
		(stroke
			(width 0.1)
			(type default)
		)
		(fill none)
		(layer "F.Fab")
		(uuid "1170917c-f259-48de-83dd-76975d0f7600")
	)
	(pad "" smd custom
		(at -0.9125 -0.575)
		(size 0.25 0.25)
		(layers "F.Paste")
		(options
			(clearance outline)
			(anchor circle)
		)
		(primitives
			(gr_poly
				(pts
					(xy -0.9125 -0.075) (xy -0.908694 -0.094134) (xy -0.897855 -0.110355) (xy -0.881634 -0.121194)
					(xy -0.8625 -0.125) (xy 0.8625 -0.125) (xy 0.881634 -0.121194) (xy 0.897855 -0.110355) (xy 0.908694 -0.094134)
					(xy 0.9125 -0.075) (xy 0.9125 0.075) (xy 0.908694 0.094134) (xy 0.897855 0.110355) (xy 0.881634 0.121194)
					(xy 0.8625 0.125) (xy -0.8625 0.125) (xy -0.881634 0.121194) (xy -0.897855 0.110355) (xy -0.908694 0.094134)
					(xy -0.9125 0.075)
				)
				(width 0)
				(fill yes)
			)
			(gr_rect
				(start -0.5885 -0.2)
				(end 0.9125 0.2)
				(width 0)
				(fill yes)
			)
		)
		(uuid "ddbcebf7-2b09-43af-ba5d-2feb07502eb4")
	)
	(pad "" smd custom
		(at -0.9125 2.025)
		(size 0.25 0.25)
		(layers "F.Paste")
		(options
			(clearance outline)
			(anchor circle)
		)
		(primitives
			(gr_poly
				(pts
					(xy -0.9125 -0.075) (xy -0.908694 -0.094134) (xy -0.897855 -0.110355) (xy -0.881634 -0.121194)
					(xy -0.8625 -0.125) (xy 0.8625 -0.125) (xy 0.881634 -0.121194) (xy 0.897855 -0.110355) (xy 0.908694 -0.094134)
					(xy 0.9125 -0.075) (xy 0.9125 0.075) (xy 0.908694 0.094134) (xy 0.897855 0.110355) (xy 0.881634 0.121194)
					(xy 0.8625 0.125) (xy -0.8625 0.125) (xy -0.881634 0.121194) (xy -0.897855 0.110355) (xy -0.908694 0.094134)
					(xy -0.9125 0.075)
				)
				(width 0)
				(fill yes)
			)
			(gr_rect
				(start -0.5885 -0.2)
				(end 0.9125 0.2)
				(width 0)
				(fill yes)
			)
		)
		(uuid "4ddfe87b-3356-4b4c-affe-35401de7afb2")
	)
	(pad "" smd custom
		(at 1.1625 -0.575 180)
		(size 0.25 0.25)
		(layers "F.Paste")
		(options
			(clearance outline)
			(anchor circle)
		)
		(primitives
			(gr_poly
				(pts
					(xy -0.9125 -0.075) (xy -0.908694 -0.094134) (xy -0.897855 -0.110355) (xy -0.881634 -0.121194)
					(xy -0.8625 -0.125) (xy 0.8625 -0.125) (xy 0.881634 -0.121194) (xy 0.897855 -0.110355) (xy 0.908694 -0.094134)
					(xy 0.9125 -0.075) (xy 0.9125 0.075) (xy 0.908694 0.094134) (xy 0.897855 0.110355) (xy 0.881634 0.121194)
					(xy 0.8625 0.125) (xy -0.8625 0.125) (xy -0.881634 0.121194) (xy -0.897855 0.110355) (xy -0.908694 0.094134)
					(xy -0.9125 0.075)
				)
				(width 0)
				(fill yes)
			)
			(gr_rect
				(start -0.5885 -0.2)
				(end 0.9125 0.2)
				(width 0)
				(fill yes)
			)
		)
		(uuid "bb915fc3-2a63-4b1c-9e91-0de16615cb25")
	)
	(pad "" smd custom
		(at 1.1625 2.025 180)
		(size 0.25 0.25)
		(layers "F.Paste")
		(options
			(clearance outline)
			(anchor circle)
		)
		(primitives
			(gr_poly
				(pts
					(xy -0.9125 -0.075) (xy -0.908694 -0.094134) (xy -0.897855 -0.110355) (xy -0.881634 -0.121194)
					(xy -0.8625 -0.125) (xy 0.8625 -0.125) (xy 0.881634 -0.121194) (xy 0.897855 -0.110355) (xy 0.908694 -0.094134)
					(xy 0.9125 -0.075) (xy 0.9125 0.075) (xy 0.908694 0.094134) (xy 0.897855 0.110355) (xy 0.881634 0.121194)
					(xy 0.8625 0.125) (xy -0.8625 0.125) (xy -0.881634 0.121194) (xy -0.897855 0.110355) (xy -0.908694 0.094134)
					(xy -0.9125 0.075)
				)
				(width 0)
				(fill yes)
			)
			(gr_rect
				(start -0.5885 -0.2)
				(end 0.9125 0.2)
				(width 0)
				(fill yes)
			)
		)
		(uuid "b11f6475-e25f-4a9e-b629-83e6c2a61150")
	)
	(pad "1" smd roundrect
		(at -1.5 -2.25)
		(size 0.65 0.25)
		(layers "F.Cu" "F.Paste" "F.Mask")
		(roundrect_rratio 0.2)
		(uuid "bfca9e6b-74a3-4b7a-ac10-85ccc28997d7")
	)
	(pad "2" smd roundrect
		(at -1.5 -1.75)
		(size 0.65 0.25)
		(layers "F.Cu" "F.Paste" "F.Mask")
		(roundrect_rratio 0.2)
		(uuid "1ab0878c-03ad-4f51-a581-dfede1edbccf")
	)
	(pad "3" smd roundrect
		(at -1.5 -1.25)
		(size 0.65 0.25)
		(layers "F.Cu" "F.Paste" "F.Mask")
		(roundrect_rratio 0.2)
		(uuid "54b45dc9-eb5a-454c-95ec-fc17b7d08ea9")
	)
	(pad "4" smd custom
		(at 0.125 -0.575)
		(size 0.25 0.25)
		(layers "F.Cu" "F.Mask")
		(options
			(clearance outline)
			(anchor circle)
		)
		(primitives
			(gr_rect
				(start -1.626 -0.2)
				(end 1.625 0.2)
				(width 0)
				(fill yes)
			)
			(gr_poly
				(pts
					(xy -1.95 -0.075) (xy -1.946194 -0.094134) (xy -1.935355 -0.110355) (xy -1.919134 -0.121194) (xy -1.9 -0.125)
					(xy 1.9 -0.125) (xy 1.919134 -0.121194) (xy 1.935355 -0.110355) (xy 1.946194 -0.094134) (xy 1.95 -0.075)
					(xy 1.95 0.075) (xy 1.946194 0.094134) (xy 1.935355 0.110355) (xy 1.919134 0.121194) (xy 1.9 0.125)
					(xy -1.9 0.125) (xy -1.919134 0.121194) (xy -1.935355 0.110355) (xy -1.946194 0.094134) (xy -1.95 0.075)
				)
				(width 0)
				(fill yes)
			)
		)
		(uuid "561f3f2c-3bbd-44aa-a6df-c4a40843e9a4")
	)
	(pad "5" smd custom
		(at -0.9125 0.325)
		(size 0.25 0.25)
		(layers "F.Cu" "F.Paste" "F.Mask")
		(options
			(clearance outline)
			(anchor circle)
		)
		(primitives
			(gr_poly
				(pts
					(xy -0.9125 -0.075) (xy -0.908694 -0.094134) (xy -0.897855 -0.110355) (xy -0.881634 -0.121194)
					(xy -0.8625 -0.125) (xy 0.8625 -0.125) (xy 0.881634 -0.121194) (xy 0.897855 -0.110355) (xy 0.908694 -0.094134)
					(xy 0.9125 -0.075) (xy 0.9125 0.075) (xy 0.908694 0.094134) (xy 0.897855 0.110355) (xy 0.881634 0.121194)
					(xy 0.8625 0.125) (xy -0.8625 0.125) (xy -0.881634 0.121194) (xy -0.897855 0.110355) (xy -0.908694 0.094134)
					(xy -0.9125 0.075)
				)
				(width 0)
				(fill yes)
			)
			(gr_rect
				(start -0.5885 -0.2)
				(end 0.9125 0.2)
				(width 0)
				(fill yes)
			)
		)
		(uuid "7302b5d6-b9f9-436b-bacf-51c0d0ed8188")
	)
	(pad "6" smd custom
		(at -0.9125 1.125)
		(size 0.25 0.25)
		(layers "F.Cu" "F.Paste" "F.Mask")
		(options
			(clearance outline)
			(anchor circle)
		)
		(primitives
			(gr_poly
				(pts
					(xy -0.9125 -0.075) (xy -0.908694 -0.094134) (xy -0.897855 -0.110355) (xy -0.881634 -0.121194)
					(xy -0.8625 -0.125) (xy 0.8625 -0.125) (xy 0.881634 -0.121194) (xy 0.897855 -0.110355) (xy 0.908694 -0.094134)
					(xy 0.9125 -0.075) (xy 0.9125 0.075) (xy 0.908694 0.094134) (xy 0.897855 0.110355) (xy 0.881634 0.121194)
					(xy 0.8625 0.125) (xy -0.8625 0.125) (xy -0.881634 0.121194) (xy -0.897855 0.110355) (xy -0.908694 0.094134)
					(xy -0.9125 0.075)
				)
				(width 0)
				(fill yes)
			)
			(gr_rect
				(start -0.5885 -0.2)
				(end 0.9125 0.2)
				(width 0)
				(fill yes)
			)
		)
		(uuid "e9053597-a32a-453f-8995-4623ee3b0f40")
	)
	(pad "7" smd roundrect
		(at -0.625 2.75 90)
		(size 0.65 0.25)
		(layers "F.Cu" "F.Paste" "F.Mask")
		(roundrect_rratio 0.2)
		(uuid "38aa3319-aca0-45db-9504-2b4ea00a1004")
	)
	(pad "7" smd roundrect
		(at -0.125 2.75 90)
		(size 0.65 0.25)
		(layers "F.Cu" "F.Paste" "F.Mask")
		(roundrect_rratio 0.2)
		(uuid "45398447-94a4-4bd3-ab83-7f75a6c518b2")
	)
	(pad "7" smd custom
		(at 0.125 2.025)
		(size 0.25 0.25)
		(layers "F.Cu" "F.Mask")
		(options
			(clearance outline)
			(anchor circle)
		)
		(primitives
			(gr_poly
				(pts
					(xy -1.95 -0.075) (xy -1.946194 -0.094134) (xy -1.935355 -0.110355) (xy -1.919134 -0.121194) (xy -1.9 -0.125)
					(xy 1.9 -0.125) (xy 1.919134 -0.121194) (xy 1.935355 -0.110355) (xy 1.946194 -0.094134) (xy 1.95 -0.075)
					(xy 1.95 0.075) (xy 1.946194 0.094134) (xy 1.935355 0.110355) (xy 1.919134 0.121194) (xy 1.9 0.125)
					(xy -1.9 0.125) (xy -1.919134 0.121194) (xy -1.935355 0.110355) (xy -1.946194 0.094134) (xy -1.95 0.075)
				)
				(width 0)
				(fill yes)
			)
			(gr_rect
				(start -0.875 -0.2)
				(end -0.625 0.85)
				(width 0)
				(fill yes)
			)
			(gr_rect
				(start -1.626 -0.2)
				(end 1.625 0.2)
				(width 0)
				(fill yes)
			)
			(gr_rect
				(start -0.375 -0.2)
				(end -0.125 0.85)
				(width 0)
				(fill yes)
			)
			(gr_rect
				(start 0.125 -0.2)
				(end 0.375 0.85)
				(width 0)
				(fill yes)
			)
			(gr_rect
				(start 0.625 -0.2)
				(end 0.875 0.85)
				(width 0)
				(fill yes)
			)
		)
		(uuid "5a6d9a78-eb8e-43c4-aaa5-ae356ec57580")
	)
	(pad "7" smd roundrect
		(at 0.375 2.75 90)
		(size 0.65 0.25)
		(layers "F.Cu" "F.Paste" "F.Mask")
		(roundrect_rratio 0.2)
		(uuid "51dfe119-6149-4b80-8e3a-898982ce8d5d")
	)
	(pad "7" smd roundrect
		(at 0.875 2.75 90)
		(size 0.65 0.25)
		(layers "F.Cu" "F.Paste" "F.Mask")
		(roundrect_rratio 0.2)
		(uuid "47f32d5d-182a-4aaa-be15-bacf3d33c113")
	)
	(pad "8" smd custom
		(at 1.1625 1.125 180)
		(size 0.25 0.25)
		(layers "F.Cu" "F.Paste" "F.Mask")
		(options
			(clearance outline)
			(anchor circle)
		)
		(primitives
			(gr_poly
				(pts
					(xy -0.9125 -0.075) (xy -0.908694 -0.094134) (xy -0.897855 -0.110355) (xy -0.881634 -0.121194)
					(xy -0.8625 -0.125) (xy 0.8625 -0.125) (xy 0.881634 -0.121194) (xy 0.897855 -0.110355) (xy 0.908694 -0.094134)
					(xy 0.9125 -0.075) (xy 0.9125 0.075) (xy 0.908694 0.094134) (xy 0.897855 0.110355) (xy 0.881634 0.121194)
					(xy 0.8625 0.125) (xy -0.8625 0.125) (xy -0.881634 0.121194) (xy -0.897855 0.110355) (xy -0.908694 0.094134)
					(xy -0.9125 0.075)
				)
				(width 0)
				(fill yes)
			)
			(gr_rect
				(start -0.5885 -0.2)
				(end 0.9125 0.2)
				(width 0)
				(fill yes)
			)
		)
		(uuid "20be9b8e-49fd-4d9c-9f78-5c701a573a63")
	)
	(pad "9" smd custom
		(at 1.1625 0.325 180)
		(size 0.25 0.25)
		(layers "F.Cu" "F.Paste" "F.Mask")
		(options
			(clearance outline)
			(anchor circle)
		)
		(primitives
			(gr_poly
				(pts
					(xy -0.9125 -0.075) (xy -0.908694 -0.094134) (xy -0.897855 -0.110355) (xy -0.881634 -0.121194)
					(xy -0.8625 -0.125) (xy 0.8625 -0.125) (xy 0.881634 -0.121194) (xy 0.897855 -0.110355) (xy 0.908694 -0.094134)
					(xy 0.9125 -0.075) (xy 0.9125 0.075) (xy 0.908694 0.094134) (xy 0.897855 0.110355) (xy 0.881634 0.121194)
					(xy 0.8625 0.125) (xy -0.8625 0.125) (xy -0.881634 0.121194) (xy -0.897855 0.110355) (xy -0.908694 0.094134)
					(xy -0.9125 0.075)
				)
				(width 0)
				(fill yes)
			)
			(gr_rect
				(start -0.5885 -0.2)
				(end 0.9125 0.2)
				(width 0)
				(fill yes)
			)
		)
		(uuid "bde4d469-8f15-41f2-b8d4-3dd57a0bf55f")
	)
	(pad "10" smd roundrect
		(at 1.75 -1.25)
		(size 0.65 0.25)
		(layers "F.Cu" "F.Paste" "F.Mask")
		(roundrect_rratio 0.2)
		(uuid "bb77eabf-5f50-4e4d-a0d4-aa00277b3c70")
	)
	(pad "11" smd roundrect
		(at 1.75 -1.75)
		(size 0.65 0.25)
		(layers "F.Cu" "F.Paste" "F.Mask")
		(roundrect_rratio 0.2)
		(uuid "611e7aea-94f0-4ed5-b04f-e57ef16a6c0e")
	)
	(pad "12" smd roundrect
		(at 1.75 -2.25)
		(size 0.65 0.25)
		(layers "F.Cu" "F.Paste" "F.Mask")
		(roundrect_rratio 0.2)
		(uuid "4688af22-fcc5-489c-9db0-88b76da1d5e9")
	)
	(pad "13" smd roundrect
		(at 0.875 -2.5 90)
		(size 0.65 0.25)
		(layers "F.Cu" "F.Paste" "F.Mask")
		(roundrect_rratio 0.2)
		(uuid "fa1ee69b-4971-4b15-9ccb-4311e98edcd6")
	)
	(pad "14" smd roundrect
		(at 0.375 -2.5 90)
		(size 0.65 0.25)
		(layers "F.Cu" "F.Paste" "F.Mask")
		(roundrect_rratio 0.2)
		(uuid "cf0844df-4074-49cf-b90f-abe773f3712a")
	)
	(pad "15" smd roundrect
		(at -0.125 -2.5 90)
		(size 0.65 0.25)
		(layers "F.Cu" "F.Paste" "F.Mask")
		(roundrect_rratio 0.2)
		(uuid "2de5dd31-a655-44fd-9cce-660e5acc267f")
	)
	(pad "16" smd roundrect
		(at -0.625 -2.5 90)
		(size 0.65 0.25)
		(layers "F.Cu" "F.Paste" "F.Mask")
		(roundrect_rratio 0.2)
		(uuid "0e6e02c9-fe82-47ab-95e6-fc8117122cb1")
	)
	(model ":KICAD7_3DMODEL_DIR:TI/RXZ16.wrl"
		(offset
			(xyz 0 0 0)
		)
		(scale
			(xyz 1 1 1)
		)
		(rotate
			(xyz 0 0 0)
		)
	)
)
