(module "Molex-47334" (layer F.Cu) (tedit 5E3856F8)
  (descr "Micro SD Reader Push Type")
  (attr smd)
  (fp_text reference "47334" (at 0 -6.7) (layer F.Fab)
    (effects (font (size 1.2 1.2) (thickness 0.12)))
  )
  (fp_text value "47334" (at 0 -6.7) (layer F.Fab) hide
    (effects (font (size 1.2 1.2) (thickness 0.12)))
  )
  (fp_line (start -7 0) (end 7 0) (layer F.Fab) (width 0.12))
  (fp_line (start -7 -15.2) (end -7 0) (layer F.Fab) (width 0.12))
  (fp_line (start 7 0) (end 7 -14.2) (layer F.Fab) (width 0.12))
  (fp_line (start -4.2 -14.2) (end 7 -14.2) (layer F.Fab) (width 0.12))
  (fp_line (start -4.2 -15.2) (end -7 -15.2) (layer F.Fab) (width 0.12))
  (fp_line (start -4.2 -14.2) (end -4.2 -15.2) (layer F.Fab) (width 0.12))
  (fp_arc (start -3.55 -16.6) (end -4.05 -16.6) (angle 90) (layer F.Fab) (width 0.12))
  (fp_arc (start 6.4 -16.6) (end 6.4 -17.1) (angle 90) (layer F.Fab) (width 0.12))
  (fp_line (start 6.9 -16.6) (end 6.9 -14.2) (layer F.Fab) (width 0.12))
  (fp_line (start 6.4 -17.1) (end -3.55 -17.1) (layer F.Fab) (width 0.12))
  (fp_line (start -4.05 -16.6) (end -4.05 -14.2) (layer F.Fab) (width 0.12))
  (fp_line (start -4.2 -14.2) (end 5.55 -14.2) (layer F.SilkS) (width 0.12))
  (fp_line (start -4.2 -15.2) (end -4.2 -14.2) (layer F.SilkS) (width 0.12))
  (fp_line (start -5.6 -15.2) (end -4.2 -15.2) (layer F.SilkS) (width 0.12))
  (fp_line (start 7 0) (end 5.9 0) (layer F.SilkS) (width 0.12))
  (fp_line (start 7 -12.3) (end 7 0) (layer F.SilkS) (width 0.12))
  (fp_line (start 4 0) (end 0.2 0) (layer F.SilkS) (width 0.12))
  (fp_line (start -7 0) (end -7 -13.3) (layer F.SilkS) (width 0.12))
  (fp_line (start -1.7 0) (end -7 0) (layer F.SilkS) (width 0.12))
  (fp_line (start 7.5 0.55) (end 7.5 -17.35) (layer F.CrtYd) (width 0.01))
  (fp_line (start -7.55 0.55) (end 7.5 0.55) (layer F.CrtYd) (width 0.01))
  (fp_line (start -7.55 -17.35) (end -7.55 0.55) (layer F.CrtYd) (width 0.01))
  (fp_line (start 7.5 -17.35) (end -7.55 -17.35) (layer F.CrtYd) (width 0.01))
  (pad "G" smd rect (at -6.6 -14.55) (size 1.4 1.9) (layers "F.Cu" "F.Paste" "F.Mask"))
  (pad "G" smd rect (at 6.55 -13.55) (size 1.4 1.9) (layers "F.Cu" "F.Paste" "F.Mask"))
  (pad "G" smd rect (at -0.75 -0.4) (size 1.3 1.4) (layers "F.Cu" "F.Paste" "F.Mask"))
  (pad "G" smd rect (at 4.95 -0.4) (size 1.3 1.4) (layers "F.Cu" "F.Paste" "F.Mask"))
  (pad "8" smd rect (at 5.75 -10.7) (size 0.8 1.5) (layers "F.Cu" "F.Paste" "F.Mask"))
  (pad "7" smd rect (at 4.65 -10.7) (size 0.8 1.5) (layers "F.Cu" "F.Paste" "F.Mask"))
  (pad "6" smd rect (at 3.55 -10.9) (size 0.8 1.5) (layers "F.Cu" "F.Paste" "F.Mask"))
  (pad "5" smd rect (at 2.45 -10.7) (size 0.8 1.5) (layers "F.Cu" "F.Paste" "F.Mask"))
  (pad "4" smd rect (at 1.35 -10.9) (size 0.8 1.5) (layers "F.Cu" "F.Paste" "F.Mask"))
  (pad "3" smd rect (at 0.25 -10.7) (size 0.8 1.5) (layers "F.Cu" "F.Paste" "F.Mask"))
  (pad "2" smd rect (at -0.85 -10.2) (size 0.8 1.5) (layers "F.Cu" "F.Paste" "F.Mask"))
  (pad "1" smd rect (at -1.95 -10.7) (size 0.8 1.5) (layers "F.Cu" "F.Paste" "F.Mask"))
)
