(footprint "Linear-DE14MA"
	(version 20240108)
	(generator "pcbnew")
	(generator_version "8.0")
	(layer "F.Cu")
	(descr "0.5mm pitch 14-lead T.E DFN 4×3mm Body")
	(property "Reference" "DE14MA"
		(at 0 0 90)
		(layer "F.Fab")
		(uuid "f8a71b63-3229-465e-b1c7-f40ba74b8ee6")
		(effects
			(font
				(size 0.8 0.8)
				(thickness 0.08)
			)
		)
	)
	(property "Value" "DE14MA"
		(at 0 0 90)
		(layer "F.Fab")
		(hide yes)
		(uuid "520e5231-7b21-4515-a77e-ee4224ce975b")
		(effects
			(font
				(size 0.8 0.8)
				(thickness 0.08)
			)
		)
	)
	(property "Footprint" ""
		(at 0 0 -90)
		(unlocked yes)
		(layer "F.Fab")
		(hide yes)
		(uuid "10bb688e-19a1-4012-85aa-7e607494b144")
		(effects
			(font
				(size 1.27 1.27)
				(thickness 0.15)
			)
		)
	)
	(property "Datasheet" ""
		(at 0 0 -90)
		(unlocked yes)
		(layer "F.Fab")
		(hide yes)
		(uuid "355f5d71-7084-42a4-8b50-8f615ee26867")
		(effects
			(font
				(size 1.27 1.27)
				(thickness 0.15)
			)
		)
	)
	(property "Description" ""
		(at 0 0 -90)
		(unlocked yes)
		(layer "F.Fab")
		(hide yes)
		(uuid "cbb1c256-2570-4d06-a279-3a03c2a11f79")
		(effects
			(font
				(size 1.27 1.27)
				(thickness 0.15)
			)
		)
	)
	(attr smd)
	(fp_line
		(start -1.55 2.05)
		(end -1.55 1.9)
		(stroke
			(width 0.12)
			(type solid)
		)
		(layer "F.SilkS")
		(uuid "81879cd3-8437-4db0-8748-e61c66a1de6e")
	)
	(fp_line
		(start 1.55 -2.05)
		(end -0.8 -2.05)
		(stroke
			(width 0.12)
			(type solid)
		)
		(layer "F.SilkS")
		(uuid "e1697350-18be-492a-a549-847a85e77d51")
	)
	(fp_line
		(start 1.55 -1.9)
		(end 1.55 -2.05)
		(stroke
			(width 0.12)
			(type solid)
		)
		(layer "F.SilkS")
		(uuid "51caa479-13ba-41a2-bd61-ca193a26fcfb")
	)
	(fp_line
		(start 1.55 1.9)
		(end 1.55 2.05)
		(stroke
			(width 0.12)
			(type solid)
		)
		(layer "F.SilkS")
		(uuid "17fbc5ec-3b60-49ef-b1db-719d54f6309a")
	)
	(fp_line
		(start 1.55 2.05)
		(end -1.55 2.05)
		(stroke
			(width 0.12)
			(type solid)
		)
		(layer "F.SilkS")
		(uuid "95de11bc-750a-49cc-a2bb-178b7a7b6a22")
	)
	(fp_circle
		(center -1.55 -2.05)
		(end -1.45 -2.05)
		(stroke
			(width 0.12)
			(type solid)
		)
		(fill solid)
		(layer "F.SilkS")
		(uuid "7f6b9a99-947b-4ef9-bdd3-8e9be79f838d")
	)
	(fp_rect
		(start -1.95 -2.25)
		(end 1.95 2.25)
		(stroke
			(width 0.01)
			(type default)
		)
		(fill none)
		(layer "F.CrtYd")
		(uuid "8d12e250-6322-4dc7-a9f6-43cf649f931f")
	)
	(fp_line
		(start -1.55 -2.05)
		(end 1.55 -2.05)
		(stroke
			(width 0.1)
			(type solid)
		)
		(layer "F.Fab")
		(uuid "ecb95e70-94ec-42a8-a98b-99d3ab103377")
	)
	(fp_line
		(start -1.55 -1.05)
		(end -0.55 -2.05)
		(stroke
			(width 0.1)
			(type solid)
		)
		(layer "F.Fab")
		(uuid "235cd02f-fc0a-4a64-98d4-e4f9b1147e0d")
	)
	(fp_line
		(start -1.55 2.05)
		(end -1.55 -2.05)
		(stroke
			(width 0.1)
			(type solid)
		)
		(layer "F.Fab")
		(uuid "2a804069-133a-4d9d-b951-60a0309e0e2a")
	)
	(fp_line
		(start 1.55 -2.05)
		(end 1.55 2.05)
		(stroke
			(width 0.1)
			(type solid)
		)
		(layer "F.Fab")
		(uuid "8d052d83-bdb6-45cf-b295-55d50cdf8071")
	)
	(fp_line
		(start 1.55 2.05)
		(end -1.55 2.05)
		(stroke
			(width 0.1)
			(type solid)
		)
		(layer "F.Fab")
		(uuid "0556d383-41f2-4197-8546-dd27d0e49cc1")
	)
	(pad "" smd rect
		(at -0.4 -1.2 270)
		(size 0.6 0.6)
		(layers "F.Paste")
		(uuid "b30d49bb-19e3-40a3-b2b3-97c8fd5f5685")
	)
	(pad "" smd rect
		(at -0.4 -0.4 270)
		(size 0.6 0.6)
		(layers "F.Paste")
		(uuid "170520c9-8b45-4058-995a-bf063e42f9fb")
	)
	(pad "" smd rect
		(at -0.4 1.15 270)
		(size 0.6 0.6)
		(layers "F.Paste")
		(uuid "47d525de-2ec3-4c7b-8161-048432e237a8")
	)
	(pad "" smd rect
		(at 0.4 -1.2 270)
		(size 0.6 0.6)
		(layers "F.Paste")
		(uuid "974a1b92-4cb5-4a7c-97a3-98ebffd163cf")
	)
	(pad "" smd rect
		(at 0.4 -0.4 270)
		(size 0.6 0.6)
		(layers "F.Paste")
		(uuid "65a78246-7205-4872-b821-be4b327a7fe4")
	)
	(pad "" smd rect
		(at 0.4 1.15 270)
		(size 0.6 0.6)
		(layers "F.Paste")
		(uuid "21884b67-0360-4b1e-bba7-e828fa16cdd2")
	)
	(pad "1" smd rect
		(at -1.4 -1.5 270)
		(size 0.25 0.7)
		(layers "F.Cu" "F.Paste" "F.Mask")
		(uuid "cabf609c-db74-4e44-b1ca-a237a3efffeb")
	)
	(pad "2" smd rect
		(at -1.4 -1 270)
		(size 0.25 0.7)
		(layers "F.Cu" "F.Paste" "F.Mask")
		(uuid "da3cfbbd-7730-43dc-a939-22504d9ecbc4")
	)
	(pad "3" smd rect
		(at -1.4 -0.5 270)
		(size 0.25 0.7)
		(layers "F.Cu" "F.Paste" "F.Mask")
		(uuid "0a4c6677-4ce1-4b25-81f3-b093218cf934")
	)
	(pad "4" smd rect
		(at -1.4 0 270)
		(size 0.25 0.7)
		(layers "F.Cu" "F.Paste" "F.Mask")
		(zone_connect 0)
		(uuid "dfaddf2d-42b9-4258-9f46-b2b17de060cc")
	)
	(pad "4" smd roundrect
		(at 0 -0.8 270)
		(size 1.8 1.6)
		(layers "F.Cu" "F.Mask")
		(roundrect_rratio 0.25)
		(uuid "176e3ece-3828-45c2-87bf-01a0d36e554e")
	)
	(pad "5" smd rect
		(at -1.4 0.5 270)
		(size 0.25 0.7)
		(layers "F.Cu" "F.Paste" "F.Mask")
		(uuid "b4df3104-221d-4fb2-9dff-fc95c21c4c97")
	)
	(pad "6" smd rect
		(at -1.4 1 270)
		(size 0.25 0.7)
		(layers "F.Cu" "F.Paste" "F.Mask")
		(uuid "4bf4f265-aab3-41e9-8064-a5ccaf731e5e")
	)
	(pad "7" smd rect
		(at -1.4 1.5 270)
		(size 0.25 0.7)
		(layers "F.Cu" "F.Paste" "F.Mask")
		(uuid "37f4706e-ba39-406b-9e00-55f6e44b45c7")
	)
	(pad "8" smd rect
		(at 1.4 1.5 270)
		(size 0.25 0.7)
		(layers "F.Cu" "F.Paste" "F.Mask")
		(uuid "b94f7ae4-defb-4e46-a36e-a7bf66e708c8")
	)
	(pad "9" smd roundrect
		(at 0 1.15 270)
		(size 1 1.6)
		(layers "F.Cu" "F.Mask")
		(roundrect_rratio 0.25)
		(uuid "6251f8c6-76c7-4fcc-8b37-48641a1dc148")
	)
	(pad "9" smd rect
		(at 1.4 1 270)
		(size 0.25 0.7)
		(layers "F.Cu" "F.Paste" "F.Mask")
		(zone_connect 0)
		(uuid "3fece52e-e1c7-49a8-b24c-db6dbdce39b2")
	)
	(pad "10" smd rect
		(at 1.4 0.5 270)
		(size 0.25 0.7)
		(layers "F.Cu" "F.Paste" "F.Mask")
		(uuid "46a9e73a-4026-4b61-9fd3-74dabc9d546d")
	)
	(pad "11" smd rect
		(at 1.4 0 270)
		(size 0.25 0.7)
		(layers "F.Cu" "F.Paste" "F.Mask")
		(uuid "d9a08ad6-bf22-4608-ad3a-b990bef47ba5")
	)
	(pad "12" smd rect
		(at 1.4 -0.5 270)
		(size 0.25 0.7)
		(layers "F.Cu" "F.Paste" "F.Mask")
		(uuid "ddba83fc-5ccf-4a1f-9fdd-776a0e6c0bf8")
	)
	(pad "13" smd rect
		(at 1.4 -1 270)
		(size 0.25 0.7)
		(layers "F.Cu" "F.Paste" "F.Mask")
		(uuid "a626fcab-0dcb-4212-b710-24c38b9640d0")
	)
	(pad "14" smd rect
		(at 1.4 -1.5 270)
		(size 0.25 0.7)
		(layers "F.Cu" "F.Paste" "F.Mask")
		(uuid "7eb4b707-75e5-45ec-afda-c769e25c3b7f")
	)
	(model "${KISYS3DMOD}/Linear/DE14MA.wrl"
		(offset
			(xyz 0 0 0)
		)
		(scale
			(xyz 1 1 1)
		)
		(rotate
			(xyz 0 0 90)
		)
	)
)
