(footprint "MO229W2030D1"
	(version 20240108)
	(generator "pcbnew")
	(generator_version "8.0")
	(layer "F.Cu")
	(descr "0.55mm pitch 6-pin T.E. DFN 2×3mm Body")
	(property "Reference" "MO229W2030D1"
		(at 0 0 0)
		(layer "F.Fab")
		(uuid "ba56c613-a016-4c3d-b1e1-97d3bc2b3025")
		(effects
			(font
				(size 0.4 0.4)
				(thickness 0.04)
			)
		)
	)
	(property "Value" "MO229W2030D1"
		(at 0 0 0)
		(layer "F.Fab")
		(hide yes)
		(uuid "00fa24ed-1580-4df5-aa3b-bab78b805a12")
		(effects
			(font
				(size 0.4 0.4)
				(thickness 0.04)
			)
		)
	)
	(property "Footprint" ""
		(at 0 0 -90)
		(unlocked yes)
		(layer "F.Fab")
		(hide yes)
		(uuid "4e5f9f05-aff6-4b8c-bf57-4c189ff7cc3f")
		(effects
			(font
				(size 1.27 1.27)
				(thickness 0.15)
			)
		)
	)
	(property "Datasheet" ""
		(at 0 0 -90)
		(unlocked yes)
		(layer "F.Fab")
		(hide yes)
		(uuid "4291b05f-bac4-4d08-a614-5a00e1f5bb27")
		(effects
			(font
				(size 1.27 1.27)
				(thickness 0.15)
			)
		)
	)
	(property "Description" ""
		(at 0 0 -90)
		(unlocked yes)
		(layer "F.Fab")
		(hide yes)
		(uuid "9bc86ad7-87f0-41f2-a56a-a9c6692821fe")
		(effects
			(font
				(size 1.27 1.27)
				(thickness 0.15)
			)
		)
	)
	(attr smd)
	(fp_line
		(start -1.55 0.95)
		(end -1.55 1.05)
		(stroke
			(width 0.12)
			(type solid)
		)
		(layer "F.SilkS")
		(uuid "d82c3a3b-6d2a-4a7c-bc8a-19b8f2549462")
	)
	(fp_line
		(start -0.8 -1.05)
		(end 1.55 -1.05)
		(stroke
			(width 0.12)
			(type solid)
		)
		(layer "F.SilkS")
		(uuid "1d25c94c-886d-4851-8332-3c8a041cc59b")
	)
	(fp_line
		(start 1.55 -1.05)
		(end 1.55 -0.95)
		(stroke
			(width 0.12)
			(type solid)
		)
		(layer "F.SilkS")
		(uuid "8f50d14f-c0fc-4b22-9302-0336460efe58")
	)
	(fp_line
		(start 1.55 1.05)
		(end -1.55 1.05)
		(stroke
			(width 0.12)
			(type solid)
		)
		(layer "F.SilkS")
		(uuid "e40f486c-2ab4-417e-8288-715cf428d349")
	)
	(fp_line
		(start 1.55 1.05)
		(end 1.55 0.95)
		(stroke
			(width 0.12)
			(type solid)
		)
		(layer "F.SilkS")
		(uuid "69c58d98-d90e-4770-a314-039b4843b43c")
	)
	(fp_circle
		(center -1.55 -1.05)
		(end -1.45 -1.05)
		(stroke
			(width 0.12)
			(type solid)
		)
		(fill solid)
		(layer "F.SilkS")
		(uuid "28bd8e8c-281c-46e7-a202-ad268140f8d5")
	)
	(fp_line
		(start -2.05 -0.85)
		(end -2.05 0.85)
		(stroke
			(width 0.01)
			(type default)
		)
		(layer "F.CrtYd")
		(uuid "dade12f2-0978-43f2-9cf8-b1b9e718d5ee")
	)
	(fp_line
		(start -2.05 0.85)
		(end -1.75 0.85)
		(stroke
			(width 0.01)
			(type default)
		)
		(layer "F.CrtYd")
		(uuid "4e7143fc-0867-4e8c-88fd-1bb434946c07")
	)
	(fp_line
		(start -1.75 -1.25)
		(end -1.75 -0.85)
		(stroke
			(width 0.01)
			(type default)
		)
		(layer "F.CrtYd")
		(uuid "fe6a2395-525d-4333-8119-0dc91885a9d2")
	)
	(fp_line
		(start -1.75 -0.85)
		(end -2.05 -0.85)
		(stroke
			(width 0.01)
			(type default)
		)
		(layer "F.CrtYd")
		(uuid "91a3a835-434c-4b4d-80c0-4d9a94d8df63")
	)
	(fp_line
		(start -1.75 0.85)
		(end -1.75 1.25)
		(stroke
			(width 0.01)
			(type default)
		)
		(layer "F.CrtYd")
		(uuid "3e7c37a6-9c50-429e-97bc-6852eaee54b9")
	)
	(fp_line
		(start -1.75 1.25)
		(end 1.75 1.25)
		(stroke
			(width 0.01)
			(type default)
		)
		(layer "F.CrtYd")
		(uuid "26d5d683-94fd-4437-a55c-3d9474065485")
	)
	(fp_line
		(start 1.75 -1.25)
		(end -1.75 -1.25)
		(stroke
			(width 0.01)
			(type default)
		)
		(layer "F.CrtYd")
		(uuid "e3dbc635-3168-436e-a233-1b7b63974e45")
	)
	(fp_line
		(start 1.75 -0.85)
		(end 1.75 -1.25)
		(stroke
			(width 0.01)
			(type default)
		)
		(layer "F.CrtYd")
		(uuid "35352f5f-9a99-4c9f-8867-ef1580b8be78")
	)
	(fp_line
		(start 1.75 0.85)
		(end 2.05 0.85)
		(stroke
			(width 0.01)
			(type default)
		)
		(layer "F.CrtYd")
		(uuid "981a04a2-feb3-489e-9ac4-ad4113aa3ddc")
	)
	(fp_line
		(start 1.75 1.25)
		(end 1.75 0.85)
		(stroke
			(width 0.01)
			(type default)
		)
		(layer "F.CrtYd")
		(uuid "9975f3ba-f323-4a96-be42-c39b8b9d0654")
	)
	(fp_line
		(start 2.05 -0.85)
		(end 1.75 -0.85)
		(stroke
			(width 0.01)
			(type default)
		)
		(layer "F.CrtYd")
		(uuid "2b9606b1-81fe-4d6e-9e90-64fd94e39ceb")
	)
	(fp_line
		(start 2.05 0.85)
		(end 2.05 -0.85)
		(stroke
			(width 0.01)
			(type default)
		)
		(layer "F.CrtYd")
		(uuid "40bf998c-8c06-4124-b794-e63869d0cc52")
	)
	(fp_line
		(start -1.55 -1.05)
		(end -1.55 1.05)
		(stroke
			(width 0.1)
			(type solid)
		)
		(layer "F.Fab")
		(uuid "0eb959a8-8295-44ff-ae01-8851f6d22943")
	)
	(fp_line
		(start -1.55 1.05)
		(end 1.55 1.05)
		(stroke
			(width 0.1)
			(type solid)
		)
		(layer "F.Fab")
		(uuid "0f954bb4-77e9-4524-b3e6-efd1bbfee206")
	)
	(fp_line
		(start -0.55 -1.05)
		(end -1.55 -0.05)
		(stroke
			(width 0.1)
			(type solid)
		)
		(layer "F.Fab")
		(uuid "0e47c202-93b3-4418-9ebe-cf713954f87b")
	)
	(fp_line
		(start 1.5 -1.05)
		(end -1.55 -1.05)
		(stroke
			(width 0.1)
			(type solid)
		)
		(layer "F.Fab")
		(uuid "79c7ee1b-061d-4245-b713-dba32a2bdf5b")
	)
	(fp_line
		(start 1.55 1.05)
		(end 1.55 -1.05)
		(stroke
			(width 0.1)
			(type solid)
		)
		(layer "F.Fab")
		(uuid "a13bd8c5-5019-4c2c-9e41-01b3f1e20d9c")
	)
	(pad "1" smd rect
		(at -1.45 -0.5 270)
		(size 0.3 0.8)
		(layers "F.Cu" "F.Paste" "F.Mask")
		(uuid "1a258481-0bef-4563-af39-33b8082636fc")
	)
	(pad "2" smd rect
		(at -1.45 0 270)
		(size 0.3 0.8)
		(layers "F.Cu" "F.Paste" "F.Mask")
		(uuid "f9550bf2-8934-4379-85d2-ffa167fece6e")
	)
	(pad "3" smd rect
		(at -1.45 0.5 270)
		(size 0.3 0.8)
		(layers "F.Cu" "F.Paste" "F.Mask")
		(uuid "0bb415d7-497d-49d3-b987-58010cb88cb2")
	)
	(pad "4" smd rect
		(at 1.45 0.5 270)
		(size 0.3 0.8)
		(layers "F.Cu" "F.Paste" "F.Mask")
		(uuid "aa0610c0-106e-4cf3-ae12-5b3835d59ef9")
	)
	(pad "5" smd rect
		(at 1.45 0 270)
		(size 0.3 0.8)
		(layers "F.Cu" "F.Paste" "F.Mask")
		(uuid "31a42a4e-8b02-421e-9789-6a31fc05ddac")
	)
	(pad "6" smd rect
		(at 1.45 -0.5 270)
		(size 0.3 0.8)
		(layers "F.Cu" "F.Paste" "F.Mask")
		(uuid "0c1af1a7-e25a-456b-b0ce-c9261287bf50")
	)
	(pad "P" smd roundrect
		(at 0 0 270)
		(size 1.3 1.6)
		(layers "F.Cu" "F.Paste" "F.Mask")
		(roundrect_rratio 0.05)
		(uuid "36c912d5-5d78-4302-ad54-a3853706fe04")
	)
	(model "${KISYS3DMOD}/MO/MO229W2030D1.wrl"
		(offset
			(xyz 0 0 0)
		)
		(scale
			(xyz 1 1 1)
		)
		(rotate
			(xyz 0 0 90)
		)
	)
)
