(footprint "TI-DQC10"
	(version 20240108)
	(generator "pcbnew")
	(generator_version "8.0")
	(layer "F.Cu")
	(descr "0.5mm pitch 10-lead T.E. DFN 2×3×0.8mm Body")
	(property "Reference" "DQC10"
		(at 0 0 -90)
		(unlocked yes)
		(layer "F.Fab")
		(uuid "b8960980-f779-483e-8dd7-17d828449204")
		(effects
			(font
				(size 0.6 0.6)
				(thickness 0.06)
			)
		)
	)
	(property "Value" "DQC10"
		(at 0 0 -90)
		(unlocked yes)
		(layer "F.Fab")
		(hide yes)
		(uuid "0899da2b-2a44-4497-89e2-594c29901146")
		(effects
			(font
				(size 0.6 0.6)
				(thickness 0.06)
			)
		)
	)
	(property "Footprint" ""
		(at 0 0 -90)
		(unlocked yes)
		(layer "F.Fab")
		(hide yes)
		(uuid "ba9b52db-350e-4bc5-8252-085bb3fff406")
		(effects
			(font
				(size 1.27 1.27)
				(thickness 0.15)
			)
		)
	)
	(property "Datasheet" ""
		(at 0 0 -90)
		(unlocked yes)
		(layer "F.Fab")
		(hide yes)
		(uuid "bac4384b-433e-4be8-b874-5f5fba8cc4b4")
		(effects
			(font
				(size 1.27 1.27)
				(thickness 0.15)
			)
		)
	)
	(property "Description" ""
		(at 0 0 -90)
		(unlocked yes)
		(layer "F.Fab")
		(hide yes)
		(uuid "081e9de6-7600-4963-a82f-84e6f8456210")
		(effects
			(font
				(size 1.27 1.27)
				(thickness 0.15)
			)
		)
	)
	(attr through_hole)
	(fp_line
		(start -1.05 1.55)
		(end -1.05 1.45)
		(stroke
			(width 0.12)
			(type solid)
		)
		(layer "F.SilkS")
		(uuid "e5bb08c0-0f68-4023-8736-cc5f62d977ae")
	)
	(fp_line
		(start -0.45 -1.55)
		(end 1.05 -1.55)
		(stroke
			(width 0.12)
			(type solid)
		)
		(layer "F.SilkS")
		(uuid "ce413436-8582-4cb7-9cd1-b9bfaf7b80d5")
	)
	(fp_line
		(start 1.05 -1.55)
		(end 1.05 -1.45)
		(stroke
			(width 0.12)
			(type solid)
		)
		(layer "F.SilkS")
		(uuid "d64a6687-172f-43ca-9b55-91201a7d0104")
	)
	(fp_line
		(start 1.05 1.45)
		(end 1.05 1.55)
		(stroke
			(width 0.12)
			(type solid)
		)
		(layer "F.SilkS")
		(uuid "1e6aa408-ca64-458e-90d5-fe1149292d03")
	)
	(fp_line
		(start 1.05 1.55)
		(end -1.05 1.55)
		(stroke
			(width 0.12)
			(type solid)
		)
		(layer "F.SilkS")
		(uuid "37645971-9191-49fc-a32b-f58554cd3206")
	)
	(fp_circle
		(center -1.05 -1.65)
		(end -0.95 -1.65)
		(stroke
			(width 0.12)
			(type solid)
		)
		(fill solid)
		(layer "F.SilkS")
		(uuid "463cc4df-74bc-4749-816c-f67792cecafe")
	)
	(fp_rect
		(start -1.4 -1.75)
		(end 1.4 1.75)
		(stroke
			(width 0.01)
			(type default)
		)
		(fill none)
		(layer "F.CrtYd")
		(uuid "47e1e2a3-943b-4986-bd99-99447488cc5b")
	)
	(fp_line
		(start -1.05 -1.55)
		(end -1.05 1.55)
		(stroke
			(width 0.1)
			(type solid)
		)
		(layer "F.Fab")
		(uuid "7d8d6fe3-fed3-4be0-ac91-691c45d82394")
	)
	(fp_line
		(start -1.05 -0.55)
		(end -0.05 -1.55)
		(stroke
			(width 0.1)
			(type solid)
		)
		(layer "F.Fab")
		(uuid "28ca6714-d4ac-4896-86ba-f364af6ddecd")
	)
	(fp_line
		(start -1.05 1.55)
		(end 1.05 1.55)
		(stroke
			(width 0.1)
			(type solid)
		)
		(layer "F.Fab")
		(uuid "e6608159-4302-43c8-9f4c-64b4edc2e796")
	)
	(fp_line
		(start 1.05 -1.55)
		(end -1.05 -1.55)
		(stroke
			(width 0.1)
			(type solid)
		)
		(layer "F.Fab")
		(uuid "58632f48-abc5-4fa6-9ae7-75a54dfcf6e1")
	)
	(fp_line
		(start 1.05 1.55)
		(end 1.05 -1.55)
		(stroke
			(width 0.1)
			(type solid)
		)
		(layer "F.Fab")
		(uuid "8dff4399-f970-41ee-938e-989e09e97c36")
	)
	(pad "1" smd rect
		(at -0.95 -1 270)
		(size 0.3 0.5)
		(layers "F.Cu" "F.Paste" "F.Mask")
		(uuid "74517340-f0ba-4943-ac69-ad5a476df3cf")
	)
	(pad "2" smd rect
		(at -0.95 -0.5 270)
		(size 0.3 0.5)
		(layers "F.Cu" "F.Paste" "F.Mask")
		(uuid "5d6e0198-74ab-4416-a015-39059c958c47")
	)
	(pad "3" smd rect
		(at -0.95 0 270)
		(size 0.3 0.5)
		(layers "F.Cu" "F.Paste" "F.Mask")
		(uuid "15b081ff-4316-4f2d-9f12-294a5c9acf5e")
	)
	(pad "4" smd rect
		(at -0.95 0.5 270)
		(size 0.3 0.5)
		(layers "F.Cu" "F.Paste" "F.Mask")
		(uuid "d04935a4-4805-4d74-ac52-bfee6acd41a4")
	)
	(pad "5" smd rect
		(at -0.95 1 270)
		(size 0.3 0.5)
		(layers "F.Cu" "F.Paste" "F.Mask")
		(uuid "9cf633a3-8597-498f-80cb-cd8992b892a8")
	)
	(pad "6" smd rect
		(at 0.95 1 270)
		(size 0.3 0.5)
		(layers "F.Cu" "F.Paste" "F.Mask")
		(uuid "3bb4bf53-214d-4aab-b8a1-8760f9f151fa")
	)
	(pad "7" smd rect
		(at 0.95 0.5 270)
		(size 0.3 0.5)
		(layers "F.Cu" "F.Paste" "F.Mask")
		(uuid "7274e33a-ae1e-480e-8410-464bd16e0b02")
	)
	(pad "8" smd rect
		(at 0.95 0 270)
		(size 0.3 0.5)
		(layers "F.Cu" "F.Paste" "F.Mask")
		(uuid "8a9b5a83-128b-4726-b7d7-479da42e1b0b")
	)
	(pad "9" smd rect
		(at 0.95 -0.5 270)
		(size 0.3 0.5)
		(layers "F.Cu" "F.Paste" "F.Mask")
		(uuid "970e123d-f49b-41c8-9788-1ef6e0520e81")
	)
	(pad "10" smd rect
		(at 0.95 -1 270)
		(size 0.3 0.5)
		(layers "F.Cu" "F.Paste" "F.Mask")
		(uuid "c8fd07bb-e051-45fc-8b77-91a358f673e2")
	)
	(pad "P" smd rect
		(at 0 0 270)
		(size 2.4 0.8)
		(layers "F.Cu" "F.Paste" "F.Mask")
		(uuid "554bd12e-9917-4044-b753-49fd874224db")
	)
	(model "${KISYS3DMOD}/TI/DQC10.wrl"
		(offset
			(xyz 0 0 0)
		)
		(scale
			(xyz 1 1 1)
		)
		(rotate
			(xyz 0 0 90)
		)
	)
)
