(footprint "Fid-10"
	(version 20240108)
	(generator "pcbnew")
	(generator_version "8.0")
	(layer "F.Cu")
	(descr "Fiducial Mark, 1mm")
	(property "Reference" "FID"
		(at 0 0 0)
		(layer "F.Fab")
		(uuid "c16735e0-d80d-4e4e-8374-6a21945e1be6")
		(effects
			(font
				(size 0.2 0.2)
				(thickness 0.02)
			)
		)
	)
	(property "Value" "FID"
		(at 0 0 0)
		(layer "F.Fab")
		(hide yes)
		(uuid "4544c52a-cd4d-413d-9182-ba9734a72749")
		(effects
			(font
				(size 0.2 0.2)
				(thickness 0.02)
			)
		)
	)
	(property "Footprint" ""
		(at 0 0 0)
		(layer "F.Fab")
		(hide yes)
		(uuid "80ae3676-f586-40d1-b6fc-9178a65e5add")
		(effects
			(font
				(size 1.27 1.27)
				(thickness 0.15)
			)
		)
	)
	(property "Datasheet" ""
		(at 0 0 0)
		(layer "F.Fab")
		(hide yes)
		(uuid "3efb60dd-dc68-41f6-b4af-b113a4f1e764")
		(effects
			(font
				(size 1.27 1.27)
				(thickness 0.15)
			)
		)
	)
	(property "Description" ""
		(at 0 0 0)
		(layer "F.Fab")
		(hide yes)
		(uuid "29533ac9-5b24-435f-a1a1-7941dcd51106")
		(effects
			(font
				(size 1.27 1.27)
				(thickness 0.15)
			)
		)
	)
	(attr smd exclude_from_bom allow_missing_courtyard)
	(fp_rect
		(start 1 -1)
		(end -1 1)
		(stroke
			(width 0.01)
			(type solid)
		)
		(fill none)
		(layer "F.CrtYd")
		(uuid "c94bc687-60e1-4a31-a97a-fe3cbc52a86b")
	)
	(fp_circle
		(center 0 0)
		(end 0.5 0)
		(stroke
			(width 0.1)
			(type solid)
		)
		(fill none)
		(layer "F.Fab")
		(uuid "8bbcc94a-1df9-4d81-97d1-2dcf698bfc76")
	)
	(pad "" smd circle
		(at 0 0)
		(size 1 1)
		(layers "F.Cu" "F.Paste" "F.Mask")
		(uuid "86f28e0c-d98d-424a-b82f-fd80daf3951c")
	)
	(pad "" connect rect
		(at 0 0)
		(size 2 2)
		(layers "F.Mask")
		(uuid "f4cd071b-64ce-4483-a5ee-58b67dbbe9ce")
	)
	(zone
		(net 0)
		(net_name "")
		(layer "F.Cu")
		(uuid "401bc724-bb4d-497c-a366-43b49d02c11e")
		(hatch full 0.508)
		(connect_pads
			(clearance 0)
		)
		(min_thickness 0.254)
		(filled_areas_thickness no)
		(keepout
			(tracks not_allowed)
			(vias not_allowed)
			(pads allowed)
			(copperpour not_allowed)
			(footprints allowed)
		)
		(fill
			(thermal_gap 0.508)
			(thermal_bridge_width 0.508)
		)
		(polygon
			(pts
				(xy 1 1) (xy -1 1) (xy -1 -1) (xy 1 -1)
			)
		)
	)
)
