(module "HOLE-M5-NOPAD" (layer F.Cu) (tedit 550C7FAD)
  (descr "Mechanical Hole, M5, no pad")
  (attr virtual)
  (fp_text reference "HOLE-M5-NOPAD" (at 0 0) (layer F.Fab)
    (effects (font (size 1.2 1.2) (thickness 0.12)))
  )
  (fp_text value "HOLE-M5-NOPAD" (at 0 0) (layer F.Fab) hide
    (effects (font (size 1.2 1.2) (thickness 0.12)))
  )
  (fp_circle (center 0 0) (end 6.35 0) (layer F.CrtYd) (width 0.01))
  (fp_circle (center 0 0) (end 6.35 0) (layer B.CrtYd) (width 0.01))
  (fp_circle (center 0 0) (end 6 0) (layer F.SilkS) (width 0.12))
  (fp_circle (center 0 0) (end 2.7 0) (layer F.Fab) (width 0.12))
  (fp_circle (center 0 0) (end 2.7 0) (layer B.Fab) (width 0.12))
  (fp_circle (center 0 0) (end 2.7 0) (layer Dwgs.User) (width 0.12))
  (pad "" np_thru_hole circle (at 0 0) (size 5.4 5.4) (drill 5.4) (layers *.Cu *.Mask))
)
