(footprint "Hole-M6-NoPad"
	(version 20240108)
	(generator "pcbnew")
	(generator_version "8.0")
	(layer "F.Cu")
	(descr "Mechanical Hole, M6")
	(property "Reference" "HOLE-M6"
		(at 0 0 0)
		(layer "F.Fab")
		(uuid "5e35dd17-4cfc-4c10-bbcf-b888d894183c")
		(effects
			(font
				(size 1.2 1.2)
				(thickness 0.12)
			)
		)
	)
	(property "Value" "HOLE-M6"
		(at 0 0 0)
		(layer "F.Fab")
		(hide yes)
		(uuid "7526a5ec-3279-4309-a4f5-54761f3e6783")
		(effects
			(font
				(size 1.2 1.2)
				(thickness 0.12)
			)
		)
	)
	(property "Footprint" ""
		(at 0 0 0)
		(layer "F.Fab")
		(hide yes)
		(uuid "0a2f6a25-4630-461a-8b9d-a795368d78ad")
		(effects
			(font
				(size 1.27 1.27)
				(thickness 0.15)
			)
		)
	)
	(property "Datasheet" ""
		(at 0 0 0)
		(layer "F.Fab")
		(hide yes)
		(uuid "328c2fcd-d24a-451c-ba9b-d8935769c510")
		(effects
			(font
				(size 1.27 1.27)
				(thickness 0.15)
			)
		)
	)
	(property "Description" ""
		(at 0 0 0)
		(layer "F.Fab")
		(hide yes)
		(uuid "56bca26e-097e-4771-becb-129662f98a73")
		(effects
			(font
				(size 1.27 1.27)
				(thickness 0.15)
			)
		)
	)
	(attr exclude_from_pos_files exclude_from_bom)
	(fp_circle
		(center 0 0)
		(end 7 0)
		(stroke
			(width 0.12)
			(type solid)
		)
		(fill none)
		(layer "F.SilkS")
		(uuid "bb16d555-21a3-4474-abd4-3046a4068ab8")
	)
	(fp_circle
		(center 0 0)
		(end 3.5 0)
		(stroke
			(width 0.12)
			(type solid)
		)
		(fill none)
		(layer "Dwgs.User")
		(uuid "734bf3ab-acc4-4389-a4d2-2b0555276998")
	)
	(fp_circle
		(center 0 0)
		(end 7.5 0)
		(stroke
			(width 0.01)
			(type solid)
		)
		(fill none)
		(layer "B.CrtYd")
		(uuid "af3d6914-8ebd-4e70-9179-eea9b517f852")
	)
	(fp_circle
		(center 0 0)
		(end 7.5 0)
		(stroke
			(width 0.01)
			(type solid)
		)
		(fill none)
		(layer "F.CrtYd")
		(uuid "83bd3e6f-4f17-4aab-9abb-36844d9caf9e")
	)
	(fp_circle
		(center 0 0)
		(end 3.5 0)
		(stroke
			(width 0.12)
			(type solid)
		)
		(fill none)
		(layer "B.Fab")
		(uuid "4313ab52-8213-4f71-9505-15e05257c33d")
	)
	(fp_circle
		(center 0 0)
		(end 3.5 0)
		(stroke
			(width 0.12)
			(type solid)
		)
		(fill none)
		(layer "F.Fab")
		(uuid "d15ee6ba-4b93-4bf6-bfed-d1ed0b1c5ab7")
	)
	(pad "" np_thru_hole circle
		(at 0 0)
		(size 7 7)
		(drill 7)
		(layers "*.Mask")
		(uuid "ee7b8560-f2f7-4e9f-9b8a-a659c4111792")
	)
)
