(module "HOLE-ST2.2-NOPAD" (layer F.Cu) (tedit 5B4EE265)
  (descr "Mechanical hole, ST2,2, no pad")
  (attr virtual)
  (fp_text reference "HOLE-ST2.2-NOPAD" (at 0 0) (layer F.Fab)
    (effects (font (size 1.2 1.2) (thickness 0.12)))
  )
  (fp_text value "HOLE-ST2.2-NOPAD" (at 0 0) (layer F.Fab) hide
    (effects (font (size 1.2 1.2) (thickness 0.12)))
  )
  (fp_circle (center 0 0) (end 2.35 0) (layer F.CrtYd) (width 0.01))
  (fp_circle (center 0 0) (end 2.35 0) (layer B.CrtYd) (width 0.01))
  (fp_circle (center 0 0) (end 2.1 0) (layer F.SilkS) (width 0.12))
  (fp_circle (center 0 0) (end 1.35 0) (layer F.Fab) (width 0.12))
  (fp_circle (center 0 0) (end 1.35 0) (layer B.Fab) (width 0.12))
  (fp_circle (center 0 0) (end 1.35 0) (layer Dwgs.User) (width 0.12))
  (pad "" np_thru_hole circle (at 0 0) (size 2.7 2.7) (drill 2.7) (layers *.Cu *.Mask))
)
