(footprint "PE-3mm"
	(version 20240108)
	(generator "pcbnew")
	(generator_version "8.0")
	(layer "F.Cu")
	(descr "PE Symbol, 3mm Diameter")
	(property "Reference" "PE"
		(at 0 0 0)
		(unlocked yes)
		(layer "F.Fab")
		(uuid "30225753-5579-4a31-9c88-504cd3360ef3")
		(effects
			(font
				(size 1 1)
				(thickness 0.1)
			)
		)
	)
	(property "Value" "PE"
		(at 0 0 0)
		(unlocked yes)
		(layer "F.Fab")
		(hide yes)
		(uuid "5682887e-4a0d-4be2-a0ea-dee9f4ecf9f9")
		(effects
			(font
				(size 1 1)
				(thickness 0.1)
			)
		)
	)
	(property "Footprint" ""
		(at 0 0 0)
		(unlocked yes)
		(layer "F.Fab")
		(hide yes)
		(uuid "7ec24280-51aa-4267-b555-71d59d8f884a")
		(effects
			(font
				(size 1 1)
				(thickness 0.1)
			)
		)
	)
	(property "Datasheet" ""
		(at 0 0 0)
		(unlocked yes)
		(layer "F.Fab")
		(hide yes)
		(uuid "75a60ca0-3635-4d92-baaa-ad6b2cae34e9")
		(effects
			(font
				(size 1 1)
				(thickness 0.1)
			)
		)
	)
	(property "Description" ""
		(at 0 0 0)
		(unlocked yes)
		(layer "F.Fab")
		(hide yes)
		(uuid "dac22435-5b2b-47a8-8bca-f237476df21d")
		(effects
			(font
				(size 1 1)
				(thickness 0.1)
			)
		)
	)
	(fp_line
		(start -0.9 0.2)
		(end 0.9 0.2)
		(stroke
			(width 0.12)
			(type default)
		)
		(layer "F.SilkS")
		(uuid "8e6c4561-6058-4582-8679-fde602b98180")
	)
	(fp_line
		(start -0.3 1)
		(end 0.3 1)
		(stroke
			(width 0.12)
			(type default)
		)
		(layer "F.SilkS")
		(uuid "9c62895f-da9c-4620-b6e3-5515fa7cd259")
	)
	(fp_line
		(start 0 -0.9)
		(end 0 0.2)
		(stroke
			(width 0.12)
			(type default)
		)
		(layer "F.SilkS")
		(uuid "b5d653c0-cb72-4948-8633-1b9a5d2073da")
	)
	(fp_line
		(start 0.6 0.6)
		(end -0.6 0.6)
		(stroke
			(width 0.12)
			(type default)
		)
		(layer "F.SilkS")
		(uuid "4e1e7095-34e7-44f4-b3ff-4b52ff08a1d9")
	)
	(fp_circle
		(center 0 0)
		(end 1.5 0)
		(stroke
			(width 0.12)
			(type default)
		)
		(fill none)
		(layer "F.SilkS")
		(uuid "7a8e870e-caed-4fa8-a011-26b3311f70d7")
	)
)
