(footprint "15-45-3222"
	(version 20240108)
	(generator "pcbnew")
	(generator_version "8.0")
	(layer "F.Cu")
	(descr "2.54mm 2×11 C-Grid/SL SMD Socket Header")
	(property "Reference" "15-45-3222"
		(at 0 0 0)
		(layer "F.Fab")
		(uuid "ba26139c-4703-49ea-90e1-7ae5590a80fb")
		(effects
			(font
				(size 1.2 1.2)
				(thickness 0.12)
			)
		)
	)
	(property "Value" "15-45-3222"
		(at 0 0 0)
		(layer "F.Fab")
		(hide yes)
		(uuid "06fa3b0d-6f78-446f-b992-e945a87fd9b4")
		(effects
			(font
				(size 1.2 1.2)
				(thickness 0.12)
			)
		)
	)
	(property "Footprint" ""
		(at 0 0 0)
		(layer "F.Fab")
		(hide yes)
		(uuid "903a7f2d-78c1-462c-851a-09d4c253f2aa")
		(effects
			(font
				(size 1.27 1.27)
				(thickness 0.15)
			)
		)
	)
	(property "Datasheet" ""
		(at 0 0 0)
		(layer "F.Fab")
		(hide yes)
		(uuid "123b465e-4af2-440b-af04-27cf64c46c0d")
		(effects
			(font
				(size 1.27 1.27)
				(thickness 0.15)
			)
		)
	)
	(property "Description" ""
		(at 0 0 0)
		(layer "F.Fab")
		(hide yes)
		(uuid "daf9881d-d662-4229-b160-5755e9d20f3e")
		(effects
			(font
				(size 1.27 1.27)
				(thickness 0.15)
			)
		)
	)
	(attr smd)
	(fp_line
		(start -14 -2.6)
		(end -14 2.6)
		(stroke
			(width 0.12)
			(type solid)
		)
		(layer "F.SilkS")
		(uuid "d8cdae39-7e02-4b51-a51e-12f38ef329c8")
	)
	(fp_line
		(start -14 2.6)
		(end -13.65 2.6)
		(stroke
			(width 0.12)
			(type solid)
		)
		(layer "F.SilkS")
		(uuid "69d65794-5cd3-4a5e-835a-f77291036fb7")
	)
	(fp_line
		(start -13.65 -2.6)
		(end -14 -2.6)
		(stroke
			(width 0.12)
			(type solid)
		)
		(layer "F.SilkS")
		(uuid "f4d77bbb-2691-40b0-a701-98e0c7a38719")
	)
	(fp_line
		(start -13.65 2.6)
		(end -13.65 4.65)
		(stroke
			(width 0.12)
			(type solid)
		)
		(layer "F.SilkS")
		(uuid "396b7ed4-8550-41ea-b3bb-c7a8989fe13a")
	)
	(fp_line
		(start 13.65 2.6)
		(end 14 2.6)
		(stroke
			(width 0.12)
			(type solid)
		)
		(layer "F.SilkS")
		(uuid "30bcd551-7e4c-4b0e-8b4f-aab40737abd5")
	)
	(fp_line
		(start 14 -2.6)
		(end 13.65 -2.6)
		(stroke
			(width 0.12)
			(type solid)
		)
		(layer "F.SilkS")
		(uuid "36587112-e31b-4536-be65-bb419bf0b516")
	)
	(fp_line
		(start 14 2.6)
		(end 14 -2.6)
		(stroke
			(width 0.12)
			(type solid)
		)
		(layer "F.SilkS")
		(uuid "31100b32-4e28-4d8d-838b-02f245f825c7")
	)
	(fp_rect
		(start -14.5 -4.9)
		(end 14.5 4.9)
		(stroke
			(width 0.01)
			(type solid)
		)
		(fill none)
		(layer "F.CrtYd")
		(uuid "4a01d933-2cb5-4e31-9256-76d702dc2d4e")
	)
	(fp_line
		(start -13 2.6)
		(end -14 1.6)
		(stroke
			(width 0.1)
			(type solid)
		)
		(layer "F.Fab")
		(uuid "c94b2f42-6174-46c3-9fe4-121e6673b295")
	)
	(fp_rect
		(start -14 -2.6)
		(end 14 2.6)
		(stroke
			(width 0.1)
			(type solid)
		)
		(fill none)
		(layer "F.Fab")
		(uuid "74bb768a-49d2-4b37-aff3-aaf8d3c005ac")
	)
	(fp_text user "${REFERENCE}"
		(at 0 -5.4 0)
		(layer "F.SilkS")
		(uuid "c73f8aea-e666-4197-899e-252ddcd728ff")
		(effects
			(font
				(size 0.8 0.8)
				(thickness 0.15)
				(bold yes)
			)
		)
	)
	(pad "1" smd rect
		(at -12.7 2.75)
		(size 1.3 3.8)
		(layers "F.Cu" "F.Paste" "F.Mask")
		(uuid "0d5a589c-77c5-4f7e-875e-70f0d8f9c125")
	)
	(pad "2" smd rect
		(at -12.7 -2.75)
		(size 1.3 3.8)
		(layers "F.Cu" "F.Paste" "F.Mask")
		(uuid "bcea50bb-bd1c-4561-a422-8afb294d5cb5")
	)
	(pad "3" smd rect
		(at -10.16 2.75)
		(size 1.3 3.8)
		(layers "F.Cu" "F.Paste" "F.Mask")
		(uuid "97fcb77a-53f4-4ed0-922c-320f4db36b3d")
	)
	(pad "4" smd rect
		(at -10.16 -2.75)
		(size 1.3 3.8)
		(layers "F.Cu" "F.Paste" "F.Mask")
		(uuid "cc698a1d-45ed-4f97-9774-4cc4dbed5a16")
	)
	(pad "5" smd rect
		(at -7.62 2.75)
		(size 1.3 3.8)
		(layers "F.Cu" "F.Paste" "F.Mask")
		(uuid "bc4bc90d-bce7-4111-bc9c-2c2d9fe5804b")
	)
	(pad "6" smd rect
		(at -7.62 -2.75)
		(size 1.3 3.8)
		(layers "F.Cu" "F.Paste" "F.Mask")
		(uuid "dc4fedf2-bb53-48d6-bba9-92bc40971391")
	)
	(pad "7" smd rect
		(at -5.08 2.75)
		(size 1.3 3.8)
		(layers "F.Cu" "F.Paste" "F.Mask")
		(uuid "e294863c-0179-439f-a851-836fb94de38d")
	)
	(pad "8" smd rect
		(at -5.08 -2.75)
		(size 1.3 3.8)
		(layers "F.Cu" "F.Paste" "F.Mask")
		(uuid "41a6e739-ba66-41f1-a7a5-4c33e775f1c8")
	)
	(pad "9" smd rect
		(at -2.54 2.75)
		(size 1.3 3.8)
		(layers "F.Cu" "F.Paste" "F.Mask")
		(uuid "ffebd3b4-ee6d-424d-b40a-7c8839a726b1")
	)
	(pad "10" smd rect
		(at -2.54 -2.75)
		(size 1.3 3.8)
		(layers "F.Cu" "F.Paste" "F.Mask")
		(uuid "61837a10-bce5-44dc-b31d-f0040b648b76")
	)
	(pad "11" smd rect
		(at 0 2.75)
		(size 1.3 3.8)
		(layers "F.Cu" "F.Paste" "F.Mask")
		(uuid "c057229f-02f2-46b3-8406-a1789d1c49d5")
	)
	(pad "12" smd rect
		(at 0 -2.75)
		(size 1.3 3.8)
		(layers "F.Cu" "F.Paste" "F.Mask")
		(uuid "29d6c5bf-abbf-4bd8-a0d6-082a097eeba0")
	)
	(pad "13" smd rect
		(at 2.54 2.75)
		(size 1.3 3.8)
		(layers "F.Cu" "F.Paste" "F.Mask")
		(uuid "cd9575d1-cd2c-4756-9323-0dce783958ae")
	)
	(pad "14" smd rect
		(at 2.54 -2.75)
		(size 1.3 3.8)
		(layers "F.Cu" "F.Paste" "F.Mask")
		(uuid "ccf35a67-ac52-4563-b70a-e0c3f5e7b4d6")
	)
	(pad "15" smd rect
		(at 5.08 2.75)
		(size 1.3 3.8)
		(layers "F.Cu" "F.Paste" "F.Mask")
		(uuid "035385eb-00a1-4464-8ddd-2471d909172d")
	)
	(pad "16" smd rect
		(at 5.08 -2.75)
		(size 1.3 3.8)
		(layers "F.Cu" "F.Paste" "F.Mask")
		(uuid "d89d1a62-b846-4383-a67d-5614ab8991fc")
	)
	(pad "17" smd rect
		(at 7.62 2.75)
		(size 1.3 3.8)
		(layers "F.Cu" "F.Paste" "F.Mask")
		(uuid "b3d792a7-1987-4457-ba0f-8b2dc5ff6f0d")
	)
	(pad "18" smd rect
		(at 7.62 -2.75)
		(size 1.3 3.8)
		(layers "F.Cu" "F.Paste" "F.Mask")
		(uuid "8609b25b-3aa0-43ba-8c1c-974d1dcc299b")
	)
	(pad "19" smd rect
		(at 10.16 2.75)
		(size 1.3 3.8)
		(layers "F.Cu" "F.Paste" "F.Mask")
		(uuid "dd77de5e-888f-4bd2-ac1a-58a12c60347b")
	)
	(pad "20" smd rect
		(at 10.16 -2.75)
		(size 1.3 3.8)
		(layers "F.Cu" "F.Paste" "F.Mask")
		(uuid "b8ea9900-2ace-4d91-94c6-a8c4445ec5e7")
	)
	(pad "21" smd rect
		(at 12.7 2.75)
		(size 1.3 3.8)
		(layers "F.Cu" "F.Paste" "F.Mask")
		(uuid "7125d0fa-0f69-492f-8cb8-a6a69ae7eae8")
	)
	(pad "22" smd rect
		(at 12.7 -2.75)
		(size 1.3 3.8)
		(layers "F.Cu" "F.Paste" "F.Mask")
		(uuid "e1273c0f-bfdf-4f6b-9053-6c04960f904a")
	)
)
