(footprint "CFilm-7.2x3.5x5"
	(version 20240108)
	(generator "pcbnew")
	(generator_version "8.0")
	(layer "F.Cu")
	(descr "Radial Film Capacitor, 7.2x3.5 mm body, 5 pitch")
	(property "Reference" "CPFILM-7.2X3.5X5"
		(at 0 0 0)
		(layer "F.Fab")
		(uuid "e603cc02-d7a0-4307-a474-897f76efb84e")
		(effects
			(font
				(size 1.2 1.2)
				(thickness 0.12)
			)
		)
	)
	(property "Value" "CPFILM-7.2X3.5X5"
		(at 0 0 0)
		(layer "F.Fab")
		(hide yes)
		(uuid "95dcc526-cc79-470a-8c74-174f63d5313c")
		(effects
			(font
				(size 1.2 1.2)
				(thickness 0.12)
			)
		)
	)
	(property "Footprint" ""
		(at 0 0 0)
		(unlocked yes)
		(layer "F.Fab")
		(hide yes)
		(uuid "dda09ccd-5b01-43da-ac8d-4ea793b2fe87")
		(effects
			(font
				(size 1.27 1.27)
			)
		)
	)
	(property "Datasheet" ""
		(at 0 0 0)
		(unlocked yes)
		(layer "F.Fab")
		(hide yes)
		(uuid "3f392187-1cde-424a-adcb-e519b1b1f254")
		(effects
			(font
				(size 1.27 1.27)
			)
		)
	)
	(property "Description" ""
		(at 0 0 0)
		(unlocked yes)
		(layer "F.Fab")
		(hide yes)
		(uuid "f335c801-d4df-42a5-b3b5-157962734cdc")
		(effects
			(font
				(size 1.27 1.27)
			)
		)
	)
	(attr through_hole)
	(fp_rect
		(start -3.6 -1.75)
		(end 3.6 1.75)
		(stroke
			(width 0.12)
			(type solid)
		)
		(fill none)
		(layer "F.SilkS")
		(uuid "876d6b18-f6f6-4eb4-a991-3fa06670c110")
	)
	(fp_rect
		(start -4.1 -2.25)
		(end 4.1 2.25)
		(stroke
			(width 0.01)
			(type solid)
		)
		(fill none)
		(layer "F.CrtYd")
		(uuid "ae53570a-56c0-4ab0-8cc7-35ed82ef60ae")
	)
	(fp_rect
		(start -3.6 -1.75)
		(end 3.6 1.75)
		(stroke
			(width 0.1)
			(type solid)
		)
		(fill none)
		(layer "F.Fab")
		(uuid "ebc0ff6b-a820-4e57-94c6-df740a1a6e84")
	)
	(pad "1" thru_hole circle
		(at -2.5 0)
		(size 1.4 1.4)
		(drill 0.9)
		(layers "*.Cu" "*.Mask")
		(remove_unused_layers no)
		(uuid "29ada06d-c33d-4c15-b6e0-1a08aec44b59")
	)
	(pad "2" thru_hole circle
		(at 2.5 0)
		(size 1.4 1.4)
		(drill 0.9)
		(layers "*.Cu" "*.Mask")
		(remove_unused_layers no)
		(uuid "df245cce-0c26-414e-a0fb-c232ee716cf9")
	)
)