(footprint "CFilm-26.0x13.0x22.5"
	(version 20240108)
	(generator "pcbnew")
	(generator_version "8.0")
	(layer "F.Cu")
	(descr "Radial Film Capacitor, 26.0x13.0 mm body, 22.5 pitch")
	(property "Reference" "CPFILM-26.0X13.0X22.5"
		(at 0 0 0)
		(layer "F.Fab")
		(uuid "329916b7-8063-42ca-9a12-1d17e18297c0")
		(effects
			(font
				(size 1.2 1.2)
				(thickness 0.12)
			)
		)
	)
	(property "Value" "CPFILM-26.0X13.0X22.5"
		(at 0 0 0)
		(layer "F.Fab")
		(hide yes)
		(uuid "73130867-eadc-4d09-9fa4-e5781fe76793")
		(effects
			(font
				(size 1.2 1.2)
				(thickness 0.12)
			)
		)
	)
	(property "Footprint" ""
		(at 0 0 0)
		(unlocked yes)
		(layer "F.Fab")
		(hide yes)
		(uuid "e0910b96-ec7b-464b-8805-7d3e7c51e2c4")
		(effects
			(font
				(size 1.27 1.27)
			)
		)
	)
	(property "Datasheet" ""
		(at 0 0 0)
		(unlocked yes)
		(layer "F.Fab")
		(hide yes)
		(uuid "336ad214-39bd-4779-8e05-54e6586ceb82")
		(effects
			(font
				(size 1.27 1.27)
			)
		)
	)
	(property "Description" ""
		(at 0 0 0)
		(unlocked yes)
		(layer "F.Fab")
		(hide yes)
		(uuid "ccfa1fe8-43c9-4afb-9e28-98316eb393a4")
		(effects
			(font
				(size 1.27 1.27)
			)
		)
	)
	(attr through_hole)
	(fp_rect
		(start -13 -6.5)
		(end 13 6.5)
		(stroke
			(width 0.12)
			(type solid)
		)
		(fill none)
		(layer "F.SilkS")
		(uuid "02021e50-84c9-4734-b21b-d52dab742b42")
	)
	(fp_rect
		(start -13 -6.5)
		(end 13 6.5)
		(stroke
			(width 0.1)
			(type solid)
		)
		(fill none)
		(layer "F.Fab")
		(uuid "a616071a-fe71-42fd-9a57-1fc8f66dac72")
	)
	(pad "1" thru_hole circle
		(at -11.25 0)
		(size 1.8 1.8)
		(drill 1.2)
		(layers "*.Cu" "*.Mask")
		(remove_unused_layers no)
		(uuid "6415ac78-b59f-4b94-99ae-3c822e2f5217")
	)
	(pad "2" thru_hole circle
		(at 11.25 0)
		(size 1.8 1.8)
		(drill 1.2)
		(layers "*.Cu" "*.Mask")
		(remove_unused_layers no)
		(uuid "af980ede-ed55-4cc9-a3ed-a27e017a4fee")
	)
)