(footprint "CFilm-5.5x3.0x3.5"
	(version 20240108)
	(generator "pcbnew")
	(generator_version "8.0")
	(layer "F.Cu")
	(descr "Radial Film Capacitor, 5.5x3.0 mm body, 3.5 pitch")
	(property "Reference" "CPFILM-5.5X3.0X3.5"
		(at 0 0 0)
		(layer "F.Fab")
		(uuid "504dca37-1513-4059-aa0d-654b8ec1c774")
		(effects
			(font
				(size 0.8 0.8)
				(thickness 0.08)
			)
		)
	)
	(property "Value" "CPFILM-5.5X3.0X3.5"
		(at 0 0 0)
		(layer "F.Fab")
		(hide yes)
		(uuid "224ebbd4-956b-43aa-bccd-e72092543383")
		(effects
			(font
				(size 0.8 0.8)
				(thickness 0.08)
			)
		)
	)
	(property "Footprint" ""
		(at 0 0 0)
		(unlocked yes)
		(layer "F.Fab")
		(hide yes)
		(uuid "0b75c077-1200-4f6e-ac35-803af85f4901")
		(effects
			(font
				(size 1.27 1.27)
			)
		)
	)
	(property "Datasheet" ""
		(at 0 0 0)
		(unlocked yes)
		(layer "F.Fab")
		(hide yes)
		(uuid "72eb3864-d8fe-4f7f-88cc-471cdda4538b")
		(effects
			(font
				(size 1.27 1.27)
			)
		)
	)
	(property "Description" ""
		(at 0 0 0)
		(unlocked yes)
		(layer "F.Fab")
		(hide yes)
		(uuid "48da63b5-730e-4fa9-ac42-8f818c77ecf9")
		(effects
			(font
				(size 1.27 1.27)
			)
		)
	)
	(attr through_hole)
	(fp_rect
		(start -2.75 -1.5)
		(end 2.75 1.5)
		(stroke
			(width 0.12)
			(type solid)
		)
		(fill none)
		(layer "F.SilkS")
		(uuid "c4b79ad4-1e5a-48b1-b63e-3ae8a0289eee")
	)
	(fp_rect
		(start -3.25 -2)
		(end 3.25 2)
		(stroke
			(width 0.01)
			(type solid)
		)
		(fill none)
		(layer "F.CrtYd")
		(uuid "4b1ab737-0ece-433b-8eb6-2ce3af5553aa")
	)
	(fp_rect
		(start -2.75 -1.5)
		(end 2.75 1.5)
		(stroke
			(width 0.1)
			(type solid)
		)
		(fill none)
		(layer "F.Fab")
		(uuid "9da178c2-0a43-4ec0-8eb9-7afafb289128")
	)
	(pad "1" thru_hole circle
		(at -1.75 0)
		(size 1.4 1.4)
		(drill 0.9)
		(layers "*.Cu" "*.Mask")
		(remove_unused_layers no)
		(uuid "216d0a7f-fd1d-418e-9e8d-f52cf2b318f4")
	)
	(pad "2" thru_hole circle
		(at 1.75 0)
		(size 1.4 1.4)
		(drill 0.9)
		(layers "*.Cu" "*.Mask")
		(remove_unused_layers no)
		(uuid "7af87148-56bb-42fa-9810-fd9b88a682ce")
	)
)