(footprint "CFilm-7.2x4.5x5"
	(version 20240108)
	(generator "pcbnew")
	(generator_version "8.0")
	(layer "F.Cu")
	(descr "Radial Film Capacitor, 7.2x4.5 mm body, 5 pitch")
	(property "Reference" "CPFILM-7.2X4.5X5"
		(at 0 0 0)
		(layer "F.Fab")
		(uuid "521f8e38-2639-4ee9-b251-f66f698d5a19")
		(effects
			(font
				(size 1.2 1.2)
				(thickness 0.12)
			)
		)
	)
	(property "Value" "CPFILM-7.2X4.5X5"
		(at 0 0 0)
		(layer "F.Fab")
		(hide yes)
		(uuid "e975d47c-0516-486d-b436-ef876f2a2c02")
		(effects
			(font
				(size 1.2 1.2)
				(thickness 0.12)
			)
		)
	)
	(property "Footprint" ""
		(at 0 0 0)
		(unlocked yes)
		(layer "F.Fab")
		(hide yes)
		(uuid "cbf34155-db91-4ea1-a58a-4d8234c4f6b0")
		(effects
			(font
				(size 1.27 1.27)
			)
		)
	)
	(property "Datasheet" ""
		(at 0 0 0)
		(unlocked yes)
		(layer "F.Fab")
		(hide yes)
		(uuid "b79635e1-f680-4e18-8453-07788375468a")
		(effects
			(font
				(size 1.27 1.27)
			)
		)
	)
	(property "Description" ""
		(at 0 0 0)
		(unlocked yes)
		(layer "F.Fab")
		(hide yes)
		(uuid "00d658a2-e63d-417f-93c8-b0cdc064f901")
		(effects
			(font
				(size 1.27 1.27)
			)
		)
	)
	(attr through_hole)
	(fp_rect
		(start -3.6 -2.25)
		(end 3.6 2.25)
		(stroke
			(width 0.12)
			(type solid)
		)
		(fill none)
		(layer "F.SilkS")
		(uuid "31d6b60b-8485-4c68-9d5c-fc0655a6004c")
	)
	(fp_rect
		(start -4.1 -2.75)
		(end 4.1 2.75)
		(stroke
			(width 0.01)
			(type solid)
		)
		(fill none)
		(layer "F.CrtYd")
		(uuid "065e9159-64be-4807-a390-29e4c2f393f0")
	)
	(fp_rect
		(start -3.6 -2.25)
		(end 3.6 2.25)
		(stroke
			(width 0.1)
			(type solid)
		)
		(fill none)
		(layer "F.Fab")
		(uuid "e61550ef-6488-44e4-ba29-8098b36e209e")
	)
	(pad "1" thru_hole circle
		(at -2.5 0)
		(size 1.4 1.4)
		(drill 0.9)
		(layers "*.Cu" "*.Mask")
		(remove_unused_layers no)
		(uuid "982797c8-6f76-488e-9268-fda81f08cc53")
	)
	(pad "2" thru_hole circle
		(at 2.5 0)
		(size 1.4 1.4)
		(drill 0.9)
		(layers "*.Cu" "*.Mask")
		(remove_unused_layers no)
		(uuid "02f82f06-2554-4e3c-80b9-3bce347d7093")
	)
)