(footprint "CFilm-26.0x15.5x22.5"
	(version 20240108)
	(generator "pcbnew")
	(generator_version "8.0")
	(layer "F.Cu")
	(descr "Radial Film Capacitor, 26.0x15.5 mm body, 22.5 pitch")
	(property "Reference" "CPFILM-26.0X15.5X22.5"
		(at 0 0 0)
		(layer "F.Fab")
		(uuid "c3a637af-2df2-4e3f-8c0d-f00bb05d71d3")
		(effects
			(font
				(size 1.2 1.2)
				(thickness 0.12)
			)
		)
	)
	(property "Value" "CPFILM-26.0X15.5X22.5"
		(at 0 0 0)
		(layer "F.Fab")
		(hide yes)
		(uuid "1748a2ee-f87a-4b62-b167-65486405ce63")
		(effects
			(font
				(size 1.2 1.2)
				(thickness 0.12)
			)
		)
	)
	(property "Footprint" ""
		(at 0 0 0)
		(unlocked yes)
		(layer "F.Fab")
		(hide yes)
		(uuid "d4870114-5784-4081-a490-8e0651b2d6e9")
		(effects
			(font
				(size 1.27 1.27)
			)
		)
	)
	(property "Datasheet" ""
		(at 0 0 0)
		(unlocked yes)
		(layer "F.Fab")
		(hide yes)
		(uuid "4ff6f026-1673-412a-86b9-07821d10a57a")
		(effects
			(font
				(size 1.27 1.27)
			)
		)
	)
	(property "Description" ""
		(at 0 0 0)
		(unlocked yes)
		(layer "F.Fab")
		(hide yes)
		(uuid "23e9c689-031b-466a-a84f-8ae340b91607")
		(effects
			(font
				(size 1.27 1.27)
			)
		)
	)
	(attr through_hole)
	(fp_rect
		(start -13 -7.75)
		(end 13 7.75)
		(stroke
			(width 0.12)
			(type solid)
		)
		(fill none)
		(layer "F.SilkS")
		(uuid "c1df0933-f274-4c7e-8558-459ebc0c21b9")
	)
	(fp_rect
		(start -13 -7.75)
		(end 13 7.75)
		(stroke
			(width 0.1)
			(type solid)
		)
		(fill none)
		(layer "F.Fab")
		(uuid "c240517e-e053-441d-a689-ac9ef92c1efc")
	)
	(pad "1" thru_hole circle
		(at -11.25 0)
		(size 1.8 1.8)
		(drill 1.2)
		(layers "*.Cu" "*.Mask")
		(remove_unused_layers no)
		(uuid "2a88141b-33be-4d31-aec7-c45b013009dc")
	)
	(pad "2" thru_hole circle
		(at 11.25 0)
		(size 1.8 1.8)
		(drill 1.2)
		(layers "*.Cu" "*.Mask")
		(remove_unused_layers no)
		(uuid "e5627f29-6ad7-4c8e-a190-3b99732f49ef")
	)
)