(footprint "CFilm-18.0x7.5x15"
	(version 20240108)
	(generator "pcbnew")
	(generator_version "8.0")
	(layer "F.Cu")
	(descr "Radial Film Capacitor, 18.0x7.5 mm body, 15 pitch")
	(property "Reference" "CPFILM-18.0X7.5X15"
		(at 0 0 0)
		(layer "F.Fab")
		(uuid "d40a0ab4-4aca-4e51-86d6-a15767d2766e")
		(effects
			(font
				(size 1.2 1.2)
				(thickness 0.12)
			)
		)
	)
	(property "Value" "CPFILM-18.0X7.5X15"
		(at 0 0 0)
		(layer "F.Fab")
		(hide yes)
		(uuid "463bf826-7c11-45f4-a83c-e41b5db3fb9c")
		(effects
			(font
				(size 1.2 1.2)
				(thickness 0.12)
			)
		)
	)
	(property "Footprint" ""
		(at 0 0 0)
		(unlocked yes)
		(layer "F.Fab")
		(hide yes)
		(uuid "69acc91e-d880-4cdd-8fbf-89686227f8a4")
		(effects
			(font
				(size 1.27 1.27)
			)
		)
	)
	(property "Datasheet" ""
		(at 0 0 0)
		(unlocked yes)
		(layer "F.Fab")
		(hide yes)
		(uuid "45b053c0-9748-441d-9507-445cf73e43b2")
		(effects
			(font
				(size 1.27 1.27)
			)
		)
	)
	(property "Description" ""
		(at 0 0 0)
		(unlocked yes)
		(layer "F.Fab")
		(hide yes)
		(uuid "eda8e67d-b3dd-43b6-8cc6-7cee0abce4f1")
		(effects
			(font
				(size 1.27 1.27)
			)
		)
	)
	(attr through_hole)
	(fp_rect
		(start -9 -3.75)
		(end 9 3.75)
		(stroke
			(width 0.12)
			(type solid)
		)
		(fill none)
		(layer "F.SilkS")
		(uuid "59531fbc-1874-4c35-bf95-2983f0e6389b")
	)
	(fp_rect
		(start -9 -3.75)
		(end 9 3.75)
		(stroke
			(width 0.1)
			(type solid)
		)
		(fill none)
		(layer "F.Fab")
		(uuid "f3522375-3fe0-496c-99bf-92255dfec3d2")
	)
	(pad "1" thru_hole circle
		(at -7.5 0)
		(size 1.8 1.8)
		(drill 1.2)
		(layers "*.Cu" "*.Mask")
		(remove_unused_layers no)
		(uuid "ada439a0-8219-4724-be34-35f64ef27fa3")
	)
	(pad "2" thru_hole circle
		(at 7.5 0)
		(size 1.8 1.8)
		(drill 1.2)
		(layers "*.Cu" "*.Mask")
		(remove_unused_layers no)
		(uuid "445213b6-48fc-4c46-90fa-8a6270b9f069")
	)
)