(footprint "CPAlu-22"
	(version 20240108)
	(generator "pcbnew")
	(generator_version "8.0")
	(layer "F.Cu")
	(descr "Vertical Radial Polarized Capacitor, 22mm dia, 10mm pitch")
	(property "Reference" "CPALU-22"
		(at 0 0 0)
		(layer "F.Fab")
		(uuid "24035772-5431-42d7-8783-4d45afc158c4")
		(effects
			(font
				(size 1.2 1.2)
				(thickness 0.12)
			)
		)
	)
	(property "Value" "CPALU-22"
		(at 0 0 0)
		(layer "F.Fab")
		(hide yes)
		(uuid "72ccd367-feac-4f99-ab3a-68db62cfee25")
		(effects
			(font
				(size 1.2 1.2)
				(thickness 0.12)
			)
		)
	)
	(property "Footprint" ""
		(at 0 0 0)
		(unlocked yes)
		(layer "F.Fab")
		(hide yes)
		(uuid "7039968f-196c-4168-89fe-2c234a3e7e25")
		(effects
			(font
				(size 1.27 1.27)
				(thickness 0.15)
			)
		)
	)
	(property "Datasheet" ""
		(at 0 0 0)
		(unlocked yes)
		(layer "F.Fab")
		(hide yes)
		(uuid "7327c1a5-95ca-4397-9d21-f3646b688e6a")
		(effects
			(font
				(size 1.27 1.27)
				(thickness 0.15)
			)
		)
	)
	(property "Description" ""
		(at 0 0 0)
		(unlocked yes)
		(layer "F.Fab")
		(hide yes)
		(uuid "448f44fd-e875-4802-95f8-6e65dd854c91")
		(effects
			(font
				(size 1.27 1.27)
				(thickness 0.15)
			)
		)
	)
	(attr through_hole)
	(fp_circle
		(center -8.5 -8.5)
		(end -8.25 -8.5)
		(stroke
			(width 0.12)
			(type solid)
		)
		(fill solid)
		(layer "F.SilkS")
		(uuid "40f493d7-d4bb-453c-b1c6-5ad914ee1d4e")
	)
	(fp_circle
		(center 0 0)
		(end -11.25 0)
		(stroke
			(width 0.12)
			(type solid)
		)
		(fill none)
		(layer "F.SilkS")
		(uuid "ea1d9545-0440-465b-97a8-d2156cda37d1")
	)
	(fp_circle
		(center 0 0)
		(end 0 -11.75)
		(stroke
			(width 0.01)
			(type default)
		)
		(fill none)
		(layer "F.CrtYd")
		(uuid "f088bacc-dba9-4611-a636-7d4937f94f37")
	)
	(fp_circle
		(center -8.5 -8.5)
		(end -8.25 -8.5)
		(stroke
			(width 0.1)
			(type solid)
		)
		(fill solid)
		(layer "F.Fab")
		(uuid "86a63d25-bd53-4575-aad1-7cc1108f07aa")
	)
	(fp_circle
		(center 0 0)
		(end -11.25 0)
		(stroke
			(width 0.1)
			(type solid)
		)
		(fill none)
		(layer "F.Fab")
		(uuid "e05eb602-5183-438d-bf29-c84a44b4659c")
	)
	(pad "+" thru_hole circle
		(at -5 0)
		(size 1.5 1.5)
		(drill 1)
		(layers "*.Cu" "*.Mask")
		(remove_unused_layers no)
		(uuid "2f574a65-58e3-4a56-ba3d-500be8be5fd4")
	)
	(pad "-" thru_hole circle
		(at 5 0)
		(size 1.5 1.5)
		(drill 1)
		(layers "*.Cu" "*.Mask")
		(remove_unused_layers no)
		(uuid "1292a208-91d7-4b14-b4f4-59d6382fc074")
	)
)
