(footprint "DO204AP"
	(version 20240108)
	(generator "pcbnew")
	(generator_version "8.0")
	(layer "F.Cu")
	(descr "Round Lead Axial Diode")
	(property "Reference" "DO204AP"
		(at 0 0 180)
		(layer "F.Fab")
		(uuid "5cc7925c-1df2-4ecc-a2a8-e8ff1b5cc794")
		(effects
			(font
				(size 0.8 0.8)
				(thickness 0.08)
			)
		)
	)
	(property "Value" "DO204AP"
		(at 0 0 180)
		(layer "F.Fab")
		(hide yes)
		(uuid "bf64075c-bd70-40d9-8c0d-d5542bdabc1a")
		(effects
			(font
				(size 0.8 0.8)
				(thickness 0.08)
			)
		)
	)
	(property "Footprint" ""
		(at 0 0 180)
		(unlocked yes)
		(layer "F.Fab")
		(hide yes)
		(uuid "810d6618-8727-4048-9484-4a316baa5df3")
		(effects
			(font
				(size 1.27 1.27)
			)
		)
	)
	(property "Datasheet" ""
		(at 0 0 180)
		(unlocked yes)
		(layer "F.Fab")
		(hide yes)
		(uuid "2fadcd04-ae4b-4901-9a97-e3b4a29f3baa")
		(effects
			(font
				(size 1.27 1.27)
			)
		)
	)
	(property "Description" ""
		(at 0 0 180)
		(unlocked yes)
		(layer "F.Fab")
		(hide yes)
		(uuid "614cd450-e439-41eb-82a4-a030e5ad6748")
		(effects
			(font
				(size 1.27 1.27)
			)
		)
	)
	(attr through_hole)
	(fp_line
		(start -4.15 0)
		(end -2.3 0)
		(stroke
			(width 0.12)
			(type solid)
		)
		(layer "F.SilkS")
		(uuid "32eecf68-2706-48a3-a139-35f34c01d893")
	)
	(fp_line
		(start -1.7 1.9)
		(end -1.7 -1.9)
		(stroke
			(width 0.12)
			(type solid)
		)
		(layer "F.SilkS")
		(uuid "3bca0cd4-0d58-4293-9838-bf68eee1851b")
	)
	(fp_line
		(start 4.15 0)
		(end 2.3 0)
		(stroke
			(width 0.12)
			(type solid)
		)
		(layer "F.SilkS")
		(uuid "39f32614-1333-46c1-97a0-4398a6d66878")
	)
	(fp_rect
		(start -2.3 -1.9)
		(end 2.3 1.9)
		(stroke
			(width 0.12)
			(type solid)
		)
		(fill none)
		(layer "F.SilkS")
		(uuid "67004984-2ae4-4b46-9af1-791e456546e3")
	)
	(fp_line
		(start -2.3 0)
		(end -5.08 0)
		(stroke
			(width 0.1)
			(type solid)
		)
		(layer "F.Fab")
		(uuid "57009a8b-9522-4c29-902b-51fbcde2c61b")
	)
	(fp_line
		(start -2.3 0.9)
		(end -1.3 1.9)
		(stroke
			(width 0.1)
			(type solid)
		)
		(layer "F.Fab")
		(uuid "a0484216-164a-497f-8504-65a5b0f435aa")
	)
	(fp_line
		(start 2.3 0)
		(end 5.08 0)
		(stroke
			(width 0.1)
			(type solid)
		)
		(layer "F.Fab")
		(uuid "04300f8b-2060-4a1d-96ab-f408d73f4914")
	)
	(fp_rect
		(start -2.3 -1.9)
		(end 2.3 1.9)
		(stroke
			(width 0.1)
			(type solid)
		)
		(fill none)
		(layer "F.Fab")
		(uuid "dfaa083c-248d-483d-ab58-4c75f5eab643")
	)
	(pad "A" thru_hole circle
		(at 5.08 0 180)
		(size 1.5 1.5)
		(drill 1)
		(layers "*.Cu" "*.Mask")
		(remove_unused_layers no)
		(uuid "41d4e4d8-9745-4c3c-b8b9-fc351c0acd67")
	)
	(pad "K" thru_hole circle
		(at -5.08 0 180)
		(size 1.5 1.5)
		(drill 1)
		(layers "*.Cu" "*.Mask")
		(remove_unused_layers no)
		(uuid "09b39c1f-0458-485d-a046-365ffebf90cc")
	)
)