(footprint "DO204AH"
	(version 20240108)
	(generator "pcbnew")
	(generator_version "8.0")
	(layer "F.Cu")
	(descr "Round Lead Axial Diode")
	(property "Reference" "DO204AH"
		(at 0 0 180)
		(layer "F.Fab")
		(uuid "8a59236b-585a-45d6-b811-87781c3f08a3")
		(effects
			(font
				(size 0.6 0.6)
				(thickness 0.06)
			)
		)
	)
	(property "Value" "DO204AH"
		(at 0 0 180)
		(layer "F.Fab")
		(hide yes)
		(uuid "e74e090e-e54a-4817-8019-d8ab125ff5d6")
		(effects
			(font
				(size 0.6 0.6)
				(thickness 0.06)
			)
		)
	)
	(property "Footprint" ""
		(at 0 0 180)
		(unlocked yes)
		(layer "F.Fab")
		(hide yes)
		(uuid "8c990450-f1cd-4906-afea-2fa7fe58c926")
		(effects
			(font
				(size 1.27 1.27)
			)
		)
	)
	(property "Datasheet" ""
		(at 0 0 180)
		(unlocked yes)
		(layer "F.Fab")
		(hide yes)
		(uuid "5605c1b9-187d-4bac-8bee-caf0017c7dc6")
		(effects
			(font
				(size 1.27 1.27)
			)
		)
	)
	(property "Description" ""
		(at 0 0 180)
		(unlocked yes)
		(layer "F.Fab")
		(hide yes)
		(uuid "eb89451b-93b7-41da-8b3f-1d815afa1220")
		(effects
			(font
				(size 1.27 1.27)
			)
		)
	)
	(attr through_hole)
	(fp_line
		(start -4.35 0)
		(end -2.55 0)
		(stroke
			(width 0.12)
			(type solid)
		)
		(layer "F.SilkS")
		(uuid "e0bcd6d1-c225-432b-9a91-4525d85fab3b")
	)
	(fp_line
		(start -1.95 1.15)
		(end -1.95 -1.15)
		(stroke
			(width 0.12)
			(type solid)
		)
		(layer "F.SilkS")
		(uuid "97fd7afd-4c9e-417e-bb71-1b7983de64d3")
	)
	(fp_line
		(start 4.35 0)
		(end 2.55 0)
		(stroke
			(width 0.12)
			(type solid)
		)
		(layer "F.SilkS")
		(uuid "a6850b93-cbad-4d0e-93cc-8f0d0d5181e3")
	)
	(fp_rect
		(start -2.55 -1.15)
		(end 2.55 1.15)
		(stroke
			(width 0.12)
			(type solid)
		)
		(fill none)
		(layer "F.SilkS")
		(uuid "54f9c016-7fce-4ca7-b478-3e871c3b08a3")
	)
	(fp_line
		(start -2.55 0)
		(end -5.08 0)
		(stroke
			(width 0.1)
			(type solid)
		)
		(layer "F.Fab")
		(uuid "28d32bcc-ecb8-4d6a-ac5a-8b19c86c5693")
	)
	(fp_line
		(start -2.55 0.15)
		(end -1.55 1.15)
		(stroke
			(width 0.1)
			(type solid)
		)
		(layer "F.Fab")
		(uuid "c19e8ca0-6abe-491b-9cc0-eb6a9b056162")
	)
	(fp_line
		(start 2.55 0)
		(end 5.08 0)
		(stroke
			(width 0.1)
			(type solid)
		)
		(layer "F.Fab")
		(uuid "0586bef6-3093-4b9f-b5a4-c1b7193a7679")
	)
	(fp_rect
		(start -2.55 -1.15)
		(end 2.55 1.15)
		(stroke
			(width 0.1)
			(type solid)
		)
		(fill none)
		(layer "F.Fab")
		(uuid "c0b7b5ca-db8a-410b-93df-8fd9b89c06ed")
	)
	(pad "A" thru_hole circle
		(at 5.08 0 180)
		(size 1.1 1.1)
		(drill 0.7)
		(layers "*.Cu" "*.Mask")
		(remove_unused_layers no)
		(uuid "aca0c2c2-1694-435e-98c7-bbf7843b50f1")
	)
	(pad "K" thru_hole circle
		(at -5.08 0 180)
		(size 1.1 1.1)
		(drill 0.7)
		(layers "*.Cu" "*.Mask")
		(remove_unused_layers no)
		(uuid "880f788f-74c6-4243-8e52-9726ed6e94a4")
	)
)