(footprint "DO201AC"
	(version 20240108)
	(generator "pcbnew")
	(generator_version "8.0")
	(layer "F.Cu")
	(descr "Round Lead Axial Diode (DO39)")
	(property "Reference" "DO201AC"
		(at 0 0 180)
		(layer "F.Fab")
		(uuid "4d1c7cd3-a73b-48aa-b6a6-590b5d13f530")
		(effects
			(font
				(size 0.6 0.6)
				(thickness 0.06)
			)
		)
	)
	(property "Value" "DO201AC"
		(at 0 0 180)
		(layer "F.Fab")
		(hide yes)
		(uuid "aca8ab42-326e-4d6d-9376-c7d33fcdb9b0")
		(effects
			(font
				(size 0.6 0.6)
				(thickness 0.06)
			)
		)
	)
	(property "Footprint" ""
		(at 0 0 180)
		(unlocked yes)
		(layer "F.Fab")
		(hide yes)
		(uuid "c782fe79-a9b5-4d73-9efd-82b03985cbe7")
		(effects
			(font
				(size 1.27 1.27)
			)
		)
	)
	(property "Datasheet" ""
		(at 0 0 180)
		(unlocked yes)
		(layer "F.Fab")
		(hide yes)
		(uuid "716d43ba-8f58-4cff-a2bd-cad7732f3683")
		(effects
			(font
				(size 1.27 1.27)
			)
		)
	)
	(property "Description" ""
		(at 0 0 180)
		(unlocked yes)
		(layer "F.Fab")
		(hide yes)
		(uuid "bacd5703-fc76-41e2-8af7-6608d591443d")
		(effects
			(font
				(size 1.27 1.27)
			)
		)
	)
	(attr through_hole)
	(fp_line
		(start -4.05 0)
		(end -2.05 0)
		(stroke
			(width 0.12)
			(type solid)
		)
		(layer "F.SilkS")
		(uuid "17e74ce4-79d5-4cba-aec0-8530082a2f9f")
	)
	(fp_line
		(start -1.45 1.9)
		(end -1.45 -1.9)
		(stroke
			(width 0.12)
			(type solid)
		)
		(layer "F.SilkS")
		(uuid "9eeb56a0-ec55-4148-b588-fceec8d6e1d3")
	)
	(fp_line
		(start 4.05 0)
		(end 2.05 0)
		(stroke
			(width 0.12)
			(type solid)
		)
		(layer "F.SilkS")
		(uuid "358ccf11-6341-48bc-a5ce-462b66d9dc21")
	)
	(fp_rect
		(start -2.05 -1.9)
		(end 2.05 1.9)
		(stroke
			(width 0.12)
			(type solid)
		)
		(fill none)
		(layer "F.SilkS")
		(uuid "e6156211-c24a-40a7-8c06-9e95b6e324d4")
	)
	(fp_line
		(start -2.05 0)
		(end -5.08 0)
		(stroke
			(width 0.1)
			(type solid)
		)
		(layer "F.Fab")
		(uuid "2ccec219-a317-4f90-94d3-ffe01063a777")
	)
	(fp_line
		(start -2.05 0.9)
		(end -1.05 1.9)
		(stroke
			(width 0.1)
			(type solid)
		)
		(layer "F.Fab")
		(uuid "366ddf8a-fef8-4681-9da5-2be0171b324b")
	)
	(fp_line
		(start 2.05 0)
		(end 5.08 0)
		(stroke
			(width 0.1)
			(type solid)
		)
		(layer "F.Fab")
		(uuid "173fef04-fbe7-4000-96c1-28cc79e0b421")
	)
	(fp_rect
		(start -2.05 -1.9)
		(end 2.05 1.9)
		(stroke
			(width 0.1)
			(type solid)
		)
		(fill none)
		(layer "F.Fab")
		(uuid "cbd7076d-ca19-4847-ab09-2f4f7a0ad680")
	)
	(pad "A" thru_hole circle
		(at 5.08 0 180)
		(size 1.7 1.7)
		(drill 1.1)
		(layers "*.Cu" "*.Mask")
		(remove_unused_layers no)
		(uuid "2b0f4d80-3038-45c5-9cc6-327201905c5b")
	)
	(pad "K" thru_hole circle
		(at -5.08 0 180)
		(size 1.7 1.7)
		(drill 1.1)
		(layers "*.Cu" "*.Mask")
		(remove_unused_layers no)
		(uuid "66bdc8cc-c89a-42d7-ab53-e2c4fc54ca6d")
	)
)