(footprint "DO204AM"
	(version 20240108)
	(generator "pcbnew")
	(generator_version "8.0")
	(layer "F.Cu")
	(descr "Round Lead Axial Diode")
	(property "Reference" "DO204AM"
		(at 0 0 180)
		(layer "F.Fab")
		(uuid "e4d3ebf1-ced5-4063-88de-8fc9f304d028")
		(effects
			(font
				(size 0.8 0.8)
				(thickness 0.08)
			)
		)
	)
	(property "Value" "DO204AM"
		(at 0 0 180)
		(layer "F.Fab")
		(hide yes)
		(uuid "2945a707-8196-4c12-9ee6-942328ae4606")
		(effects
			(font
				(size 0.8 0.8)
				(thickness 0.08)
			)
		)
	)
	(property "Footprint" ""
		(at 0 0 180)
		(unlocked yes)
		(layer "F.Fab")
		(hide yes)
		(uuid "26806c8b-d3c0-4cb0-b98e-7281a28c7f68")
		(effects
			(font
				(size 1.27 1.27)
			)
		)
	)
	(property "Datasheet" ""
		(at 0 0 180)
		(unlocked yes)
		(layer "F.Fab")
		(hide yes)
		(uuid "f3ca32bd-cb6c-47f7-b314-c1d2c05121a8")
		(effects
			(font
				(size 1.27 1.27)
			)
		)
	)
	(property "Description" ""
		(at 0 0 180)
		(unlocked yes)
		(layer "F.Fab")
		(hide yes)
		(uuid "1c6ab583-943b-4136-9833-87e03666ddb3")
		(effects
			(font
				(size 1.27 1.27)
			)
		)
	)
	(attr through_hole)
	(fp_line
		(start -4.05 0)
		(end -2.6 0)
		(stroke
			(width 0.12)
			(type solid)
		)
		(layer "F.SilkS")
		(uuid "5127a095-1a09-444b-a95c-0fb16d3d1158")
	)
	(fp_line
		(start -2 1.4)
		(end -2 -1.4)
		(stroke
			(width 0.12)
			(type solid)
		)
		(layer "F.SilkS")
		(uuid "96a48d37-3963-47e4-b198-11a68aa24f79")
	)
	(fp_line
		(start 4.05 0)
		(end 2.6 0)
		(stroke
			(width 0.12)
			(type solid)
		)
		(layer "F.SilkS")
		(uuid "43b2ec50-fbfc-4a28-bc52-3e843470037f")
	)
	(fp_rect
		(start -2.6 -1.4)
		(end 2.6 1.4)
		(stroke
			(width 0.12)
			(type solid)
		)
		(fill none)
		(layer "F.SilkS")
		(uuid "e7aafadf-a86c-486f-a953-79b0ac865aca")
	)
	(fp_line
		(start -2.6 0)
		(end -5.08 0)
		(stroke
			(width 0.1)
			(type solid)
		)
		(layer "F.Fab")
		(uuid "e5e66246-674e-4d70-bf74-32bb559306ce")
	)
	(fp_line
		(start -2.6 0.4)
		(end -1.6 1.4)
		(stroke
			(width 0.1)
			(type solid)
		)
		(layer "F.Fab")
		(uuid "5507742e-9a59-4991-9278-d588672d3c83")
	)
	(fp_line
		(start 2.6 0)
		(end 5.08 0)
		(stroke
			(width 0.1)
			(type solid)
		)
		(layer "F.Fab")
		(uuid "9c32e538-6358-4a44-9c82-dc205d18932b")
	)
	(fp_rect
		(start -2.6 -1.4)
		(end 2.6 1.4)
		(stroke
			(width 0.1)
			(type solid)
		)
		(fill none)
		(layer "F.Fab")
		(uuid "ddae5351-5537-4a43-badf-e57c3d786e87")
	)
	(pad "A" thru_hole circle
		(at 5.08 0 180)
		(size 1.7 1.7)
		(drill 1.1)
		(layers "*.Cu" "*.Mask")
		(remove_unused_layers no)
		(uuid "82c82986-146a-4f64-86d4-ba9fa55b8da0")
	)
	(pad "K" thru_hole circle
		(at -5.08 0 180)
		(size 1.7 1.7)
		(drill 1.1)
		(layers "*.Cu" "*.Mask")
		(remove_unused_layers no)
		(uuid "988f7e8f-c288-4671-b92a-139b6d028b47")
	)
)