(footprint "Figaro-TGS2600"
	(version 20240108)
	(generator "pcbnew")
	(generator_version "8.0")
	(layer "F.Cu")
	(descr "Air Quality Sensor")
	(property "Reference" "TGS2600"
		(at 0 0 0)
		(layer "F.Fab")
		(uuid "c7a4e58b-4606-4e62-a23f-9c416b7c4c4b")
		(effects
			(font
				(size 1.2 1.2)
				(thickness 0.12)
			)
		)
	)
	(property "Value" "TGS2600"
		(at 0 0 0)
		(layer "F.Fab")
		(hide yes)
		(uuid "8eb477b7-a1b5-441f-b7e2-a00332a82e54")
		(effects
			(font
				(size 1.2 1.2)
				(thickness 0.12)
			)
		)
	)
	(property "Footprint" ""
		(at 0 0 0)
		(unlocked yes)
		(layer "F.Fab")
		(hide yes)
		(uuid "d1c84406-0958-4444-8473-250c6d142e57")
		(effects
			(font
				(size 1.27 1.27)
				(thickness 0.15)
			)
		)
	)
	(property "Datasheet" ""
		(at 0 0 0)
		(unlocked yes)
		(layer "F.Fab")
		(hide yes)
		(uuid "b46d9ff4-e61e-40b4-8167-ffee386a30ba")
		(effects
			(font
				(size 1.27 1.27)
				(thickness 0.15)
			)
		)
	)
	(property "Description" ""
		(at 0 0 0)
		(unlocked yes)
		(layer "F.Fab")
		(hide yes)
		(uuid "1c84bfe1-b9b8-4120-91c6-3ab54b44632c")
		(effects
			(font
				(size 1.27 1.27)
				(thickness 0.15)
			)
		)
	)
	(attr through_hole)
	(fp_line
		(start -0.4 -5)
		(end 0.4 -5)
		(stroke
			(width 0.12)
			(type solid)
		)
		(layer "F.SilkS")
		(uuid "cf0fb2e6-8426-428d-b10d-d248d902e3b0")
	)
	(fp_line
		(start -0.4 -4.7)
		(end -0.4 -5)
		(stroke
			(width 0.12)
			(type solid)
		)
		(layer "F.SilkS")
		(uuid "3b845e71-0f81-4ff5-ac63-5eb4c73a4332")
	)
	(fp_line
		(start 0.4 -5)
		(end 0.4 -4.7)
		(stroke
			(width 0.12)
			(type solid)
		)
		(layer "F.SilkS")
		(uuid "35c67742-d2c0-4b85-b948-d1cc18ff833e")
	)
	(fp_arc
		(start 0.397619 -4.700202)
		(mid 0.001193 4.716988)
		(end -0.4 -4.7)
		(stroke
			(width 0.12)
			(type solid)
		)
		(layer "F.SilkS")
		(uuid "0a6e2228-6cae-4f7a-88e0-d628d723eb4e")
	)
	(fp_circle
		(center 0 0)
		(end 5.2 0)
		(stroke
			(width 0.01)
			(type solid)
		)
		(fill none)
		(layer "F.CrtYd")
		(uuid "479a3e65-7eca-4f7b-8366-dbff8363e5db")
	)
	(fp_line
		(start -0.4 -5)
		(end -0.4 -4.7)
		(stroke
			(width 0.12)
			(type solid)
		)
		(layer "F.Fab")
		(uuid "35b752cd-03ae-4b03-8d5b-31c6de69b2e6")
	)
	(fp_line
		(start 0.4 -5)
		(end -0.4 -5)
		(stroke
			(width 0.12)
			(type solid)
		)
		(layer "F.Fab")
		(uuid "f1db1b6e-4c42-483c-9880-b80c4c3dd19c")
	)
	(fp_line
		(start 0.400001 -4.699999)
		(end 0.4 -5)
		(stroke
			(width 0.12)
			(type solid)
		)
		(layer "F.Fab")
		(uuid "5dc8a9ad-b825-472a-8914-e093c26efca0")
	)
	(fp_arc
		(start 0.400001 -4.699999)
		(mid -0.000001 4.71699)
		(end -0.399999 -4.699999)
		(stroke
			(width 0.12)
			(type solid)
		)
		(layer "F.Fab")
		(uuid "2f3f69da-1a2c-4eec-a918-4b234202a076")
	)
	(pad "1" thru_hole circle
		(at -1.8 -1.8)
		(size 1.4 1.4)
		(drill 0.9)
		(layers "*.Cu" "*.Mask")
		(remove_unused_layers no)
		(uuid "a57b9801-3474-4dee-8bb4-a2f93ac7d837")
	)
	(pad "2" thru_hole circle
		(at -1.8 1.8)
		(size 1.4 1.4)
		(drill 0.9)
		(layers "*.Cu" "*.Mask")
		(remove_unused_layers no)
		(uuid "91004cd3-323e-44d5-90d5-9f06208b0864")
	)
	(pad "3" thru_hole circle
		(at 1.8 1.8)
		(size 1.4 1.4)
		(drill 0.9)
		(layers "*.Cu" "*.Mask")
		(remove_unused_layers no)
		(uuid "593987de-3f22-4afc-bae4-cc7b9825dd6e")
	)
	(pad "4" thru_hole circle
		(at 1.8 -1.8)
		(size 1.4 1.4)
		(drill 0.9)
		(layers "*.Cu" "*.Mask")
		(remove_unused_layers no)
		(uuid "eb70162c-4c42-47b0-8931-7d6d9115afc6")
	)
	(model "${KISYS3DMOD}/Figaro/TGS2600.wrl"
		(offset
			(xyz 0 0 0)
		)
		(scale
			(xyz 1 1 1)
		)
		(rotate
			(xyz 0 0 0)
		)
	)
)
