(footprint "RAxial-0309x15"
	(version 20240108)
	(generator "pcbnew")
	(generator_version "8.0")
	(layer "F.Cu")
	(descr "Axial Resistor 0309 size, 15 mm pitch")
	(property "Reference" "RAXIAL-0309X15"
		(at 0 0 0)
		(layer "F.Fab")
		(uuid "3bb62812-955d-4e92-9964-f700bb495969")
		(effects
			(font
				(size 1.2 1.2)
				(thickness 0.12)
			)
		)
	)
	(property "Value" "RAXIAL-0309X15"
		(at 0 0 0)
		(layer "F.Fab")
		(hide yes)
		(uuid "8c674fc4-d1f9-486f-a5d8-b4c1a762dbd9")
		(effects
			(font
				(size 1.2 1.2)
				(thickness 0.12)
			)
		)
	)
	(property "Footprint" ""
		(at 0 0 0)
		(unlocked yes)
		(layer "F.Fab")
		(hide yes)
		(uuid "874eeea5-7b16-40a8-bcdc-8c31c8dbfad2")
		(effects
			(font
				(size 1.27 1.27)
			)
		)
	)
	(property "Datasheet" ""
		(at 0 0 0)
		(unlocked yes)
		(layer "F.Fab")
		(hide yes)
		(uuid "45894fbc-f75e-459b-87c5-dfa9a1406c8e")
		(effects
			(font
				(size 1.27 1.27)
			)
		)
	)
	(property "Description" ""
		(at 0 0 0)
		(unlocked yes)
		(layer "F.Fab")
		(hide yes)
		(uuid "7200f19b-c1c9-4ba3-b836-26dc5544ca8a")
		(effects
			(font
				(size 1.27 1.27)
			)
		)
	)
	(attr through_hole)
	(fp_line
		(start -6.6 0)
		(end -4.5 0)
		(stroke
			(width 0.12)
			(type solid)
		)
		(layer "F.SilkS")
		(uuid "1b46a28d-8da2-4bc2-addf-51f24e836c93")
	)
	(fp_line
		(start 6.6 0)
		(end 4.5 0)
		(stroke
			(width 0.12)
			(type solid)
		)
		(layer "F.SilkS")
		(uuid "4990aaac-4759-4cdd-9cbf-a7267e07ba6d")
	)
	(fp_rect
		(start -4.5 -2)
		(end 4.5 2)
		(stroke
			(width 0.12)
			(type solid)
		)
		(fill none)
		(layer "F.SilkS")
		(uuid "0efc044b-9a58-4dfe-aa4d-7539345bc436")
	)
	(fp_line
		(start -4.5 0)
		(end -7.5 0)
		(stroke
			(width 0.1)
			(type solid)
		)
		(layer "F.Fab")
		(uuid "237a77e2-9f84-46ba-8a76-5c75f2f4b83b")
	)
	(fp_line
		(start 4.5 0)
		(end 7.5 0)
		(stroke
			(width 0.1)
			(type solid)
		)
		(layer "F.Fab")
		(uuid "9211beb6-0966-475c-b1cd-0b4767a10b10")
	)
	(fp_rect
		(start -4.5 -2)
		(end 4.5 2)
		(stroke
			(width 0.1)
			(type solid)
		)
		(fill none)
		(layer "F.Fab")
		(uuid "e2aeccb9-fc05-4a4b-8cf7-31587869f7ea")
	)
	(pad "1" thru_hole circle
		(at -7.5 0)
		(size 1.4 1.4)
		(drill 0.9)
		(layers "*.Cu" "*.Mask")
		(remove_unused_layers no)
		(uuid "78709543-e56a-4f27-b162-6148bec817ef")
	)
	(pad "2" thru_hole circle
		(at 7.5 0)
		(size 1.4 1.4)
		(drill 0.9)
		(layers "*.Cu" "*.Mask")
		(remove_unused_layers no)
		(uuid "c0f99339-7278-4eb6-aceb-a3b0e639f17a")
	)
)