(footprint "RAxial-0309x12.5"
	(version 20240108)
	(generator "pcbnew")
	(generator_version "8.0")
	(layer "F.Cu")
	(descr "Axial Resistor 0309 size, 12.5 mm pitch")
	(property "Reference" "RAXIAL-0309X12.5"
		(at 0 0 0)
		(layer "F.Fab")
		(uuid "26670a99-2b62-47c1-8cb9-2bbfc75212cb")
		(effects
			(font
				(size 1.2 1.2)
				(thickness 0.12)
			)
		)
	)
	(property "Value" "RAXIAL-0309X12.5"
		(at 0 0 0)
		(layer "F.Fab")
		(hide yes)
		(uuid "be31b2ff-7c8d-4b2e-8c3a-8bcc343bd0ba")
		(effects
			(font
				(size 1.2 1.2)
				(thickness 0.12)
			)
		)
	)
	(property "Footprint" ""
		(at 0 0 0)
		(unlocked yes)
		(layer "F.Fab")
		(hide yes)
		(uuid "043cdde1-451b-4035-b616-f02ade9a2c9c")
		(effects
			(font
				(size 1.27 1.27)
			)
		)
	)
	(property "Datasheet" ""
		(at 0 0 0)
		(unlocked yes)
		(layer "F.Fab")
		(hide yes)
		(uuid "d5d4813b-e9e9-47c5-a304-2d857be219c4")
		(effects
			(font
				(size 1.27 1.27)
			)
		)
	)
	(property "Description" ""
		(at 0 0 0)
		(unlocked yes)
		(layer "F.Fab")
		(hide yes)
		(uuid "13301bba-0a0b-44a3-8734-3a5762b63705")
		(effects
			(font
				(size 1.27 1.27)
			)
		)
	)
	(attr through_hole)
	(fp_line
		(start -5.35 0)
		(end -4.5 0)
		(stroke
			(width 0.12)
			(type solid)
		)
		(layer "F.SilkS")
		(uuid "45504cd2-83f9-4ef2-bc4d-abdd961d6c62")
	)
	(fp_line
		(start 5.35 0)
		(end 4.5 0)
		(stroke
			(width 0.12)
			(type solid)
		)
		(layer "F.SilkS")
		(uuid "f8b8bcf9-2661-4217-8f89-ee07d4c17616")
	)
	(fp_rect
		(start -4.5 -2)
		(end 4.5 2)
		(stroke
			(width 0.12)
			(type solid)
		)
		(fill none)
		(layer "F.SilkS")
		(uuid "6e93c1b5-49a6-4221-97f4-4af402690d45")
	)
	(fp_line
		(start -4.5 0)
		(end -6.25 0)
		(stroke
			(width 0.1)
			(type solid)
		)
		(layer "F.Fab")
		(uuid "cf568121-fb32-4a81-b47f-76ef42c033da")
	)
	(fp_line
		(start 4.5 0)
		(end 6.25 0)
		(stroke
			(width 0.1)
			(type solid)
		)
		(layer "F.Fab")
		(uuid "efcd0453-13ad-42de-beff-46adbfd0f1a6")
	)
	(fp_rect
		(start -4.5 -2)
		(end 4.5 2)
		(stroke
			(width 0.1)
			(type solid)
		)
		(fill none)
		(layer "F.Fab")
		(uuid "d5a0c008-9351-40d7-b9c8-3e0c469c0a00")
	)
	(pad "1" thru_hole circle
		(at -6.25 0)
		(size 1.4 1.4)
		(drill 0.9)
		(layers "*.Cu" "*.Mask")
		(remove_unused_layers no)
		(uuid "b3f38d22-2508-47e1-9a8e-030779d28247")
	)
	(pad "2" thru_hole circle
		(at 6.25 0)
		(size 1.4 1.4)
		(drill 0.9)
		(layers "*.Cu" "*.Mask")
		(remove_unused_layers no)
		(uuid "54a2a708-142e-4bd3-a1f2-2429dcb90b8b")
	)
)