(footprint "Schaffner-FN402"
	(version 20240108)
	(generator "pcbnew")
	(generator_version "8.0")
	(layer "F.Cu")
	(descr "EMI Filter")
	(property "Reference" "FN402"
		(at 0 0 0)
		(layer "F.Fab")
		(uuid "f526bbf1-2dbf-4c7e-b1c3-dede22ae9ae9")
		(effects
			(font
				(size 1.2 1.2)
				(thickness 0.12)
			)
		)
	)
	(property "Value" "FN402"
		(at 0 0 0)
		(layer "F.Fab")
		(hide yes)
		(uuid "7d41c8d3-ead6-40d0-889a-84a8cdb95083")
		(effects
			(font
				(size 1.2 1.2)
				(thickness 0.12)
			)
		)
	)
	(property "Footprint" ""
		(at 0 0 0)
		(unlocked yes)
		(layer "F.Fab")
		(hide yes)
		(uuid "3d9d9ca6-136b-4b50-a4c1-a1d21aa40911")
		(effects
			(font
				(size 1.27 1.27)
				(thickness 0.15)
			)
		)
	)
	(property "Datasheet" ""
		(at 0 0 0)
		(unlocked yes)
		(layer "F.Fab")
		(hide yes)
		(uuid "5da23e6d-eec0-445b-af43-e86a9d833d5a")
		(effects
			(font
				(size 1.27 1.27)
				(thickness 0.15)
			)
		)
	)
	(property "Description" ""
		(at 0 0 0)
		(unlocked yes)
		(layer "F.Fab")
		(hide yes)
		(uuid "f31498d6-3c0a-4474-b585-51b0b769ff0e")
		(effects
			(font
				(size 1.27 1.27)
				(thickness 0.15)
			)
		)
	)
	(attr through_hole)
	(fp_line
		(start -22.5 13)
		(end -22.5 -13)
		(stroke
			(width 0.12)
			(type solid)
		)
		(layer "F.SilkS")
		(uuid "3bb3dde6-5196-4895-a0ae-8917545355dd")
	)
	(fp_line
		(start -21.5 14)
		(end 21.5 14)
		(stroke
			(width 0.12)
			(type solid)
		)
		(layer "F.SilkS")
		(uuid "3751d980-cea6-486b-9676-3e4ed7a2a05e")
	)
	(fp_line
		(start 21.5 -14)
		(end -21.5 -14)
		(stroke
			(width 0.12)
			(type solid)
		)
		(layer "F.SilkS")
		(uuid "ce926dde-b78e-44e6-a2d8-db0a89b58d57")
	)
	(fp_line
		(start 22.5 -13)
		(end 22.5 13)
		(stroke
			(width 0.12)
			(type solid)
		)
		(layer "F.SilkS")
		(uuid "06814aa9-dcd9-4893-ac46-ae4a4b2c3bb0")
	)
	(fp_arc
		(start -22.5 -13)
		(mid -22.207107 -13.707107)
		(end -21.5 -14)
		(stroke
			(width 0.12)
			(type solid)
		)
		(layer "F.SilkS")
		(uuid "fcd2c717-a283-4698-9a02-64735839ad80")
	)
	(fp_arc
		(start -21.5 14)
		(mid -22.207107 13.707107)
		(end -22.5 13)
		(stroke
			(width 0.12)
			(type solid)
		)
		(layer "F.SilkS")
		(uuid "91994003-0250-470d-9264-b83b84c3302a")
	)
	(fp_arc
		(start 21.5 -14)
		(mid 22.207107 -13.707107)
		(end 22.5 -13)
		(stroke
			(width 0.12)
			(type solid)
		)
		(layer "F.SilkS")
		(uuid "c74e5223-21a1-4c4c-9314-ec86a535d261")
	)
	(fp_arc
		(start 22.5 13)
		(mid 22.207107 13.707107)
		(end 21.5 14)
		(stroke
			(width 0.12)
			(type solid)
		)
		(layer "F.SilkS")
		(uuid "463f659a-252d-47b8-b5ce-1ffc812d5b20")
	)
	(fp_rect
		(start -22.5 -14)
		(end 22.5 14)
		(stroke
			(width 0.1)
			(type solid)
		)
		(fill none)
		(layer "F.Fab")
		(uuid "eb85b551-20f3-480b-af5c-f82a05fd0c65")
	)
	(pad "G" thru_hole circle
		(at 16.5 0)
		(size 1.7 1.7)
		(drill 1.1)
		(layers "*.Cu" "*.Mask")
		(remove_unused_layers no)
		(uuid "8ba87620-f6d3-4d30-b6d5-4825f69de466")
	)
	(pad "I1" thru_hole circle
		(at -16.5 -5)
		(size 1.7 1.7)
		(drill 1.1)
		(layers "*.Cu" "*.Mask")
		(remove_unused_layers no)
		(uuid "a49eda2d-003a-4ded-86a8-66b094c7bc81")
	)
	(pad "I2" thru_hole circle
		(at -16.5 5)
		(size 1.7 1.7)
		(drill 1.1)
		(layers "*.Cu" "*.Mask")
		(remove_unused_layers no)
		(uuid "314f223b-85f1-4fe9-95ff-f6333596becb")
	)
	(pad "O1" thru_hole circle
		(at 16.5 -10)
		(size 1.7 1.7)
		(drill 1.1)
		(layers "*.Cu" "*.Mask")
		(remove_unused_layers no)
		(uuid "4fb81800-e4c7-44d6-8335-75dc7ee91059")
	)
	(pad "O2" thru_hole circle
		(at 16.5 10)
		(size 1.7 1.7)
		(drill 1.1)
		(layers "*.Cu" "*.Mask")
		(remove_unused_layers no)
		(uuid "1f26b68c-ff93-4472-b2bf-bf1641867b7e")
	)
)
