(footprint "TDK-B82111E-7.0"
	(version 20240108)
	(generator "pcbnew")
	(generator_version "8.0")
	(layer "F.Cu")
	(descr "VHF Choke 7.0mm body")
	(property "Reference" "B82111E-7.0"
		(at 0 0 0)
		(layer "F.Fab")
		(uuid "b78f5af2-39b3-4dfa-8f1d-a7e11af6bc15")
		(effects
			(font
				(size 1.2 1.2)
				(thickness 0.12)
			)
		)
	)
	(property "Value" "B82111E-7.0"
		(at 0 0 0)
		(layer "F.Fab")
		(hide yes)
		(uuid "ad135ee7-3b30-4a89-a1fc-35ffd9b601da")
		(effects
			(font
				(size 1.2 1.2)
				(thickness 0.12)
			)
		)
	)
	(property "Footprint" ""
		(at 0 0 0)
		(unlocked yes)
		(layer "F.Fab")
		(hide yes)
		(uuid "d2200bf1-0b4b-44ac-8a8f-28a401479e49")
		(effects
			(font
				(size 1.27 1.27)
			)
		)
	)
	(property "Datasheet" ""
		(at 0 0 0)
		(unlocked yes)
		(layer "F.Fab")
		(hide yes)
		(uuid "c785c732-6049-4497-8aa8-72ddaf90187c")
		(effects
			(font
				(size 1.27 1.27)
			)
		)
	)
	(property "Description" ""
		(at 0 0 0)
		(unlocked yes)
		(layer "F.Fab")
		(hide yes)
		(uuid "47b61a9d-6241-431a-961e-bc410d57590a")
		(effects
			(font
				(size 1.27 1.27)
			)
		)
	)
	(attr through_hole)
	(fp_line
		(start -16 0)
		(end -18.8 0)
		(stroke
			(width 0.12)
			(type solid)
		)
		(layer "F.SilkS")
		(uuid "ef765bfc-7185-4e26-9caa-e3ab25ffa549")
	)
	(fp_line
		(start 18.8 0)
		(end 16 0)
		(stroke
			(width 0.12)
			(type solid)
		)
		(layer "F.SilkS")
		(uuid "9b3b709b-567c-4a5e-9ddf-d5f80c41b8c9")
	)
	(fp_rect
		(start -16 -3.5)
		(end 16 3.5)
		(stroke
			(width 0.12)
			(type solid)
		)
		(fill none)
		(layer "F.SilkS")
		(uuid "fe94a1d7-11a8-4d90-b870-629bd3c8667c")
	)
	(fp_line
		(start -16 0)
		(end -20 0)
		(stroke
			(width 0.1)
			(type solid)
		)
		(layer "F.Fab")
		(uuid "dc0d40ae-fdf4-4cfa-b2b1-b3e5ddf91280")
	)
	(fp_line
		(start 16 0)
		(end 20 0)
		(stroke
			(width 0.1)
			(type solid)
		)
		(layer "F.Fab")
		(uuid "992d9c21-0cc4-4a4a-8eb1-1a1fd4d76b9e")
	)
	(fp_rect
		(start -16 -3.5)
		(end 16 3.5)
		(stroke
			(width 0.1)
			(type solid)
		)
		(fill none)
		(layer "F.Fab")
		(uuid "1f27cff0-e241-460d-bf83-22b5f3dc99ee")
	)
	(pad "1" thru_hole circle
		(at -20 0)
		(size 1.8 1.8)
		(drill 1.2)
		(layers "*.Cu" "*.Mask")
		(remove_unused_layers no)
		(uuid "d7457b31-d2c3-4775-b259-b60f436e0386")
	)
	(pad "2" thru_hole circle
		(at 20 0)
		(size 1.8 1.8)
		(drill 1.2)
		(layers "*.Cu" "*.Mask")
		(remove_unused_layers no)
		(uuid "ce69c9b6-a174-434a-a9a2-29b96492b2fa")
	)
)