(footprint "TO220AB-V-GDS"
	(version 20240108)
	(generator "pcbnew")
	(generator_version "8.0")
	(layer "F.Cu")
	(descr "TO220AB Vertical Mount. 123 form")
	(tags "TO220AB GDS")
	(property "Reference" "TO220AB"
		(at 0 0 90)
		(layer "F.Fab")
		(uuid "e2986964-3de5-496c-ba89-89b550782c85")
		(effects
			(font
				(size 1.2 1.2)
				(thickness 0.12)
			)
		)
	)
	(property "Value" "TO220AB"
		(at 0 0 90)
		(layer "F.Fab")
		(hide yes)
		(uuid "7d12f908-bd9b-49ae-8b69-19b0c87d40d4")
		(effects
			(font
				(size 1.2 1.2)
				(thickness 0.12)
			)
		)
	)
	(property "Footprint" ""
		(at 0 0 0)
		(unlocked yes)
		(layer "F.Fab")
		(hide yes)
		(uuid "508fc2fc-73fd-44c1-bf2b-2465d87afc16")
		(effects
			(font
				(size 1.27 1.27)
				(thickness 0.15)
			)
		)
	)
	(property "Datasheet" ""
		(at 0 0 0)
		(unlocked yes)
		(layer "F.Fab")
		(hide yes)
		(uuid "da781bca-28f7-4d34-ad17-e69cd86681c0")
		(effects
			(font
				(size 1.27 1.27)
				(thickness 0.15)
			)
		)
	)
	(property "Description" ""
		(at 0 0 0)
		(unlocked yes)
		(layer "F.Fab")
		(hide yes)
		(uuid "4dc7e1d7-2134-4a2a-b9f8-463ad7ae9104")
		(effects
			(font
				(size 1.27 1.27)
				(thickness 0.15)
			)
		)
	)
	(attr through_hole)
	(fp_line
		(start -1.9 -4.5)
		(end 1.5 -5.35)
		(stroke
			(width 0.12)
			(type solid)
		)
		(layer "F.SilkS")
		(uuid "aed27478-8e39-4426-a400-abc31f99a303")
	)
	(fp_line
		(start -1.9 4.5)
		(end -1.9 -4.5)
		(stroke
			(width 0.12)
			(type solid)
		)
		(layer "F.SilkS")
		(uuid "59fa3d90-5c75-4df0-b9d1-fc7af03b0db0")
	)
	(fp_line
		(start 1.5 -5.35)
		(end 2.9 -5.35)
		(stroke
			(width 0.12)
			(type solid)
		)
		(layer "F.SilkS")
		(uuid "02cc8f35-44cf-4a06-ac4a-44a7d6a2700d")
	)
	(fp_line
		(start 1.5 5.35)
		(end -1.9 4.5)
		(stroke
			(width 0.12)
			(type solid)
		)
		(layer "F.SilkS")
		(uuid "912973bd-df69-4536-9332-150aeeb37b82")
	)
	(fp_line
		(start 2.9 -5.35)
		(end 2.9 5.35)
		(stroke
			(width 0.12)
			(type solid)
		)
		(layer "F.SilkS")
		(uuid "7c0fe205-0b3f-49c7-94b6-90dcac1cfa0c")
	)
	(fp_line
		(start 2.9 5.35)
		(end 1.5 5.35)
		(stroke
			(width 0.12)
			(type solid)
		)
		(layer "F.SilkS")
		(uuid "85512e8c-41d4-4c9a-84ea-96e05aefec51")
	)
	(fp_rect
		(start -2.4 -5.85)
		(end 2.9 5.85)
		(stroke
			(width 0.01)
			(type solid)
		)
		(fill none)
		(layer "F.CrtYd")
		(uuid "2837df88-e3ae-4714-8467-c8564ba2ecde")
	)
	(fp_line
		(start -1.9 -4.5)
		(end -1.9 4.5)
		(stroke
			(width 0.1)
			(type solid)
		)
		(layer "F.Fab")
		(uuid "4c3b685e-bbd3-4dd6-a7da-3294ba491129")
	)
	(fp_line
		(start -1.9 4.5)
		(end 1.5 5.35)
		(stroke
			(width 0.1)
			(type solid)
		)
		(layer "F.Fab")
		(uuid "4c2484a5-69c9-471b-9f09-0d5401759050")
	)
	(fp_line
		(start 1.5 -5.35)
		(end -1.9 -4.5)
		(stroke
			(width 0.1)
			(type solid)
		)
		(layer "F.Fab")
		(uuid "0fe7dca8-1cab-4864-8b68-03067c436472")
	)
	(fp_rect
		(start 1.5 -5.35)
		(end 2.9 5.35)
		(stroke
			(width 0.1)
			(type solid)
		)
		(fill none)
		(layer "F.Fab")
		(uuid "52f60e47-3ee9-4032-acc1-1b05e9f444fd")
	)
	(pad "D" thru_hole circle
		(at 0 0)
		(size 2.1 2.1)
		(drill 1.4)
		(layers "*.Cu" "*.Mask")
		(remove_unused_layers no)
		(uuid "a74971f3-90ec-48d0-b409-dd05ce2aecd0")
	)
	(pad "G" thru_hole circle
		(at 0 -2.54)
		(size 2.1 2.1)
		(drill 1.4)
		(layers "*.Cu" "*.Mask")
		(remove_unused_layers no)
		(uuid "d459ce4a-fc89-49cd-b742-1b768cb6e774")
	)
	(pad "S" thru_hole circle
		(at 0 2.54)
		(size 2.1 2.1)
		(drill 1.4)
		(layers "*.Cu" "*.Mask")
		(remove_unused_layers no)
		(uuid "08596cbd-8046-48b1-8106-15e74c633b2e")
	)
	(model "${KISYS3DMOD}/TO/TO220AB-V.wrl"
		(offset
			(xyz 0 0 0)
		)
		(scale
			(xyz 1 1 1)
		)
		(rotate
			(xyz 0 0 0)
		)
	)
)
