(footprint "TrumpXP-200mg"
	(version 20240108)
	(generator "pcbnew")
	(generator_version "8.0")
	(layer "F.Cu")
	(property "Reference" "TrumpXP-200mg"
		(at 0 0 90)
		(unlocked yes)
		(layer "F.Fab")
		(uuid "0a692f04-e18f-4101-a7f5-3f1e956cea4e")
		(effects
			(font
				(size 1.2 1.2)
				(thickness 0.12)
			)
		)
	)
	(property "Value" "TrumpXP-200mg"
		(at 0 0 90)
		(unlocked yes)
		(layer "F.Fab")
		(hide yes)
		(uuid "f07a06a3-8c52-4f07-aac0-92a36e4ea7dd")
		(effects
			(font
				(size 1.2 1.2)
				(thickness 0.12)
			)
		)
	)
	(property "Footprint" ""
		(at 0 0 90)
		(unlocked yes)
		(layer "F.Fab")
		(hide yes)
		(uuid "94d4da8c-cc31-47d2-938b-c2665b18bcaa")
		(effects
			(font
				(size 1.27 1.27)
				(thickness 0.15)
			)
		)
	)
	(property "Datasheet" ""
		(at 0 0 90)
		(unlocked yes)
		(layer "F.Fab")
		(hide yes)
		(uuid "fa2f6c40-8c71-4497-ae0e-7abd19c39505")
		(effects
			(font
				(size 1.27 1.27)
				(thickness 0.15)
			)
		)
	)
	(property "Description" ""
		(at 0 0 90)
		(unlocked yes)
		(layer "F.Fab")
		(hide yes)
		(uuid "4f434cf7-04b7-4823-9412-988e47293caf")
		(effects
			(font
				(size 1.27 1.27)
				(thickness 0.15)
			)
		)
	)
	(attr through_hole)
	(fp_line
		(start -17.7 -15)
		(end -13 -15)
		(stroke
			(width 0.12)
			(type solid)
		)
		(layer "F.SilkS")
		(uuid "6cfe0181-5365-4111-a19e-2f331ca8917a")
	)
	(fp_line
		(start -17.7 15)
		(end -13 15)
		(stroke
			(width 0.12)
			(type solid)
		)
		(layer "F.SilkS")
		(uuid "1debe52a-835e-4eba-95bd-128c46f5ec72")
	)
	(fp_line
		(start -13 19.4)
		(end -13 -19.4)
		(stroke
			(width 0.12)
			(type solid)
		)
		(layer "F.SilkS")
		(uuid "013fee83-8777-4356-9c1b-3a5d0db85f0a")
	)
	(fp_line
		(start -8.6 -23.75)
		(end 8.6 -23.75)
		(stroke
			(width 0.12)
			(type solid)
		)
		(layer "F.SilkS")
		(uuid "cf44d891-c8ae-4468-84b4-a6d83bdf86b6")
	)
	(fp_line
		(start -8.6 23.75)
		(end 8.6 23.75)
		(stroke
			(width 0.12)
			(type solid)
		)
		(layer "F.SilkS")
		(uuid "49434986-6dbb-43c1-952e-c4862e8b4ec1")
	)
	(fp_line
		(start 13 19.4)
		(end 13 -19.4)
		(stroke
			(width 0.12)
			(type solid)
		)
		(layer "F.SilkS")
		(uuid "9ab4be08-5072-4ca3-9b6e-2cc1e6a9eb03")
	)
	(fp_circle
		(center -12 -22.75)
		(end -12 -26.25)
		(stroke
			(width 0.12)
			(type solid)
		)
		(fill none)
		(layer "F.SilkS")
		(uuid "98bb7545-d1b3-4507-aa56-4a874a4af551")
	)
	(fp_circle
		(center -12 22.75)
		(end -12 19.25)
		(stroke
			(width 0.12)
			(type solid)
		)
		(fill none)
		(layer "F.SilkS")
		(uuid "ec3a1741-2cc6-4e74-90ca-5a3ef6e9e6c0")
	)
	(fp_circle
		(center 12 -22.75)
		(end 12 -26.25)
		(stroke
			(width 0.12)
			(type solid)
		)
		(fill none)
		(layer "F.SilkS")
		(uuid "7af81914-8c83-4fe0-aae8-8e7942e2ea29")
	)
	(fp_circle
		(center 12 22.75)
		(end 12 19.25)
		(stroke
			(width 0.12)
			(type solid)
		)
		(fill none)
		(layer "F.SilkS")
		(uuid "d03d1246-ce77-4a27-aab8-17e6a00bb208")
	)
	(fp_circle
		(center -12 -22.75)
		(end -12 -26.75)
		(stroke
			(width 0.01)
			(type solid)
		)
		(fill none)
		(layer "B.CrtYd")
		(uuid "c429ad15-4090-4be2-851c-321e75d41d20")
	)
	(fp_circle
		(center -12 22.75)
		(end -12 18.75)
		(stroke
			(width 0.01)
			(type solid)
		)
		(fill none)
		(layer "B.CrtYd")
		(uuid "96edff98-93c4-4fbf-860a-eb712c676517")
	)
	(fp_circle
		(center 12 -22.75)
		(end 12 -26.75)
		(stroke
			(width 0.01)
			(type solid)
		)
		(fill none)
		(layer "B.CrtYd")
		(uuid "f135720e-dead-4959-9db8-57278620541d")
	)
	(fp_circle
		(center 12 22.75)
		(end 12 18.75)
		(stroke
			(width 0.01)
			(type solid)
		)
		(fill none)
		(layer "B.CrtYd")
		(uuid "323e3773-f009-4192-b78b-170ea56df326")
	)
	(fp_circle
		(center -12 -22.75)
		(end -12 -26.75)
		(stroke
			(width 0.01)
			(type solid)
		)
		(fill none)
		(layer "F.CrtYd")
		(uuid "ddbb0ca3-3000-4847-8c28-63304898c371")
	)
	(fp_circle
		(center -12 22.75)
		(end -12 18.75)
		(stroke
			(width 0.01)
			(type solid)
		)
		(fill none)
		(layer "F.CrtYd")
		(uuid "0e449240-c412-4a26-8776-90ab56a24466")
	)
	(fp_circle
		(center 12 -22.75)
		(end 12 -26.75)
		(stroke
			(width 0.01)
			(type solid)
		)
		(fill none)
		(layer "F.CrtYd")
		(uuid "91f0f81e-b123-48ce-9657-e22eeebfc371")
	)
	(fp_circle
		(center 12 22.75)
		(end 12 18.75)
		(stroke
			(width 0.01)
			(type solid)
		)
		(fill none)
		(layer "F.CrtYd")
		(uuid "9d3c7749-243c-4b46-b795-82dd25657814")
	)
	(fp_line
		(start -13 19.4)
		(end -13 -19.4)
		(stroke
			(width 0.1)
			(type solid)
		)
		(layer "F.Fab")
		(uuid "3eed46ba-50f7-48a7-a7cd-7fe9d626726a")
	)
	(fp_line
		(start -8.6 -23.75)
		(end 8.6 -23.75)
		(stroke
			(width 0.1)
			(type solid)
		)
		(layer "F.Fab")
		(uuid "8f7812cd-c124-46f5-b863-eac99a908434")
	)
	(fp_line
		(start -8.6 23.75)
		(end 8.6 23.75)
		(stroke
			(width 0.1)
			(type solid)
		)
		(layer "F.Fab")
		(uuid "dcb71014-277f-403e-bf7a-79076194aeec")
	)
	(fp_line
		(start 13 19.4)
		(end 13 -19.4)
		(stroke
			(width 0.1)
			(type solid)
		)
		(layer "F.Fab")
		(uuid "32c58a46-5439-4455-8d5d-bc94470a26d3")
	)
	(fp_arc
		(start -13 -19.350001)
		(mid -14.505992 -25.255992)
		(end -8.600001 -23.749999)
		(stroke
			(width 0.1)
			(type solid)
		)
		(layer "F.Fab")
		(uuid "0f4382a0-7200-41b1-9fd3-65595666243f")
	)
	(fp_arc
		(start -8.650001 23.75)
		(mid -14.472094 25.222093)
		(end -12.999999 19.400001)
		(stroke
			(width 0.1)
			(type solid)
		)
		(layer "F.Fab")
		(uuid "655256b0-e1c0-46c1-861e-863527bcf2d3")
	)
	(fp_arc
		(start 8.650001 -23.75)
		(mid 14.472094 -25.222093)
		(end 12.999999 -19.400001)
		(stroke
			(width 0.1)
			(type solid)
		)
		(layer "F.Fab")
		(uuid "b65b61db-cc67-4a81-bad5-e04386be3d5f")
	)
	(fp_arc
		(start 13 19.400001)
		(mid 14.472093 25.222094)
		(end 8.650001 23.749999)
		(stroke
			(width 0.1)
			(type solid)
		)
		(layer "F.Fab")
		(uuid "e6f35e40-8a23-438f-b022-108e8821f072")
	)
	(pad "" np_thru_hole circle
		(at -12 -22.75 90)
		(size 3.4 3.4)
		(drill 3.4)
		(layers "*.Cu" "*.Mask")
		(uuid "251f4b8b-2dd1-4290-81a2-22d3e93847d8")
	)
	(pad "" np_thru_hole circle
		(at -12 22.75 90)
		(size 3.4 3.4)
		(drill 3.4)
		(layers "*.Cu" "*.Mask")
		(uuid "2f982a48-3bcc-4355-a8ff-465ed76b45d7")
	)
	(pad "" np_thru_hole circle
		(at 12 -22.75 90)
		(size 3.4 3.4)
		(drill 3.4)
		(layers "*.Cu" "*.Mask")
		(uuid "2f4c454d-d1f7-41a8-9c52-b2aa914831fe")
	)
	(pad "" np_thru_hole circle
		(at 12 22.75 90)
		(size 3.4 3.4)
		(drill 3.4)
		(layers "*.Cu" "*.Mask")
		(uuid "ea83ceec-ea6e-4d33-a31b-030b429e8a4a")
	)
	(pad "1" thru_hole circle
		(at -19 -15 90)
		(size 1.5 1.5)
		(drill 1)
		(layers "*.Cu" "*.Mask")
		(remove_unused_layers no)
		(uuid "6d7a1312-dd6d-4aae-a0e3-107dae1ba29d")
	)
	(pad "2" thru_hole circle
		(at -19 15 90)
		(size 1.5 1.5)
		(drill 1)
		(layers "*.Cu" "*.Mask")
		(remove_unused_layers no)
		(uuid "44f23178-bf6b-434c-933a-58a2a2fcb44d")
	)
	(model "${KISYS3DMOD}/TrumpXP/200mg.wrl"
		(offset
			(xyz 0 0 0)
		)
		(scale
			(xyz 1 1 1)
		)
		(rotate
			(xyz 0 0 -90)
		)
	)
)
