(footprint "22-03-5155"
	(version 20240108)
	(generator "pcbnew")
	(generator_version "8.0")
	(layer "F.Cu")
	(descr "Spox Vertical Pin Header, 15 pins, 2.5mm Pitch")
	(property "Reference" "22-03-5155"
		(at 0 0 0)
		(layer "F.Fab")
		(uuid "8fc79bd1-7911-4397-9b01-3d00d86f8e21")
		(effects
			(font
				(size 1.2 1.2)
				(thickness 0.12)
			)
		)
	)
	(property "Value" "22-03-5155"
		(at 0 0 0)
		(layer "F.Fab")
		(hide yes)
		(uuid "3e1e1a13-49d2-451e-a3ea-f82ebb74a1a9")
		(effects
			(font
				(size 1.2 1.2)
				(thickness 0.12)
			)
		)
	)
	(property "Footprint" ""
		(at 0 0 0)
		(layer "F.Fab")
		(hide yes)
		(uuid "f15cc50a-c035-4e5f-9f25-5095705a7f33")
		(effects
			(font
				(size 1.27 1.27)
				(thickness 0.15)
			)
		)
	)
	(property "Datasheet" ""
		(at 0 0 0)
		(layer "F.Fab")
		(hide yes)
		(uuid "91530195-9e7b-44f2-b348-cb4d368d9a1a")
		(effects
			(font
				(size 1.27 1.27)
				(thickness 0.15)
			)
		)
	)
	(property "Description" ""
		(at 0 0 0)
		(layer "F.Fab")
		(hide yes)
		(uuid "f2211468-14f3-4245-896b-173c8e49f02e")
		(effects
			(font
				(size 1.27 1.27)
				(thickness 0.15)
			)
		)
	)
	(attr through_hole)
	(fp_line
		(start -20.05 -3.2)
		(end 20.05 -3.2)
		(stroke
			(width 0.12)
			(type solid)
		)
		(layer "F.SilkS")
		(uuid "25a05289-ac37-4f11-ae28-1f4db63525c9")
	)
	(fp_line
		(start -20.05 1.9)
		(end -20.05 -3.2)
		(stroke
			(width 0.12)
			(type solid)
		)
		(layer "F.SilkS")
		(uuid "53124cbc-6b15-45ec-8085-306204812bb4")
	)
	(fp_line
		(start -18.1 1.9)
		(end -20.05 1.9)
		(stroke
			(width 0.12)
			(type solid)
		)
		(layer "F.SilkS")
		(uuid "24ce827a-d41b-443b-9eb9-04f050b6d3fd")
	)
	(fp_line
		(start -16.9 1.9)
		(end 18.95 1.9)
		(stroke
			(width 0.12)
			(type solid)
		)
		(layer "F.SilkS")
		(uuid "eaae9ddc-7ea2-44e2-b9e2-9972054ec8d2")
	)
	(fp_line
		(start 18.95 1.9)
		(end 20.05 0.8)
		(stroke
			(width 0.12)
			(type solid)
		)
		(layer "F.SilkS")
		(uuid "abefc139-e8ff-4222-8f70-235d9f9e0cd9")
	)
	(fp_line
		(start 20.05 -3.2)
		(end 20.05 0.8)
		(stroke
			(width 0.12)
			(type solid)
		)
		(layer "F.SilkS")
		(uuid "de1355ad-d071-42b7-9858-a1627371126d")
	)
	(fp_circle
		(center -17.5 2.3)
		(end -17.1 2.3)
		(stroke
			(width 0.12)
			(type solid)
		)
		(fill solid)
		(layer "F.SilkS")
		(uuid "6d4a572e-e869-424c-ad13-fb0bbc49f479")
	)
	(fp_rect
		(start -20.55 -3.7)
		(end 20.55 2.4)
		(stroke
			(width 0.01)
			(type solid)
		)
		(fill none)
		(layer "F.CrtYd")
		(uuid "4b4280f9-4e5b-4f57-b711-6734e329d019")
	)
	(fp_line
		(start -20.05 -3.2)
		(end -20.05 1.9)
		(stroke
			(width 0.1)
			(type solid)
		)
		(layer "F.Fab")
		(uuid "b01c80a7-88ab-42f2-85cc-065f1db5eb09")
	)
	(fp_line
		(start -20.05 1.9)
		(end 18.95 1.9)
		(stroke
			(width 0.1)
			(type solid)
		)
		(layer "F.Fab")
		(uuid "55f0c237-bee1-45e9-9fcd-29e0f3a03634")
	)
	(fp_line
		(start -18.95 1.9)
		(end -20.05 0.8)
		(stroke
			(width 0.1)
			(type solid)
		)
		(layer "F.Fab")
		(uuid "589afd48-ce9c-4e14-b8a0-fa6eb5030318")
	)
	(fp_line
		(start 18.95 1.9)
		(end 20.05 0.8)
		(stroke
			(width 0.1)
			(type solid)
		)
		(layer "F.Fab")
		(uuid "900194f8-db2b-420f-a3f9-c5a73ab5d346")
	)
	(fp_line
		(start 20.05 -3.2)
		(end -20.05 -3.2)
		(stroke
			(width 0.1)
			(type solid)
		)
		(layer "F.Fab")
		(uuid "bac5ac91-a8c8-498f-b89d-0c62201b03e3")
	)
	(fp_line
		(start 20.05 0.8)
		(end 20.05 -3.2)
		(stroke
			(width 0.1)
			(type solid)
		)
		(layer "F.Fab")
		(uuid "a3f6f781-054d-416e-b0c9-ae1df3061bbf")
	)
	(fp_text user "${REFERENCE}"
		(at 0 -3.85 0)
		(layer "F.SilkS")
		(uuid "fd172829-e606-4caa-9108-2b182b6401cc")
		(effects
			(font
				(size 0.8 0.8)
				(thickness 0.15)
				(bold yes)
			)
		)
	)
	(pad "1" thru_hole circle
		(at -17.5 0)
		(size 1.5 1.5)
		(drill 1)
		(layers "*.Cu" "*.Mask")
		(remove_unused_layers no)
		(uuid "6b033b42-661f-44f8-a955-fd5e525ba635")
	)
	(pad "2" thru_hole circle
		(at -15 0)
		(size 1.5 1.5)
		(drill 1)
		(layers "*.Cu" "*.Mask")
		(remove_unused_layers no)
		(uuid "76f0dedf-cc47-40f0-9693-a132e28c2d59")
	)
	(pad "3" thru_hole circle
		(at -12.5 0)
		(size 1.5 1.5)
		(drill 1)
		(layers "*.Cu" "*.Mask")
		(remove_unused_layers no)
		(uuid "61479f6a-b47d-48fb-a9d6-489a7cf5692d")
	)
	(pad "4" thru_hole circle
		(at -10 0)
		(size 1.5 1.5)
		(drill 1)
		(layers "*.Cu" "*.Mask")
		(remove_unused_layers no)
		(uuid "938c9ac9-d3a8-44bc-8c26-db5800bfcb08")
	)
	(pad "5" thru_hole circle
		(at -7.5 0)
		(size 1.5 1.5)
		(drill 1)
		(layers "*.Cu" "*.Mask")
		(remove_unused_layers no)
		(uuid "ecc176ec-6e81-45f3-9e46-4de0028f00cf")
	)
	(pad "6" thru_hole circle
		(at -5 0)
		(size 1.5 1.5)
		(drill 1)
		(layers "*.Cu" "*.Mask")
		(remove_unused_layers no)
		(uuid "3859e7aa-4499-4862-96d7-0170a2e7db47")
	)
	(pad "7" thru_hole circle
		(at -2.5 0)
		(size 1.5 1.5)
		(drill 1)
		(layers "*.Cu" "*.Mask")
		(remove_unused_layers no)
		(uuid "6c17c585-0e28-49d0-823c-51fe62605130")
	)
	(pad "8" thru_hole circle
		(at 0 0)
		(size 1.5 1.5)
		(drill 1)
		(layers "*.Cu" "*.Mask")
		(remove_unused_layers no)
		(uuid "a4008ae0-1300-46b4-addf-86f4c250d32e")
	)
	(pad "9" thru_hole circle
		(at 2.5 0)
		(size 1.5 1.5)
		(drill 1)
		(layers "*.Cu" "*.Mask")
		(remove_unused_layers no)
		(uuid "b4ea56bf-75fd-4160-ac5d-508d68aaf516")
	)
	(pad "10" thru_hole circle
		(at 5 0)
		(size 1.5 1.5)
		(drill 1)
		(layers "*.Cu" "*.Mask")
		(remove_unused_layers no)
		(uuid "c18fb4c8-6751-4d54-94df-eed94ef90cca")
	)
	(pad "11" thru_hole circle
		(at 7.5 0)
		(size 1.5 1.5)
		(drill 1)
		(layers "*.Cu" "*.Mask")
		(remove_unused_layers no)
		(uuid "b40984c3-cdcd-4f0a-aab7-06fe29fa571e")
	)
	(pad "12" thru_hole circle
		(at 10 0)
		(size 1.5 1.5)
		(drill 1)
		(layers "*.Cu" "*.Mask")
		(remove_unused_layers no)
		(uuid "14c87896-e7cd-415f-b6f6-e982df47f465")
	)
	(pad "13" thru_hole circle
		(at 12.5 0)
		(size 1.5 1.5)
		(drill 1)
		(layers "*.Cu" "*.Mask")
		(remove_unused_layers no)
		(uuid "53429ed3-cd6c-4c69-b771-a99c4e74d53f")
	)
	(pad "14" thru_hole circle
		(at 15 0)
		(size 1.5 1.5)
		(drill 1)
		(layers "*.Cu" "*.Mask")
		(remove_unused_layers no)
		(uuid "571b8b45-5443-4f73-ae75-3bf02b3e73ad")
	)
	(pad "15" thru_hole circle
		(at 17.5 0)
		(size 1.5 1.5)
		(drill 1)
		(layers "*.Cu" "*.Mask")
		(remove_unused_layers no)
		(uuid "430a8aa0-be21-46be-85aa-4b86dd58f117")
	)
)
