(footprint "22-03-5115"
	(version 20240108)
	(generator "pcbnew")
	(generator_version "8.0")
	(layer "F.Cu")
	(descr "Spox Vertical Pin Header, 11 pins, 2.5mm Pitch")
	(property "Reference" "22-03-5115"
		(at 0 0 0)
		(layer "F.Fab")
		(uuid "9efe5cda-be28-4b6f-9f77-15338408d25e")
		(effects
			(font
				(size 1.2 1.2)
				(thickness 0.12)
			)
		)
	)
	(property "Value" "22-03-5115"
		(at 0 0 0)
		(layer "F.Fab")
		(hide yes)
		(uuid "2cf5c82a-4f59-45cd-ab55-a463e4ccf37a")
		(effects
			(font
				(size 1.2 1.2)
				(thickness 0.12)
			)
		)
	)
	(property "Footprint" ""
		(at 0 0 0)
		(layer "F.Fab")
		(hide yes)
		(uuid "59df5de8-c52f-495e-9452-154a75f21294")
		(effects
			(font
				(size 1.27 1.27)
				(thickness 0.15)
			)
		)
	)
	(property "Datasheet" ""
		(at 0 0 0)
		(layer "F.Fab")
		(hide yes)
		(uuid "2ddf7f22-7802-4fc9-9be5-444d0fc416ac")
		(effects
			(font
				(size 1.27 1.27)
				(thickness 0.15)
			)
		)
	)
	(property "Description" ""
		(at 0 0 0)
		(layer "F.Fab")
		(hide yes)
		(uuid "3d24b5c6-cfef-43c1-aac4-6f6bc0f844bc")
		(effects
			(font
				(size 1.27 1.27)
				(thickness 0.15)
			)
		)
	)
	(attr through_hole)
	(fp_line
		(start -15.05 -3.2)
		(end 15.05 -3.2)
		(stroke
			(width 0.12)
			(type solid)
		)
		(layer "F.SilkS")
		(uuid "9f59ce34-62b9-4ca9-9d72-321fabdafd0c")
	)
	(fp_line
		(start -15.05 1.9)
		(end -15.05 -3.2)
		(stroke
			(width 0.12)
			(type solid)
		)
		(layer "F.SilkS")
		(uuid "6014efdf-7a03-42bb-9d71-a2bb95889101")
	)
	(fp_line
		(start -13.1 1.9)
		(end -15.05 1.9)
		(stroke
			(width 0.12)
			(type solid)
		)
		(layer "F.SilkS")
		(uuid "cd28be74-6de4-475a-af85-aed749c83fa1")
	)
	(fp_line
		(start -11.9 1.9)
		(end 13.95 1.9)
		(stroke
			(width 0.12)
			(type solid)
		)
		(layer "F.SilkS")
		(uuid "9f148bf3-7875-43a4-ab1f-92e71f74c6f9")
	)
	(fp_line
		(start 13.95 1.9)
		(end 15.05 0.8)
		(stroke
			(width 0.12)
			(type solid)
		)
		(layer "F.SilkS")
		(uuid "11d11908-c66c-425f-a1f9-ab3169962f2e")
	)
	(fp_line
		(start 15.05 -3.2)
		(end 15.05 0.8)
		(stroke
			(width 0.12)
			(type solid)
		)
		(layer "F.SilkS")
		(uuid "64abb1df-d4b5-4550-883b-8a89fdddd3f6")
	)
	(fp_circle
		(center -12.5 2.4)
		(end -12 2.4)
		(stroke
			(width 0.12)
			(type solid)
		)
		(fill solid)
		(layer "F.SilkS")
		(uuid "dbef3c45-2b91-45fa-8e77-dfadfef1b1f5")
	)
	(fp_rect
		(start -15.55 -3.7)
		(end 15.55 2.4)
		(stroke
			(width 0.01)
			(type solid)
		)
		(fill none)
		(layer "F.CrtYd")
		(uuid "fd5a000c-905d-49a9-a170-47dcf11cc085")
	)
	(fp_line
		(start -15.05 -3.2)
		(end -15.05 1.9)
		(stroke
			(width 0.1)
			(type solid)
		)
		(layer "F.Fab")
		(uuid "4c43ba92-4592-49f7-9dae-337823df4f03")
	)
	(fp_line
		(start -15.05 1.9)
		(end 13.95 1.9)
		(stroke
			(width 0.1)
			(type solid)
		)
		(layer "F.Fab")
		(uuid "53fa300c-6a16-4b20-a58e-e6e5c4e6e8eb")
	)
	(fp_line
		(start -13.95 1.9)
		(end -15.05 0.8)
		(stroke
			(width 0.1)
			(type solid)
		)
		(layer "F.Fab")
		(uuid "d0420415-3dd2-4d37-8a31-f5291bd5312a")
	)
	(fp_line
		(start 13.95 1.9)
		(end 15.05 0.8)
		(stroke
			(width 0.1)
			(type solid)
		)
		(layer "F.Fab")
		(uuid "c00706de-d6dd-4430-8b9c-c1469a69dd45")
	)
	(fp_line
		(start 15.05 -3.2)
		(end -15.05 -3.2)
		(stroke
			(width 0.1)
			(type solid)
		)
		(layer "F.Fab")
		(uuid "9a767407-c869-4993-b428-3b138e31ae25")
	)
	(fp_line
		(start 15.05 0.8)
		(end 15.05 -3.2)
		(stroke
			(width 0.1)
			(type solid)
		)
		(layer "F.Fab")
		(uuid "433bdb80-ab9d-42a0-bcf9-6167639a0d41")
	)
	(fp_text user "${REFERENCE}"
		(at -0.05 -3.85 0)
		(layer "F.SilkS")
		(uuid "6acf2157-120b-4059-933b-ca6bd8a0d4b6")
		(effects
			(font
				(size 0.8 0.8)
				(thickness 0.15)
				(bold yes)
			)
		)
	)
	(pad "1" thru_hole circle
		(at -12.5 0)
		(size 1.5 1.5)
		(drill 1)
		(layers "*.Cu" "*.Mask")
		(remove_unused_layers no)
		(uuid "51b68475-c407-421a-a6cb-90300947a614")
	)
	(pad "2" thru_hole circle
		(at -10 0)
		(size 1.5 1.5)
		(drill 1)
		(layers "*.Cu" "*.Mask")
		(remove_unused_layers no)
		(uuid "7ddb1848-72da-494f-9966-8eaabcf3434d")
	)
	(pad "3" thru_hole circle
		(at -7.5 0)
		(size 1.5 1.5)
		(drill 1)
		(layers "*.Cu" "*.Mask")
		(remove_unused_layers no)
		(uuid "a25a243d-eac9-4247-88f1-8ef8930ae07c")
	)
	(pad "4" thru_hole circle
		(at -5 0)
		(size 1.5 1.5)
		(drill 1)
		(layers "*.Cu" "*.Mask")
		(remove_unused_layers no)
		(uuid "dde95702-32ca-473e-a47e-bb4f0e731c5a")
	)
	(pad "5" thru_hole circle
		(at -2.5 0)
		(size 1.5 1.5)
		(drill 1)
		(layers "*.Cu" "*.Mask")
		(remove_unused_layers no)
		(uuid "5b6c0eb6-596d-47f3-8b26-1c6d7daf665b")
	)
	(pad "6" thru_hole circle
		(at 0 0)
		(size 1.5 1.5)
		(drill 1)
		(layers "*.Cu" "*.Mask")
		(remove_unused_layers no)
		(uuid "f251fa8f-dd8d-4012-a5cf-1553c2f8d4b3")
	)
	(pad "7" thru_hole circle
		(at 2.5 0)
		(size 1.5 1.5)
		(drill 1)
		(layers "*.Cu" "*.Mask")
		(remove_unused_layers no)
		(uuid "5e4d1ea7-be91-4f38-90b8-68ad123cd82f")
	)
	(pad "8" thru_hole circle
		(at 5 0)
		(size 1.5 1.5)
		(drill 1)
		(layers "*.Cu" "*.Mask")
		(remove_unused_layers no)
		(uuid "de5ff665-35b7-41c9-a9e7-89ec83940a2d")
	)
	(pad "9" thru_hole circle
		(at 7.5 0)
		(size 1.5 1.5)
		(drill 1)
		(layers "*.Cu" "*.Mask")
		(remove_unused_layers no)
		(uuid "6607e940-b911-4476-9532-a5d1a1849d88")
	)
	(pad "10" thru_hole circle
		(at 10 0)
		(size 1.5 1.5)
		(drill 1)
		(layers "*.Cu" "*.Mask")
		(remove_unused_layers no)
		(uuid "cc70bad0-a65d-4094-87db-12e1445b08c8")
	)
	(pad "11" thru_hole circle
		(at 12.5 0)
		(size 1.5 1.5)
		(drill 1)
		(layers "*.Cu" "*.Mask")
		(remove_unused_layers no)
		(uuid "293cfd4b-7d26-45c0-a511-11696ce64b74")
	)
)
