(footprint "Keystone-3522-2"
	(version 20240108)
	(generator "pcbnew")
	(generator_version "8.0")
	(layer "F.Cu")
	(descr "Automotive ATO Blade Fuse Clip")
	(property "Reference" "3522-2"
		(at 0 0 0)
		(layer "F.Fab")
		(uuid "01677454-705f-47ff-9d32-2c689e91ec70")
		(effects
			(font
				(size 1.2 1.2)
				(thickness 0.12)
			)
		)
	)
	(property "Value" "3522-2"
		(at 0 0 0)
		(layer "F.Fab")
		(hide yes)
		(uuid "b88ea3a0-fc16-4756-a5a0-bfc3a9132131")
		(effects
			(font
				(size 1.2 1.2)
				(thickness 0.12)
			)
		)
	)
	(property "Footprint" ""
		(at 0 0 0)
		(unlocked yes)
		(layer "F.Fab")
		(hide yes)
		(uuid "a3e7cde2-7a9a-4a42-81fc-ffbe033550a6")
		(effects
			(font
				(size 1.27 1.27)
				(thickness 0.15)
			)
		)
	)
	(property "Datasheet" ""
		(at 0 0 0)
		(unlocked yes)
		(layer "F.Fab")
		(hide yes)
		(uuid "d88035d1-5b95-4cac-87ff-574518831877")
		(effects
			(font
				(size 1.27 1.27)
				(thickness 0.15)
			)
		)
	)
	(property "Description" ""
		(at 0 0 0)
		(unlocked yes)
		(layer "F.Fab")
		(hide yes)
		(uuid "e6ecf4f5-c513-466f-842b-b825e5ac9a31")
		(effects
			(font
				(size 1.27 1.27)
				(thickness 0.15)
			)
		)
	)
	(attr through_hole)
	(fp_line
		(start -9.7 -2.3)
		(end -7.6 -2.3)
		(stroke
			(width 0.12)
			(type solid)
		)
		(layer "F.SilkS")
		(uuid "52780aa0-5f12-47b5-897a-2ad498dba479")
	)
	(fp_line
		(start -9.7 2.3)
		(end -9.7 -2.3)
		(stroke
			(width 0.12)
			(type solid)
		)
		(layer "F.SilkS")
		(uuid "769a281d-b6e1-4819-8e7b-51bf8ae6b7c9")
	)
	(fp_line
		(start -7.6 2.3)
		(end -9.7 2.3)
		(stroke
			(width 0.12)
			(type solid)
		)
		(layer "F.SilkS")
		(uuid "fbd579b0-b324-4eb1-bbe0-2cf3a6ee2a0c")
	)
	(fp_line
		(start -6.6 -2.3)
		(end -2.55 -2.3)
		(stroke
			(width 0.12)
			(type solid)
		)
		(layer "F.SilkS")
		(uuid "bb2a8d59-be4c-49d9-9c87-62396e2f0c11")
	)
	(fp_line
		(start -6.6 2.3)
		(end -2.55 2.3)
		(stroke
			(width 0.12)
			(type solid)
		)
		(layer "F.SilkS")
		(uuid "06128bb8-9daf-4119-b813-0bb3c5c20b64")
	)
	(fp_line
		(start 6.6 -2.3)
		(end 2.55 -2.3)
		(stroke
			(width 0.12)
			(type solid)
		)
		(layer "F.SilkS")
		(uuid "ad1df6e3-3e23-4d2e-8746-c1205aab7aa1")
	)
	(fp_line
		(start 6.6 2.3)
		(end 2.55 2.3)
		(stroke
			(width 0.12)
			(type solid)
		)
		(layer "F.SilkS")
		(uuid "22f39bdf-a1b9-4229-ac50-3edbfc007d72")
	)
	(fp_line
		(start 7.6 -2.3)
		(end 9.7 -2.3)
		(stroke
			(width 0.12)
			(type solid)
		)
		(layer "F.SilkS")
		(uuid "7d4d13a8-8e71-43fa-878b-b5c32cd704b9")
	)
	(fp_line
		(start 9.7 -2.3)
		(end 9.7 2.3)
		(stroke
			(width 0.12)
			(type solid)
		)
		(layer "F.SilkS")
		(uuid "3c8a3159-c418-4014-9990-3360b6b9921d")
	)
	(fp_line
		(start 9.7 2.3)
		(end 7.6 2.3)
		(stroke
			(width 0.12)
			(type solid)
		)
		(layer "F.SilkS")
		(uuid "7a3033e9-5e6a-4c42-9871-76ee066a62de")
	)
	(fp_rect
		(start 0 0)
		(end 0 0)
		(stroke
			(width 0.01)
			(type solid)
		)
		(fill none)
		(layer "F.CrtYd")
		(uuid "20154c9b-62c9-48cf-ac5f-207b71c8aeae")
	)
	(fp_rect
		(start 10.2 2.8)
		(end -10.2 -2.8)
		(stroke
			(width 0.01)
			(type solid)
		)
		(fill none)
		(layer "F.CrtYd")
		(uuid "d46749a7-04ea-4225-afbd-8fc2a4d47df1")
	)
	(fp_rect
		(start -9.7 -2.3)
		(end 9.7 2.3)
		(stroke
			(width 0.1)
			(type solid)
		)
		(fill none)
		(layer "F.Fab")
		(uuid "1a5416cd-635b-40f5-b613-3812fa4d1ef8")
	)
	(fp_rect
		(start 0 0)
		(end 0 0)
		(stroke
			(width 0.1)
			(type solid)
		)
		(fill none)
		(layer "F.Fab")
		(uuid "9ec3817d-ce97-45d0-bfff-cb5bd3cfde83")
	)
	(pad "1" thru_hole circle
		(at -7.112 0)
		(size 4.5 4.5)
		(drill 2.6)
		(layers "*.Cu" "*.Mask")
		(remove_unused_layers no)
		(uuid "10540326-7159-4306-ad6b-2be1e6a846bf")
	)
	(pad "1" thru_hole oval
		(at -2.032 0)
		(size 3 4.5)
		(drill 2.6)
		(layers "*.Cu" "*.Mask")
		(remove_unused_layers no)
		(uuid "2e42567d-0f52-4b05-a342-2aea46640eed")
	)
	(pad "2" thru_hole oval
		(at 2.032 0)
		(size 3 4.5)
		(drill 2.6)
		(layers "*.Cu" "*.Mask")
		(remove_unused_layers no)
		(uuid "20914baf-c7c2-46d5-b853-345809298703")
	)
	(pad "2" thru_hole circle
		(at 7.112 0)
		(size 4.5 4.5)
		(drill 2.6)
		(layers "*.Cu" "*.Mask")
		(remove_unused_layers no)
		(uuid "0f7e077d-a6c5-4195-8854-834d6c57ad97")
	)
	(model "${KISYS3DMOD}/Keystone/3255-2.wrl"
		(offset
			(xyz 0 0 0)
		)
		(scale
			(xyz 1 1 1)
		)
		(rotate
			(xyz 0 0 0)
		)
	)
)
