(footprint "Keystone-3557-2"
	(version 20240108)
	(generator "pcbnew")
	(generator_version "8.0")
	(layer "F.Cu")
	(descr "Auto Fuse Holder")
	(property "Reference" "3557-2"
		(at 0 0 0)
		(unlocked yes)
		(layer "F.Fab")
		(uuid "f4f99e3d-7269-4f6a-a759-16ad2a258779")
		(effects
			(font
				(size 1.2 1.2)
				(thickness 0.12)
			)
		)
	)
	(property "Value" "3557-2"
		(at 0 0 0)
		(unlocked yes)
		(layer "F.Fab")
		(hide yes)
		(uuid "c022004a-c968-410e-b59e-fbab0e561e9d")
		(effects
			(font
				(size 1.2 1.2)
				(thickness 0.12)
			)
		)
	)
	(property "Footprint" ""
		(at 0 0 0)
		(unlocked yes)
		(layer "F.Fab")
		(hide yes)
		(uuid "f92bd842-4c3c-4071-a5ec-2da0214ba8b6")
		(effects
			(font
				(size 1.27 1.27)
				(thickness 0.15)
			)
		)
	)
	(property "Datasheet" ""
		(at 0 0 0)
		(unlocked yes)
		(layer "F.Fab")
		(hide yes)
		(uuid "50d6d97e-1602-4a28-8705-2058cf95aa80")
		(effects
			(font
				(size 1.27 1.27)
				(thickness 0.15)
			)
		)
	)
	(property "Description" ""
		(at 0 0 0)
		(unlocked yes)
		(layer "F.Fab")
		(hide yes)
		(uuid "0ef6b2fd-4a53-4f56-87cc-c3b42a44b191")
		(effects
			(font
				(size 1.27 1.27)
				(thickness 0.15)
			)
		)
	)
	(attr through_hole)
	(fp_rect
		(start -9.9 -3.4)
		(end 9.9 3.4)
		(stroke
			(width 0.12)
			(type default)
		)
		(fill none)
		(layer "F.SilkS")
		(uuid "3e3d55c8-e0ea-48fb-8421-a84b7cb7055b")
	)
	(fp_rect
		(start -10.4 -3.9)
		(end 10.4 3.9)
		(stroke
			(width 0.01)
			(type default)
		)
		(fill none)
		(layer "F.CrtYd")
		(uuid "98970bf0-1168-4b4e-a1c9-3b0c8d7eaacf")
	)
	(fp_rect
		(start -9.9 -3.4)
		(end 9.9 3.4)
		(stroke
			(width 0.1)
			(type default)
		)
		(fill none)
		(layer "F.Fab")
		(uuid "363945f6-fbef-42be-99cf-4a8a48434d92")
	)
	(pad "1" thru_hole circle
		(at -6.75 -1.7)
		(size 2.8 2.8)
		(drill 1.8)
		(layers "*.Cu" "*.Mask")
		(remove_unused_layers no)
		(uuid "8d0c1d66-35ef-4a53-a28f-436a11b54f42")
	)
	(pad "1" thru_hole circle
		(at -6.75 1.7)
		(size 2.8 2.8)
		(drill 1.8)
		(layers "*.Cu" "*.Mask")
		(remove_unused_layers no)
		(uuid "15fe8f3d-6077-4e0e-81d0-8ec3f4538981")
	)
	(pad "2" thru_hole circle
		(at 6.75 -1.7)
		(size 2.8 2.8)
		(drill 1.8)
		(layers "*.Cu" "*.Mask")
		(remove_unused_layers no)
		(uuid "29e058a7-50a3-43e5-81c3-bfee53da08be")
	)
	(pad "2" thru_hole circle
		(at 6.75 1.7)
		(size 2.8 2.8)
		(drill 1.8)
		(layers "*.Cu" "*.Mask")
		(remove_unused_layers no)
		(uuid "0e8f7fc0-2ef2-4b90-9c15-8a3a601ee459")
	)
	(model "${KICAD6_3DMODEL_DIR}/Keystone/3557-2.wrl"
		(offset
			(xyz 0 0 0)
		)
		(scale
			(xyz 1 1 1)
		)
		(rotate
			(xyz 0 0 0)
		)
	)
)
