(footprint "WE-WR-FSH-696107003002"
	(version 20240108)
	(generator "pcbnew")
	(generator_version "8.0")
	(layer "F.Cu")
	(descr "Würth WR-FSH 5x20 Fuse Holder with Peg, 22.6mm pitch")
	(property "Reference" "WR-FSH-696107003002"
		(at 0 0 0)
		(layer "F.Fab")
		(uuid "d2389119-bcaa-41f0-ab35-6e53b3c8f60b")
		(effects
			(font
				(size 1.2 1.2)
				(thickness 0.12)
			)
		)
	)
	(property "Value" "WR-FSH-696107003002"
		(at 0 0 0)
		(layer "F.Fab")
		(hide yes)
		(uuid "d989acdc-267a-4601-9a4b-a7122051f86f")
		(effects
			(font
				(size 1.2 1.2)
				(thickness 0.12)
			)
		)
	)
	(property "Footprint" ""
		(at 0 0 0)
		(unlocked yes)
		(layer "F.Fab")
		(hide yes)
		(uuid "83373f42-60c5-4971-b229-da94b434d755")
		(effects
			(font
				(size 1.27 1.27)
				(thickness 0.15)
			)
		)
	)
	(property "Datasheet" ""
		(at 0 0 0)
		(unlocked yes)
		(layer "F.Fab")
		(hide yes)
		(uuid "4ada26ba-6e85-4e48-a07f-a2b8fb170b99")
		(effects
			(font
				(size 1.27 1.27)
				(thickness 0.15)
			)
		)
	)
	(property "Description" ""
		(at 0 0 0)
		(unlocked yes)
		(layer "F.Fab")
		(hide yes)
		(uuid "317d156b-5daf-4b40-acf4-40ed179cc143")
		(effects
			(font
				(size 1.27 1.27)
				(thickness 0.15)
			)
		)
	)
	(attr through_hole)
	(fp_line
		(start -12.25 -4.75)
		(end 12.25 -4.75)
		(stroke
			(width 0.12)
			(type solid)
		)
		(layer "F.SilkS")
		(uuid "89b53105-62d0-4ba5-a4c2-839fb0632144")
	)
	(fp_line
		(start -12.25 -1.05)
		(end -12.25 -4.75)
		(stroke
			(width 0.12)
			(type solid)
		)
		(layer "F.SilkS")
		(uuid "5bfe642d-13d0-485f-b259-218745996593")
	)
	(fp_line
		(start -12.25 4.75)
		(end -12.25 1.05)
		(stroke
			(width 0.12)
			(type solid)
		)
		(layer "F.SilkS")
		(uuid "c7bc59a3-aec5-4de2-96a0-b199ad140a5d")
	)
	(fp_line
		(start 12.25 -4.75)
		(end 12.25 -1.05)
		(stroke
			(width 0.12)
			(type solid)
		)
		(layer "F.SilkS")
		(uuid "77ba433e-3940-4864-82e2-e016c567f196")
	)
	(fp_line
		(start 12.25 1.05)
		(end 12.25 4.75)
		(stroke
			(width 0.12)
			(type solid)
		)
		(layer "F.SilkS")
		(uuid "444fe92c-e36e-47cb-ae5b-94c0c8f69525")
	)
	(fp_line
		(start 12.25 4.75)
		(end -12.25 4.75)
		(stroke
			(width 0.12)
			(type solid)
		)
		(layer "F.SilkS")
		(uuid "a255fbe3-a2c5-403a-91f3-3c50e318955f")
	)
	(fp_rect
		(start -12.75 -5.25)
		(end 12.75 5.25)
		(stroke
			(width 0.01)
			(type solid)
		)
		(fill none)
		(layer "F.CrtYd")
		(uuid "ad2fcdfc-f628-4474-95d0-7051c26208eb")
	)
	(fp_rect
		(start -12.25 -4.75)
		(end 12.25 4.75)
		(stroke
			(width 0.1)
			(type solid)
		)
		(fill none)
		(layer "F.Fab")
		(uuid "73d5776a-a850-4a7c-bcc0-979b2b6254f1")
	)
	(pad "" np_thru_hole circle
		(at 0 0)
		(size 2.6 2.6)
		(drill 2.6)
		(layers "*.Cu" "*.Mask")
		(uuid "5025a6d3-b1c3-40e3-a61b-14d69fe8cfa7")
	)
	(pad "1" thru_hole circle
		(at -11.3 0)
		(size 2.3 2.3)
		(drill 1.5)
		(layers "*.Cu" "*.Mask")
		(remove_unused_layers no)
		(uuid "818dc8ed-996f-40d2-a8a7-0e84e3052afb")
	)
	(pad "2" thru_hole circle
		(at 11.3 0)
		(size 2.3 2.3)
		(drill 1.5)
		(layers "*.Cu" "*.Mask")
		(remove_unused_layers no)
		(uuid "51e70ecb-6473-472b-92e1-c45814a171c8")
	)
	(model "${KICAD8_3DMODEL_DIR}/WE/WR-FSH-696107003002.wrl"
		(offset
			(xyz 0 0 0)
		)
		(scale
			(xyz 1 1 1)
		)
		(rotate
			(xyz 0 0 0)
		)
	)
)
