(footprint "Keystone-2468"
	(version 20240108)
	(generator "pcbnew")
	(generator_version "8.0")
	(layer "F.Cu")
	(descr "2xAAA Battery Holder")
	(property "Reference" "2468"
		(at 0 0 0)
		(unlocked yes)
		(layer "F.Fab")
		(uuid "e397e18b-92b0-40fd-94e2-fcc07ea90722")
		(effects
			(font
				(size 1 1)
				(thickness 0.1)
			)
		)
	)
	(property "Value" "2468"
		(at 0 0 0)
		(unlocked yes)
		(layer "F.Fab")
		(hide yes)
		(uuid "9fa9cfd6-ed29-41d6-bd54-4449aabaa9f0")
		(effects
			(font
				(size 1 1)
				(thickness 0.1)
			)
		)
	)
	(property "Footprint" ""
		(at 0 0 0)
		(unlocked yes)
		(layer "F.Fab")
		(hide yes)
		(uuid "0e07f389-b59f-4016-9059-4da7038ac546")
		(effects
			(font
				(size 1.27 1.27)
			)
		)
	)
	(property "Datasheet" ""
		(at 0 0 0)
		(unlocked yes)
		(layer "F.Fab")
		(hide yes)
		(uuid "64e3ea2c-944d-4259-8ab8-e47280f6084f")
		(effects
			(font
				(size 1.27 1.27)
			)
		)
	)
	(property "Description" ""
		(at 0 0 0)
		(unlocked yes)
		(layer "F.Fab")
		(hide yes)
		(uuid "3a58b3eb-e06f-4fde-84b0-a6432e1f7d53")
		(effects
			(font
				(size 1.27 1.27)
			)
		)
	)
	(attr through_hole)
	(fp_line
		(start -27 -12.55)
		(end 27 -12.55)
		(stroke
			(width 0.12)
			(type solid)
		)
		(layer "F.SilkS")
		(uuid "5a4cea06-cab5-4fcb-b81c-617b09933d94")
	)
	(fp_line
		(start -27 12.55)
		(end -27 -12.55)
		(stroke
			(width 0.12)
			(type solid)
		)
		(layer "F.SilkS")
		(uuid "23c2c0bc-4fbd-4107-98ee-5c149a36dede")
	)
	(fp_line
		(start 27 -12.55)
		(end 27 12.55)
		(stroke
			(width 0.12)
			(type solid)
		)
		(layer "F.SilkS")
		(uuid "13fbca01-d4b6-45b1-a328-65969a48ee36")
	)
	(fp_line
		(start 27 12.55)
		(end -27 12.55)
		(stroke
			(width 0.12)
			(type solid)
		)
		(layer "F.SilkS")
		(uuid "06bac5a5-a814-434c-a702-32d2c5aa03f7")
	)
	(fp_line
		(start -27.5 -13.05)
		(end 27.5 -13.05)
		(stroke
			(width 0.01)
			(type solid)
		)
		(layer "F.CrtYd")
		(uuid "788cb9ca-a647-4061-a38e-a1beeb07712c")
	)
	(fp_line
		(start -27.5 13.05)
		(end -27.5 -13.05)
		(stroke
			(width 0.01)
			(type solid)
		)
		(layer "F.CrtYd")
		(uuid "0469de4b-3bbb-4f6c-9b08-f8e399d0bc3f")
	)
	(fp_line
		(start 27.5 -13.05)
		(end 27.5 13.05)
		(stroke
			(width 0.01)
			(type solid)
		)
		(layer "F.CrtYd")
		(uuid "8ee72116-3350-4e8a-8fec-93253e49e9ad")
	)
	(fp_line
		(start 27.5 13.05)
		(end -27.5 13.05)
		(stroke
			(width 0.01)
			(type solid)
		)
		(layer "F.CrtYd")
		(uuid "c6a1338f-11c5-455c-bbeb-cb5afa9f1d09")
	)
	(fp_line
		(start -27 -12.55)
		(end -27 12.55)
		(stroke
			(width 0.1)
			(type solid)
		)
		(layer "F.Fab")
		(uuid "3ef74ec4-d0e2-4ccf-9e77-dd4267b66d54")
	)
	(fp_line
		(start -27 12.55)
		(end 27 12.55)
		(stroke
			(width 0.1)
			(type solid)
		)
		(layer "F.Fab")
		(uuid "573b1e36-3eae-4e43-83ed-2bbe73175c3f")
	)
	(fp_line
		(start 26 0)
		(end -26 0)
		(stroke
			(width 0.1)
			(type solid)
		)
		(layer "F.Fab")
		(uuid "cdaee85f-7cea-494f-baf4-809b77417a4b")
	)
	(fp_line
		(start 27 -12.55)
		(end -27 -12.55)
		(stroke
			(width 0.1)
			(type solid)
		)
		(layer "F.Fab")
		(uuid "7974df65-d79d-4d1c-b61c-05f39334474d")
	)
	(fp_line
		(start 27 12.55)
		(end 27 -12.55)
		(stroke
			(width 0.1)
			(type solid)
		)
		(layer "F.Fab")
		(uuid "c2765c78-3133-4b8a-bfeb-de52e3424e76")
	)
	(pad "" np_thru_hole circle
		(at -15 -2.35)
		(size 3.5 3.5)
		(drill 3.5)
		(layers "*.Cu" "*.Mask")
		(uuid "f101dfe0-9cc0-436a-8a01-211da89f647b")
	)
	(pad "" np_thru_hole circle
		(at 15 2.35)
		(size 3.5 3.5)
		(drill 3.5)
		(layers "*.Cu" "*.Mask")
		(uuid "fa61d073-450f-4d96-ac28-e0d2b1938a05")
	)
	(pad "+" thru_hole circle
		(at 23.65 6.35)
		(size 1.7 1.7)
		(drill 1.1)
		(layers "*.Cu" "*.Mask")
		(remove_unused_layers no)
		(uuid "54ea6214-5004-4332-9bba-41825e02af6b")
	)
	(pad "-" thru_hole circle
		(at 23.65 -6.35)
		(size 1.7 1.7)
		(drill 1.1)
		(layers "*.Cu" "*.Mask")
		(remove_unused_layers no)
		(uuid "131aba9b-e13c-4d92-bf5d-d13217c4dbee")
	)
)