(footprint "CUI-RCJ05x"
	(version 20240108)
	(generator "pcbnew")
	(generator_version "8.0")
	(layer "F.Cu")
	(descr "Vertical RCA Socket")
	(property "Reference" "RCJ05x"
		(at 0 0 0)
		(layer "F.Fab")
		(uuid "67b9a014-9b9b-488e-bb23-8f50078e02ae")
		(effects
			(font
				(size 1.2 1.2)
				(thickness 0.12)
			)
		)
	)
	(property "Value" "RCJ05x"
		(at 0 0 0)
		(layer "F.Fab")
		(hide yes)
		(uuid "5acb4277-4e3d-4f59-8d75-c55347bf68c9")
		(effects
			(font
				(size 1.2 1.2)
				(thickness 0.12)
			)
		)
	)
	(property "Footprint" ""
		(at 0 0 0)
		(layer "F.Fab")
		(hide yes)
		(uuid "75371722-7d4a-4fc5-911b-366c82d2ea7e")
		(effects
			(font
				(size 1.27 1.27)
				(thickness 0.15)
			)
		)
	)
	(property "Datasheet" ""
		(at 0 0 0)
		(layer "F.Fab")
		(hide yes)
		(uuid "6b8c1938-27c9-4255-a0a8-2a5a3ce6ff96")
		(effects
			(font
				(size 1.27 1.27)
				(thickness 0.15)
			)
		)
	)
	(property "Description" ""
		(at 0 0 0)
		(layer "F.Fab")
		(hide yes)
		(uuid "d22827c1-9829-4bf3-996e-8ec2c560ca11")
		(effects
			(font
				(size 1.27 1.27)
				(thickness 0.15)
			)
		)
	)
	(attr through_hole)
	(fp_line
		(start -5.15 -5.15)
		(end 5.15 -5.15)
		(stroke
			(width 0.12)
			(type solid)
		)
		(layer "F.SilkS")
		(uuid "3df84308-8c38-4513-b4bc-2e845fdae72b")
	)
	(fp_line
		(start -5.15 8.15)
		(end -5.15 -5.15)
		(stroke
			(width 0.12)
			(type solid)
		)
		(layer "F.SilkS")
		(uuid "d635eca8-b6fa-44c1-83e0-02b813df5d45")
	)
	(fp_line
		(start 5.15 -5.15)
		(end 5.15 8.15)
		(stroke
			(width 0.12)
			(type solid)
		)
		(layer "F.SilkS")
		(uuid "369a498b-9e47-4158-9af3-9b50a64ffa6a")
	)
	(fp_line
		(start 5.15 8.15)
		(end -5.15 8.15)
		(stroke
			(width 0.12)
			(type solid)
		)
		(layer "F.SilkS")
		(uuid "b4440ac5-1203-4abb-8774-a4fc1c919c83")
	)
	(fp_circle
		(center 0 0)
		(end 4.15 0)
		(stroke
			(width 0.1)
			(type solid)
		)
		(fill none)
		(layer "Dwgs.User")
		(uuid "9fd71e85-3be3-486d-a9e4-3cedaab997c0")
	)
	(fp_line
		(start -5.65 -5.65)
		(end 5.65 -5.65)
		(stroke
			(width 0.01)
			(type solid)
		)
		(layer "F.CrtYd")
		(uuid "6a0014a6-cbe1-45f6-a865-870613855a25")
	)
	(fp_line
		(start -5.65 8.65)
		(end -5.65 -5.65)
		(stroke
			(width 0.01)
			(type solid)
		)
		(layer "F.CrtYd")
		(uuid "5fb19cf4-380f-43e3-8edd-04f1a410cf5a")
	)
	(fp_line
		(start 5.65 -5.65)
		(end 5.65 8.65)
		(stroke
			(width 0.01)
			(type solid)
		)
		(layer "F.CrtYd")
		(uuid "ca884522-84cd-4bf7-a7b9-b7461480d547")
	)
	(fp_line
		(start 5.65 8.65)
		(end -5.65 8.65)
		(stroke
			(width 0.01)
			(type solid)
		)
		(layer "F.CrtYd")
		(uuid "de0e5642-b320-4410-87c6-a2110b257feb")
	)
	(fp_line
		(start -5.15 8.15)
		(end -5.15 -5.15)
		(stroke
			(width 0.1)
			(type solid)
		)
		(layer "F.Fab")
		(uuid "40b0bc17-f022-466c-87e6-5a88b0da97f6")
	)
	(fp_line
		(start -5.15 8.15)
		(end -3.95 8.15)
		(stroke
			(width 0.1)
			(type solid)
		)
		(layer "F.Fab")
		(uuid "f25da3a4-015e-4119-96e6-3d8ec872db24")
	)
	(fp_line
		(start -5.15 8.15)
		(end -3.65 8.15)
		(stroke
			(width 0.1)
			(type solid)
		)
		(layer "F.Fab")
		(uuid "9fd4e2ca-0488-4947-8dd6-db15e7dd86a7")
	)
	(fp_line
		(start -3.65 6.65)
		(end -2 6.65)
		(stroke
			(width 0.1)
			(type solid)
		)
		(layer "F.Fab")
		(uuid "b092b9c1-88c9-4b90-8f19-16ae889558f1")
	)
	(fp_line
		(start -3.65 8.15)
		(end -3.65 6.65)
		(stroke
			(width 0.1)
			(type solid)
		)
		(layer "F.Fab")
		(uuid "4cf1ad10-c5a3-49cb-9585-78531994d11a")
	)
	(fp_line
		(start -2 -5.15)
		(end -5.15 -5.15)
		(stroke
			(width 0.1)
			(type solid)
		)
		(layer "F.Fab")
		(uuid "81f42f0e-5f8e-492e-b2fe-6dd045a504fd")
	)
	(fp_line
		(start -2 -5.15)
		(end -2 -4.15)
		(stroke
			(width 0.1)
			(type solid)
		)
		(layer "F.Fab")
		(uuid "17b118a8-c8e6-4122-9457-39ae7f189e9a")
	)
	(fp_line
		(start -2 -4.15)
		(end 2 -4.15)
		(stroke
			(width 0.1)
			(type solid)
		)
		(layer "F.Fab")
		(uuid "09ca4eb0-b06e-46ef-8295-a65384a879aa")
	)
	(fp_line
		(start -2 5.65)
		(end 2 5.65)
		(stroke
			(width 0.1)
			(type solid)
		)
		(layer "F.Fab")
		(uuid "ffaf2a21-f8e8-4f2f-98e9-d7e40bdcdf76")
	)
	(fp_line
		(start -2 6.65)
		(end -2 5.65)
		(stroke
			(width 0.1)
			(type solid)
		)
		(layer "F.Fab")
		(uuid "c617a592-3274-47f4-9682-029ec34e37a1")
	)
	(fp_line
		(start 2 -5.15)
		(end 5.15 -5.15)
		(stroke
			(width 0.1)
			(type solid)
		)
		(layer "F.Fab")
		(uuid "50cf7b0d-7dcf-41e3-9737-c148806e1d53")
	)
	(fp_line
		(start 2 -4.15)
		(end 2 -5.15)
		(stroke
			(width 0.1)
			(type solid)
		)
		(layer "F.Fab")
		(uuid "6885909b-bddc-42e2-b1a3-58f7a137bc6f")
	)
	(fp_line
		(start 2 5.65)
		(end 2 6.65)
		(stroke
			(width 0.1)
			(type solid)
		)
		(layer "F.Fab")
		(uuid "364b45d3-8223-4f12-8b83-7cc6da2347a3")
	)
	(fp_line
		(start 3.65 6.65)
		(end 2 6.65)
		(stroke
			(width 0.1)
			(type solid)
		)
		(layer "F.Fab")
		(uuid "2774682e-7760-452e-8ee3-fd6470a75474")
	)
	(fp_line
		(start 3.65 8.15)
		(end 3.65 6.65)
		(stroke
			(width 0.1)
			(type solid)
		)
		(layer "F.Fab")
		(uuid "9854833b-b4aa-4008-8c93-a72bf88b9d2b")
	)
	(fp_line
		(start 5.15 -5.15)
		(end 5.15 8.15)
		(stroke
			(width 0.1)
			(type solid)
		)
		(layer "F.Fab")
		(uuid "21d96f06-aca4-4844-a73f-2ab3f803f444")
	)
	(fp_line
		(start 5.15 8.15)
		(end 3.65 8.15)
		(stroke
			(width 0.1)
			(type solid)
		)
		(layer "F.Fab")
		(uuid "bf602e9a-6472-48d6-93b9-38e8be9746d7")
	)
	(fp_text user "${REFERENCE}"
		(at 0 -5.8 0)
		(layer "F.SilkS")
		(uuid "1fed66e7-fc38-4ac0-b39f-86b8e19c2eb8")
		(effects
			(font
				(size 0.8 0.8)
				(thickness 0.15)
				(bold yes)
			)
		)
	)
	(pad "C" thru_hole oval
		(at 0 -3.3)
		(size 2 3.5)
		(drill oval 1 2.5)
		(layers "*.Cu" "*.Mask")
		(remove_unused_layers no)
		(uuid "4c9a2a69-6635-4935-a7ca-62a82a36999f")
	)
	(pad "S" thru_hole oval
		(at 0 5.4)
		(size 4.3 3.3)
		(drill oval 3.3 2.3)
		(layers "*.Cu" "*.Mask")
		(remove_unused_layers no)
		(uuid "cb571c3a-2852-4dd2-9077-df4fe76ec0d8")
	)
)
