(footprint "GCT-USB1130"
	(version 20240108)
	(generator "pcbnew")
	(generator_version "8.0")
	(layer "F.Cu")
	(descr "USB A Type Receptacle RA")
	(property "Reference" "USB1130"
		(at 0 -10.3 0)
		(layer "F.Fab")
		(uuid "8ccceb6f-2fb5-4afa-82ff-c6536509f247")
		(effects
			(font
				(size 1.2 1.2)
				(thickness 0.12)
			)
		)
	)
	(property "Value" "USB1130"
		(at 0 -10.3 0)
		(layer "F.Fab")
		(hide yes)
		(uuid "61136d68-584c-4f14-8ccb-d3d2587b4a1d")
		(effects
			(font
				(size 1.2 1.2)
				(thickness 0.12)
			)
		)
	)
	(property "Footprint" ""
		(at 0 0 0)
		(layer "F.Fab")
		(hide yes)
		(uuid "fdb87f38-f7fb-4dbd-a38c-1833547d447c")
		(effects
			(font
				(size 1.27 1.27)
				(thickness 0.15)
			)
		)
	)
	(property "Datasheet" ""
		(at 0 0 0)
		(layer "F.Fab")
		(hide yes)
		(uuid "dafe239e-9de5-45af-85a9-3a5e777b22df")
		(effects
			(font
				(size 1.27 1.27)
				(thickness 0.15)
			)
		)
	)
	(property "Description" ""
		(at 0 0 0)
		(layer "F.Fab")
		(hide yes)
		(uuid "e0b62093-a7d6-4621-b660-c24c68383466")
		(effects
			(font
				(size 1.27 1.27)
				(thickness 0.15)
			)
		)
	)
	(attr through_hole)
	(fp_line
		(start -6.3 -15.3)
		(end -6.3 -12.35)
		(stroke
			(width 0.12)
			(type default)
		)
		(layer "F.SilkS")
		(uuid "305cf901-4992-4aab-9fd2-a6a1ca1453d8")
	)
	(fp_line
		(start -6.3 0)
		(end -6.3 -8.2)
		(stroke
			(width 0.12)
			(type default)
		)
		(layer "F.SilkS")
		(uuid "e22b7022-2fa4-41ab-900a-0437aa3f891a")
	)
	(fp_line
		(start -6.3 0)
		(end 6.3 0)
		(stroke
			(width 0.12)
			(type solid)
		)
		(layer "F.SilkS")
		(uuid "d88713bd-2595-40cf-a3e4-4ba5e0cca373")
	)
	(fp_line
		(start 6.3 -15.3)
		(end -6.3 -15.3)
		(stroke
			(width 0.12)
			(type solid)
		)
		(layer "F.SilkS")
		(uuid "bb150319-3c0d-44c4-8964-a95c2ac2ba95")
	)
	(fp_line
		(start 6.3 -15.3)
		(end 6.3 -12.35)
		(stroke
			(width 0.12)
			(type default)
		)
		(layer "F.SilkS")
		(uuid "4000b1b7-11a7-4c3b-bad0-56fa4912737c")
	)
	(fp_line
		(start 6.3 0)
		(end 6.3 -8.2)
		(stroke
			(width 0.12)
			(type default)
		)
		(layer "F.SilkS")
		(uuid "968491a4-a065-42ea-8954-90bdb1b41eb0")
	)
	(fp_line
		(start -8.6 -12.3)
		(end -8.6 -8.3)
		(stroke
			(width 0.01)
			(type default)
		)
		(layer "F.CrtYd")
		(uuid "7a0442e8-bab5-4887-886d-cb70a5ac1c50")
	)
	(fp_line
		(start -8.6 -8.3)
		(end -6.8 -8.3)
		(stroke
			(width 0.01)
			(type default)
		)
		(layer "F.CrtYd")
		(uuid "8e78be1d-7004-4642-84d0-693e05f59951")
	)
	(fp_line
		(start -6.8 -15.8)
		(end -6.8 -12.3)
		(stroke
			(width 0.01)
			(type default)
		)
		(layer "F.CrtYd")
		(uuid "c34a99b1-e4bb-4649-830b-0c64595d1e14")
	)
	(fp_line
		(start -6.8 -12.3)
		(end -8.6 -12.3)
		(stroke
			(width 0.01)
			(type default)
		)
		(layer "F.CrtYd")
		(uuid "9dae559c-656d-45a0-bb96-523522102e1c")
	)
	(fp_line
		(start -6.8 -8.3)
		(end -6.8 0)
		(stroke
			(width 0.01)
			(type default)
		)
		(layer "F.CrtYd")
		(uuid "9f6c6417-9ce5-443d-ae91-2e1641bbcaac")
	)
	(fp_line
		(start -6.8 0)
		(end 6.8 0)
		(stroke
			(width 0.01)
			(type default)
		)
		(layer "F.CrtYd")
		(uuid "8ee850cb-1620-46c9-836f-3876a8accea4")
	)
	(fp_line
		(start 6.8 -15.8)
		(end -6.8 -15.8)
		(stroke
			(width 0.01)
			(type default)
		)
		(layer "F.CrtYd")
		(uuid "99dd2ec6-179e-423d-81e7-0ea2ae6fd053")
	)
	(fp_line
		(start 6.8 -12.3)
		(end 6.8 -15.8)
		(stroke
			(width 0.01)
			(type default)
		)
		(layer "F.CrtYd")
		(uuid "e1c39ab6-7ccf-449d-8e11-abcd45e1b36e")
	)
	(fp_line
		(start 6.8 -8.3)
		(end 8.6 -8.3)
		(stroke
			(width 0.01)
			(type default)
		)
		(layer "F.CrtYd")
		(uuid "81cb0137-745e-49ba-b6e6-f47f870b1554")
	)
	(fp_line
		(start 6.8 0)
		(end 6.8 -8.3)
		(stroke
			(width 0.01)
			(type default)
		)
		(layer "F.CrtYd")
		(uuid "478e8893-3573-432e-a59a-3359ac209d6d")
	)
	(fp_line
		(start 8.6 -12.3)
		(end 6.8 -12.3)
		(stroke
			(width 0.01)
			(type default)
		)
		(layer "F.CrtYd")
		(uuid "a2d147ca-c073-4b66-a78c-0716fe116634")
	)
	(fp_line
		(start 8.6 -8.3)
		(end 8.6 -12.3)
		(stroke
			(width 0.01)
			(type default)
		)
		(layer "F.CrtYd")
		(uuid "fb741a2a-4059-4706-82b0-ca19bf696447")
	)
	(fp_line
		(start -6.3 -14.3)
		(end -5.3 -15.3)
		(stroke
			(width 0.1)
			(type default)
		)
		(layer "F.Fab")
		(uuid "2d26ff7c-dea9-4c91-b9ba-550fe51b06c3")
	)
	(fp_rect
		(start -6.3 -15.3)
		(end 6.3 0)
		(stroke
			(width 0.1)
			(type default)
		)
		(fill none)
		(layer "F.Fab")
		(uuid "8db5d7f2-2756-4e30-b577-347ecac98289")
	)
	(fp_text user "${REFERENCE}"
		(at 0 -15.95 0)
		(layer "F.SilkS")
		(uuid "399d09b5-49bb-49e0-87a1-4af22602b165")
		(effects
			(font
				(size 0.8 0.8)
				(thickness 0.15)
			)
		)
	)
	(pad "1" thru_hole circle
		(at -3.5 -13)
		(size 1.5 1.5)
		(drill 1)
		(layers "*.Cu" "*.Mask")
		(remove_unused_layers no)
		(uuid "8cd5e562-144e-475e-a40c-e4c82558b766")
	)
	(pad "2" thru_hole circle
		(at -1 -13)
		(size 1.5 1.5)
		(drill 1)
		(layers "*.Cu" "*.Mask")
		(remove_unused_layers no)
		(uuid "4a7a883b-3179-49b4-a5f5-3972daba7177")
	)
	(pad "3" thru_hole circle
		(at 1 -13)
		(size 1.5 1.5)
		(drill 1)
		(layers "*.Cu" "*.Mask")
		(remove_unused_layers no)
		(uuid "4e8380ff-6718-497a-82e6-5a3e38af3bad")
	)
	(pad "4" thru_hole circle
		(at 3.5 -13)
		(size 1.5 1.5)
		(drill 1)
		(layers "*.Cu" "*.Mask")
		(remove_unused_layers no)
		(uuid "de1e1f6a-a738-49cd-a09b-fff05a9afeaa")
	)
	(pad "G" thru_hole circle
		(at -6.6 -10.3)
		(size 3.5 3.5)
		(drill 2.3)
		(layers "*.Cu" "*.Mask")
		(remove_unused_layers no)
		(uuid "9778fdf0-6d27-4cf1-afe2-542f0c17f4be")
	)
	(pad "G" thru_hole circle
		(at 6.6 -10.3)
		(size 3.5 3.5)
		(drill 2.3)
		(layers "*.Cu" "*.Mask")
		(remove_unused_layers no)
		(uuid "bb1eb7c3-84e0-4de4-8205-2524d9538b51")
	)
	(model "${KICAD6_3DMODEL_DIR}/GCT/USB1130.wrl"
		(offset
			(xyz 0 0 0)
		)
		(scale
			(xyz 1 1 1)
		)
		(rotate
			(xyz 0 0 0)
		)
	)
)
