(footprint "Molex-67643"
	(version 20240108)
	(generator "pcbnew")
	(generator_version "8.0")
	(layer "F.Cu")
	(descr "USB A Type RA Receptacle")
	(property "Reference" "67643"
		(at 0 -10.3 0)
		(layer "F.Fab")
		(uuid "8ccceb6f-2fb5-4afa-82ff-c6536509f247")
		(effects
			(font
				(size 1.2 1.2)
				(thickness 0.12)
			)
		)
	)
	(property "Value" "67643"
		(at 0 -10.3 0)
		(layer "F.Fab")
		(hide yes)
		(uuid "61136d68-584c-4f14-8ccb-d3d2587b4a1d")
		(effects
			(font
				(size 1.2 1.2)
				(thickness 0.12)
			)
		)
	)
	(property "Footprint" ""
		(at 0 0 0)
		(layer "F.Fab")
		(hide yes)
		(uuid "5335f5d0-8151-4b82-9d31-fee1002be803")
		(effects
			(font
				(size 1.27 1.27)
				(thickness 0.15)
			)
		)
	)
	(property "Datasheet" ""
		(at 0 0 0)
		(layer "F.Fab")
		(hide yes)
		(uuid "c185acda-f9c1-4ada-ab2a-0a83172cb4b7")
		(effects
			(font
				(size 1.27 1.27)
				(thickness 0.15)
			)
		)
	)
	(property "Description" ""
		(at 0 0 0)
		(layer "F.Fab")
		(hide yes)
		(uuid "26b8899c-fbfd-4655-98bb-8ffd62eff1b5")
		(effects
			(font
				(size 1.27 1.27)
				(thickness 0.15)
			)
		)
	)
	(attr through_hole)
	(fp_line
		(start -7.2 -0.2)
		(end -7.2 0)
		(stroke
			(width 0.12)
			(type solid)
		)
		(layer "F.SilkS")
		(uuid "aa00f062-8df3-4e8d-bd89-f86c29786315")
	)
	(fp_line
		(start -7.2 -0.2)
		(end -6.3 -0.2)
		(stroke
			(width 0.12)
			(type default)
		)
		(layer "F.SilkS")
		(uuid "3bf27c14-f5ac-41c4-abe4-ea3fa1f95ffe")
	)
	(fp_line
		(start -7.2 0)
		(end 7.2 0)
		(stroke
			(width 0.12)
			(type solid)
		)
		(layer "F.SilkS")
		(uuid "8173adc5-10d4-4340-b22f-a6cc738f205b")
	)
	(fp_line
		(start -6.3 -15.3)
		(end -6.3 -12.35)
		(stroke
			(width 0.12)
			(type default)
		)
		(layer "F.SilkS")
		(uuid "e94f01ae-8487-44dc-9b56-b112e7e5acdc")
	)
	(fp_line
		(start -6.3 -0.2)
		(end -6.3 -8.25)
		(stroke
			(width 0.12)
			(type default)
		)
		(layer "F.SilkS")
		(uuid "1b544a5b-a4d8-40c5-8e61-69f8b6e65739")
	)
	(fp_line
		(start -6.3 0)
		(end 6.3 0)
		(stroke
			(width 0.12)
			(type solid)
		)
		(layer "F.SilkS")
		(uuid "d88713bd-2595-40cf-a3e4-4ba5e0cca373")
	)
	(fp_line
		(start 6.3 -15.3)
		(end -6.3 -15.3)
		(stroke
			(width 0.12)
			(type solid)
		)
		(layer "F.SilkS")
		(uuid "bb150319-3c0d-44c4-8964-a95c2ac2ba95")
	)
	(fp_line
		(start 6.3 -15.3)
		(end 6.3 -12.35)
		(stroke
			(width 0.12)
			(type default)
		)
		(layer "F.SilkS")
		(uuid "b11f64a2-012b-400c-b15b-609b12ee57cf")
	)
	(fp_line
		(start 6.3 -0.2)
		(end 6.3 -8.25)
		(stroke
			(width 0.12)
			(type default)
		)
		(layer "F.SilkS")
		(uuid "15bc015c-7afb-427a-83cc-674e31456083")
	)
	(fp_line
		(start 7.2 -0.2)
		(end 6.3 -0.2)
		(stroke
			(width 0.12)
			(type default)
		)
		(layer "F.SilkS")
		(uuid "a02d646d-465c-465e-83c2-b9295073373d")
	)
	(fp_line
		(start 7.2 0)
		(end 7.2 -0.2)
		(stroke
			(width 0.12)
			(type solid)
		)
		(layer "F.SilkS")
		(uuid "12a21792-c037-49de-9ed9-5b7185085144")
	)
	(fp_line
		(start -8.6 -12.3)
		(end -8.6 -8.3)
		(stroke
			(width 0.01)
			(type default)
		)
		(layer "F.CrtYd")
		(uuid "9453acf1-8d25-4e26-83d5-5b75818f0af6")
	)
	(fp_line
		(start -8.6 -8.3)
		(end -6.8 -8.3)
		(stroke
			(width 0.01)
			(type default)
		)
		(layer "F.CrtYd")
		(uuid "0d79d486-012b-4c1f-8516-e86b190c59e8")
	)
	(fp_line
		(start -7.7 -0.7)
		(end -6.8 -0.7)
		(stroke
			(width 0.01)
			(type default)
		)
		(layer "F.CrtYd")
		(uuid "f214bfce-9f79-4b7a-a142-fb13d75a059f")
	)
	(fp_line
		(start -7.7 0)
		(end -7.7 -0.7)
		(stroke
			(width 0.01)
			(type default)
		)
		(layer "F.CrtYd")
		(uuid "1063796f-c3a7-4dd6-903c-cf82753d1a2e")
	)
	(fp_line
		(start -6.8 -15.8)
		(end -6.8 -12.3)
		(stroke
			(width 0.01)
			(type default)
		)
		(layer "F.CrtYd")
		(uuid "6bb51504-6f06-4111-87d0-12a6d14b1823")
	)
	(fp_line
		(start -6.8 -12.3)
		(end -8.6 -12.3)
		(stroke
			(width 0.01)
			(type default)
		)
		(layer "F.CrtYd")
		(uuid "050d48e9-9c9f-4074-9634-4be54ebb343b")
	)
	(fp_line
		(start -6.8 -8.3)
		(end -6.8 -0.7)
		(stroke
			(width 0.01)
			(type default)
		)
		(layer "F.CrtYd")
		(uuid "55189f5b-7889-4985-930d-46eade675f1d")
	)
	(fp_line
		(start 6.8 -15.8)
		(end -6.8 -15.8)
		(stroke
			(width 0.01)
			(type default)
		)
		(layer "F.CrtYd")
		(uuid "289aeb7e-afaf-4221-9c98-5c2f2f5f9161")
	)
	(fp_line
		(start 6.8 -12.3)
		(end 6.8 -15.8)
		(stroke
			(width 0.01)
			(type default)
		)
		(layer "F.CrtYd")
		(uuid "dace78b4-a0c3-4c38-b70d-a506e3c6e2a7")
	)
	(fp_line
		(start 6.8 -8.3)
		(end 6.8 -0.7)
		(stroke
			(width 0.01)
			(type default)
		)
		(layer "F.CrtYd")
		(uuid "392be5c6-2c94-4e67-9e63-6555867a3b19")
	)
	(fp_line
		(start 6.8 -8.3)
		(end 8.6 -8.3)
		(stroke
			(width 0.01)
			(type default)
		)
		(layer "F.CrtYd")
		(uuid "79750f0d-c9e5-46e2-99c6-bbae9d0ef813")
	)
	(fp_line
		(start 6.8 -0.7)
		(end 7.7 -0.7)
		(stroke
			(width 0.01)
			(type default)
		)
		(layer "F.CrtYd")
		(uuid "7582d2da-9f0e-4c80-a67c-119b73dbbbf1")
	)
	(fp_line
		(start 7.7 -0.7)
		(end 7.7 0)
		(stroke
			(width 0.01)
			(type default)
		)
		(layer "F.CrtYd")
		(uuid "46e9120a-0730-4b51-8cfb-4588c3cc44d4")
	)
	(fp_line
		(start 7.7 0)
		(end -7.7 0)
		(stroke
			(width 0.01)
			(type default)
		)
		(layer "F.CrtYd")
		(uuid "5f002e26-9f3c-4fa7-9cee-9e93de95edd5")
	)
	(fp_line
		(start 8.6 -12.3)
		(end 6.8 -12.3)
		(stroke
			(width 0.01)
			(type default)
		)
		(layer "F.CrtYd")
		(uuid "242e6871-662c-4336-b23d-88d280001f05")
	)
	(fp_line
		(start 8.6 -8.3)
		(end 8.6 -12.3)
		(stroke
			(width 0.01)
			(type default)
		)
		(layer "F.CrtYd")
		(uuid "62ed704b-af43-4c57-a17f-17f355abb24f")
	)
	(fp_line
		(start -7.2 -0.2)
		(end -6.3 -0.2)
		(stroke
			(width 0.1)
			(type default)
		)
		(layer "F.Fab")
		(uuid "918a8ac9-e9f0-4497-949c-ea8d1ca69b93")
	)
	(fp_line
		(start -7.2 0)
		(end -7.2 -0.2)
		(stroke
			(width 0.1)
			(type default)
		)
		(layer "F.Fab")
		(uuid "022ba2a3-f05b-4310-ba82-325f509a7877")
	)
	(fp_line
		(start -6.3 -15.3)
		(end 6.3 -15.3)
		(stroke
			(width 0.1)
			(type default)
		)
		(layer "F.Fab")
		(uuid "b8343d3a-d754-4e38-8dc0-ffb2abf57180")
	)
	(fp_line
		(start -6.3 -0.2)
		(end -6.3 -15.3)
		(stroke
			(width 0.1)
			(type default)
		)
		(layer "F.Fab")
		(uuid "ffd097c0-46c4-4d1b-9cef-ca0bcbbd5a62")
	)
	(fp_line
		(start -5.3 -15.3)
		(end -6.3 -14.3)
		(stroke
			(width 0.1)
			(type default)
		)
		(layer "F.Fab")
		(uuid "3ad17a83-5dca-4876-a4b6-0a80d71e30af")
	)
	(fp_line
		(start 6.3 -15.3)
		(end 6.3 -0.2)
		(stroke
			(width 0.1)
			(type default)
		)
		(layer "F.Fab")
		(uuid "aa00f062-8df3-4e8d-bd89-f86c29786315")
	)
	(fp_line
		(start 6.3 -0.2)
		(end 7.2 -0.2)
		(stroke
			(width 0.1)
			(type default)
		)
		(layer "F.Fab")
		(uuid "2926ae41-ad34-416d-babc-c61be15714b1")
	)
	(fp_line
		(start 7.2 -0.2)
		(end 7.2 0)
		(stroke
			(width 0.1)
			(type default)
		)
		(layer "F.Fab")
		(uuid "054882ae-42e8-4eb4-9442-fcdae9c49ac0")
	)
	(fp_line
		(start 7.2 0)
		(end -7.2 0)
		(stroke
			(width 0.1)
			(type default)
		)
		(layer "F.Fab")
		(uuid "1939c712-ba0d-4759-91f7-3d90fc2a8909")
	)
	(fp_text user "${REFERENCE}"
		(at 0 -15.9 0)
		(layer "F.SilkS")
		(uuid "890037ca-4f04-4ad7-b123-4ead6b5eaa62")
		(effects
			(font
				(size 0.8 0.8)
				(thickness 0.15)
			)
		)
	)
	(pad "1" thru_hole circle
		(at -3.5 -13)
		(size 1.5 1.5)
		(drill 1)
		(layers "*.Cu" "*.Mask")
		(remove_unused_layers no)
		(uuid "8cd5e562-144e-475e-a40c-e4c82558b766")
	)
	(pad "2" thru_hole circle
		(at -1 -13)
		(size 1.5 1.5)
		(drill 1)
		(layers "*.Cu" "*.Mask")
		(remove_unused_layers no)
		(uuid "4a7a883b-3179-49b4-a5f5-3972daba7177")
	)
	(pad "3" thru_hole circle
		(at 1 -13)
		(size 1.5 1.5)
		(drill 1)
		(layers "*.Cu" "*.Mask")
		(remove_unused_layers no)
		(uuid "4e8380ff-6718-497a-82e6-5a3e38af3bad")
	)
	(pad "4" thru_hole circle
		(at 3.5 -13)
		(size 1.5 1.5)
		(drill 1)
		(layers "*.Cu" "*.Mask")
		(remove_unused_layers no)
		(uuid "de1e1f6a-a738-49cd-a09b-fff05a9afeaa")
	)
	(pad "G" thru_hole circle
		(at -6.6 -10.3)
		(size 3.5 3.5)
		(drill 2.3)
		(layers "*.Cu" "*.Mask")
		(remove_unused_layers no)
		(uuid "9778fdf0-6d27-4cf1-afe2-542f0c17f4be")
	)
	(pad "G" thru_hole circle
		(at 6.6 -10.3)
		(size 3.5 3.5)
		(drill 2.3)
		(layers "*.Cu" "*.Mask")
		(remove_unused_layers no)
		(uuid "bb1eb7c3-84e0-4de4-8205-2524d9538b51")
	)
	(model "${KICAD6_3DMODEL_DIR}/Molex/67643.wrl"
		(offset
			(xyz 0 0 0)
		)
		(scale
			(xyz 1 1 1)
		)
		(rotate
			(xyz 0 0 0)
		)
	)
)
