ISO-10303-21;
HEADER;
FILE_DESCRIPTION(('FreeCAD Model'),'2;1');
FILE_NAME('Open CASCADE Shape Model','2021-10-27T15:56:30',(
    'kicad StepUp'),('ksu MCAD'),'Open CASCADE STEP processor 7.5',
  'FreeCAD','Unknown');
FILE_SCHEMA(('AUTOMOTIVE_DESIGN { 1 0 10303 214 1 1 1 1 }'));
ENDSEC;
DATA;
#1 = APPLICATION_PROTOCOL_DEFINITION('international standard',
  'automotive_design',2000,#2);
#2 = APPLICATION_CONTEXT(
  'core data for automotive mechanical design processes');
#3 = SHAPE_DEFINITION_REPRESENTATION(#4,#10);
#4 = PRODUCT_DEFINITION_SHAPE('','',#5);
#5 = PRODUCT_DEFINITION('design','',#6,#9);
#6 = PRODUCT_DEFINITION_FORMATION('','',#7);
#7 = PRODUCT('Body','Body','',(#8));
#8 = PRODUCT_CONTEXT('',#2,'mechanical');
#9 = PRODUCT_DEFINITION_CONTEXT('part definition',#2,'design');
#10 = ADVANCED_BREP_SHAPE_REPRESENTATION('',(#11,#15),#1098);
#11 = AXIS2_PLACEMENT_3D('',#12,#13,#14);
#12 = CARTESIAN_POINT('',(0.,0.,0.));
#13 = DIRECTION('',(0.,0.,1.));
#14 = DIRECTION('',(1.,0.,-0.));
#15 = MANIFOLD_SOLID_BREP('',#16);
#16 = CLOSED_SHELL('',(#17,#59,#101,#141,#213,#244,#298,#329,#353,#410,
    #459,#489,#528,#571,#602,#614,#628,#668,#692,#734,#778,#810,#842,
    #869,#896,#915,#946,#965,#985,#1013,#1033,#1053,#1066,#1084));
#17 = ADVANCED_FACE('',(#18),#54,.F.);
#18 = FACE_BOUND('',#19,.F.);
#19 = EDGE_LOOP('',(#20,#30,#39,#47));
#20 = ORIENTED_EDGE('',*,*,#21,.T.);
#21 = EDGE_CURVE('',#22,#24,#26,.T.);
#22 = VERTEX_POINT('',#23);
#23 = CARTESIAN_POINT('',(20.1529,-3.999999999493E-05,2.54E-03));
#24 = VERTEX_POINT('',#25);
#25 = CARTESIAN_POINT('',(20.1529,-3.999999999493E-05,2.99974));
#26 = LINE('',#27,#28);
#27 = CARTESIAN_POINT('',(20.1529,-3.999999999493E-05,2.54E-03));
#28 = VECTOR('',#29,1.);
#29 = DIRECTION('',(0.,0.,1.));
#30 = ORIENTED_EDGE('',*,*,#31,.F.);
#31 = EDGE_CURVE('',#32,#24,#34,.T.);
#32 = VERTEX_POINT('',#33);
#33 = CARTESIAN_POINT('',(13.5529,-3.999999999493E-05,2.99974));
#34 = CIRCLE('',#35,3.3);
#35 = AXIS2_PLACEMENT_3D('',#36,#37,#38);
#36 = CARTESIAN_POINT('',(16.8529,-3.999999999493E-05,2.99974));
#37 = DIRECTION('',(0.,0.,1.));
#38 = DIRECTION('',(1.,0.,0.));
#39 = ORIENTED_EDGE('',*,*,#40,.F.);
#40 = EDGE_CURVE('',#41,#32,#43,.T.);
#41 = VERTEX_POINT('',#42);
#42 = CARTESIAN_POINT('',(13.5529,-3.999999999493E-05,2.54E-03));
#43 = LINE('',#44,#45);
#44 = CARTESIAN_POINT('',(13.5529,-3.999999999493E-05,2.54E-03));
#45 = VECTOR('',#46,1.);
#46 = DIRECTION('',(0.,0.,1.));
#47 = ORIENTED_EDGE('',*,*,#48,.T.);
#48 = EDGE_CURVE('',#41,#22,#49,.T.);
#49 = CIRCLE('',#50,3.3);
#50 = AXIS2_PLACEMENT_3D('',#51,#52,#53);
#51 = CARTESIAN_POINT('',(16.8529,-3.999999999493E-05,2.54E-03));
#52 = DIRECTION('',(0.,0.,1.));
#53 = DIRECTION('',(1.,0.,0.));
#54 = CYLINDRICAL_SURFACE('',#55,3.3);
#55 = AXIS2_PLACEMENT_3D('',#56,#57,#58);
#56 = CARTESIAN_POINT('',(16.8529,-3.999999999493E-05,2.54E-03));
#57 = DIRECTION('',(0.,0.,1.));
#58 = DIRECTION('',(1.,0.,0.));
#59 = ADVANCED_FACE('',(#60),#96,.F.);
#60 = FACE_BOUND('',#61,.F.);
#61 = EDGE_LOOP('',(#62,#72,#81,#89));
#62 = ORIENTED_EDGE('',*,*,#63,.T.);
#63 = EDGE_CURVE('',#64,#66,#68,.T.);
#64 = VERTEX_POINT('',#65);
#65 = CARTESIAN_POINT('',(-13.5529,-3.999999999849E-05,2.54E-03));
#66 = VERTEX_POINT('',#67);
#67 = CARTESIAN_POINT('',(-13.5529,-3.999999999849E-05,2.99974));
#68 = LINE('',#69,#70);
#69 = CARTESIAN_POINT('',(-13.5529,-3.999999999849E-05,2.54E-03));
#70 = VECTOR('',#71,1.);
#71 = DIRECTION('',(0.,0.,1.));
#72 = ORIENTED_EDGE('',*,*,#73,.F.);
#73 = EDGE_CURVE('',#74,#66,#76,.T.);
#74 = VERTEX_POINT('',#75);
#75 = CARTESIAN_POINT('',(-20.1529,-3.999999999849E-05,2.99974));
#76 = CIRCLE('',#77,3.3);
#77 = AXIS2_PLACEMENT_3D('',#78,#79,#80);
#78 = CARTESIAN_POINT('',(-16.8529,-3.999999999849E-05,2.99974));
#79 = DIRECTION('',(0.,0.,1.));
#80 = DIRECTION('',(1.,0.,0.));
#81 = ORIENTED_EDGE('',*,*,#82,.F.);
#82 = EDGE_CURVE('',#83,#74,#85,.T.);
#83 = VERTEX_POINT('',#84);
#84 = CARTESIAN_POINT('',(-20.1529,-3.999999999849E-05,2.54E-03));
#85 = LINE('',#86,#87);
#86 = CARTESIAN_POINT('',(-20.1529,-3.999999999849E-05,2.54E-03));
#87 = VECTOR('',#88,1.);
#88 = DIRECTION('',(0.,0.,1.));
#89 = ORIENTED_EDGE('',*,*,#90,.T.);
#90 = EDGE_CURVE('',#83,#64,#91,.T.);
#91 = CIRCLE('',#92,3.3);
#92 = AXIS2_PLACEMENT_3D('',#93,#94,#95);
#93 = CARTESIAN_POINT('',(-16.8529,-3.999999999849E-05,2.54E-03));
#94 = DIRECTION('',(0.,0.,1.));
#95 = DIRECTION('',(1.,0.,0.));
#96 = CYLINDRICAL_SURFACE('',#97,3.3);
#97 = AXIS2_PLACEMENT_3D('',#98,#99,#100);
#98 = CARTESIAN_POINT('',(-16.8529,-3.999999999849E-05,2.54E-03));
#99 = DIRECTION('',(0.,0.,1.));
#100 = DIRECTION('',(1.,0.,0.));
#101 = ADVANCED_FACE('',(#102),#136,.F.);
#102 = FACE_BOUND('',#103,.T.);
#103 = EDGE_LOOP('',(#104,#114,#122,#130));
#104 = ORIENTED_EDGE('',*,*,#105,.F.);
#105 = EDGE_CURVE('',#106,#108,#110,.T.);
#106 = VERTEX_POINT('',#107);
#107 = CARTESIAN_POINT('',(3.5687,8.0035,2.36484));
#108 = VERTEX_POINT('',#109);
#109 = CARTESIAN_POINT('',(1.812430979122,8.0035,2.36484));
#110 = LINE('',#111,#112);
#111 = CARTESIAN_POINT('',(-3.5687,8.0035,2.36484));
#112 = VECTOR('',#113,1.);
#113 = DIRECTION('',(-1.,-1.2E-16,0.));
#114 = ORIENTED_EDGE('',*,*,#115,.T.);
#115 = EDGE_CURVE('',#106,#116,#118,.T.);
#116 = VERTEX_POINT('',#117);
#117 = CARTESIAN_POINT('',(3.5687,8.0035,0.));
#118 = LINE('',#119,#120);
#119 = CARTESIAN_POINT('',(3.5687,8.0035,2.99984));
#120 = VECTOR('',#121,1.);
#121 = DIRECTION('',(-0.,-0.,-1.));
#122 = ORIENTED_EDGE('',*,*,#123,.T.);
#123 = EDGE_CURVE('',#116,#124,#126,.T.);
#124 = VERTEX_POINT('',#125);
#125 = CARTESIAN_POINT('',(1.812430979122,8.0035,0.));
#126 = LINE('',#127,#128);
#127 = CARTESIAN_POINT('',(-3.5687,8.0035,-8.97719398818E-17));
#128 = VECTOR('',#129,1.);
#129 = DIRECTION('',(-1.,-1.2E-16,-0.));
#130 = ORIENTED_EDGE('',*,*,#131,.T.);
#131 = EDGE_CURVE('',#124,#108,#132,.T.);
#132 = LINE('',#133,#134);
#133 = CARTESIAN_POINT('',(1.812430979122,8.0035,-8.97719398818E-17));
#134 = VECTOR('',#135,1.);
#135 = DIRECTION('',(0.,0.,1.));
#136 = PLANE('',#137);
#137 = AXIS2_PLACEMENT_3D('',#138,#139,#140);
#138 = CARTESIAN_POINT('',(-3.5687,8.0035,2.99984));
#139 = DIRECTION('',(1.2E-16,-1.,0.));
#140 = DIRECTION('',(1.,1.2E-16,0.));
#141 = ADVANCED_FACE('',(#142),#208,.F.);
#142 = FACE_BOUND('',#143,.T.);
#143 = EDGE_LOOP('',(#144,#154,#162,#170,#178,#186,#194,#202));
#144 = ORIENTED_EDGE('',*,*,#145,.F.);
#145 = EDGE_CURVE('',#146,#148,#150,.T.);
#146 = VERTEX_POINT('',#147);
#147 = CARTESIAN_POINT('',(-3.5687,8.0035,2.36484));
#148 = VERTEX_POINT('',#149);
#149 = CARTESIAN_POINT('',(-3.5687,8.00096,2.36484));
#150 = LINE('',#151,#152);
#151 = CARTESIAN_POINT('',(-3.5687,8.976691378334,2.36484));
#152 = VECTOR('',#153,1.);
#153 = DIRECTION('',(0.,-1.,0.));
#154 = ORIENTED_EDGE('',*,*,#155,.T.);
#155 = EDGE_CURVE('',#146,#156,#158,.T.);
#156 = VERTEX_POINT('',#157);
#157 = CARTESIAN_POINT('',(-3.5687,8.0035,0.));
#158 = LINE('',#159,#160);
#159 = CARTESIAN_POINT('',(-3.5687,8.0035,2.99984));
#160 = VECTOR('',#161,1.);
#161 = DIRECTION('',(-0.,-0.,-1.));
#162 = ORIENTED_EDGE('',*,*,#163,.T.);
#163 = EDGE_CURVE('',#156,#164,#166,.T.);
#164 = VERTEX_POINT('',#165);
#165 = CARTESIAN_POINT('',(-3.5687,-8.00358,0.));
#166 = LINE('',#167,#168);
#167 = CARTESIAN_POINT('',(-3.5687,8.0035,-8.97719398818E-17));
#168 = VECTOR('',#169,1.);
#169 = DIRECTION('',(2.2E-16,-1.,0.));
#170 = ORIENTED_EDGE('',*,*,#171,.F.);
#171 = EDGE_CURVE('',#172,#164,#174,.T.);
#172 = VERTEX_POINT('',#173);
#173 = CARTESIAN_POINT('',(-3.5687,-8.00358,2.36484));
#174 = LINE('',#175,#176);
#175 = CARTESIAN_POINT('',(-3.5687,-8.00358,2.99984));
#176 = VECTOR('',#177,1.);
#177 = DIRECTION('',(-0.,-0.,-1.));
#178 = ORIENTED_EDGE('',*,*,#179,.F.);
#179 = EDGE_CURVE('',#180,#172,#182,.T.);
#180 = VERTEX_POINT('',#181);
#181 = CARTESIAN_POINT('',(-3.5687,-8.00104,2.36484));
#182 = LINE('',#183,#184);
#183 = CARTESIAN_POINT('',(-3.5687,8.976691378334,2.36484));
#184 = VECTOR('',#185,1.);
#185 = DIRECTION('',(0.,-1.,0.));
#186 = ORIENTED_EDGE('',*,*,#187,.T.);
#187 = EDGE_CURVE('',#180,#188,#190,.T.);
#188 = VERTEX_POINT('',#189);
#189 = CARTESIAN_POINT('',(-3.5687,-8.00104,2.54E-03));
#190 = LINE('',#191,#192);
#191 = CARTESIAN_POINT('',(-3.5687,-8.00104,2.99974));
#192 = VECTOR('',#193,1.);
#193 = DIRECTION('',(0.,0.,-1.));
#194 = ORIENTED_EDGE('',*,*,#195,.T.);
#195 = EDGE_CURVE('',#188,#196,#198,.T.);
#196 = VERTEX_POINT('',#197);
#197 = CARTESIAN_POINT('',(-3.5687,8.00096,2.54E-03));
#198 = LINE('',#199,#200);
#199 = CARTESIAN_POINT('',(-3.5687,-8.00104,2.54E-03));
#200 = VECTOR('',#201,1.);
#201 = DIRECTION('',(-2.2E-16,1.,0.));
#202 = ORIENTED_EDGE('',*,*,#203,.T.);
#203 = EDGE_CURVE('',#196,#148,#204,.T.);
#204 = LINE('',#205,#206);
#205 = CARTESIAN_POINT('',(-3.5687,8.00096,2.99974));
#206 = VECTOR('',#207,1.);
#207 = DIRECTION('',(0.,0.,1.));
#208 = PLANE('',#209);
#209 = AXIS2_PLACEMENT_3D('',#210,#211,#212);
#210 = CARTESIAN_POINT('',(-3.5687,8.0035,2.99984));
#211 = DIRECTION('',(1.,2.2E-16,0.));
#212 = DIRECTION('',(-2.2E-16,1.,0.));
#213 = ADVANCED_FACE('',(#214),#239,.F.);
#214 = FACE_BOUND('',#215,.T.);
#215 = EDGE_LOOP('',(#216,#224,#225,#233));
#216 = ORIENTED_EDGE('',*,*,#217,.F.);
#217 = EDGE_CURVE('',#172,#218,#220,.T.);
#218 = VERTEX_POINT('',#219);
#219 = CARTESIAN_POINT('',(3.5687,-8.00358,2.36484));
#220 = LINE('',#221,#222);
#221 = CARTESIAN_POINT('',(-3.5687,-8.00358,2.36484));
#222 = VECTOR('',#223,1.);
#223 = DIRECTION('',(1.,0.,0.));
#224 = ORIENTED_EDGE('',*,*,#171,.T.);
#225 = ORIENTED_EDGE('',*,*,#226,.T.);
#226 = EDGE_CURVE('',#164,#227,#229,.T.);
#227 = VERTEX_POINT('',#228);
#228 = CARTESIAN_POINT('',(3.5687,-8.00358,0.));
#229 = LINE('',#230,#231);
#230 = CARTESIAN_POINT('',(-3.5687,-8.00358,-8.97719398818E-17));
#231 = VECTOR('',#232,1.);
#232 = DIRECTION('',(1.,0.,0.));
#233 = ORIENTED_EDGE('',*,*,#234,.F.);
#234 = EDGE_CURVE('',#218,#227,#235,.T.);
#235 = LINE('',#236,#237);
#236 = CARTESIAN_POINT('',(3.5687,-8.00358,2.99984));
#237 = VECTOR('',#238,1.);
#238 = DIRECTION('',(-0.,-0.,-1.));
#239 = PLANE('',#240);
#240 = AXIS2_PLACEMENT_3D('',#241,#242,#243);
#241 = CARTESIAN_POINT('',(-3.5687,-8.00358,2.99984));
#242 = DIRECTION('',(0.,1.,0.));
#243 = DIRECTION('',(0.,0.,1.));
#244 = ADVANCED_FACE('',(#245),#293,.F.);
#245 = FACE_BOUND('',#246,.T.);
#246 = EDGE_LOOP('',(#247,#255,#256,#262,#263,#271,#279,#287));
#247 = ORIENTED_EDGE('',*,*,#248,.F.);
#248 = EDGE_CURVE('',#218,#249,#251,.T.);
#249 = VERTEX_POINT('',#250);
#250 = CARTESIAN_POINT('',(3.5687,-8.00104,2.36484));
#251 = LINE('',#252,#253);
#252 = CARTESIAN_POINT('',(3.5687,8.976691378334,2.36484));
#253 = VECTOR('',#254,1.);
#254 = DIRECTION('',(0.,1.,0.));
#255 = ORIENTED_EDGE('',*,*,#234,.T.);
#256 = ORIENTED_EDGE('',*,*,#257,.T.);
#257 = EDGE_CURVE('',#227,#116,#258,.T.);
#258 = LINE('',#259,#260);
#259 = CARTESIAN_POINT('',(3.5687,8.0035,-8.97719398818E-17));
#260 = VECTOR('',#261,1.);
#261 = DIRECTION('',(0.,1.,0.));
#262 = ORIENTED_EDGE('',*,*,#115,.F.);
#263 = ORIENTED_EDGE('',*,*,#264,.F.);
#264 = EDGE_CURVE('',#265,#106,#267,.T.);
#265 = VERTEX_POINT('',#266);
#266 = CARTESIAN_POINT('',(3.5687,8.00096,2.36484));
#267 = LINE('',#268,#269);
#268 = CARTESIAN_POINT('',(3.5687,8.976691378334,2.36484));
#269 = VECTOR('',#270,1.);
#270 = DIRECTION('',(0.,1.,0.));
#271 = ORIENTED_EDGE('',*,*,#272,.T.);
#272 = EDGE_CURVE('',#265,#273,#275,.T.);
#273 = VERTEX_POINT('',#274);
#274 = CARTESIAN_POINT('',(3.5687,8.00096,2.54E-03));
#275 = LINE('',#276,#277);
#276 = CARTESIAN_POINT('',(3.5687,8.00096,2.99974));
#277 = VECTOR('',#278,1.);
#278 = DIRECTION('',(0.,0.,-1.));
#279 = ORIENTED_EDGE('',*,*,#280,.T.);
#280 = EDGE_CURVE('',#273,#281,#283,.T.);
#281 = VERTEX_POINT('',#282);
#282 = CARTESIAN_POINT('',(3.5687,-8.00104,2.54E-03));
#283 = LINE('',#284,#285);
#284 = CARTESIAN_POINT('',(3.5687,-8.00104,2.54E-03));
#285 = VECTOR('',#286,1.);
#286 = DIRECTION('',(0.,-1.,0.));
#287 = ORIENTED_EDGE('',*,*,#288,.T.);
#288 = EDGE_CURVE('',#281,#249,#289,.T.);
#289 = LINE('',#290,#291);
#290 = CARTESIAN_POINT('',(3.5687,-8.00104,2.99974));
#291 = VECTOR('',#292,1.);
#292 = DIRECTION('',(0.,0.,1.));
#293 = PLANE('',#294);
#294 = AXIS2_PLACEMENT_3D('',#295,#296,#297);
#295 = CARTESIAN_POINT('',(3.5687,8.0035,2.99984));
#296 = DIRECTION('',(-1.,0.,0.));
#297 = DIRECTION('',(0.,0.,1.));
#298 = ADVANCED_FACE('',(#299),#324,.F.);
#299 = FACE_BOUND('',#300,.T.);
#300 = EDGE_LOOP('',(#301,#309,#317,#323));
#301 = ORIENTED_EDGE('',*,*,#302,.F.);
#302 = EDGE_CURVE('',#303,#146,#305,.T.);
#303 = VERTEX_POINT('',#304);
#304 = CARTESIAN_POINT('',(-1.812430979122,8.0035,2.36484));
#305 = LINE('',#306,#307);
#306 = CARTESIAN_POINT('',(-3.5687,8.0035,2.36484));
#307 = VECTOR('',#308,1.);
#308 = DIRECTION('',(-1.,-1.2E-16,0.));
#309 = ORIENTED_EDGE('',*,*,#310,.T.);
#310 = EDGE_CURVE('',#303,#311,#313,.T.);
#311 = VERTEX_POINT('',#312);
#312 = CARTESIAN_POINT('',(-1.812430979122,8.0035,0.));
#313 = LINE('',#314,#315);
#314 = CARTESIAN_POINT('',(-1.812430979122,8.0035,-8.97719398818E-17));
#315 = VECTOR('',#316,1.);
#316 = DIRECTION('',(0.,0.,-1.));
#317 = ORIENTED_EDGE('',*,*,#318,.T.);
#318 = EDGE_CURVE('',#311,#156,#319,.T.);
#319 = LINE('',#320,#321);
#320 = CARTESIAN_POINT('',(-3.5687,8.0035,-8.97719398818E-17));
#321 = VECTOR('',#322,1.);
#322 = DIRECTION('',(-1.,-1.2E-16,-0.));
#323 = ORIENTED_EDGE('',*,*,#155,.F.);
#324 = PLANE('',#325);
#325 = AXIS2_PLACEMENT_3D('',#326,#327,#328);
#326 = CARTESIAN_POINT('',(-3.5687,8.0035,2.99984));
#327 = DIRECTION('',(1.2E-16,-1.,0.));
#328 = DIRECTION('',(1.,1.2E-16,0.));
#329 = ADVANCED_FACE('',(#330),#348,.F.);
#330 = FACE_BOUND('',#331,.F.);
#331 = EDGE_LOOP('',(#332,#333,#340,#341));
#332 = ORIENTED_EDGE('',*,*,#310,.T.);
#333 = ORIENTED_EDGE('',*,*,#334,.T.);
#334 = EDGE_CURVE('',#311,#124,#335,.T.);
#335 = CIRCLE('',#336,1.9812);
#336 = AXIS2_PLACEMENT_3D('',#337,#338,#339);
#337 = CARTESIAN_POINT('',(0.,8.803654601261,-8.97719398818E-17));
#338 = DIRECTION('',(0.,0.,1.));
#339 = DIRECTION('',(1.,0.,0.));
#340 = ORIENTED_EDGE('',*,*,#131,.T.);
#341 = ORIENTED_EDGE('',*,*,#342,.T.);
#342 = EDGE_CURVE('',#108,#303,#343,.T.);
#343 = CIRCLE('',#344,1.9812);
#344 = AXIS2_PLACEMENT_3D('',#345,#346,#347);
#345 = CARTESIAN_POINT('',(0.,8.803654601261,2.36484));
#346 = DIRECTION('',(0.,0.,-1.));
#347 = DIRECTION('',(1.,8.8E-16,0.));
#348 = CYLINDRICAL_SURFACE('',#349,1.9812);
#349 = AXIS2_PLACEMENT_3D('',#350,#351,#352);
#350 = CARTESIAN_POINT('',(0.,8.803654601261,-8.97719398818E-17));
#351 = DIRECTION('',(0.,0.,1.));
#352 = DIRECTION('',(1.,0.,0.));
#353 = ADVANCED_FACE('',(#354),#405,.T.);
#354 = FACE_BOUND('',#355,.T.);
#355 = EDGE_LOOP('',(#356,#366,#375,#383,#398));
#356 = ORIENTED_EDGE('',*,*,#357,.T.);
#357 = EDGE_CURVE('',#358,#360,#362,.T.);
#358 = VERTEX_POINT('',#359);
#359 = CARTESIAN_POINT('',(-25.0063,-8.00104,2.651473338483));
#360 = VERTEX_POINT('',#361);
#361 = CARTESIAN_POINT('',(-3.5687,-8.00104,2.651473338483));
#362 = LINE('',#363,#364);
#363 = CARTESIAN_POINT('',(-25.9969,-8.00104,2.651473338483));
#364 = VECTOR('',#365,1.);
#365 = DIRECTION('',(1.,0.,0.));
#366 = ORIENTED_EDGE('',*,*,#367,.T.);
#367 = EDGE_CURVE('',#360,#368,#370,.T.);
#368 = VERTEX_POINT('',#369);
#369 = CARTESIAN_POINT('',(-3.5687,-6.999251752861,2.99974));
#370 = CIRCLE('',#371,1.9);
#371 = AXIS2_PLACEMENT_3D('',#372,#373,#374);
#372 = CARTESIAN_POINT('',(-3.5687,-6.90104,1.10228));
#373 = DIRECTION('',(-1.,0.,0.));
#374 = DIRECTION('',(0.,0.,1.));
#375 = ORIENTED_EDGE('',*,*,#376,.T.);
#376 = EDGE_CURVE('',#368,#377,#379,.T.);
#377 = VERTEX_POINT('',#378);
#378 = CARTESIAN_POINT('',(-24.898161061,-6.999251752861,2.99974));
#379 = LINE('',#380,#381);
#380 = CARTESIAN_POINT('',(-25.9969,-6.999251752861,2.99974));
#381 = VECTOR('',#382,1.);
#382 = DIRECTION('',(-1.,0.,0.));
#383 = ORIENTED_EDGE('',*,*,#384,.T.);
#384 = EDGE_CURVE('',#377,#385,#387,.T.);
#385 = VERTEX_POINT('',#386);
#386 = CARTESIAN_POINT('',(-25.49844322957,-7.508896770426,
    2.902421701824));
#387 = B_SPLINE_CURVE_WITH_KNOTS('',3,(#388,#389,#390,#391,#392,#393,
    #394,#395,#396,#397),.UNSPECIFIED.,.F.,.F.,(4,2,2,2,4),(0.,
    1.005623466314E-04,2.011246932628E-04,4.022493865255E-04,
    8.04498773051E-04),.UNSPECIFIED.);
#388 = CARTESIAN_POINT('',(-24.898161061,-6.999251752861,2.99974));
#389 = CARTESIAN_POINT('',(-24.93234516685,-6.999251752861,2.99974));
#390 = CARTESIAN_POINT('',(-24.96288159636,-7.016905166163,
    2.998838326828));
#391 = CARTESIAN_POINT('',(-25.01806858826,-7.054663457997,
    2.996153822868));
#392 = CARTESIAN_POINT('',(-25.04391703951,-7.076265224991,
    2.994310598977));
#393 = CARTESIAN_POINT('',(-25.11965470761,-7.141886553674,
    2.987466358248));
#394 = CARTESIAN_POINT('',(-25.16800043564,-7.187675812228,
    2.981111718846));
#395 = CARTESIAN_POINT('',(-25.31207607033,-7.325228509849,
    2.956663718245));
#396 = CARTESIAN_POINT('',(-25.40628299157,-7.418013192839,2.93311050699
    ));
#397 = CARTESIAN_POINT('',(-25.49844322957,-7.508896770426,
    2.902421701824));
#398 = ORIENTED_EDGE('',*,*,#399,.T.);
#399 = EDGE_CURVE('',#385,#358,#400,.T.);
#400 = ( BOUNDED_CURVE() B_SPLINE_CURVE(3,(#401,#402,#403,#404),
.UNSPECIFIED.,.F.,.F.) B_SPLINE_CURVE_WITH_KNOTS((4,4),(5.038038900889,
5.329826084),.PIECEWISE_BEZIER_KNOTS.) CURVE() 
GEOMETRIC_REPRESENTATION_ITEM() RATIONAL_B_SPLINE_CURVE((1.,
0.992917595741,0.992917595741,1.)) REPRESENTATION_ITEM('') );
#401 = CARTESIAN_POINT('',(-25.49844322957,-7.508896770426,
    2.902421701824));
#402 = CARTESIAN_POINT('',(-25.32273314306,-7.68460685694,2.8430893917)
  );
#403 = CARTESIAN_POINT('',(-25.15751526003,-7.84982473997,2.758843272177
    ));
#404 = CARTESIAN_POINT('',(-25.0063,-8.00104,2.651473338483));
#405 = CYLINDRICAL_SURFACE('',#406,1.9);
#406 = AXIS2_PLACEMENT_3D('',#407,#408,#409);
#407 = CARTESIAN_POINT('',(-25.9969,-6.90104,1.10228));
#408 = DIRECTION('',(1.,0.,0.));
#409 = DIRECTION('',(0.,0.,-1.));
#410 = ADVANCED_FACE('',(#411,#444),#454,.T.);
#411 = FACE_BOUND('',#412,.T.);
#412 = EDGE_LOOP('',(#413,#423,#431,#437,#438));
#413 = ORIENTED_EDGE('',*,*,#414,.T.);
#414 = EDGE_CURVE('',#415,#417,#419,.T.);
#415 = VERTEX_POINT('',#416);
#416 = CARTESIAN_POINT('',(-3.5687,6.90096,2.99974));
#417 = VERTEX_POINT('',#418);
#418 = CARTESIAN_POINT('',(-24.0969,6.90096,2.99974));
#419 = LINE('',#420,#421);
#420 = CARTESIAN_POINT('',(29.1211,6.90096,2.99974));
#421 = VECTOR('',#422,1.);
#422 = DIRECTION('',(-1.,-1.2E-16,-0.));
#423 = ORIENTED_EDGE('',*,*,#424,.T.);
#424 = EDGE_CURVE('',#417,#425,#427,.T.);
#425 = VERTEX_POINT('',#426);
#426 = CARTESIAN_POINT('',(-24.898161061,6.099698939,2.99974));
#427 = LINE('',#428,#429);
#428 = CARTESIAN_POINT('',(-32.4979,-1.50004,2.99974));
#429 = VECTOR('',#430,1.);
#430 = DIRECTION('',(-0.707106781187,-0.707106781187,-0.));
#431 = ORIENTED_EDGE('',*,*,#432,.F.);
#432 = EDGE_CURVE('',#377,#425,#433,.T.);
#433 = LINE('',#434,#435);
#434 = CARTESIAN_POINT('',(-24.898161061,-8.00358,2.99974));
#435 = VECTOR('',#436,1.);
#436 = DIRECTION('',(0.,1.,0.));
#437 = ORIENTED_EDGE('',*,*,#376,.F.);
#438 = ORIENTED_EDGE('',*,*,#439,.T.);
#439 = EDGE_CURVE('',#368,#415,#440,.T.);
#440 = LINE('',#441,#442);
#441 = CARTESIAN_POINT('',(-3.5687,-8.00104,2.99974));
#442 = VECTOR('',#443,1.);
#443 = DIRECTION('',(-2.2E-16,1.,0.));
#444 = FACE_BOUND('',#445,.T.);
#445 = EDGE_LOOP('',(#446,#453));
#446 = ORIENTED_EDGE('',*,*,#447,.F.);
#447 = EDGE_CURVE('',#66,#74,#448,.T.);
#448 = CIRCLE('',#449,3.3);
#449 = AXIS2_PLACEMENT_3D('',#450,#451,#452);
#450 = CARTESIAN_POINT('',(-16.8529,-3.999999999849E-05,2.99974));
#451 = DIRECTION('',(0.,0.,1.));
#452 = DIRECTION('',(1.,0.,0.));
#453 = ORIENTED_EDGE('',*,*,#73,.F.);
#454 = PLANE('',#455);
#455 = AXIS2_PLACEMENT_3D('',#456,#457,#458);
#456 = CARTESIAN_POINT('',(-25.9969,-8.00104,2.99974));
#457 = DIRECTION('',(0.,0.,1.));
#458 = DIRECTION('',(1.,0.,0.));
#459 = ADVANCED_FACE('',(#460),#484,.F.);
#460 = FACE_BOUND('',#461,.T.);
#461 = EDGE_LOOP('',(#462,#468,#469,#477,#483));
#462 = ORIENTED_EDGE('',*,*,#463,.F.);
#463 = EDGE_CURVE('',#360,#180,#464,.T.);
#464 = LINE('',#465,#466);
#465 = CARTESIAN_POINT('',(-3.5687,-8.00104,2.99974));
#466 = VECTOR('',#467,1.);
#467 = DIRECTION('',(0.,0.,-1.));
#468 = ORIENTED_EDGE('',*,*,#357,.F.);
#469 = ORIENTED_EDGE('',*,*,#470,.T.);
#470 = EDGE_CURVE('',#358,#471,#473,.T.);
#471 = VERTEX_POINT('',#472);
#472 = CARTESIAN_POINT('',(-25.0063,-8.00104,2.54E-03));
#473 = LINE('',#474,#475);
#474 = CARTESIAN_POINT('',(-25.0063,-8.00104,2.99974));
#475 = VECTOR('',#476,1.);
#476 = DIRECTION('',(0.,0.,-1.));
#477 = ORIENTED_EDGE('',*,*,#478,.T.);
#478 = EDGE_CURVE('',#471,#188,#479,.T.);
#479 = LINE('',#480,#481);
#480 = CARTESIAN_POINT('',(-25.9969,-8.00104,2.54E-03));
#481 = VECTOR('',#482,1.);
#482 = DIRECTION('',(1.,0.,0.));
#483 = ORIENTED_EDGE('',*,*,#187,.F.);
#484 = PLANE('',#485);
#485 = AXIS2_PLACEMENT_3D('',#486,#487,#488);
#486 = CARTESIAN_POINT('',(-25.9969,-8.00104,2.99974));
#487 = DIRECTION('',(0.,1.,0.));
#488 = DIRECTION('',(0.,0.,1.));
#489 = ADVANCED_FACE('',(#490),#523,.F.);
#490 = FACE_BOUND('',#491,.T.);
#491 = EDGE_LOOP('',(#492,#500,#508,#516,#522));
#492 = ORIENTED_EDGE('',*,*,#493,.T.);
#493 = EDGE_CURVE('',#196,#494,#496,.T.);
#494 = VERTEX_POINT('',#495);
#495 = CARTESIAN_POINT('',(-22.9969,8.00096,2.54E-03));
#496 = LINE('',#497,#498);
#497 = CARTESIAN_POINT('',(-25.9969,8.00096,2.54E-03));
#498 = VECTOR('',#499,1.);
#499 = DIRECTION('',(-1.,-0.,-0.));
#500 = ORIENTED_EDGE('',*,*,#501,.T.);
#501 = EDGE_CURVE('',#494,#502,#504,.T.);
#502 = VERTEX_POINT('',#503);
#503 = CARTESIAN_POINT('',(-22.9969,8.00096,2.648933338483));
#504 = LINE('',#505,#506);
#505 = CARTESIAN_POINT('',(-22.9969,8.00096,2.99974));
#506 = VECTOR('',#507,1.);
#507 = DIRECTION('',(0.,0.,1.));
#508 = ORIENTED_EDGE('',*,*,#509,.T.);
#509 = EDGE_CURVE('',#502,#510,#512,.T.);
#510 = VERTEX_POINT('',#511);
#511 = CARTESIAN_POINT('',(-3.5687,8.00096,2.648933338483));
#512 = LINE('',#513,#514);
#513 = CARTESIAN_POINT('',(29.1211,8.00096,2.648933338483));
#514 = VECTOR('',#515,1.);
#515 = DIRECTION('',(1.,1.2E-16,0.));
#516 = ORIENTED_EDGE('',*,*,#517,.T.);
#517 = EDGE_CURVE('',#510,#148,#518,.T.);
#518 = LINE('',#519,#520);
#519 = CARTESIAN_POINT('',(-3.5687,8.00096,2.99974));
#520 = VECTOR('',#521,1.);
#521 = DIRECTION('',(0.,0.,-1.));
#522 = ORIENTED_EDGE('',*,*,#203,.F.);
#523 = PLANE('',#524);
#524 = AXIS2_PLACEMENT_3D('',#525,#526,#527);
#525 = CARTESIAN_POINT('',(-25.9969,8.00096,2.99974));
#526 = DIRECTION('',(0.,-1.,0.));
#527 = DIRECTION('',(0.,0.,-1.));
#528 = ADVANCED_FACE('',(#529,#539),#566,.F.);
#529 = FACE_BOUND('',#530,.T.);
#530 = EDGE_LOOP('',(#531,#538));
#531 = ORIENTED_EDGE('',*,*,#532,.T.);
#532 = EDGE_CURVE('',#64,#83,#533,.T.);
#533 = CIRCLE('',#534,3.3);
#534 = AXIS2_PLACEMENT_3D('',#535,#536,#537);
#535 = CARTESIAN_POINT('',(-16.8529,-3.999999999849E-05,2.54E-03));
#536 = DIRECTION('',(0.,0.,1.));
#537 = DIRECTION('',(1.,0.,0.));
#538 = ORIENTED_EDGE('',*,*,#90,.T.);
#539 = FACE_BOUND('',#540,.T.);
#540 = EDGE_LOOP('',(#541,#551,#557,#558,#559,#560));
#541 = ORIENTED_EDGE('',*,*,#542,.F.);
#542 = EDGE_CURVE('',#543,#545,#547,.T.);
#543 = VERTEX_POINT('',#544);
#544 = CARTESIAN_POINT('',(-25.9969,5.00096,2.54E-03));
#545 = VERTEX_POINT('',#546);
#546 = CARTESIAN_POINT('',(-25.9969,-7.01044,2.54E-03));
#547 = LINE('',#548,#549);
#548 = CARTESIAN_POINT('',(-25.9969,8.00096,2.54E-03));
#549 = VECTOR('',#550,1.);
#550 = DIRECTION('',(1.2E-16,-1.,0.));
#551 = ORIENTED_EDGE('',*,*,#552,.T.);
#552 = EDGE_CURVE('',#543,#494,#553,.T.);
#553 = LINE('',#554,#555);
#554 = CARTESIAN_POINT('',(-25.9969,5.00096,2.54E-03));
#555 = VECTOR('',#556,1.);
#556 = DIRECTION('',(0.707106781187,0.707106781187,0.));
#557 = ORIENTED_EDGE('',*,*,#493,.F.);
#558 = ORIENTED_EDGE('',*,*,#195,.F.);
#559 = ORIENTED_EDGE('',*,*,#478,.F.);
#560 = ORIENTED_EDGE('',*,*,#561,.T.);
#561 = EDGE_CURVE('',#471,#545,#562,.T.);
#562 = LINE('',#563,#564);
#563 = CARTESIAN_POINT('',(-25.0063,-8.00104,2.54E-03));
#564 = VECTOR('',#565,1.);
#565 = DIRECTION('',(-0.707106781187,0.707106781187,0.));
#566 = PLANE('',#567);
#567 = AXIS2_PLACEMENT_3D('',#568,#569,#570);
#568 = CARTESIAN_POINT('',(-25.9969,-8.00104,2.54E-03));
#569 = DIRECTION('',(0.,0.,1.));
#570 = DIRECTION('',(1.,0.,0.));
#571 = ADVANCED_FACE('',(#572),#597,.F.);
#572 = FACE_BOUND('',#573,.T.);
#573 = EDGE_LOOP('',(#574,#584,#590,#591));
#574 = ORIENTED_EDGE('',*,*,#575,.T.);
#575 = EDGE_CURVE('',#576,#578,#580,.T.);
#576 = VERTEX_POINT('',#577);
#577 = CARTESIAN_POINT('',(-25.9969,-7.01044,2.649827979414));
#578 = VERTEX_POINT('',#579);
#579 = CARTESIAN_POINT('',(-25.9969,5.00096,2.649827979414));
#580 = LINE('',#581,#582);
#581 = CARTESIAN_POINT('',(-25.9969,-8.00358,2.649827979414));
#582 = VECTOR('',#583,1.);
#583 = DIRECTION('',(0.,1.,0.));
#584 = ORIENTED_EDGE('',*,*,#585,.T.);
#585 = EDGE_CURVE('',#578,#543,#586,.T.);
#586 = LINE('',#587,#588);
#587 = CARTESIAN_POINT('',(-25.9969,5.00096,2.99974));
#588 = VECTOR('',#589,1.);
#589 = DIRECTION('',(0.,0.,-1.));
#590 = ORIENTED_EDGE('',*,*,#542,.T.);
#591 = ORIENTED_EDGE('',*,*,#592,.T.);
#592 = EDGE_CURVE('',#545,#576,#593,.T.);
#593 = LINE('',#594,#595);
#594 = CARTESIAN_POINT('',(-25.9969,-7.01044,2.99974));
#595 = VECTOR('',#596,1.);
#596 = DIRECTION('',(0.,0.,1.));
#597 = PLANE('',#598);
#598 = AXIS2_PLACEMENT_3D('',#599,#600,#601);
#599 = CARTESIAN_POINT('',(-25.9969,8.00096,2.99974));
#600 = DIRECTION('',(1.,1.2E-16,0.));
#601 = DIRECTION('',(-1.2E-16,1.,0.));
#602 = ADVANCED_FACE('',(#603),#609,.F.);
#603 = FACE_BOUND('',#604,.F.);
#604 = EDGE_LOOP('',(#605,#606,#607,#608));
#605 = ORIENTED_EDGE('',*,*,#447,.F.);
#606 = ORIENTED_EDGE('',*,*,#63,.F.);
#607 = ORIENTED_EDGE('',*,*,#532,.T.);
#608 = ORIENTED_EDGE('',*,*,#82,.T.);
#609 = CYLINDRICAL_SURFACE('',#610,3.3);
#610 = AXIS2_PLACEMENT_3D('',#611,#612,#613);
#611 = CARTESIAN_POINT('',(-16.8529,-3.999999999849E-05,2.54E-03));
#612 = DIRECTION('',(0.,0.,1.));
#613 = DIRECTION('',(1.,0.,0.));
#614 = ADVANCED_FACE('',(#615),#623,.F.);
#615 = FACE_BOUND('',#616,.T.);
#616 = EDGE_LOOP('',(#617,#618,#619,#620,#621,#622));
#617 = ORIENTED_EDGE('',*,*,#318,.F.);
#618 = ORIENTED_EDGE('',*,*,#334,.T.);
#619 = ORIENTED_EDGE('',*,*,#123,.F.);
#620 = ORIENTED_EDGE('',*,*,#257,.F.);
#621 = ORIENTED_EDGE('',*,*,#226,.F.);
#622 = ORIENTED_EDGE('',*,*,#163,.F.);
#623 = PLANE('',#624);
#624 = AXIS2_PLACEMENT_3D('',#625,#626,#627);
#625 = CARTESIAN_POINT('',(-3.5687,-8.00358,-8.97719398818E-17));
#626 = DIRECTION('',(0.,0.,1.));
#627 = DIRECTION('',(1.,0.,0.));
#628 = ADVANCED_FACE('',(#629),#663,.F.);
#629 = FACE_BOUND('',#630,.T.);
#630 = EDGE_LOOP('',(#631,#641,#649,#657));
#631 = ORIENTED_EDGE('',*,*,#632,.T.);
#632 = EDGE_CURVE('',#633,#635,#637,.T.);
#633 = VERTEX_POINT('',#634);
#634 = CARTESIAN_POINT('',(25.9969,7.01036,2.54E-03));
#635 = VERTEX_POINT('',#636);
#636 = CARTESIAN_POINT('',(25.9969,7.01036,2.648933338483));
#637 = LINE('',#638,#639);
#638 = CARTESIAN_POINT('',(25.9969,7.01036,2.99974));
#639 = VECTOR('',#640,1.);
#640 = DIRECTION('',(0.,0.,1.));
#641 = ORIENTED_EDGE('',*,*,#642,.F.);
#642 = EDGE_CURVE('',#643,#635,#645,.T.);
#643 = VERTEX_POINT('',#644);
#644 = CARTESIAN_POINT('',(25.9969,-7.01044,2.648933338483));
#645 = LINE('',#646,#647);
#646 = CARTESIAN_POINT('',(25.9969,-8.00358,2.648933338483));
#647 = VECTOR('',#648,1.);
#648 = DIRECTION('',(0.,1.,0.));
#649 = ORIENTED_EDGE('',*,*,#650,.T.);
#650 = EDGE_CURVE('',#643,#651,#653,.T.);
#651 = VERTEX_POINT('',#652);
#652 = CARTESIAN_POINT('',(25.9969,-7.01044,2.54E-03));
#653 = LINE('',#654,#655);
#654 = CARTESIAN_POINT('',(25.9969,-7.01044,2.99974));
#655 = VECTOR('',#656,1.);
#656 = DIRECTION('',(0.,0.,-1.));
#657 = ORIENTED_EDGE('',*,*,#658,.T.);
#658 = EDGE_CURVE('',#651,#633,#659,.T.);
#659 = LINE('',#660,#661);
#660 = CARTESIAN_POINT('',(25.9969,8.00096,2.54E-03));
#661 = VECTOR('',#662,1.);
#662 = DIRECTION('',(0.,1.,0.));
#663 = PLANE('',#664);
#664 = AXIS2_PLACEMENT_3D('',#665,#666,#667);
#665 = CARTESIAN_POINT('',(25.9969,8.00096,2.99974));
#666 = DIRECTION('',(-1.,0.,0.));
#667 = DIRECTION('',(0.,0.,1.));
#668 = ADVANCED_FACE('',(#669),#687,.F.);
#669 = FACE_BOUND('',#670,.F.);
#670 = EDGE_LOOP('',(#671,#678,#679,#686));
#671 = ORIENTED_EDGE('',*,*,#672,.F.);
#672 = EDGE_CURVE('',#24,#32,#673,.T.);
#673 = CIRCLE('',#674,3.3);
#674 = AXIS2_PLACEMENT_3D('',#675,#676,#677);
#675 = CARTESIAN_POINT('',(16.8529,-3.999999999493E-05,2.99974));
#676 = DIRECTION('',(0.,0.,1.));
#677 = DIRECTION('',(1.,0.,0.));
#678 = ORIENTED_EDGE('',*,*,#21,.F.);
#679 = ORIENTED_EDGE('',*,*,#680,.T.);
#680 = EDGE_CURVE('',#22,#41,#681,.T.);
#681 = CIRCLE('',#682,3.3);
#682 = AXIS2_PLACEMENT_3D('',#683,#684,#685);
#683 = CARTESIAN_POINT('',(16.8529,-3.999999999493E-05,2.54E-03));
#684 = DIRECTION('',(0.,0.,1.));
#685 = DIRECTION('',(1.,0.,0.));
#686 = ORIENTED_EDGE('',*,*,#40,.T.);
#687 = CYLINDRICAL_SURFACE('',#688,3.3);
#688 = AXIS2_PLACEMENT_3D('',#689,#690,#691);
#689 = CARTESIAN_POINT('',(16.8529,-3.999999999493E-05,2.54E-03));
#690 = DIRECTION('',(0.,0.,1.));
#691 = DIRECTION('',(1.,0.,0.));
#692 = ADVANCED_FACE('',(#693,#697),#729,.F.);
#693 = FACE_BOUND('',#694,.T.);
#694 = EDGE_LOOP('',(#695,#696));
#695 = ORIENTED_EDGE('',*,*,#680,.T.);
#696 = ORIENTED_EDGE('',*,*,#48,.T.);
#697 = FACE_BOUND('',#698,.T.);
#698 = EDGE_LOOP('',(#699,#707,#713,#714,#722,#728));
#699 = ORIENTED_EDGE('',*,*,#700,.F.);
#700 = EDGE_CURVE('',#701,#273,#703,.T.);
#701 = VERTEX_POINT('',#702);
#702 = CARTESIAN_POINT('',(25.0063,8.00096,2.54E-03));
#703 = LINE('',#704,#705);
#704 = CARTESIAN_POINT('',(-25.9969,8.00096,2.54E-03));
#705 = VECTOR('',#706,1.);
#706 = DIRECTION('',(-1.,-0.,-0.));
#707 = ORIENTED_EDGE('',*,*,#708,.T.);
#708 = EDGE_CURVE('',#701,#633,#709,.T.);
#709 = LINE('',#710,#711);
#710 = CARTESIAN_POINT('',(25.0063,8.00096,2.54E-03));
#711 = VECTOR('',#712,1.);
#712 = DIRECTION('',(0.707106781187,-0.707106781187,0.));
#713 = ORIENTED_EDGE('',*,*,#658,.F.);
#714 = ORIENTED_EDGE('',*,*,#715,.T.);
#715 = EDGE_CURVE('',#651,#716,#718,.T.);
#716 = VERTEX_POINT('',#717);
#717 = CARTESIAN_POINT('',(25.0063,-8.00104,2.54E-03));
#718 = LINE('',#719,#720);
#719 = CARTESIAN_POINT('',(25.9969,-7.01044,2.54E-03));
#720 = VECTOR('',#721,1.);
#721 = DIRECTION('',(-0.707106781187,-0.707106781187,-0.));
#722 = ORIENTED_EDGE('',*,*,#723,.F.);
#723 = EDGE_CURVE('',#281,#716,#724,.T.);
#724 = LINE('',#725,#726);
#725 = CARTESIAN_POINT('',(-25.9969,-8.00104,2.54E-03));
#726 = VECTOR('',#727,1.);
#727 = DIRECTION('',(1.,0.,0.));
#728 = ORIENTED_EDGE('',*,*,#280,.F.);
#729 = PLANE('',#730);
#730 = AXIS2_PLACEMENT_3D('',#731,#732,#733);
#731 = CARTESIAN_POINT('',(-25.9969,-8.00104,2.54E-03));
#732 = DIRECTION('',(0.,0.,1.));
#733 = DIRECTION('',(1.,0.,0.));
#734 = ADVANCED_FACE('',(#735,#769),#773,.T.);
#735 = FACE_BOUND('',#736,.T.);
#736 = EDGE_LOOP('',(#737,#747,#755,#763));
#737 = ORIENTED_EDGE('',*,*,#738,.T.);
#738 = EDGE_CURVE('',#739,#741,#743,.T.);
#739 = VERTEX_POINT('',#740);
#740 = CARTESIAN_POINT('',(24.8969,6.90096,2.99974));
#741 = VERTEX_POINT('',#742);
#742 = CARTESIAN_POINT('',(3.5687,6.90096,2.99974));
#743 = LINE('',#744,#745);
#744 = CARTESIAN_POINT('',(29.1211,6.90096,2.99974));
#745 = VECTOR('',#746,1.);
#746 = DIRECTION('',(-1.,-1.2E-16,-0.));
#747 = ORIENTED_EDGE('',*,*,#748,.T.);
#748 = EDGE_CURVE('',#741,#749,#751,.T.);
#749 = VERTEX_POINT('',#750);
#750 = CARTESIAN_POINT('',(3.5687,-6.999251752861,2.99974));
#751 = LINE('',#752,#753);
#752 = CARTESIAN_POINT('',(3.5687,-8.00104,2.99974));
#753 = VECTOR('',#754,1.);
#754 = DIRECTION('',(0.,-1.,0.));
#755 = ORIENTED_EDGE('',*,*,#756,.F.);
#756 = EDGE_CURVE('',#757,#749,#759,.T.);
#757 = VERTEX_POINT('',#758);
#758 = CARTESIAN_POINT('',(24.8969,-6.999251752861,2.99974));
#759 = LINE('',#760,#761);
#760 = CARTESIAN_POINT('',(-25.9969,-6.999251752861,2.99974));
#761 = VECTOR('',#762,1.);
#762 = DIRECTION('',(-1.,0.,0.));
#763 = ORIENTED_EDGE('',*,*,#764,.T.);
#764 = EDGE_CURVE('',#757,#739,#765,.T.);
#765 = LINE('',#766,#767);
#766 = CARTESIAN_POINT('',(24.8969,-8.00358,2.99974));
#767 = VECTOR('',#768,1.);
#768 = DIRECTION('',(0.,1.,0.));
#769 = FACE_BOUND('',#770,.T.);
#770 = EDGE_LOOP('',(#771,#772));
#771 = ORIENTED_EDGE('',*,*,#672,.F.);
#772 = ORIENTED_EDGE('',*,*,#31,.F.);
#773 = PLANE('',#774);
#774 = AXIS2_PLACEMENT_3D('',#775,#776,#777);
#775 = CARTESIAN_POINT('',(-25.9969,-8.00104,2.99974));
#776 = DIRECTION('',(0.,0.,1.));
#777 = DIRECTION('',(1.,0.,0.));
#778 = ADVANCED_FACE('',(#779),#805,.F.);
#779 = FACE_BOUND('',#780,.T.);
#780 = EDGE_LOOP('',(#781,#789,#797,#803,#804));
#781 = ORIENTED_EDGE('',*,*,#782,.F.);
#782 = EDGE_CURVE('',#783,#265,#785,.T.);
#783 = VERTEX_POINT('',#784);
#784 = CARTESIAN_POINT('',(3.5687,8.00096,2.648933338483));
#785 = LINE('',#786,#787);
#786 = CARTESIAN_POINT('',(3.5687,8.00096,2.99974));
#787 = VECTOR('',#788,1.);
#788 = DIRECTION('',(0.,0.,-1.));
#789 = ORIENTED_EDGE('',*,*,#790,.T.);
#790 = EDGE_CURVE('',#783,#791,#793,.T.);
#791 = VERTEX_POINT('',#792);
#792 = CARTESIAN_POINT('',(25.0063,8.00096,2.648933338483));
#793 = LINE('',#794,#795);
#794 = CARTESIAN_POINT('',(29.1211,8.00096,2.648933338483));
#795 = VECTOR('',#796,1.);
#796 = DIRECTION('',(1.,1.2E-16,0.));
#797 = ORIENTED_EDGE('',*,*,#798,.T.);
#798 = EDGE_CURVE('',#791,#701,#799,.T.);
#799 = LINE('',#800,#801);
#800 = CARTESIAN_POINT('',(25.0063,8.00096,2.99974));
#801 = VECTOR('',#802,1.);
#802 = DIRECTION('',(0.,0.,-1.));
#803 = ORIENTED_EDGE('',*,*,#700,.T.);
#804 = ORIENTED_EDGE('',*,*,#272,.F.);
#805 = PLANE('',#806);
#806 = AXIS2_PLACEMENT_3D('',#807,#808,#809);
#807 = CARTESIAN_POINT('',(-25.9969,8.00096,2.99974));
#808 = DIRECTION('',(0.,-1.,0.));
#809 = DIRECTION('',(0.,0.,-1.));
#810 = ADVANCED_FACE('',(#811),#837,.F.);
#811 = FACE_BOUND('',#812,.T.);
#812 = EDGE_LOOP('',(#813,#821,#829,#835,#836));
#813 = ORIENTED_EDGE('',*,*,#814,.T.);
#814 = EDGE_CURVE('',#716,#815,#817,.T.);
#815 = VERTEX_POINT('',#816);
#816 = CARTESIAN_POINT('',(25.0063,-8.00104,2.651473338483));
#817 = LINE('',#818,#819);
#818 = CARTESIAN_POINT('',(25.0063,-8.00104,2.99974));
#819 = VECTOR('',#820,1.);
#820 = DIRECTION('',(0.,0.,1.));
#821 = ORIENTED_EDGE('',*,*,#822,.F.);
#822 = EDGE_CURVE('',#823,#815,#825,.T.);
#823 = VERTEX_POINT('',#824);
#824 = CARTESIAN_POINT('',(3.5687,-8.00104,2.651473338483));
#825 = LINE('',#826,#827);
#826 = CARTESIAN_POINT('',(-25.9969,-8.00104,2.651473338483));
#827 = VECTOR('',#828,1.);
#828 = DIRECTION('',(1.,0.,0.));
#829 = ORIENTED_EDGE('',*,*,#830,.T.);
#830 = EDGE_CURVE('',#823,#249,#831,.T.);
#831 = LINE('',#832,#833);
#832 = CARTESIAN_POINT('',(3.5687,-8.00104,2.99974));
#833 = VECTOR('',#834,1.);
#834 = DIRECTION('',(0.,0.,-1.));
#835 = ORIENTED_EDGE('',*,*,#288,.F.);
#836 = ORIENTED_EDGE('',*,*,#723,.T.);
#837 = PLANE('',#838);
#838 = AXIS2_PLACEMENT_3D('',#839,#840,#841);
#839 = CARTESIAN_POINT('',(-25.9969,-8.00104,2.99974));
#840 = DIRECTION('',(0.,1.,0.));
#841 = DIRECTION('',(0.,0.,1.));
#842 = ADVANCED_FACE('',(#843),#864,.F.);
#843 = FACE_BOUND('',#844,.T.);
#844 = EDGE_LOOP('',(#845,#854,#861,#862,#863));
#845 = ORIENTED_EDGE('',*,*,#846,.F.);
#846 = EDGE_CURVE('',#847,#791,#849,.T.);
#847 = VERTEX_POINT('',#848);
#848 = CARTESIAN_POINT('',(25.5016,7.50566,2.900944571946));
#849 = ( BOUNDED_CURVE() B_SPLINE_CURVE(3,(#850,#851,#852,#853),
.UNSPECIFIED.,.F.,.F.) B_SPLINE_CURVE_WITH_KNOTS((4,4),(5.03628579559,
5.329826084),.PIECEWISE_BEZIER_KNOTS.) CURVE() 
GEOMETRIC_REPRESENTATION_ITEM() RATIONAL_B_SPLINE_CURVE((1.,
0.99283238887,0.99283238887,1.)) REPRESENTATION_ITEM('') );
#850 = CARTESIAN_POINT('',(25.5016,7.50566,2.900944571946));
#851 = CARTESIAN_POINT('',(25.324722243585,7.682537756415,2.841563210734
    ));
#852 = CARTESIAN_POINT('',(25.158430327799,7.848829672201,2.756953013253
    ));
#853 = CARTESIAN_POINT('',(25.0063,8.00096,2.648933338483));
#854 = ORIENTED_EDGE('',*,*,#855,.F.);
#855 = EDGE_CURVE('',#635,#847,#856,.T.);
#856 = ( BOUNDED_CURVE() B_SPLINE_CURVE(3,(#857,#858,#859,#860),
.UNSPECIFIED.,.F.,.F.) B_SPLINE_CURVE_WITH_KNOTS((4,4),(4.094951876769,
4.38849216518),.PIECEWISE_BEZIER_KNOTS.) CURVE() 
GEOMETRIC_REPRESENTATION_ITEM() RATIONAL_B_SPLINE_CURVE((1.,
0.99283238887,0.99283238887,1.)) REPRESENTATION_ITEM('') );
#857 = CARTESIAN_POINT('',(25.9969,7.01036,2.648933338483));
#858 = CARTESIAN_POINT('',(25.844769672201,7.162490327799,2.756953013253
    ));
#859 = CARTESIAN_POINT('',(25.678477756415,7.328782243585,2.841563210734
    ));
#860 = CARTESIAN_POINT('',(25.5016,7.50566,2.900944571946));
#861 = ORIENTED_EDGE('',*,*,#632,.F.);
#862 = ORIENTED_EDGE('',*,*,#708,.F.);
#863 = ORIENTED_EDGE('',*,*,#798,.F.);
#864 = PLANE('',#865);
#865 = AXIS2_PLACEMENT_3D('',#866,#867,#868);
#866 = CARTESIAN_POINT('',(25.0063,8.00096,2.99974));
#867 = DIRECTION('',(-0.707106781187,-0.707106781187,0.));
#868 = DIRECTION('',(0.707106781187,-0.707106781187,0.));
#869 = ADVANCED_FACE('',(#870),#891,.F.);
#870 = FACE_BOUND('',#871,.T.);
#871 = EDGE_LOOP('',(#872,#881,#888,#889,#890));
#872 = ORIENTED_EDGE('',*,*,#873,.F.);
#873 = EDGE_CURVE('',#874,#643,#876,.T.);
#874 = VERTEX_POINT('',#875);
#875 = CARTESIAN_POINT('',(25.497817092455,-7.509522907545,
    2.902210151765));
#876 = ( BOUNDED_CURVE() B_SPLINE_CURVE(3,(#877,#878,#879,#880),
.UNSPECIFIED.,.F.,.F.) B_SPLINE_CURVE_WITH_KNOTS((4,4),(5.034186324108,
5.329826084),.PIECEWISE_BEZIER_KNOTS.) CURVE() 
GEOMETRIC_REPRESENTATION_ITEM() RATIONAL_B_SPLINE_CURVE((1.,
0.992729680648,0.992729680648,1.)) REPRESENTATION_ITEM('') );
#877 = CARTESIAN_POINT('',(25.497817092455,-7.509522907545,
    2.902210151765));
#878 = CARTESIAN_POINT('',(25.676094331678,-7.331245668322,
    2.842775136908));
#879 = CARTESIAN_POINT('',(25.843673656065,-7.163666343935,
    2.757731236164));
#880 = CARTESIAN_POINT('',(25.9969,-7.01044,2.648933338483));
#881 = ORIENTED_EDGE('',*,*,#882,.F.);
#882 = EDGE_CURVE('',#815,#874,#883,.T.);
#883 = ( BOUNDED_CURVE() B_SPLINE_CURVE(3,(#884,#885,#886,#887),
.UNSPECIFIED.,.F.,.F.) B_SPLINE_CURVE_WITH_KNOTS((4,4),(4.094951876769,
4.386391212873),.PIECEWISE_BEZIER_KNOTS.) CURVE() 
GEOMETRIC_REPRESENTATION_ITEM() RATIONAL_B_SPLINE_CURVE((1.,
0.992934442035,0.992934442035,1.)) REPRESENTATION_ITEM('') );
#884 = CARTESIAN_POINT('',(25.0063,-8.00104,2.651473338483));
#885 = CARTESIAN_POINT('',(25.157333708448,-7.850006291552,
    2.758714362031));
#886 = CARTESIAN_POINT('',(25.322338590828,-7.685001409172,
    2.842888033748));
#887 = CARTESIAN_POINT('',(25.497817092455,-7.509522907545,
    2.902210151765));
#888 = ORIENTED_EDGE('',*,*,#814,.F.);
#889 = ORIENTED_EDGE('',*,*,#715,.F.);
#890 = ORIENTED_EDGE('',*,*,#650,.F.);
#891 = PLANE('',#892);
#892 = AXIS2_PLACEMENT_3D('',#893,#894,#895);
#893 = CARTESIAN_POINT('',(25.9969,-7.01044,2.99974));
#894 = DIRECTION('',(-0.707106781187,0.707106781187,0.));
#895 = DIRECTION('',(-0.707106781187,-0.707106781187,0.));
#896 = ADVANCED_FACE('',(#897),#910,.F.);
#897 = FACE_BOUND('',#898,.T.);
#898 = EDGE_LOOP('',(#899,#906,#907,#908,#909));
#899 = ORIENTED_EDGE('',*,*,#900,.F.);
#900 = EDGE_CURVE('',#576,#385,#901,.T.);
#901 = ( BOUNDED_CURVE() B_SPLINE_CURVE(3,(#902,#903,#904,#905),
.UNSPECIFIED.,.F.,.F.) B_SPLINE_CURVE_WITH_KNOTS((4,4),(0.954172999537,
1.249351214489),.PIECEWISE_BEZIER_KNOTS.) CURVE() 
GEOMETRIC_REPRESENTATION_ITEM() RATIONAL_B_SPLINE_CURVE((1.,
0.992752322198,0.992752322198,1.)) REPRESENTATION_ITEM('') );
#902 = CARTESIAN_POINT('',(-25.9969,-7.01044,2.649827979414));
#903 = CARTESIAN_POINT('',(-25.8438262701,-7.163513729893,2.758330251418
    ));
#904 = CARTESIAN_POINT('',(-25.67646100377,-7.330878996227,2.8431428533)
  );
#905 = CARTESIAN_POINT('',(-25.49844322957,-7.508896770426,
    2.902421701824));
#906 = ORIENTED_EDGE('',*,*,#592,.F.);
#907 = ORIENTED_EDGE('',*,*,#561,.F.);
#908 = ORIENTED_EDGE('',*,*,#470,.F.);
#909 = ORIENTED_EDGE('',*,*,#399,.F.);
#910 = PLANE('',#911);
#911 = AXIS2_PLACEMENT_3D('',#912,#913,#914);
#912 = CARTESIAN_POINT('',(-25.0063,-8.00104,2.99974));
#913 = DIRECTION('',(0.707106781187,0.707106781187,0.));
#914 = DIRECTION('',(-0.707106781187,0.707106781187,0.));
#915 = ADVANCED_FACE('',(#916),#941,.T.);
#916 = FACE_BOUND('',#917,.T.);
#917 = EDGE_LOOP('',(#918,#919,#926,#927,#928));
#918 = ORIENTED_EDGE('',*,*,#756,.T.);
#919 = ORIENTED_EDGE('',*,*,#920,.T.);
#920 = EDGE_CURVE('',#749,#823,#921,.T.);
#921 = CIRCLE('',#922,1.9);
#922 = AXIS2_PLACEMENT_3D('',#923,#924,#925);
#923 = CARTESIAN_POINT('',(3.5687,-6.90104,1.10228));
#924 = DIRECTION('',(1.,-0.,0.));
#925 = DIRECTION('',(0.,0.,-1.));
#926 = ORIENTED_EDGE('',*,*,#822,.T.);
#927 = ORIENTED_EDGE('',*,*,#882,.T.);
#928 = ORIENTED_EDGE('',*,*,#929,.T.);
#929 = EDGE_CURVE('',#874,#757,#930,.T.);
#930 = B_SPLINE_CURVE_WITH_KNOTS('',3,(#931,#932,#933,#934,#935,#936,
    #937,#938,#939,#940),.UNSPECIFIED.,.F.,.F.,(4,2,2,2,4),(
    7.412038057494E-04,1.139140443908E-03,1.338108762987E-03,
    1.437592922526E-03,1.537077082066E-03),.UNSPECIFIED.);
#931 = CARTESIAN_POINT('',(25.497817092455,-7.509522907545,
    2.902210151765));
#932 = CARTESIAN_POINT('',(25.405637417917,-7.418617668152,
    2.932941502268));
#933 = CARTESIAN_POINT('',(25.311468822836,-7.325867534606,
    2.956521639895));
#934 = CARTESIAN_POINT('',(25.167294376672,-7.18819834855,2.981032965714
    ));
#935 = CARTESIAN_POINT('',(25.118813334888,-7.142285123617,2.98741358018
    ));
#936 = CARTESIAN_POINT('',(25.043271881526,-7.076781676706,
    2.994262246023));
#937 = CARTESIAN_POINT('',(25.017706142317,-7.055379310009,
    2.996096462798));
#938 = CARTESIAN_POINT('',(24.962565477991,-7.017453984592,
    2.998805560485));
#939 = CARTESIAN_POINT('',(24.931350243092,-6.999251752861,2.99974));
#940 = CARTESIAN_POINT('',(24.8969,-6.999251752861,2.99974));
#941 = CYLINDRICAL_SURFACE('',#942,1.9);
#942 = AXIS2_PLACEMENT_3D('',#943,#944,#945);
#943 = CARTESIAN_POINT('',(-25.9969,-6.90104,1.10228));
#944 = DIRECTION('',(1.,0.,0.));
#945 = DIRECTION('',(0.,0.,-1.));
#946 = ADVANCED_FACE('',(#947),#960,.T.);
#947 = FACE_BOUND('',#948,.T.);
#948 = EDGE_LOOP('',(#949,#950,#957,#958,#959));
#949 = ORIENTED_EDGE('',*,*,#432,.T.);
#950 = ORIENTED_EDGE('',*,*,#951,.T.);
#951 = EDGE_CURVE('',#425,#578,#952,.T.);
#952 = ( BOUNDED_CURVE() B_SPLINE_CURVE(3,(#953,#954,#955,#956),
.UNSPECIFIED.,.F.,.F.) B_SPLINE_CURVE_WITH_KNOTS((4,4),(1.570796326795,
2.187419654053),.PIECEWISE_BEZIER_KNOTS.) CURVE() 
GEOMETRIC_REPRESENTATION_ITEM() RATIONAL_B_SPLINE_CURVE((1.,
0.968564835953,0.968564835953,1.)) REPRESENTATION_ITEM('') );
#953 = CARTESIAN_POINT('',(-24.898161061,6.099698939,2.99974));
#954 = CARTESIAN_POINT('',(-25.29500639362,5.702853606372,2.99974));
#955 = CARTESIAN_POINT('',(-25.67313937905,5.324720620944,2.879317147687
    ));
#956 = CARTESIAN_POINT('',(-25.9969,5.00096,2.649827979414));
#957 = ORIENTED_EDGE('',*,*,#575,.F.);
#958 = ORIENTED_EDGE('',*,*,#900,.T.);
#959 = ORIENTED_EDGE('',*,*,#384,.F.);
#960 = CYLINDRICAL_SURFACE('',#961,1.9);
#961 = AXIS2_PLACEMENT_3D('',#962,#963,#964);
#962 = CARTESIAN_POINT('',(-24.898161061,-8.00358,1.09974));
#963 = DIRECTION('',(0.,1.,0.));
#964 = DIRECTION('',(0.,0.,1.));
#965 = ADVANCED_FACE('',(#966),#980,.T.);
#966 = FACE_BOUND('',#967,.T.);
#967 = EDGE_LOOP('',(#968,#969,#976,#977,#978,#979));
#968 = ORIENTED_EDGE('',*,*,#855,.T.);
#969 = ORIENTED_EDGE('',*,*,#970,.T.);
#970 = EDGE_CURVE('',#847,#739,#971,.T.);
#971 = ( BOUNDED_CURVE() B_SPLINE_CURVE(3,(#972,#973,#974,#975),
.UNSPECIFIED.,.F.,.F.) B_SPLINE_CURVE_WITH_KNOTS((4,4),(1.24689951159,
1.570796326795),.PIECEWISE_BEZIER_KNOTS.) CURVE() 
GEOMETRIC_REPRESENTATION_ITEM() RATIONAL_B_SPLINE_CURVE((1.,
0.991276661911,0.991276661911,1.)) REPRESENTATION_ITEM('') );
#972 = CARTESIAN_POINT('',(25.5016,7.50566,2.900944571946));
#973 = CARTESIAN_POINT('',(25.306276937331,7.310336937331,2.966518387289
    ));
#974 = CARTESIAN_POINT('',(25.10293646296,7.10699646296,2.99974));
#975 = CARTESIAN_POINT('',(24.8969,6.90096,2.99974));
#976 = ORIENTED_EDGE('',*,*,#764,.F.);
#977 = ORIENTED_EDGE('',*,*,#929,.F.);
#978 = ORIENTED_EDGE('',*,*,#873,.T.);
#979 = ORIENTED_EDGE('',*,*,#642,.T.);
#980 = CYLINDRICAL_SURFACE('',#981,1.9);
#981 = AXIS2_PLACEMENT_3D('',#982,#983,#984);
#982 = CARTESIAN_POINT('',(24.8969,-8.00358,1.09974));
#983 = DIRECTION('',(0.,1.,0.));
#984 = DIRECTION('',(0.,0.,1.));
#985 = ADVANCED_FACE('',(#986),#1008,.T.);
#986 = FACE_BOUND('',#987,.T.);
#987 = EDGE_LOOP('',(#988,#989,#990,#996,#997,#998,#999,#1000,#1001,
    #1007));
#988 = ORIENTED_EDGE('',*,*,#217,.T.);
#989 = ORIENTED_EDGE('',*,*,#248,.T.);
#990 = ORIENTED_EDGE('',*,*,#991,.T.);
#991 = EDGE_CURVE('',#249,#265,#992,.T.);
#992 = LINE('',#993,#994);
#993 = CARTESIAN_POINT('',(3.5687,8.976691378334,2.36484));
#994 = VECTOR('',#995,1.);
#995 = DIRECTION('',(0.,1.,0.));
#996 = ORIENTED_EDGE('',*,*,#264,.T.);
#997 = ORIENTED_EDGE('',*,*,#105,.T.);
#998 = ORIENTED_EDGE('',*,*,#342,.T.);
#999 = ORIENTED_EDGE('',*,*,#302,.T.);
#1000 = ORIENTED_EDGE('',*,*,#145,.T.);
#1001 = ORIENTED_EDGE('',*,*,#1002,.T.);
#1002 = EDGE_CURVE('',#148,#180,#1003,.T.);
#1003 = LINE('',#1004,#1005);
#1004 = CARTESIAN_POINT('',(-3.5687,8.976691378334,2.36484));
#1005 = VECTOR('',#1006,1.);
#1006 = DIRECTION('',(0.,-1.,0.));
#1007 = ORIENTED_EDGE('',*,*,#179,.T.);
#1008 = PLANE('',#1009);
#1009 = AXIS2_PLACEMENT_3D('',#1010,#1011,#1012);
#1010 = CARTESIAN_POINT('',(-25.9969,8.00096,2.36484));
#1011 = DIRECTION('',(0.,0.,1.));
#1012 = DIRECTION('',(1.,0.,0.));
#1013 = ADVANCED_FACE('',(#1014),#1028,.F.);
#1014 = FACE_BOUND('',#1015,.T.);
#1015 = EDGE_LOOP('',(#1016,#1017,#1024,#1025,#1026,#1027));
#1016 = ORIENTED_EDGE('',*,*,#517,.F.);
#1017 = ORIENTED_EDGE('',*,*,#1018,.T.);
#1018 = EDGE_CURVE('',#510,#415,#1019,.T.);
#1019 = CIRCLE('',#1020,1.9);
#1020 = AXIS2_PLACEMENT_3D('',#1021,#1022,#1023);
#1021 = CARTESIAN_POINT('',(-3.5687,6.90096,1.09974));
#1022 = DIRECTION('',(1.,0.,0.));
#1023 = DIRECTION('',(0.,-2.62E-15,1.));
#1024 = ORIENTED_EDGE('',*,*,#439,.F.);
#1025 = ORIENTED_EDGE('',*,*,#367,.F.);
#1026 = ORIENTED_EDGE('',*,*,#463,.T.);
#1027 = ORIENTED_EDGE('',*,*,#1002,.F.);
#1028 = PLANE('',#1029);
#1029 = AXIS2_PLACEMENT_3D('',#1030,#1031,#1032);
#1030 = CARTESIAN_POINT('',(-3.5687,8.976691378334,2.36484));
#1031 = DIRECTION('',(-1.,0.,0.));
#1032 = DIRECTION('',(0.,0.,1.));
#1033 = ADVANCED_FACE('',(#1034),#1048,.F.);
#1034 = FACE_BOUND('',#1035,.T.);
#1035 = EDGE_LOOP('',(#1036,#1037,#1044,#1045,#1046,#1047));
#1036 = ORIENTED_EDGE('',*,*,#748,.F.);
#1037 = ORIENTED_EDGE('',*,*,#1038,.T.);
#1038 = EDGE_CURVE('',#741,#783,#1039,.T.);
#1039 = CIRCLE('',#1040,1.9);
#1040 = AXIS2_PLACEMENT_3D('',#1041,#1042,#1043);
#1041 = CARTESIAN_POINT('',(3.5687,6.90096,1.09974));
#1042 = DIRECTION('',(-1.,-0.,-0.));
#1043 = DIRECTION('',(0.,0.,-1.));
#1044 = ORIENTED_EDGE('',*,*,#782,.T.);
#1045 = ORIENTED_EDGE('',*,*,#991,.F.);
#1046 = ORIENTED_EDGE('',*,*,#830,.F.);
#1047 = ORIENTED_EDGE('',*,*,#920,.F.);
#1048 = PLANE('',#1049);
#1049 = AXIS2_PLACEMENT_3D('',#1050,#1051,#1052);
#1050 = CARTESIAN_POINT('',(3.5687,8.976691378334,2.36484));
#1051 = DIRECTION('',(1.,0.,0.));
#1052 = DIRECTION('',(0.,0.,-1.));
#1053 = ADVANCED_FACE('',(#1054),#1061,.T.);
#1054 = FACE_BOUND('',#1055,.T.);
#1055 = EDGE_LOOP('',(#1056,#1057,#1058,#1059,#1060));
#1056 = ORIENTED_EDGE('',*,*,#846,.T.);
#1057 = ORIENTED_EDGE('',*,*,#790,.F.);
#1058 = ORIENTED_EDGE('',*,*,#1038,.F.);
#1059 = ORIENTED_EDGE('',*,*,#738,.F.);
#1060 = ORIENTED_EDGE('',*,*,#970,.F.);
#1061 = CYLINDRICAL_SURFACE('',#1062,1.9);
#1062 = AXIS2_PLACEMENT_3D('',#1063,#1064,#1065);
#1063 = CARTESIAN_POINT('',(29.1211,6.90096,1.09974));
#1064 = DIRECTION('',(-1.,-1.2E-16,-0.));
#1065 = DIRECTION('',(1.2E-16,-1.,0.));
#1066 = ADVANCED_FACE('',(#1067),#1079,.T.);
#1067 = FACE_BOUND('',#1068,.T.);
#1068 = EDGE_LOOP('',(#1069,#1070,#1077,#1078));
#1069 = ORIENTED_EDGE('',*,*,#509,.F.);
#1070 = ORIENTED_EDGE('',*,*,#1071,.T.);
#1071 = EDGE_CURVE('',#502,#417,#1072,.T.);
#1072 = ( BOUNDED_CURVE() B_SPLINE_CURVE(3,(#1073,#1074,#1075,#1076),
.UNSPECIFIED.,.F.,.F.) B_SPLINE_CURVE_WITH_KNOTS((4,4),(4.094951876769,
4.712388980385),.PIECEWISE_BEZIER_KNOTS.) CURVE() 
GEOMETRIC_REPRESENTATION_ITEM() RATIONAL_B_SPLINE_CURVE((1.,
0.968482469799,0.968482469799,1.)) REPRESENTATION_ITEM('') );
#1073 = CARTESIAN_POINT('',(-22.9969,8.00096,2.648933338483));
#1074 = CARTESIAN_POINT('',(-23.32091470101,7.676945298986,
    2.878998987658));
#1075 = CARTESIAN_POINT('',(-23.69951387869,7.298346121302,2.99974));
#1076 = CARTESIAN_POINT('',(-24.0969,6.90096,2.99974));
#1077 = ORIENTED_EDGE('',*,*,#414,.F.);
#1078 = ORIENTED_EDGE('',*,*,#1018,.F.);
#1079 = CYLINDRICAL_SURFACE('',#1080,1.9);
#1080 = AXIS2_PLACEMENT_3D('',#1081,#1082,#1083);
#1081 = CARTESIAN_POINT('',(29.1211,6.90096,1.09974));
#1082 = DIRECTION('',(-1.,-1.2E-16,-0.));
#1083 = DIRECTION('',(1.2E-16,-1.,0.));
#1084 = ADVANCED_FACE('',(#1085),#1093,.F.);
#1085 = FACE_BOUND('',#1086,.T.);
#1086 = EDGE_LOOP('',(#1087,#1088,#1089,#1090,#1091,#1092));
#1087 = ORIENTED_EDGE('',*,*,#1071,.F.);
#1088 = ORIENTED_EDGE('',*,*,#501,.F.);
#1089 = ORIENTED_EDGE('',*,*,#552,.F.);
#1090 = ORIENTED_EDGE('',*,*,#585,.F.);
#1091 = ORIENTED_EDGE('',*,*,#951,.F.);
#1092 = ORIENTED_EDGE('',*,*,#424,.F.);
#1093 = PLANE('',#1094);
#1094 = AXIS2_PLACEMENT_3D('',#1095,#1096,#1097);
#1095 = CARTESIAN_POINT('',(-25.9969,5.00096,2.99974));
#1096 = DIRECTION('',(0.707106781187,-0.707106781187,0.));
#1097 = DIRECTION('',(0.,0.,-1.));
#1098 = ( GEOMETRIC_REPRESENTATION_CONTEXT(3) 
GLOBAL_UNCERTAINTY_ASSIGNED_CONTEXT((#1102)) 
GLOBAL_UNIT_ASSIGNED_CONTEXT((#1099,#1100,#1101)) REPRESENTATION_CONTEXT
('Context #1','3D Context with UNIT and UNCERTAINTY') );
#1099 = ( LENGTH_UNIT() NAMED_UNIT(*) SI_UNIT(.MILLI.,.METRE.) );
#1100 = ( NAMED_UNIT(*) PLANE_ANGLE_UNIT() SI_UNIT($,.RADIAN.) );
#1101 = ( NAMED_UNIT(*) SI_UNIT($,.STERADIAN.) SOLID_ANGLE_UNIT() );
#1102 = UNCERTAINTY_MEASURE_WITH_UNIT(LENGTH_MEASURE(1.E-06),#1099,
  'distance_accuracy_value','confusion accuracy');
#1103 = PRODUCT_RELATED_PRODUCT_CATEGORY('part',$,(#7));
#1104 = MECHANICAL_DESIGN_GEOMETRIC_PRESENTATION_REPRESENTATION('',(
    #1105),#1098);
#1105 = STYLED_ITEM('color',(#1106),#15);
#1106 = PRESENTATION_STYLE_ASSIGNMENT((#1107,#1113));
#1107 = SURFACE_STYLE_USAGE(.BOTH.,#1108);
#1108 = SURFACE_SIDE_STYLE('',(#1109));
#1109 = SURFACE_STYLE_FILL_AREA(#1110);
#1110 = FILL_AREA_STYLE('',(#1111));
#1111 = FILL_AREA_STYLE_COLOUR('',#1112);
#1112 = COLOUR_RGB('',0.935260866907,0.874556811871,0.732716281101);
#1113 = CURVE_STYLE('',#1114,POSITIVE_LENGTH_MEASURE(0.1),#1115);
#1114 = DRAUGHTING_PRE_DEFINED_CURVE_FONT('continuous');
#1115 = COLOUR_RGB('',0.345868924627,0.345868924627,0.345868924627);
ENDSEC;
END-ISO-10303-21;
