(module "2x6" (layer F.Cu) (tedit 5E38576D)
  (descr "Watch Crystal, 2x6 Cylindrical")
  (fp_text reference "XTAL-2x6" (at 0 0 90) (layer F.Fab)
    (effects (font (size 1.2 1.2) (thickness 0.12)))
  )
  (fp_text value "XTAL-2x6" (at 0 0 90) (layer F.Fab) hide
    (effects (font (size 1.2 1.2) (thickness 0.12)))
  )
  (fp_line (start 1 8) (end 1 2) (layer F.Fab) (width 0.12))
  (fp_line (start -1 8) (end 1 8) (layer F.Fab) (width 0.12))
  (fp_line (start -1 2) (end -1 8) (layer F.Fab) (width 0.12))
  (fp_line (start 1 2) (end -1 2) (layer F.Fab) (width 0.12))
  (fp_line (start 0.2 2) (end 0.8 0) (layer F.Fab) (width 0.12))
  (fp_line (start -0.3 2) (end -0.8 0) (layer F.Fab) (width 0.12))
  (fp_line (start 1.5 -0.7) (end -1.5 -0.7) (layer F.CrtYd) (width 0.01))
  (fp_line (start 1.5 8.6) (end 1.5 -0.7) (layer F.CrtYd) (width 0.01))
  (fp_line (start -1.5 8.6) (end 1.5 8.6) (layer F.CrtYd) (width 0.01))
  (fp_line (start -1.5 -0.7) (end -1.5 8.6) (layer F.CrtYd) (width 0.01))
  (pad "1" thru_hole circle (at -0.8 0) (size 0.9 0.9) (drill 0.5) (layers *.Cu *.Mask))
  (pad "2" thru_hole circle (at 0.8 0) (size 0.9 0.9) (drill 0.5) (layers *.Cu *.Mask))
)
