(footprint "Adimpex-GQ001108"
	(version 20240108)
	(generator "pcbnew")
	(generator_version "8.0")
	(layer "F.Cu")
	(descr "MiniDIN R/A Shielded Receptacle, 8-pin")
	(property "Reference" "GQ001108"
		(at 0 -1.8 180)
		(layer "F.Fab")
		(uuid "5c847d8c-f8e5-4a57-bf24-8ae0ababbc49")
		(effects
			(font
				(size 1.2 1.2)
				(thickness 0.12)
			)
		)
	)
	(property "Value" "GQ001108"
		(at 0 -1.8 180)
		(layer "F.Fab")
		(hide yes)
		(uuid "4f16e1a3-77d2-48c4-985c-c1c2a1894938")
		(effects
			(font
				(size 1.2 1.2)
				(thickness 0.12)
			)
		)
	)
	(property "Footprint" ""
		(at 0 0 0)
		(layer "F.Fab")
		(hide yes)
		(uuid "9e6b251d-3a58-4b7c-86a7-e005ef100b4f")
		(effects
			(font
				(size 1.27 1.27)
				(thickness 0.15)
			)
		)
	)
	(property "Datasheet" ""
		(at 0 0 0)
		(layer "F.Fab")
		(hide yes)
		(uuid "6d3410c2-a462-4945-809e-aeb4d0b084ee")
		(effects
			(font
				(size 1.27 1.27)
				(thickness 0.15)
			)
		)
	)
	(property "Description" ""
		(at 0 0 0)
		(layer "F.Fab")
		(hide yes)
		(uuid "89f3d292-0864-4e24-990e-f9f2cd24061e")
		(effects
			(font
				(size 1.27 1.27)
				(thickness 0.15)
			)
		)
	)
	(attr through_hole)
	(fp_line
		(start -7 -13)
		(end 7 -13)
		(stroke
			(width 0.12)
			(type solid)
		)
		(layer "F.SilkS")
		(uuid "b96face6-17eb-4275-bd34-9efb82a6e3e8")
	)
	(fp_line
		(start -7 0)
		(end -7 -13)
		(stroke
			(width 0.12)
			(type solid)
		)
		(layer "F.SilkS")
		(uuid "fffc183a-757e-45aa-ab22-4864fe604b87")
	)
	(fp_line
		(start 7 -13)
		(end 7 0)
		(stroke
			(width 0.12)
			(type solid)
		)
		(layer "F.SilkS")
		(uuid "f72b0c9c-e15a-4c35-9d74-27bd0f1347fe")
	)
	(fp_line
		(start 7 0)
		(end -7 0)
		(stroke
			(width 0.12)
			(type solid)
		)
		(layer "F.SilkS")
		(uuid "6e4f18df-4349-4a70-9889-c09bdd78dc8b")
	)
	(fp_line
		(start -8.25 -13.3)
		(end -8.25 0)
		(stroke
			(width 0.01)
			(type solid)
		)
		(layer "F.CrtYd")
		(uuid "41c1ec1a-6861-4c9a-9d59-0f010248d074")
	)
	(fp_line
		(start -8.25 0)
		(end 8.25 0)
		(stroke
			(width 0.01)
			(type solid)
		)
		(layer "F.CrtYd")
		(uuid "3a228bb2-7be5-41a4-ac57-be5186654ff5")
	)
	(fp_line
		(start 8.25 -13.3)
		(end -8.25 -13.3)
		(stroke
			(width 0.01)
			(type solid)
		)
		(layer "F.CrtYd")
		(uuid "ad8815a7-7a47-46f3-b6a8-7ebd617979ca")
	)
	(fp_line
		(start 8.25 0)
		(end 8.25 -13.3)
		(stroke
			(width 0.01)
			(type solid)
		)
		(layer "F.CrtYd")
		(uuid "c505c68f-6fea-4974-bb62-f342be81f80e")
	)
	(fp_text user "${REFERENCE}"
		(at 0 -13.65 0)
		(layer "F.SilkS")
		(uuid "6dafe862-32f3-4df7-8b2a-694d321c24f1")
		(effects
			(font
				(size 0.8 0.8)
				(thickness 0.15)
				(bold yes)
			)
		)
	)
	(pad "1" thru_hole circle
		(at 1.3 -8.5 180)
		(size 1.7 1.7)
		(drill 1.1)
		(layers "*.Cu" "*.Mask")
		(remove_unused_layers no)
		(uuid "ec0c3e55-c788-4ba6-a010-8fdd37917045")
	)
	(pad "2" thru_hole circle
		(at -1.3 -8.5 180)
		(size 1.7 1.7)
		(drill 1.1)
		(layers "*.Cu" "*.Mask")
		(remove_unused_layers no)
		(uuid "2238a579-a438-4616-80ed-4127daec7365")
	)
	(pad "3" thru_hole circle
		(at 3.4 -8.5 180)
		(size 1.7 1.7)
		(drill 1.1)
		(layers "*.Cu" "*.Mask")
		(remove_unused_layers no)
		(uuid "9e8a3833-c9b2-4615-935e-f86ac1bb30fa")
	)
	(pad "4" thru_hole circle
		(at 1.3 -11 180)
		(size 1.7 1.7)
		(drill 1.1)
		(layers "*.Cu" "*.Mask")
		(remove_unused_layers no)
		(uuid "4aea0641-3edb-495c-8def-4d3359655702")
	)
	(pad "5" thru_hole circle
		(at -3.4 -8.5 180)
		(size 1.7 1.7)
		(drill 1.1)
		(layers "*.Cu" "*.Mask")
		(remove_unused_layers no)
		(uuid "bd0d65e7-8639-4694-b4f6-083bdbcdeaa0")
	)
	(pad "6" thru_hole circle
		(at 3.4 -11 180)
		(size 1.7 1.7)
		(drill 1.1)
		(layers "*.Cu" "*.Mask")
		(remove_unused_layers no)
		(uuid "c708703a-ab17-4020-a58f-05403a9ecdb0")
	)
	(pad "7" thru_hole circle
		(at -0.9 -11 180)
		(size 1.7 1.7)
		(drill 1.1)
		(layers "*.Cu" "*.Mask")
		(remove_unused_layers no)
		(uuid "7b9b0bfd-4759-465f-9863-b71adb5ceda8")
	)
	(pad "8" thru_hole circle
		(at -3.4 -11 180)
		(size 1.7 1.7)
		(drill 1.1)
		(layers "*.Cu" "*.Mask")
		(remove_unused_layers no)
		(uuid "79940381-1cee-4ea8-bd05-b8cc6efa008c")
	)
	(pad "G" thru_hole oval
		(at -6.75 -5.5 270)
		(size 3.5 2.5)
		(drill oval 2.5 1.5)
		(layers "*.Cu" "*.Mask")
		(remove_unused_layers no)
		(uuid "d1d36f1f-7636-4c8c-8bf7-ed94ff248a2b")
	)
	(pad "G" thru_hole oval
		(at 0 -4.7 180)
		(size 3.5 2.5)
		(drill oval 2.5 1.5)
		(layers "*.Cu" "*.Mask")
		(remove_unused_layers no)
		(uuid "3eb37f01-6016-466c-acff-b8bea64c72fa")
	)
	(pad "G" thru_hole oval
		(at 6.75 -5.5 270)
		(size 3.5 2.5)
		(drill oval 2.5 1.5)
		(layers "*.Cu" "*.Mask")
		(remove_unused_layers no)
		(uuid "df667124-a5f4-4f32-b6fb-ecfa0d6dda42")
	)
)
