(footprint "WR-FAST-638363222002"
	(version 20240108)
	(generator "pcbnew")
	(generator_version "8.0")
	(layer "F.Cu")
	(descr "2-poles 7.5mm pitch Vertical Faston 250 Tabs")
	(property "Reference" "WR-FAST"
		(at 0 0 0)
		(unlocked yes)
		(layer "F.Fab")
		(uuid "4eb1a609-860f-468d-9564-9a163cea12bc")
		(effects
			(font
				(size 1 1)
				(thickness 0.1)
			)
		)
	)
	(property "Value" "WR-FAST"
		(at 0 0 0)
		(unlocked yes)
		(layer "F.Fab")
		(hide yes)
		(uuid "11f95cbe-ea80-4ad0-8661-ad27b0064929")
		(effects
			(font
				(size 1 1)
				(thickness 0.1)
			)
		)
	)
	(property "Footprint" ""
		(at 7.5 0 0)
		(unlocked yes)
		(layer "F.Fab")
		(hide yes)
		(uuid "60318f5e-ec85-4f6d-bd22-11e4c9b06cb2")
		(effects
			(font
				(size 1 1)
				(thickness 0.1)
			)
		)
	)
	(property "Datasheet" ""
		(at 7.5 0 0)
		(unlocked yes)
		(layer "F.Fab")
		(hide yes)
		(uuid "22a65441-9545-4c87-acf5-1c330e501419")
		(effects
			(font
				(size 1 1)
				(thickness 0.1)
			)
		)
	)
	(property "Description" ""
		(at 7.5 0 0)
		(unlocked yes)
		(layer "F.Fab")
		(hide yes)
		(uuid "b0249af7-51be-4975-b094-eeb8dfeef475")
		(effects
			(font
				(size 1 1)
				(thickness 0.1)
			)
		)
	)
	(attr through_hole)
	(fp_line
		(start -6.15 -5.1)
		(end -6.15 6)
		(stroke
			(width 0.12)
			(type default)
		)
		(layer "F.SilkS")
		(uuid "17c00777-e749-49e9-879b-f783fd32359e")
	)
	(fp_line
		(start -6.15 6)
		(end -4.55 6)
		(stroke
			(width 0.12)
			(type default)
		)
		(layer "F.SilkS")
		(uuid "7cf1a6b6-e854-4717-b7b4-dee7c9603796")
	)
	(fp_line
		(start -3.35 6)
		(end 6.15 6)
		(stroke
			(width 0.12)
			(type default)
		)
		(layer "F.SilkS")
		(uuid "f051bccc-bb2d-42b4-8814-5d7284629b60")
	)
	(fp_line
		(start 6.15 -5.1)
		(end -6.15 -5.1)
		(stroke
			(width 0.12)
			(type default)
		)
		(layer "F.SilkS")
		(uuid "c6e92dac-ded4-4ae2-99b5-c9cb6256881d")
	)
	(fp_line
		(start 6.15 6)
		(end 6.15 -5.1)
		(stroke
			(width 0.12)
			(type default)
		)
		(layer "F.SilkS")
		(uuid "2d2e80e6-8970-4826-b245-b9ef0c5f9642")
	)
	(fp_circle
		(center -3.95 6.4)
		(end -3.55 6.4)
		(stroke
			(width 0.12)
			(type solid)
		)
		(fill solid)
		(layer "F.SilkS")
		(uuid "a80ac773-6f95-4fe7-9f4f-f4eb9cab0a2c")
	)
	(fp_rect
		(start -6.65 -5.6)
		(end 6.65 6.5)
		(stroke
			(width 0.01)
			(type default)
		)
		(fill none)
		(layer "F.CrtYd")
		(uuid "155ce318-57f1-4ffb-a2ac-92272ce8a94a")
	)
	(fp_line
		(start -6.15 5)
		(end -5.15 6)
		(stroke
			(width 0.1)
			(type default)
		)
		(layer "F.Fab")
		(uuid "74714d9e-e609-48a6-8e99-c3dc2e3d8d4b")
	)
	(fp_line
		(start -6.15 5.1)
		(end 6.15 5.1)
		(stroke
			(width 0.1)
			(type default)
		)
		(layer "F.Fab")
		(uuid "7bbe130b-7c92-486c-91a5-64f9a0895c89")
	)
	(fp_rect
		(start -6.15 -5.1)
		(end 6.15 6)
		(stroke
			(width 0.1)
			(type default)
		)
		(fill none)
		(layer "F.Fab")
		(uuid "3322ceee-fa6a-4416-9732-8cab0080e180")
	)
	(fp_text user "${REFERENCE}"
		(at 0 -5.75 0)
		(unlocked yes)
		(layer "F.SilkS")
		(uuid "998d7143-62d7-4db6-b63b-060e609dce72")
		(effects
			(font
				(size 0.8 0.8)
				(thickness 0.15)
			)
		)
	)
	(pad "1" thru_hole circle
		(at -3.93 -2.54)
		(size 2.3 2.3)
		(drill 1.5)
		(layers "*.Cu" "*.Mask")
		(remove_unused_layers no)
		(uuid "bfdf6531-f90f-4662-abff-7c43ad373924")
	)
	(pad "1" thru_hole circle
		(at -3.93 2.54)
		(size 2.3 2.3)
		(drill 1.5)
		(layers "*.Cu" "*.Mask")
		(remove_unused_layers no)
		(uuid "0f82ffc3-3a4c-4e5b-aef9-42eb4927cf74")
	)
	(pad "2" thru_hole circle
		(at 3.69 -2.54)
		(size 2.3 2.3)
		(drill 1.5)
		(layers "*.Cu" "*.Mask")
		(remove_unused_layers no)
		(uuid "4e1abb13-ceb7-458e-bc51-d7cc40ee85dd")
	)
	(pad "2" thru_hole circle
		(at 3.69 2.54)
		(size 2.3 2.3)
		(drill 1.5)
		(layers "*.Cu" "*.Mask")
		(remove_unused_layers no)
		(uuid "d0ac7ebc-e279-4348-b517-0d2b59b42975")
	)
	(model "${KICAD8_3DMODEL_DIR}/WE/WR-FAST-638363222002.wrl"
		(offset
			(xyz 0 0 0)
		)
		(scale
			(xyz 1 1 1)
		)
		(rotate
			(xyz 0 0 0)
		)
	)
)
