ISO-10303-21;
HEADER;
FILE_DESCRIPTION(('FreeCAD Model'),'2;1');
FILE_NAME(
'/home/mrclnz/cvswork/kicad-lib/drafting/Libreria/Parti/Viteria 
Standard/Screw PH M3x16.step','2020-01-08T10:39:30',('kicad StepUp'),(
    'ksu MCAD'),'Open CASCADE STEP processor 7.4','FreeCAD','Unknown');
FILE_SCHEMA(('AUTOMOTIVE_DESIGN { 1 0 10303 214 1 1 1 1 }'));
ENDSEC;
DATA;
#1 = APPLICATION_PROTOCOL_DEFINITION('international standard',
  'automotive_design',2000,#2);
#2 = APPLICATION_CONTEXT(
  'core data for automotive mechanical design processes');
#3 = SHAPE_DEFINITION_REPRESENTATION(#4,#10);
#4 = PRODUCT_DEFINITION_SHAPE('','',#5);
#5 = PRODUCT_DEFINITION('design','',#6,#9);
#6 = PRODUCT_DEFINITION_FORMATION('','',#7);
#7 = PRODUCT('Screw_PH_M3x16','Screw_PH_M3x16','',(#8));
#8 = PRODUCT_CONTEXT('',#2,'mechanical');
#9 = PRODUCT_DEFINITION_CONTEXT('part definition',#2,'design');
#10 = ADVANCED_BREP_SHAPE_REPRESENTATION('',(#11,#15),#876);
#11 = AXIS2_PLACEMENT_3D('',#12,#13,#14);
#12 = CARTESIAN_POINT('',(0.,0.,0.));
#13 = DIRECTION('',(0.,0.,1.));
#14 = DIRECTION('',(1.,0.,-0.));
#15 = MANIFOLD_SOLID_BREP('',#16);
#16 = CLOSED_SHELL('',(#17,#50,#70,#100,#125,#134,#331,#363,#550,#568,
    #585,#607,#625,#637,#655,#673,#690,#707,#724,#742,#760,#777,#794,
    #811,#829,#847,#864));
#17 = ADVANCED_FACE('',(#18),#45,.T.);
#18 = FACE_BOUND('',#19,.F.);
#19 = EDGE_LOOP('',(#20,#29,#37,#44));
#20 = ORIENTED_EDGE('',*,*,#21,.T.);
#21 = EDGE_CURVE('',#22,#22,#24,.T.);
#22 = VERTEX_POINT('',#23);
#23 = CARTESIAN_POINT('',(2.8,0.,1.542463035442));
#24 = CIRCLE('',#25,2.8);
#25 = AXIS2_PLACEMENT_3D('',#26,#27,#28);
#26 = CARTESIAN_POINT('',(0.,0.,1.542463035442));
#27 = DIRECTION('',(0.,0.,1.));
#28 = DIRECTION('',(1.,0.,0.));
#29 = ORIENTED_EDGE('',*,*,#30,.T.);
#30 = EDGE_CURVE('',#22,#31,#33,.T.);
#31 = VERTEX_POINT('',#32);
#32 = CARTESIAN_POINT('',(2.8,0.,0.));
#33 = LINE('',#34,#35);
#34 = CARTESIAN_POINT('',(2.8,0.,1.542463035442));
#35 = VECTOR('',#36,1.);
#36 = DIRECTION('',(0.,0.,-1.));
#37 = ORIENTED_EDGE('',*,*,#38,.F.);
#38 = EDGE_CURVE('',#31,#31,#39,.T.);
#39 = CIRCLE('',#40,2.8);
#40 = AXIS2_PLACEMENT_3D('',#41,#42,#43);
#41 = CARTESIAN_POINT('',(0.,0.,0.));
#42 = DIRECTION('',(0.,0.,1.));
#43 = DIRECTION('',(1.,0.,0.));
#44 = ORIENTED_EDGE('',*,*,#30,.F.);
#45 = CYLINDRICAL_SURFACE('',#46,2.8);
#46 = AXIS2_PLACEMENT_3D('',#47,#48,#49);
#47 = CARTESIAN_POINT('',(0.,0.,1.542463035442));
#48 = DIRECTION('',(-0.,-0.,-1.));
#49 = DIRECTION('',(1.,0.,0.));
#50 = ADVANCED_FACE('',(#51,#54),#65,.F.);
#51 = FACE_BOUND('',#52,.F.);
#52 = EDGE_LOOP('',(#53));
#53 = ORIENTED_EDGE('',*,*,#38,.T.);
#54 = FACE_BOUND('',#55,.F.);
#55 = EDGE_LOOP('',(#56));
#56 = ORIENTED_EDGE('',*,*,#57,.F.);
#57 = EDGE_CURVE('',#58,#58,#60,.T.);
#58 = VERTEX_POINT('',#59);
#59 = CARTESIAN_POINT('',(1.6,0.,0.));
#60 = CIRCLE('',#61,1.6);
#61 = AXIS2_PLACEMENT_3D('',#62,#63,#64);
#62 = CARTESIAN_POINT('',(0.,0.,-1.E-17));
#63 = DIRECTION('',(0.,0.,1.));
#64 = DIRECTION('',(1.,0.,0.));
#65 = PLANE('',#66);
#66 = AXIS2_PLACEMENT_3D('',#67,#68,#69);
#67 = CARTESIAN_POINT('',(0.,0.,0.));
#68 = DIRECTION('',(0.,0.,1.));
#69 = DIRECTION('',(1.,0.,0.));
#70 = ADVANCED_FACE('',(#71),#91,.F.);
#71 = FACE_BOUND('',#72,.F.);
#72 = EDGE_LOOP('',(#73,#74,#83,#90));
#73 = ORIENTED_EDGE('',*,*,#57,.T.);
#74 = ORIENTED_EDGE('',*,*,#75,.T.);
#75 = EDGE_CURVE('',#58,#76,#78,.T.);
#76 = VERTEX_POINT('',#77);
#77 = CARTESIAN_POINT('',(1.5,0.,-0.1));
#78 = CIRCLE('',#79,0.1);
#79 = AXIS2_PLACEMENT_3D('',#80,#81,#82);
#80 = CARTESIAN_POINT('',(1.6,0.,-0.1));
#81 = DIRECTION('',(0.,-1.,0.));
#82 = DIRECTION('',(0.,0.,1.));
#83 = ORIENTED_EDGE('',*,*,#84,.F.);
#84 = EDGE_CURVE('',#76,#76,#85,.T.);
#85 = CIRCLE('',#86,1.5);
#86 = AXIS2_PLACEMENT_3D('',#87,#88,#89);
#87 = CARTESIAN_POINT('',(0.,0.,-0.1));
#88 = DIRECTION('',(0.,0.,1.));
#89 = DIRECTION('',(1.,0.,0.));
#90 = ORIENTED_EDGE('',*,*,#75,.F.);
#91 = SURFACE_OF_REVOLUTION('',#92,#97);
#92 = CIRCLE('',#93,0.1);
#93 = AXIS2_PLACEMENT_3D('',#94,#95,#96);
#94 = CARTESIAN_POINT('',(1.6,0.,-0.1));
#95 = DIRECTION('',(0.,-1.,0.));
#96 = DIRECTION('',(0.,0.,1.));
#97 = AXIS1_PLACEMENT('',#98,#99);
#98 = CARTESIAN_POINT('',(0.,0.,0.));
#99 = DIRECTION('',(0.,0.,1.));
#100 = ADVANCED_FACE('',(#101),#120,.T.);
#101 = FACE_BOUND('',#102,.F.);
#102 = EDGE_LOOP('',(#103,#104,#112,#119));
#103 = ORIENTED_EDGE('',*,*,#84,.T.);
#104 = ORIENTED_EDGE('',*,*,#105,.T.);
#105 = EDGE_CURVE('',#76,#106,#108,.T.);
#106 = VERTEX_POINT('',#107);
#107 = CARTESIAN_POINT('',(1.5,0.,-16.));
#108 = LINE('',#109,#110);
#109 = CARTESIAN_POINT('',(1.5,0.,-0.1));
#110 = VECTOR('',#111,1.);
#111 = DIRECTION('',(0.,0.,-1.));
#112 = ORIENTED_EDGE('',*,*,#113,.F.);
#113 = EDGE_CURVE('',#106,#106,#114,.T.);
#114 = CIRCLE('',#115,1.5);
#115 = AXIS2_PLACEMENT_3D('',#116,#117,#118);
#116 = CARTESIAN_POINT('',(0.,0.,-16.));
#117 = DIRECTION('',(0.,0.,1.));
#118 = DIRECTION('',(1.,0.,0.));
#119 = ORIENTED_EDGE('',*,*,#105,.F.);
#120 = CYLINDRICAL_SURFACE('',#121,1.5);
#121 = AXIS2_PLACEMENT_3D('',#122,#123,#124);
#122 = CARTESIAN_POINT('',(0.,0.,-0.1));
#123 = DIRECTION('',(-0.,-0.,-1.));
#124 = DIRECTION('',(1.,0.,0.));
#125 = ADVANCED_FACE('',(#126),#129,.F.);
#126 = FACE_BOUND('',#127,.F.);
#127 = EDGE_LOOP('',(#128));
#128 = ORIENTED_EDGE('',*,*,#113,.T.);
#129 = PLANE('',#130);
#130 = AXIS2_PLACEMENT_3D('',#131,#132,#133);
#131 = CARTESIAN_POINT('',(0.,0.,-16.));
#132 = DIRECTION('',(0.,0.,1.));
#133 = DIRECTION('',(1.,0.,0.));
#134 = ADVANCED_FACE('',(#135),#326,.T.);
#135 = FACE_BOUND('',#136,.F.);
#136 = EDGE_LOOP('',(#137,#148,#155,#156,#157,#166,#175,#184,#193,#202,
    #211,#220,#229,#238,#247,#256,#265,#274,#283,#292,#301,#310,#319));
#137 = ORIENTED_EDGE('',*,*,#138,.T.);
#138 = EDGE_CURVE('',#139,#141,#143,.T.);
#139 = VERTEX_POINT('',#140);
#140 = CARTESIAN_POINT('',(0.805652660387,-0.205,2.330405540198));
#141 = VERTEX_POINT('',#142);
#142 = CARTESIAN_POINT('',(0.729522433961,0.,2.346493406278));
#143 = CIRCLE('',#144,4.998713430256);
#144 = AXIS2_PLACEMENT_3D('',#145,#146,#147);
#145 = CARTESIAN_POINT('',(0.105296750278,4.01183536046E-02,
    -2.612928815247));
#146 = DIRECTION('',(-0.928380992663,-0.353715730496,0.113990852535));
#147 = DIRECTION('',(0.356036447518,-0.934472069159,0.));
#148 = ORIENTED_EDGE('',*,*,#149,.T.);
#149 = EDGE_CURVE('',#141,#22,#150,.T.);
#150 = CIRCLE('',#151,5.);
#151 = AXIS2_PLACEMENT_3D('',#152,#153,#154);
#152 = CARTESIAN_POINT('',(-7.22E-15,0.,-2.6));
#153 = DIRECTION('',(-0.,1.,0.));
#154 = DIRECTION('',(1.44E-15,0.,1.));
#155 = ORIENTED_EDGE('',*,*,#21,.F.);
#156 = ORIENTED_EDGE('',*,*,#149,.F.);
#157 = ORIENTED_EDGE('',*,*,#158,.T.);
#158 = EDGE_CURVE('',#141,#159,#161,.T.);
#159 = VERTEX_POINT('',#160);
#160 = CARTESIAN_POINT('',(0.805652660387,0.205,2.330405540198));
#161 = CIRCLE('',#162,4.998713430256);
#162 = AXIS2_PLACEMENT_3D('',#163,#164,#165);
#163 = CARTESIAN_POINT('',(0.105296750278,-4.01183536046E-02,
    -2.612928815247));
#164 = DIRECTION('',(-0.928380992663,0.353715730496,0.113990852535));
#165 = DIRECTION('',(-0.356036447518,-0.934472069159,0.));
#166 = ORIENTED_EDGE('',*,*,#167,.T.);
#167 = EDGE_CURVE('',#159,#168,#170,.T.);
#168 = VERTEX_POINT('',#169);
#169 = CARTESIAN_POINT('',(1.284581118007,0.774500710949,2.169696007085)
  );
#170 = CIRCLE('',#171,4.999975777468);
#171 = AXIS2_PLACEMENT_3D('',#172,#173,#174);
#172 = CARTESIAN_POINT('',(1.165959146708E-02,-1.020926695481E-02,
    -2.601431617819));
#173 = DIRECTION('',(-0.749159152089,0.65597202071,9.198517753569E-02));
#174 = DIRECTION('',(-0.658764936111,-0.752348827972,2.081668171172E-17)
  );
#175 = ORIENTED_EDGE('',*,*,#176,.F.);
#176 = EDGE_CURVE('',#177,#168,#179,.T.);
#177 = VERTEX_POINT('',#178);
#178 = CARTESIAN_POINT('',(0.774500710949,1.284581118007,2.169696007085)
  );
#179 = CIRCLE('',#180,1.5);
#180 = AXIS2_PLACEMENT_3D('',#181,#182,#183);
#181 = CARTESIAN_POINT('',(1.233E-14,0.,2.169696007085));
#182 = DIRECTION('',(-4.1E-15,-0.,-1.));
#183 = DIRECTION('',(1.,0.,-4.1E-15));
#184 = ORIENTED_EDGE('',*,*,#185,.T.);
#185 = EDGE_CURVE('',#177,#186,#188,.T.);
#186 = VERTEX_POINT('',#187);
#187 = CARTESIAN_POINT('',(0.205,0.805652660387,2.330405540198));
#188 = CIRCLE('',#189,4.999975777468);
#189 = AXIS2_PLACEMENT_3D('',#190,#191,#192);
#190 = CARTESIAN_POINT('',(-1.020926695481E-02,1.165959146708E-02,
    -2.601431617819));
#191 = DIRECTION('',(0.65597202071,-0.749159152089,9.198517753569E-02));
#192 = DIRECTION('',(0.752348827972,0.658764936111,0.));
#193 = ORIENTED_EDGE('',*,*,#194,.T.);
#194 = EDGE_CURVE('',#186,#195,#197,.T.);
#195 = VERTEX_POINT('',#196);
#196 = CARTESIAN_POINT('',(0.,0.729522433961,2.346493406278));
#197 = CIRCLE('',#198,4.998713430256);
#198 = AXIS2_PLACEMENT_3D('',#199,#200,#201);
#199 = CARTESIAN_POINT('',(-4.01183536046E-02,0.105296750278,
    -2.612928815247));
#200 = DIRECTION('',(0.353715730496,-0.928380992663,0.113990852535));
#201 = DIRECTION('',(0.934472069159,0.356036447518,-6.938893903907E-18)
  );
#202 = ORIENTED_EDGE('',*,*,#203,.T.);
#203 = EDGE_CURVE('',#195,#204,#206,.T.);
#204 = VERTEX_POINT('',#205);
#205 = CARTESIAN_POINT('',(-0.205,0.805652660387,2.330405540198));
#206 = CIRCLE('',#207,4.998713430256);
#207 = AXIS2_PLACEMENT_3D('',#208,#209,#210);
#208 = CARTESIAN_POINT('',(4.011835360459E-02,0.105296750278,
    -2.612928815247));
#209 = DIRECTION('',(-0.353715730496,-0.928380992663,0.113990852535));
#210 = DIRECTION('',(0.934472069159,-0.356036447518,-6.938893903907E-18)
  );
#211 = ORIENTED_EDGE('',*,*,#212,.T.);
#212 = EDGE_CURVE('',#204,#213,#215,.T.);
#213 = VERTEX_POINT('',#214);
#214 = CARTESIAN_POINT('',(-0.774500710949,1.284581118007,2.169696007085
    ));
#215 = CIRCLE('',#216,4.999975777468);
#216 = AXIS2_PLACEMENT_3D('',#217,#218,#219);
#217 = CARTESIAN_POINT('',(1.02092669548E-02,1.165959146709E-02,
    -2.601431617819));
#218 = DIRECTION('',(-0.65597202071,-0.749159152089,9.198517753569E-02)
  );
#219 = DIRECTION('',(0.752348827972,-0.658764936111,-6.938893903907E-18)
  );
#220 = ORIENTED_EDGE('',*,*,#221,.F.);
#221 = EDGE_CURVE('',#222,#213,#224,.T.);
#222 = VERTEX_POINT('',#223);
#223 = CARTESIAN_POINT('',(-1.284581118007,0.774500710949,2.169696007085
    ));
#224 = CIRCLE('',#225,1.5);
#225 = AXIS2_PLACEMENT_3D('',#226,#227,#228);
#226 = CARTESIAN_POINT('',(1.233E-14,0.,2.169696007085));
#227 = DIRECTION('',(-4.1E-15,-0.,-1.));
#228 = DIRECTION('',(1.,0.,-4.1E-15));
#229 = ORIENTED_EDGE('',*,*,#230,.T.);
#230 = EDGE_CURVE('',#222,#231,#233,.T.);
#231 = VERTEX_POINT('',#232);
#232 = CARTESIAN_POINT('',(-0.805652660387,0.205,2.330405540198));
#233 = CIRCLE('',#234,4.999975777468);
#234 = AXIS2_PLACEMENT_3D('',#235,#236,#237);
#235 = CARTESIAN_POINT('',(-1.165959146709E-02,-1.02092669548E-02,
    -2.601431617819));
#236 = DIRECTION('',(0.749159152089,0.65597202071,9.198517753569E-02));
#237 = DIRECTION('',(-0.658764936111,0.752348827972,0.));
#238 = ORIENTED_EDGE('',*,*,#239,.T.);
#239 = EDGE_CURVE('',#231,#240,#242,.T.);
#240 = VERTEX_POINT('',#241);
#241 = CARTESIAN_POINT('',(-0.729522433961,0.,2.346493406278));
#242 = CIRCLE('',#243,4.998713430256);
#243 = AXIS2_PLACEMENT_3D('',#244,#245,#246);
#244 = CARTESIAN_POINT('',(-0.105296750278,-4.011835360459E-02,
    -2.612928815247));
#245 = DIRECTION('',(0.928380992663,0.353715730496,0.113990852535));
#246 = DIRECTION('',(-0.356036447518,0.934472069159,-6.938893903907E-18)
  );
#247 = ORIENTED_EDGE('',*,*,#248,.T.);
#248 = EDGE_CURVE('',#240,#249,#251,.T.);
#249 = VERTEX_POINT('',#250);
#250 = CARTESIAN_POINT('',(-0.805652660387,-0.205,2.330405540198));
#251 = CIRCLE('',#252,4.998713430256);
#252 = AXIS2_PLACEMENT_3D('',#253,#254,#255);
#253 = CARTESIAN_POINT('',(-0.105296750278,4.011835360459E-02,
    -2.612928815247));
#254 = DIRECTION('',(0.928380992663,-0.353715730496,0.113990852535));
#255 = DIRECTION('',(0.356036447518,0.934472069159,-6.938893903907E-18)
  );
#256 = ORIENTED_EDGE('',*,*,#257,.T.);
#257 = EDGE_CURVE('',#249,#258,#260,.T.);
#258 = VERTEX_POINT('',#259);
#259 = CARTESIAN_POINT('',(-1.284581118007,-0.774500710949,
    2.169696007085));
#260 = CIRCLE('',#261,4.999975777468);
#261 = AXIS2_PLACEMENT_3D('',#262,#263,#264);
#262 = CARTESIAN_POINT('',(-1.165959146709E-02,1.02092669548E-02,
    -2.601431617819));
#263 = DIRECTION('',(0.749159152089,-0.65597202071,9.198517753569E-02));
#264 = DIRECTION('',(0.658764936111,0.752348827972,-6.938893903907E-18)
  );
#265 = ORIENTED_EDGE('',*,*,#266,.F.);
#266 = EDGE_CURVE('',#267,#258,#269,.T.);
#267 = VERTEX_POINT('',#268);
#268 = CARTESIAN_POINT('',(-0.774500710949,-1.284581118007,
    2.169696007085));
#269 = CIRCLE('',#270,1.5);
#270 = AXIS2_PLACEMENT_3D('',#271,#272,#273);
#271 = CARTESIAN_POINT('',(1.233E-14,0.,2.169696007085));
#272 = DIRECTION('',(-4.1E-15,-0.,-1.));
#273 = DIRECTION('',(1.,0.,-4.1E-15));
#274 = ORIENTED_EDGE('',*,*,#275,.T.);
#275 = EDGE_CURVE('',#267,#276,#278,.T.);
#276 = VERTEX_POINT('',#277);
#277 = CARTESIAN_POINT('',(-0.205,-0.805652660387,2.330405540198));
#278 = CIRCLE('',#279,4.999975777468);
#279 = AXIS2_PLACEMENT_3D('',#280,#281,#282);
#280 = CARTESIAN_POINT('',(1.02092669548E-02,-1.165959146709E-02,
    -2.601431617819));
#281 = DIRECTION('',(-0.65597202071,0.749159152089,9.198517753569E-02));
#282 = DIRECTION('',(-0.752348827972,-0.658764936111,-6.938893903907E-18
    ));
#283 = ORIENTED_EDGE('',*,*,#284,.T.);
#284 = EDGE_CURVE('',#276,#285,#287,.T.);
#285 = VERTEX_POINT('',#286);
#286 = CARTESIAN_POINT('',(0.,-0.729522433961,2.346493406278));
#287 = CIRCLE('',#288,4.998713430256);
#288 = AXIS2_PLACEMENT_3D('',#289,#290,#291);
#289 = CARTESIAN_POINT('',(4.011835360459E-02,-0.105296750278,
    -2.612928815247));
#290 = DIRECTION('',(-0.353715730496,0.928380992663,0.113990852535));
#291 = DIRECTION('',(-0.934472069159,-0.356036447518,6.938893903907E-18)
  );
#292 = ORIENTED_EDGE('',*,*,#293,.T.);
#293 = EDGE_CURVE('',#285,#294,#296,.T.);
#294 = VERTEX_POINT('',#295);
#295 = CARTESIAN_POINT('',(0.205,-0.805652660387,2.330405540198));
#296 = CIRCLE('',#297,4.998713430256);
#297 = AXIS2_PLACEMENT_3D('',#298,#299,#300);
#298 = CARTESIAN_POINT('',(-4.01183536046E-02,-0.105296750278,
    -2.612928815247));
#299 = DIRECTION('',(0.353715730496,0.928380992663,0.113990852535));
#300 = DIRECTION('',(-0.934472069159,0.356036447518,-6.938893903907E-18)
  );
#301 = ORIENTED_EDGE('',*,*,#302,.T.);
#302 = EDGE_CURVE('',#294,#303,#305,.T.);
#303 = VERTEX_POINT('',#304);
#304 = CARTESIAN_POINT('',(0.774500710949,-1.284581118007,2.169696007085
    ));
#305 = CIRCLE('',#306,4.999975777468);
#306 = AXIS2_PLACEMENT_3D('',#307,#308,#309);
#307 = CARTESIAN_POINT('',(-1.020926695481E-02,-1.165959146708E-02,
    -2.601431617819));
#308 = DIRECTION('',(0.65597202071,0.749159152089,9.198517753569E-02));
#309 = DIRECTION('',(-0.752348827972,0.658764936111,6.938893903907E-18)
  );
#310 = ORIENTED_EDGE('',*,*,#311,.F.);
#311 = EDGE_CURVE('',#312,#303,#314,.T.);
#312 = VERTEX_POINT('',#313);
#313 = CARTESIAN_POINT('',(1.284581118007,-0.774500710949,2.169696007085
    ));
#314 = CIRCLE('',#315,1.5);
#315 = AXIS2_PLACEMENT_3D('',#316,#317,#318);
#316 = CARTESIAN_POINT('',(1.233E-14,0.,2.169696007085));
#317 = DIRECTION('',(-4.1E-15,-0.,-1.));
#318 = DIRECTION('',(1.,0.,-4.1E-15));
#319 = ORIENTED_EDGE('',*,*,#320,.T.);
#320 = EDGE_CURVE('',#312,#139,#321,.T.);
#321 = CIRCLE('',#322,4.999975777468);
#322 = AXIS2_PLACEMENT_3D('',#323,#324,#325);
#323 = CARTESIAN_POINT('',(1.165959146708E-02,1.020926695481E-02,
    -2.601431617819));
#324 = DIRECTION('',(-0.749159152089,-0.65597202071,9.198517753569E-02)
  );
#325 = DIRECTION('',(0.658764936111,-0.752348827972,-2.081668171172E-17)
  );
#326 = SPHERICAL_SURFACE('',#327,5.);
#327 = AXIS2_PLACEMENT_3D('',#328,#329,#330);
#328 = CARTESIAN_POINT('',(-7.22E-15,0.,-2.6));
#329 = DIRECTION('',(-0.,-0.,-1.));
#330 = DIRECTION('',(1.,0.,0.));
#331 = ADVANCED_FACE('',(#332),#358,.T.);
#332 = FACE_BOUND('',#333,.T.);
#333 = EDGE_LOOP('',(#334,#345,#351,#352));
#334 = ORIENTED_EDGE('',*,*,#335,.F.);
#335 = EDGE_CURVE('',#336,#338,#340,.T.);
#336 = VERTEX_POINT('',#337);
#337 = CARTESIAN_POINT('',(0.,-0.485,0.355017994691));
#338 = VERTEX_POINT('',#339);
#339 = CARTESIAN_POINT('',(0.205,-0.571053084241,0.419745320208));
#340 = HYPERBOLA('',#341,0.227573048438,0.424420802616);
#341 = AXIS2_PLACEMENT_3D('',#342,#343,#344);
#342 = CARTESIAN_POINT('',(-0.151391271767,-0.397349529709,
    0.110932125399));
#343 = DIRECTION('',(0.353715730496,0.928380992663,0.113990852535));
#344 = DIRECTION('',(-4.058489818597E-02,-0.106521267833,0.993481799299)
  );
#345 = ORIENTED_EDGE('',*,*,#346,.F.);
#346 = EDGE_CURVE('',#285,#336,#347,.T.);
#347 = LINE('',#348,#349);
#348 = CARTESIAN_POINT('',(0.,-0.891991284286,3.669696007085));
#349 = VECTOR('',#350,1.);
#350 = DIRECTION('',(0.,0.121869343405,-0.992546151641));
#351 = ORIENTED_EDGE('',*,*,#293,.T.);
#352 = ORIENTED_EDGE('',*,*,#353,.T.);
#353 = EDGE_CURVE('',#294,#338,#354,.T.);
#354 = LINE('',#355,#356);
#355 = CARTESIAN_POINT('',(0.205,-0.970096852285,3.669696007085));
#356 = VECTOR('',#357,1.);
#357 = DIRECTION('',(0.,0.121869343405,-0.992546151641));
#358 = PLANE('',#359);
#359 = AXIS2_PLACEMENT_3D('',#360,#361,#362);
#360 = CARTESIAN_POINT('',(0.1025,-0.711716641687,1.88341746371));
#361 = DIRECTION('',(0.353715730496,0.928380992663,0.113990852535));
#362 = DIRECTION('',(0.934472069159,-0.356036447518,0.));
#363 = ADVANCED_FACE('',(#364),#545,.F.);
#364 = FACE_BOUND('',#365,.T.);
#365 = EDGE_LOOP('',(#366,#377,#385,#386,#395,#404,#413,#422,#431,#440,
    #449,#458,#467,#476,#485,#494,#503,#512,#519,#520,#529,#538));
#366 = ORIENTED_EDGE('',*,*,#367,.T.);
#367 = EDGE_CURVE('',#368,#370,#372,.T.);
#368 = VERTEX_POINT('',#369);
#369 = CARTESIAN_POINT('',(0.571053084241,-0.205,0.419745320208));
#370 = VERTEX_POINT('',#371);
#371 = CARTESIAN_POINT('',(0.485,0.,0.355017994691));
#372 = HYPERBOLA('',#373,0.227573048438,0.424420802616);
#373 = AXIS2_PLACEMENT_3D('',#374,#375,#376);
#374 = CARTESIAN_POINT('',(0.397349529709,0.151391271767,0.110932125399)
  );
#375 = DIRECTION('',(-0.928380992663,-0.353715730496,0.113990852535));
#376 = DIRECTION('',(0.106521267833,4.058489818597E-02,0.993481799299));
#377 = ORIENTED_EDGE('',*,*,#378,.T.);
#378 = EDGE_CURVE('',#370,#379,#381,.T.);
#379 = VERTEX_POINT('',#380);
#380 = CARTESIAN_POINT('',(0.,0.,9.713892033564E-02));
#381 = LINE('',#382,#383);
#382 = CARTESIAN_POINT('',(0.635,0.,0.434774409441));
#383 = VECTOR('',#384,1.);
#384 = DIRECTION('',(-0.882947592859,0.,-0.469471562786));
#385 = ORIENTED_EDGE('',*,*,#378,.F.);
#386 = ORIENTED_EDGE('',*,*,#387,.T.);
#387 = EDGE_CURVE('',#370,#388,#390,.T.);
#388 = VERTEX_POINT('',#389);
#389 = CARTESIAN_POINT('',(0.571053084241,0.205,0.419745320208));
#390 = HYPERBOLA('',#391,0.227573048438,0.424420802616);
#391 = AXIS2_PLACEMENT_3D('',#392,#393,#394);
#392 = CARTESIAN_POINT('',(0.397349529709,-0.151391271767,0.110932125399
    ));
#393 = DIRECTION('',(-0.928380992663,0.353715730496,0.113990852535));
#394 = DIRECTION('',(0.106521267833,-4.058489818597E-02,0.993481799299)
  );
#395 = ORIENTED_EDGE('',*,*,#396,.T.);
#396 = EDGE_CURVE('',#388,#397,#399,.T.);
#397 = VERTEX_POINT('',#398);
#398 = CARTESIAN_POINT('',(0.592772304636,0.227697156013,0.434774409441)
  );
#399 = HYPERBOLA('',#400,0.141728948278,0.265102932234);
#400 = AXIS2_PLACEMENT_3D('',#401,#402,#403);
#401 = CARTESIAN_POINT('',(0.199690907093,-0.174851561885,0.104070796241
    ));
#402 = DIRECTION('',(-0.749159152089,0.65597202071,9.198517753569E-02));
#403 = DIRECTION('',(6.920494050974E-02,-6.059660960249E-02,
    0.995760376353));
#404 = ORIENTED_EDGE('',*,*,#405,.T.);
#405 = EDGE_CURVE('',#397,#406,#408,.T.);
#406 = VERTEX_POINT('',#407);
#407 = CARTESIAN_POINT('',(0.227697156013,0.592772304636,0.434774409441)
  );
#408 = CIRCLE('',#409,0.635);
#409 = AXIS2_PLACEMENT_3D('',#410,#411,#412);
#410 = CARTESIAN_POINT('',(0.,0.,0.434774409441));
#411 = DIRECTION('',(0.,0.,1.));
#412 = DIRECTION('',(1.,0.,0.));
#413 = ORIENTED_EDGE('',*,*,#414,.T.);
#414 = EDGE_CURVE('',#406,#415,#417,.T.);
#415 = VERTEX_POINT('',#416);
#416 = CARTESIAN_POINT('',(0.205,0.571053084241,0.419745320208));
#417 = HYPERBOLA('',#418,0.141728948278,0.265102932234);
#418 = AXIS2_PLACEMENT_3D('',#419,#420,#421);
#419 = CARTESIAN_POINT('',(-0.174851561885,0.199690907093,0.104070796241
    ));
#420 = DIRECTION('',(0.65597202071,-0.749159152089,9.198517753569E-02));
#421 = DIRECTION('',(-6.059660960249E-02,6.920494050974E-02,
    0.995760376353));
#422 = ORIENTED_EDGE('',*,*,#423,.T.);
#423 = EDGE_CURVE('',#415,#424,#426,.T.);
#424 = VERTEX_POINT('',#425);
#425 = CARTESIAN_POINT('',(0.,0.485,0.355017994691));
#426 = HYPERBOLA('',#427,0.227573048438,0.424420802616);
#427 = AXIS2_PLACEMENT_3D('',#428,#429,#430);
#428 = CARTESIAN_POINT('',(-0.151391271767,0.397349529709,0.110932125399
    ));
#429 = DIRECTION('',(0.353715730496,-0.928380992663,0.113990852535));
#430 = DIRECTION('',(-4.058489818597E-02,0.106521267833,0.993481799299)
  );
#431 = ORIENTED_EDGE('',*,*,#432,.T.);
#432 = EDGE_CURVE('',#424,#433,#435,.T.);
#433 = VERTEX_POINT('',#434);
#434 = CARTESIAN_POINT('',(-0.205,0.571053084241,0.419745320208));
#435 = HYPERBOLA('',#436,0.227573048438,0.424420802616);
#436 = AXIS2_PLACEMENT_3D('',#437,#438,#439);
#437 = CARTESIAN_POINT('',(0.151391271767,0.397349529709,0.110932125399)
  );
#438 = DIRECTION('',(-0.353715730496,-0.928380992663,0.113990852535));
#439 = DIRECTION('',(4.058489818597E-02,0.106521267833,0.993481799299));
#440 = ORIENTED_EDGE('',*,*,#441,.T.);
#441 = EDGE_CURVE('',#433,#442,#444,.T.);
#442 = VERTEX_POINT('',#443);
#443 = CARTESIAN_POINT('',(-0.227697156013,0.592772304636,0.434774409441
    ));
#444 = HYPERBOLA('',#445,0.141728948278,0.265102932234);
#445 = AXIS2_PLACEMENT_3D('',#446,#447,#448);
#446 = CARTESIAN_POINT('',(0.174851561885,0.199690907093,0.104070796241)
  );
#447 = DIRECTION('',(-0.65597202071,-0.749159152089,9.198517753569E-02)
  );
#448 = DIRECTION('',(6.059660960249E-02,6.920494050974E-02,
    0.995760376353));
#449 = ORIENTED_EDGE('',*,*,#450,.T.);
#450 = EDGE_CURVE('',#442,#451,#453,.T.);
#451 = VERTEX_POINT('',#452);
#452 = CARTESIAN_POINT('',(-0.592772304636,0.227697156013,0.434774409441
    ));
#453 = CIRCLE('',#454,0.635);
#454 = AXIS2_PLACEMENT_3D('',#455,#456,#457);
#455 = CARTESIAN_POINT('',(0.,0.,0.434774409441));
#456 = DIRECTION('',(0.,0.,1.));
#457 = DIRECTION('',(1.,0.,0.));
#458 = ORIENTED_EDGE('',*,*,#459,.T.);
#459 = EDGE_CURVE('',#451,#460,#462,.T.);
#460 = VERTEX_POINT('',#461);
#461 = CARTESIAN_POINT('',(-0.571053084241,0.205,0.419745320208));
#462 = HYPERBOLA('',#463,0.141728948278,0.265102932234);
#463 = AXIS2_PLACEMENT_3D('',#464,#465,#466);
#464 = CARTESIAN_POINT('',(-0.199690907093,-0.174851561885,
    0.104070796241));
#465 = DIRECTION('',(0.749159152089,0.65597202071,9.198517753569E-02));
#466 = DIRECTION('',(-6.920494050974E-02,-6.059660960249E-02,
    0.995760376353));
#467 = ORIENTED_EDGE('',*,*,#468,.T.);
#468 = EDGE_CURVE('',#460,#469,#471,.T.);
#469 = VERTEX_POINT('',#470);
#470 = CARTESIAN_POINT('',(-0.485,0.,0.355017994691));
#471 = HYPERBOLA('',#472,0.227573048438,0.424420802616);
#472 = AXIS2_PLACEMENT_3D('',#473,#474,#475);
#473 = CARTESIAN_POINT('',(-0.397349529709,-0.151391271767,
    0.110932125399));
#474 = DIRECTION('',(0.928380992663,0.353715730496,0.113990852535));
#475 = DIRECTION('',(-0.106521267833,-4.058489818597E-02,0.993481799299)
  );
#476 = ORIENTED_EDGE('',*,*,#477,.T.);
#477 = EDGE_CURVE('',#469,#478,#480,.T.);
#478 = VERTEX_POINT('',#479);
#479 = CARTESIAN_POINT('',(-0.571053084241,-0.205,0.419745320208));
#480 = HYPERBOLA('',#481,0.227573048438,0.424420802616);
#481 = AXIS2_PLACEMENT_3D('',#482,#483,#484);
#482 = CARTESIAN_POINT('',(-0.397349529709,0.151391271767,0.110932125399
    ));
#483 = DIRECTION('',(0.928380992663,-0.353715730496,0.113990852535));
#484 = DIRECTION('',(-0.106521267833,4.058489818597E-02,0.993481799299)
  );
#485 = ORIENTED_EDGE('',*,*,#486,.T.);
#486 = EDGE_CURVE('',#478,#487,#489,.T.);
#487 = VERTEX_POINT('',#488);
#488 = CARTESIAN_POINT('',(-0.592772304636,-0.227697156013,
    0.434774409441));
#489 = HYPERBOLA('',#490,0.141728948278,0.265102932234);
#490 = AXIS2_PLACEMENT_3D('',#491,#492,#493);
#491 = CARTESIAN_POINT('',(-0.199690907093,0.174851561885,0.104070796241
    ));
#492 = DIRECTION('',(0.749159152089,-0.65597202071,9.198517753569E-02));
#493 = DIRECTION('',(-6.920494050974E-02,6.059660960249E-02,
    0.995760376353));
#494 = ORIENTED_EDGE('',*,*,#495,.T.);
#495 = EDGE_CURVE('',#487,#496,#498,.T.);
#496 = VERTEX_POINT('',#497);
#497 = CARTESIAN_POINT('',(-0.227697156013,-0.592772304636,
    0.434774409441));
#498 = CIRCLE('',#499,0.635);
#499 = AXIS2_PLACEMENT_3D('',#500,#501,#502);
#500 = CARTESIAN_POINT('',(0.,0.,0.434774409441));
#501 = DIRECTION('',(0.,0.,1.));
#502 = DIRECTION('',(1.,0.,0.));
#503 = ORIENTED_EDGE('',*,*,#504,.T.);
#504 = EDGE_CURVE('',#496,#505,#507,.T.);
#505 = VERTEX_POINT('',#506);
#506 = CARTESIAN_POINT('',(-0.205,-0.571053084241,0.419745320208));
#507 = HYPERBOLA('',#508,0.141728948278,0.265102932234);
#508 = AXIS2_PLACEMENT_3D('',#509,#510,#511);
#509 = CARTESIAN_POINT('',(0.174851561885,-0.199690907093,0.104070796241
    ));
#510 = DIRECTION('',(-0.65597202071,0.749159152089,9.198517753569E-02));
#511 = DIRECTION('',(6.059660960249E-02,-6.920494050974E-02,
    0.995760376353));
#512 = ORIENTED_EDGE('',*,*,#513,.T.);
#513 = EDGE_CURVE('',#505,#336,#514,.T.);
#514 = HYPERBOLA('',#515,0.227573048438,0.424420802616);
#515 = AXIS2_PLACEMENT_3D('',#516,#517,#518);
#516 = CARTESIAN_POINT('',(0.151391271767,-0.397349529709,0.110932125399
    ));
#517 = DIRECTION('',(-0.353715730496,0.928380992663,0.113990852535));
#518 = DIRECTION('',(4.058489818597E-02,-0.106521267833,0.993481799299)
  );
#519 = ORIENTED_EDGE('',*,*,#335,.T.);
#520 = ORIENTED_EDGE('',*,*,#521,.T.);
#521 = EDGE_CURVE('',#338,#522,#524,.T.);
#522 = VERTEX_POINT('',#523);
#523 = CARTESIAN_POINT('',(0.227697156013,-0.592772304636,0.434774409441
    ));
#524 = HYPERBOLA('',#525,0.141728948278,0.265102932234);
#525 = AXIS2_PLACEMENT_3D('',#526,#527,#528);
#526 = CARTESIAN_POINT('',(-0.174851561885,-0.199690907093,
    0.104070796241));
#527 = DIRECTION('',(0.65597202071,0.749159152089,9.198517753569E-02));
#528 = DIRECTION('',(-6.059660960249E-02,-6.920494050974E-02,
    0.995760376353));
#529 = ORIENTED_EDGE('',*,*,#530,.T.);
#530 = EDGE_CURVE('',#522,#531,#533,.T.);
#531 = VERTEX_POINT('',#532);
#532 = CARTESIAN_POINT('',(0.592772304636,-0.227697156013,0.434774409441
    ));
#533 = CIRCLE('',#534,0.635);
#534 = AXIS2_PLACEMENT_3D('',#535,#536,#537);
#535 = CARTESIAN_POINT('',(0.,0.,0.434774409441));
#536 = DIRECTION('',(0.,0.,1.));
#537 = DIRECTION('',(1.,0.,0.));
#538 = ORIENTED_EDGE('',*,*,#539,.T.);
#539 = EDGE_CURVE('',#531,#368,#540,.T.);
#540 = HYPERBOLA('',#541,0.141728948278,0.265102932234);
#541 = AXIS2_PLACEMENT_3D('',#542,#543,#544);
#542 = CARTESIAN_POINT('',(0.199690907093,0.174851561885,0.104070796241)
  );
#543 = DIRECTION('',(-0.749159152089,-0.65597202071,9.198517753569E-02)
  );
#544 = DIRECTION('',(6.920494050974E-02,6.059660960249E-02,
    0.995760376353));
#545 = CONICAL_SURFACE('',#546,0.635,1.082104136236);
#546 = AXIS2_PLACEMENT_3D('',#547,#548,#549);
#547 = CARTESIAN_POINT('',(0.,0.,0.434774409441));
#548 = DIRECTION('',(0.,0.,1.));
#549 = DIRECTION('',(1.,0.,0.));
#550 = ADVANCED_FACE('',(#551),#563,.T.);
#551 = FACE_BOUND('',#552,.T.);
#552 = EDGE_LOOP('',(#553,#554,#555,#562));
#553 = ORIENTED_EDGE('',*,*,#353,.F.);
#554 = ORIENTED_EDGE('',*,*,#302,.T.);
#555 = ORIENTED_EDGE('',*,*,#556,.F.);
#556 = EDGE_CURVE('',#522,#303,#557,.T.);
#557 = HYPERBOLA('',#558,0.371946352015,0.181462181976);
#558 = AXIS2_PLACEMENT_3D('',#559,#560,#561);
#559 = CARTESIAN_POINT('',(-0.121647131719,-0.138928276169,
    -0.770216787731));
#560 = DIRECTION('',(0.65597202071,0.749159152089,9.198517753569E-02));
#561 = DIRECTION('',(-6.059660960249E-02,-6.920494050974E-02,
    0.995760376353));
#562 = ORIENTED_EDGE('',*,*,#521,.F.);
#563 = PLANE('',#564);
#564 = AXIS2_PLACEMENT_3D('',#565,#566,#567);
#565 = CARTESIAN_POINT('',(1.390397187558,-1.788716284239,1.88341746371)
  );
#566 = DIRECTION('',(0.65597202071,0.749159152089,9.198517753569E-02));
#567 = DIRECTION('',(0.752348827972,-0.658764936111,6.938893903907E-18)
  );
#568 = ADVANCED_FACE('',(#569),#580,.T.);
#569 = FACE_BOUND('',#570,.T.);
#570 = EDGE_LOOP('',(#571,#577,#578,#579));
#571 = ORIENTED_EDGE('',*,*,#572,.F.);
#572 = EDGE_CURVE('',#276,#505,#573,.T.);
#573 = LINE('',#574,#575);
#574 = CARTESIAN_POINT('',(-0.205,-0.970096852285,3.669696007085));
#575 = VECTOR('',#576,1.);
#576 = DIRECTION('',(0.,0.121869343405,-0.992546151641));
#577 = ORIENTED_EDGE('',*,*,#284,.T.);
#578 = ORIENTED_EDGE('',*,*,#346,.T.);
#579 = ORIENTED_EDGE('',*,*,#513,.F.);
#580 = PLANE('',#581);
#581 = AXIS2_PLACEMENT_3D('',#582,#583,#584);
#582 = CARTESIAN_POINT('',(-0.1025,-0.711716641687,1.88341746371));
#583 = DIRECTION('',(-0.353715730496,0.928380992663,0.113990852535));
#584 = DIRECTION('',(0.934472069159,0.356036447518,0.));
#585 = ADVANCED_FACE('',(#586),#602,.T.);
#586 = FACE_BOUND('',#587,.T.);
#587 = EDGE_LOOP('',(#588,#594,#595,#601));
#588 = ORIENTED_EDGE('',*,*,#589,.F.);
#589 = EDGE_CURVE('',#139,#368,#590,.T.);
#590 = LINE('',#591,#592);
#591 = CARTESIAN_POINT('',(0.970096852285,-0.205,3.669696007085));
#592 = VECTOR('',#593,1.);
#593 = DIRECTION('',(-0.121869343405,0.,-0.992546151641));
#594 = ORIENTED_EDGE('',*,*,#138,.T.);
#595 = ORIENTED_EDGE('',*,*,#596,.T.);
#596 = EDGE_CURVE('',#141,#370,#597,.T.);
#597 = LINE('',#598,#599);
#598 = CARTESIAN_POINT('',(0.891991284286,0.,3.669696007085));
#599 = VECTOR('',#600,1.);
#600 = DIRECTION('',(-0.121869343405,0.,-0.992546151641));
#601 = ORIENTED_EDGE('',*,*,#367,.F.);
#602 = PLANE('',#603);
#603 = AXIS2_PLACEMENT_3D('',#604,#605,#606);
#604 = CARTESIAN_POINT('',(0.711716641687,-0.1025,1.88341746371));
#605 = DIRECTION('',(-0.928380992663,-0.353715730496,0.113990852535));
#606 = DIRECTION('',(-0.356036447518,0.934472069159,0.));
#607 = ADVANCED_FACE('',(#608),#620,.T.);
#608 = FACE_BOUND('',#609,.T.);
#609 = EDGE_LOOP('',(#610,#611,#612,#613));
#610 = ORIENTED_EDGE('',*,*,#320,.T.);
#611 = ORIENTED_EDGE('',*,*,#589,.T.);
#612 = ORIENTED_EDGE('',*,*,#539,.F.);
#613 = ORIENTED_EDGE('',*,*,#614,.F.);
#614 = EDGE_CURVE('',#312,#531,#615,.T.);
#615 = HYPERBOLA('',#616,0.371946352015,0.181462181976);
#616 = AXIS2_PLACEMENT_3D('',#617,#618,#619);
#617 = CARTESIAN_POINT('',(0.138928276169,0.121647131719,-0.770216787731
    ));
#618 = DIRECTION('',(-0.749159152089,-0.65597202071,9.198517753569E-02)
  );
#619 = DIRECTION('',(6.920494050974E-02,6.059660960249E-02,
    0.995760376353));
#620 = PLANE('',#621);
#621 = AXIS2_PLACEMENT_3D('',#622,#623,#624);
#622 = CARTESIAN_POINT('',(1.788716284239,-1.390397187558,1.88341746371)
  );
#623 = DIRECTION('',(-0.749159152089,-0.65597202071,9.198517753569E-02)
  );
#624 = DIRECTION('',(-0.658764936111,0.752348827972,-6.938893903907E-18)
  );
#625 = ADVANCED_FACE('',(#626),#632,.F.);
#626 = FACE_BOUND('',#627,.T.);
#627 = EDGE_LOOP('',(#628,#629,#630,#631));
#628 = ORIENTED_EDGE('',*,*,#530,.F.);
#629 = ORIENTED_EDGE('',*,*,#556,.T.);
#630 = ORIENTED_EDGE('',*,*,#311,.F.);
#631 = ORIENTED_EDGE('',*,*,#614,.T.);
#632 = CONICAL_SURFACE('',#633,1.87393620604,0.462512251778);
#633 = AXIS2_PLACEMENT_3D('',#634,#635,#636);
#634 = CARTESIAN_POINT('',(0.,0.,2.919696007085));
#635 = DIRECTION('',(0.,0.,1.));
#636 = DIRECTION('',(1.,0.,0.));
#637 = ADVANCED_FACE('',(#638),#650,.T.);
#638 = FACE_BOUND('',#639,.T.);
#639 = EDGE_LOOP('',(#640,#641,#642,#643));
#640 = ORIENTED_EDGE('',*,*,#275,.T.);
#641 = ORIENTED_EDGE('',*,*,#572,.T.);
#642 = ORIENTED_EDGE('',*,*,#504,.F.);
#643 = ORIENTED_EDGE('',*,*,#644,.F.);
#644 = EDGE_CURVE('',#267,#496,#645,.T.);
#645 = HYPERBOLA('',#646,0.371946352015,0.181462181976);
#646 = AXIS2_PLACEMENT_3D('',#647,#648,#649);
#647 = CARTESIAN_POINT('',(0.121647131719,-0.138928276169,
    -0.770216787731));
#648 = DIRECTION('',(-0.65597202071,0.749159152089,9.198517753569E-02));
#649 = DIRECTION('',(6.059660960249E-02,-6.920494050974E-02,
    0.995760376353));
#650 = PLANE('',#651);
#651 = AXIS2_PLACEMENT_3D('',#652,#653,#654);
#652 = CARTESIAN_POINT('',(-1.390397187558,-1.788716284239,1.88341746371
    ));
#653 = DIRECTION('',(-0.65597202071,0.749159152089,9.198517753569E-02));
#654 = DIRECTION('',(0.752348827972,0.658764936111,-6.938893903907E-18)
  );
#655 = ADVANCED_FACE('',(#656),#668,.F.);
#656 = FACE_BOUND('',#657,.T.);
#657 = EDGE_LOOP('',(#658,#659,#666,#667));
#658 = ORIENTED_EDGE('',*,*,#495,.F.);
#659 = ORIENTED_EDGE('',*,*,#660,.T.);
#660 = EDGE_CURVE('',#487,#258,#661,.T.);
#661 = HYPERBOLA('',#662,0.371946352015,0.181462181976);
#662 = AXIS2_PLACEMENT_3D('',#663,#664,#665);
#663 = CARTESIAN_POINT('',(-0.138928276169,0.121647131719,
    -0.770216787731));
#664 = DIRECTION('',(0.749159152089,-0.65597202071,9.198517753569E-02));
#665 = DIRECTION('',(-6.920494050974E-02,6.059660960249E-02,
    0.995760376353));
#666 = ORIENTED_EDGE('',*,*,#266,.F.);
#667 = ORIENTED_EDGE('',*,*,#644,.T.);
#668 = CONICAL_SURFACE('',#669,1.87393620604,0.462512251778);
#669 = AXIS2_PLACEMENT_3D('',#670,#671,#672);
#670 = CARTESIAN_POINT('',(0.,0.,2.919696007085));
#671 = DIRECTION('',(0.,0.,1.));
#672 = DIRECTION('',(1.,0.,0.));
#673 = ADVANCED_FACE('',(#674),#685,.T.);
#674 = FACE_BOUND('',#675,.T.);
#675 = EDGE_LOOP('',(#676,#682,#683,#684));
#676 = ORIENTED_EDGE('',*,*,#677,.F.);
#677 = EDGE_CURVE('',#249,#478,#678,.T.);
#678 = LINE('',#679,#680);
#679 = CARTESIAN_POINT('',(-0.970096852285,-0.205,3.669696007085));
#680 = VECTOR('',#681,1.);
#681 = DIRECTION('',(0.121869343405,-0.,-0.992546151641));
#682 = ORIENTED_EDGE('',*,*,#257,.T.);
#683 = ORIENTED_EDGE('',*,*,#660,.F.);
#684 = ORIENTED_EDGE('',*,*,#486,.F.);
#685 = PLANE('',#686);
#686 = AXIS2_PLACEMENT_3D('',#687,#688,#689);
#687 = CARTESIAN_POINT('',(-1.788716284239,-1.390397187558,1.88341746371
    ));
#688 = DIRECTION('',(0.749159152089,-0.65597202071,9.198517753569E-02));
#689 = DIRECTION('',(-0.658764936111,-0.752348827972,6.938893903907E-18)
  );
#690 = ADVANCED_FACE('',(#691),#702,.T.);
#691 = FACE_BOUND('',#692,.T.);
#692 = EDGE_LOOP('',(#693,#694,#700,#701));
#693 = ORIENTED_EDGE('',*,*,#477,.F.);
#694 = ORIENTED_EDGE('',*,*,#695,.F.);
#695 = EDGE_CURVE('',#240,#469,#696,.T.);
#696 = LINE('',#697,#698);
#697 = CARTESIAN_POINT('',(-0.891991284286,0.,3.669696007085));
#698 = VECTOR('',#699,1.);
#699 = DIRECTION('',(0.121869343405,-0.,-0.992546151641));
#700 = ORIENTED_EDGE('',*,*,#248,.T.);
#701 = ORIENTED_EDGE('',*,*,#677,.T.);
#702 = PLANE('',#703);
#703 = AXIS2_PLACEMENT_3D('',#704,#705,#706);
#704 = CARTESIAN_POINT('',(-0.711716641687,-0.1025,1.88341746371));
#705 = DIRECTION('',(0.928380992663,-0.353715730496,0.113990852535));
#706 = DIRECTION('',(-0.356036447518,-0.934472069159,0.));
#707 = ADVANCED_FACE('',(#708),#719,.T.);
#708 = FACE_BOUND('',#709,.T.);
#709 = EDGE_LOOP('',(#710,#716,#717,#718));
#710 = ORIENTED_EDGE('',*,*,#711,.F.);
#711 = EDGE_CURVE('',#231,#460,#712,.T.);
#712 = LINE('',#713,#714);
#713 = CARTESIAN_POINT('',(-0.970096852285,0.205,3.669696007085));
#714 = VECTOR('',#715,1.);
#715 = DIRECTION('',(0.121869343405,-0.,-0.992546151641));
#716 = ORIENTED_EDGE('',*,*,#239,.T.);
#717 = ORIENTED_EDGE('',*,*,#695,.T.);
#718 = ORIENTED_EDGE('',*,*,#468,.F.);
#719 = PLANE('',#720);
#720 = AXIS2_PLACEMENT_3D('',#721,#722,#723);
#721 = CARTESIAN_POINT('',(-0.711716641687,0.1025,1.88341746371));
#722 = DIRECTION('',(0.928380992663,0.353715730496,0.113990852535));
#723 = DIRECTION('',(0.356036447518,-0.934472069159,0.));
#724 = ADVANCED_FACE('',(#725),#737,.T.);
#725 = FACE_BOUND('',#726,.T.);
#726 = EDGE_LOOP('',(#727,#728,#729,#730));
#727 = ORIENTED_EDGE('',*,*,#230,.T.);
#728 = ORIENTED_EDGE('',*,*,#711,.T.);
#729 = ORIENTED_EDGE('',*,*,#459,.F.);
#730 = ORIENTED_EDGE('',*,*,#731,.F.);
#731 = EDGE_CURVE('',#222,#451,#732,.T.);
#732 = HYPERBOLA('',#733,0.371946352015,0.181462181976);
#733 = AXIS2_PLACEMENT_3D('',#734,#735,#736);
#734 = CARTESIAN_POINT('',(-0.138928276169,-0.121647131719,
    -0.770216787731));
#735 = DIRECTION('',(0.749159152089,0.65597202071,9.198517753569E-02));
#736 = DIRECTION('',(-6.920494050974E-02,-6.059660960249E-02,
    0.995760376353));
#737 = PLANE('',#738);
#738 = AXIS2_PLACEMENT_3D('',#739,#740,#741);
#739 = CARTESIAN_POINT('',(-1.788716284239,1.390397187558,1.88341746371)
  );
#740 = DIRECTION('',(0.749159152089,0.65597202071,9.198517753569E-02));
#741 = DIRECTION('',(0.658764936111,-0.752348827972,-6.938893903907E-18)
  );
#742 = ADVANCED_FACE('',(#743),#755,.F.);
#743 = FACE_BOUND('',#744,.T.);
#744 = EDGE_LOOP('',(#745,#746,#753,#754));
#745 = ORIENTED_EDGE('',*,*,#450,.F.);
#746 = ORIENTED_EDGE('',*,*,#747,.T.);
#747 = EDGE_CURVE('',#442,#213,#748,.T.);
#748 = HYPERBOLA('',#749,0.371946352015,0.181462181976);
#749 = AXIS2_PLACEMENT_3D('',#750,#751,#752);
#750 = CARTESIAN_POINT('',(0.121647131719,0.138928276169,-0.770216787731
    ));
#751 = DIRECTION('',(-0.65597202071,-0.749159152089,9.198517753569E-02)
  );
#752 = DIRECTION('',(6.059660960249E-02,6.920494050974E-02,
    0.995760376353));
#753 = ORIENTED_EDGE('',*,*,#221,.F.);
#754 = ORIENTED_EDGE('',*,*,#731,.T.);
#755 = CONICAL_SURFACE('',#756,1.87393620604,0.462512251778);
#756 = AXIS2_PLACEMENT_3D('',#757,#758,#759);
#757 = CARTESIAN_POINT('',(0.,0.,2.919696007085));
#758 = DIRECTION('',(0.,0.,1.));
#759 = DIRECTION('',(1.,0.,0.));
#760 = ADVANCED_FACE('',(#761),#772,.T.);
#761 = FACE_BOUND('',#762,.T.);
#762 = EDGE_LOOP('',(#763,#769,#770,#771));
#763 = ORIENTED_EDGE('',*,*,#764,.F.);
#764 = EDGE_CURVE('',#204,#433,#765,.T.);
#765 = LINE('',#766,#767);
#766 = CARTESIAN_POINT('',(-0.205,0.970096852285,3.669696007085));
#767 = VECTOR('',#768,1.);
#768 = DIRECTION('',(-0.,-0.121869343405,-0.992546151641));
#769 = ORIENTED_EDGE('',*,*,#212,.T.);
#770 = ORIENTED_EDGE('',*,*,#747,.F.);
#771 = ORIENTED_EDGE('',*,*,#441,.F.);
#772 = PLANE('',#773);
#773 = AXIS2_PLACEMENT_3D('',#774,#775,#776);
#774 = CARTESIAN_POINT('',(-1.390397187558,1.788716284239,1.88341746371)
  );
#775 = DIRECTION('',(-0.65597202071,-0.749159152089,9.198517753569E-02)
  );
#776 = DIRECTION('',(-0.752348827972,0.658764936111,6.938893903907E-18)
  );
#777 = ADVANCED_FACE('',(#778),#789,.T.);
#778 = FACE_BOUND('',#779,.T.);
#779 = EDGE_LOOP('',(#780,#781,#787,#788));
#780 = ORIENTED_EDGE('',*,*,#432,.F.);
#781 = ORIENTED_EDGE('',*,*,#782,.F.);
#782 = EDGE_CURVE('',#195,#424,#783,.T.);
#783 = LINE('',#784,#785);
#784 = CARTESIAN_POINT('',(0.,0.891991284286,3.669696007085));
#785 = VECTOR('',#786,1.);
#786 = DIRECTION('',(-0.,-0.121869343405,-0.992546151641));
#787 = ORIENTED_EDGE('',*,*,#203,.T.);
#788 = ORIENTED_EDGE('',*,*,#764,.T.);
#789 = PLANE('',#790);
#790 = AXIS2_PLACEMENT_3D('',#791,#792,#793);
#791 = CARTESIAN_POINT('',(-0.1025,0.711716641687,1.88341746371));
#792 = DIRECTION('',(-0.353715730496,-0.928380992663,0.113990852535));
#793 = DIRECTION('',(-0.934472069159,0.356036447518,0.));
#794 = ADVANCED_FACE('',(#795),#806,.T.);
#795 = FACE_BOUND('',#796,.T.);
#796 = EDGE_LOOP('',(#797,#803,#804,#805));
#797 = ORIENTED_EDGE('',*,*,#798,.F.);
#798 = EDGE_CURVE('',#186,#415,#799,.T.);
#799 = LINE('',#800,#801);
#800 = CARTESIAN_POINT('',(0.205,0.970096852285,3.669696007085));
#801 = VECTOR('',#802,1.);
#802 = DIRECTION('',(-0.,-0.121869343405,-0.992546151641));
#803 = ORIENTED_EDGE('',*,*,#194,.T.);
#804 = ORIENTED_EDGE('',*,*,#782,.T.);
#805 = ORIENTED_EDGE('',*,*,#423,.F.);
#806 = PLANE('',#807);
#807 = AXIS2_PLACEMENT_3D('',#808,#809,#810);
#808 = CARTESIAN_POINT('',(0.1025,0.711716641687,1.88341746371));
#809 = DIRECTION('',(0.353715730496,-0.928380992663,0.113990852535));
#810 = DIRECTION('',(-0.934472069159,-0.356036447518,0.));
#811 = ADVANCED_FACE('',(#812),#824,.T.);
#812 = FACE_BOUND('',#813,.T.);
#813 = EDGE_LOOP('',(#814,#815,#816,#817));
#814 = ORIENTED_EDGE('',*,*,#185,.T.);
#815 = ORIENTED_EDGE('',*,*,#798,.T.);
#816 = ORIENTED_EDGE('',*,*,#414,.F.);
#817 = ORIENTED_EDGE('',*,*,#818,.F.);
#818 = EDGE_CURVE('',#177,#406,#819,.T.);
#819 = HYPERBOLA('',#820,0.371946352015,0.181462181976);
#820 = AXIS2_PLACEMENT_3D('',#821,#822,#823);
#821 = CARTESIAN_POINT('',(-0.121647131719,0.138928276169,
    -0.770216787731));
#822 = DIRECTION('',(0.65597202071,-0.749159152089,9.198517753569E-02));
#823 = DIRECTION('',(-6.059660960249E-02,6.920494050974E-02,
    0.995760376353));
#824 = PLANE('',#825);
#825 = AXIS2_PLACEMENT_3D('',#826,#827,#828);
#826 = CARTESIAN_POINT('',(1.390397187558,1.788716284239,1.88341746371)
  );
#827 = DIRECTION('',(0.65597202071,-0.749159152089,9.198517753569E-02));
#828 = DIRECTION('',(-0.752348827972,-0.658764936111,-6.938893903907E-18
    ));
#829 = ADVANCED_FACE('',(#830),#842,.F.);
#830 = FACE_BOUND('',#831,.T.);
#831 = EDGE_LOOP('',(#832,#833,#840,#841));
#832 = ORIENTED_EDGE('',*,*,#405,.F.);
#833 = ORIENTED_EDGE('',*,*,#834,.T.);
#834 = EDGE_CURVE('',#397,#168,#835,.T.);
#835 = HYPERBOLA('',#836,0.371946352015,0.181462181976);
#836 = AXIS2_PLACEMENT_3D('',#837,#838,#839);
#837 = CARTESIAN_POINT('',(0.138928276169,-0.121647131719,
    -0.770216787731));
#838 = DIRECTION('',(-0.749159152089,0.65597202071,9.198517753569E-02));
#839 = DIRECTION('',(6.920494050974E-02,-6.059660960249E-02,
    0.995760376353));
#840 = ORIENTED_EDGE('',*,*,#176,.F.);
#841 = ORIENTED_EDGE('',*,*,#818,.T.);
#842 = CONICAL_SURFACE('',#843,1.87393620604,0.462512251778);
#843 = AXIS2_PLACEMENT_3D('',#844,#845,#846);
#844 = CARTESIAN_POINT('',(0.,0.,2.919696007085));
#845 = DIRECTION('',(0.,0.,1.));
#846 = DIRECTION('',(1.,0.,0.));
#847 = ADVANCED_FACE('',(#848),#859,.T.);
#848 = FACE_BOUND('',#849,.T.);
#849 = EDGE_LOOP('',(#850,#856,#857,#858));
#850 = ORIENTED_EDGE('',*,*,#851,.F.);
#851 = EDGE_CURVE('',#159,#388,#852,.T.);
#852 = LINE('',#853,#854);
#853 = CARTESIAN_POINT('',(0.970096852285,0.205,3.669696007085));
#854 = VECTOR('',#855,1.);
#855 = DIRECTION('',(-0.121869343405,0.,-0.992546151641));
#856 = ORIENTED_EDGE('',*,*,#167,.T.);
#857 = ORIENTED_EDGE('',*,*,#834,.F.);
#858 = ORIENTED_EDGE('',*,*,#396,.F.);
#859 = PLANE('',#860);
#860 = AXIS2_PLACEMENT_3D('',#861,#862,#863);
#861 = CARTESIAN_POINT('',(1.788716284239,1.390397187558,1.88341746371)
  );
#862 = DIRECTION('',(-0.749159152089,0.65597202071,9.198517753569E-02));
#863 = DIRECTION('',(0.658764936111,0.752348827972,6.938893903907E-18));
#864 = ADVANCED_FACE('',(#865),#871,.T.);
#865 = FACE_BOUND('',#866,.T.);
#866 = EDGE_LOOP('',(#867,#868,#869,#870));
#867 = ORIENTED_EDGE('',*,*,#387,.F.);
#868 = ORIENTED_EDGE('',*,*,#596,.F.);
#869 = ORIENTED_EDGE('',*,*,#158,.T.);
#870 = ORIENTED_EDGE('',*,*,#851,.T.);
#871 = PLANE('',#872);
#872 = AXIS2_PLACEMENT_3D('',#873,#874,#875);
#873 = CARTESIAN_POINT('',(0.711716641687,0.1025,1.88341746371));
#874 = DIRECTION('',(-0.928380992663,0.353715730496,0.113990852535));
#875 = DIRECTION('',(0.356036447518,0.934472069159,0.));
#876 = ( GEOMETRIC_REPRESENTATION_CONTEXT(3) 
GLOBAL_UNCERTAINTY_ASSIGNED_CONTEXT((#880)) GLOBAL_UNIT_ASSIGNED_CONTEXT
((#877,#878,#879)) REPRESENTATION_CONTEXT('Context #1',
  '3D Context with UNIT and UNCERTAINTY') );
#877 = ( LENGTH_UNIT() NAMED_UNIT(*) SI_UNIT(.MILLI.,.METRE.) );
#878 = ( NAMED_UNIT(*) PLANE_ANGLE_UNIT() SI_UNIT($,.RADIAN.) );
#879 = ( NAMED_UNIT(*) SI_UNIT($,.STERADIAN.) SOLID_ANGLE_UNIT() );
#880 = UNCERTAINTY_MEASURE_WITH_UNIT(LENGTH_MEASURE(1.E-07),#877,
  'distance_accuracy_value','confusion accuracy');
#881 = PRODUCT_RELATED_PRODUCT_CATEGORY('part',$,(#7));
#882 = MECHANICAL_DESIGN_GEOMETRIC_PRESENTATION_REPRESENTATION('',(#883)
  ,#876);
#883 = STYLED_ITEM('color',(#884),#15);
#884 = PRESENTATION_STYLE_ASSIGNMENT((#885,#891));
#885 = SURFACE_STYLE_USAGE(.BOTH.,#886);
#886 = SURFACE_SIDE_STYLE('',(#887));
#887 = SURFACE_STYLE_FILL_AREA(#888);
#888 = FILL_AREA_STYLE('',(#889));
#889 = FILL_AREA_STYLE_COLOUR('',#890);
#890 = COLOUR_RGB('',0.298000007868,0.298000007868,0.298000007868);
#891 = CURVE_STYLE('',#892,POSITIVE_LENGTH_MEASURE(0.1),#893);
#892 = DRAUGHTING_PRE_DEFINED_CURVE_FONT('continuous');
#893 = COLOUR_RGB('',9.803921729326E-02,9.803921729326E-02,
  9.803921729326E-02);
ENDSEC;
END-ISO-10303-21;
