ISO-10303-21;
HEADER;
FILE_DESCRIPTION(('FreeCAD Model'),'2;1');
FILE_NAME(
'/home/mrclnz/cvswork/kicad-lib/drafting/Libreria/Parti/Viteria 
Standard/Spacer-Hex-M-F-M3x25.step','2020-01-08T09:16:06',(
    'kicad StepUp'),('ksu MCAD'),'Open CASCADE STEP processor 7.4',
  'FreeCAD','Unknown');
FILE_SCHEMA(('AUTOMOTIVE_DESIGN { 1 0 10303 214 1 1 1 1 }'));
ENDSEC;
DATA;
#1 = APPLICATION_PROTOCOL_DEFINITION('international standard',
  'automotive_design',2000,#2);
#2 = APPLICATION_CONTEXT(
  'core data for automotive mechanical design processes');
#3 = SHAPE_DEFINITION_REPRESENTATION(#4,#10);
#4 = PRODUCT_DEFINITION_SHAPE('','',#5);
#5 = PRODUCT_DEFINITION('design','',#6,#9);
#6 = PRODUCT_DEFINITION_FORMATION('','',#7);
#7 = PRODUCT('Spacer-Hex-M-F-M3x25','Spacer-Hex-M-F-M3x25','',(#8));
#8 = PRODUCT_CONTEXT('',#2,'mechanical');
#9 = PRODUCT_DEFINITION_CONTEXT('part definition',#2,'design');
#10 = ADVANCED_BREP_SHAPE_REPRESENTATION('',(#11,#15),#922);
#11 = AXIS2_PLACEMENT_3D('',#12,#13,#14);
#12 = CARTESIAN_POINT('',(0.,0.,0.));
#13 = DIRECTION('',(0.,0.,1.));
#14 = DIRECTION('',(1.,0.,-0.));
#15 = MANIFOLD_SOLID_BREP('',#16);
#16 = CLOSED_SHELL('',(#17,#60,#118,#181,#248,#311,#374,#420,#475,#492,
    #524,#548,#592,#616,#644,#661,#670,#717,#728,#739,#750,#761,#772,
    #783,#794,#805,#816,#827,#869,#904));
#17 = ADVANCED_FACE('',(#18),#55,.T.);
#18 = FACE_BOUND('',#19,.T.);
#19 = EDGE_LOOP('',(#20,#35,#44));
#20 = ORIENTED_EDGE('',*,*,#21,.T.);
#21 = EDGE_CURVE('',#22,#24,#26,.T.);
#22 = VERTEX_POINT('',#23);
#23 = CARTESIAN_POINT('',(-1.587713187469,-2.749999725631,
    24.574573822123));
#24 = VERTEX_POINT('',#25);
#25 = CARTESIAN_POINT('',(0.,-2.749999969515,25.000000060971));
#26 = B_SPLINE_CURVE_WITH_KNOTS('',3,(#27,#28,#29,#30,#31,#32,#33,#34),
  .UNSPECIFIED.,.F.,.F.,(4,2,2,4),(3.024114679068E-03,3.843774093285E-03
    ,4.253603800393E-03,4.663433507501E-03),.UNSPECIFIED.);
#27 = CARTESIAN_POINT('',(-1.587713187469,-2.749999725631,
    24.574573822123));
#28 = CARTESIAN_POINT('',(-1.341301104741,-2.749999744556,
    24.697779851195));
#29 = CARTESIAN_POINT('',(-1.082309297941,-2.749999764448,
    24.805569087971));
#30 = CARTESIAN_POINT('',(-0.685731678045,-2.749999794906,
    24.918627189291));
#31 = CARTESIAN_POINT('',(-0.551665074513,-2.749999805203,
    24.948453403342));
#32 = CARTESIAN_POINT('',(-0.279017001141,-2.749999826143,
    24.989170489083));
#33 = CARTESIAN_POINT('',(-0.139107469656,-2.749999836889,
    25.000000194594));
#34 = CARTESIAN_POINT('',(0.,-2.749999847573,25.000000182913));
#35 = ORIENTED_EDGE('',*,*,#36,.T.);
#36 = EDGE_CURVE('',#24,#37,#39,.T.);
#37 = VERTEX_POINT('',#38);
#38 = CARTESIAN_POINT('',(-2.381569728401,-1.374999984757,
    25.000000060971));
#39 = CIRCLE('',#40,2.7500000305);
#40 = AXIS2_PLACEMENT_3D('',#41,#42,#43);
#41 = CARTESIAN_POINT('',(0.,6.09709529531E-08,25.000000060971));
#42 = DIRECTION('',(0.,-2.22044604925E-16,-1.));
#43 = DIRECTION('',(1.,0.,0.));
#44 = ORIENTED_EDGE('',*,*,#45,.F.);
#45 = EDGE_CURVE('',#22,#37,#46,.T.);
#46 = B_SPLINE_CURVE_WITH_KNOTS('',3,(#47,#48,#49,#50,#51,#52,#53,#54),
  .UNSPECIFIED.,.F.,.F.,(4,2,2,4),(0.,8.231584198193E-04,
    1.234610412878E-03,1.646062405937E-03),.UNSPECIFIED.);
#47 = CARTESIAN_POINT('',(-1.587713187469,-2.749999725631,
    24.574573822123));
#48 = CARTESIAN_POINT('',(-1.712200698084,-2.534381051461,
    24.699061312037));
#49 = CARTESIAN_POINT('',(-1.839505849433,-2.313882080814,
    24.804843633819));
#50 = CARTESIAN_POINT('',(-2.037328316871,-1.971243546719,
    24.917944903518));
#51 = CARTESIAN_POINT('',(-2.104425407008,-1.855027987869,
    24.947969337165));
#52 = CARTESIAN_POINT('',(-2.241471533212,-1.617657155354,
    24.989085298117));
#53 = CARTESIAN_POINT('',(-2.312040853654,-1.495427517733,
    25.000000183598));
#54 = CARTESIAN_POINT('',(-2.381569735181,-1.374999973014,
    25.000000182913));
#55 = CONICAL_SURFACE('',#56,3.7500000305,0.7853981634);
#56 = AXIS2_PLACEMENT_3D('',#57,#58,#59);
#57 = CARTESIAN_POINT('',(0.,6.097095273105E-08,24.000000060971));
#58 = DIRECTION('',(0.,-2.22044604925E-16,-1.));
#59 = DIRECTION('',(1.,0.,0.));
#60 = ADVANCED_FACE('',(#61),#113,.T.);
#61 = FACE_BOUND('',#62,.T.);
#62 = EDGE_LOOP('',(#63,#71,#72,#83,#91,#102));
#63 = ORIENTED_EDGE('',*,*,#64,.F.);
#64 = EDGE_CURVE('',#22,#65,#67,.T.);
#65 = VERTEX_POINT('',#66);
#66 = CARTESIAN_POINT('',(-1.587713187469,-2.749999725631,0.425426299819
    ));
#67 = LINE('',#68,#69);
#68 = CARTESIAN_POINT('',(-1.587713187469,-2.749999725631,
    25.000000060971));
#69 = VECTOR('',#70,1.);
#70 = DIRECTION('',(0.,-2.22044604925E-16,-1.));
#71 = ORIENTED_EDGE('',*,*,#45,.T.);
#72 = ORIENTED_EDGE('',*,*,#73,.T.);
#73 = EDGE_CURVE('',#37,#74,#76,.T.);
#74 = VERTEX_POINT('',#75);
#75 = CARTESIAN_POINT('',(-3.175426480543,6.097095282552E-08,
    24.574573610913));
#76 = B_SPLINE_CURVE_WITH_KNOTS('',3,(#77,#78,#79,#80,#81,#82),
  .UNSPECIFIED.,.F.,.F.,(4,2,4),(1.646062405937E-03,2.463200832885E-03,
    3.280339259832E-03),.UNSPECIFIED.);
#77 = CARTESIAN_POINT('',(-2.381569735181,-1.374999973014,
    25.000000182913));
#78 = CARTESIAN_POINT('',(-2.519653209893,-1.135832400338,
    25.000000181551));
#79 = CARTESIAN_POINT('',(-2.65538893931,-0.900731241435,24.957773020911
    ));
#80 = CARTESIAN_POINT('',(-2.923094174749,-0.437052213325,
    24.805578423241));
#81 = CARTESIAN_POINT('',(-3.051082767068,-0.215369488298,
    24.698917328524));
#82 = CARTESIAN_POINT('',(-3.175426480543,6.097095285864E-08,
    24.574573610914));
#83 = ORIENTED_EDGE('',*,*,#84,.T.);
#84 = EDGE_CURVE('',#74,#85,#87,.T.);
#85 = VERTEX_POINT('',#86);
#86 = CARTESIAN_POINT('',(-3.175426480543,6.097094752956E-08,
    0.425426511028));
#87 = LINE('',#88,#89);
#88 = CARTESIAN_POINT('',(-3.175426480543,6.09709529531E-08,
    25.000000060971));
#89 = VECTOR('',#90,1.);
#90 = DIRECTION('',(0.,-2.22044604925E-16,-1.));
#91 = ORIENTED_EDGE('',*,*,#92,.F.);
#92 = EDGE_CURVE('',#93,#85,#95,.T.);
#93 = VERTEX_POINT('',#94);
#94 = CARTESIAN_POINT('',(-2.381569834006,-1.375000045728,
    6.097095375801E-08));
#95 = B_SPLINE_CURVE_WITH_KNOTS('',3,(#96,#97,#98,#99,#100,#101),
  .UNSPECIFIED.,.F.,.F.,(4,2,4),(1.646062405937E-03,2.463200832885E-03,
    3.280339259832E-03),.UNSPECIFIED.);
#96 = CARTESIAN_POINT('',(-2.381569735181,-1.374999973014,
    6.097095761604E-08));
#97 = CARTESIAN_POINT('',(-2.519653209893,-1.135832400338,
    6.097095756293E-08));
#98 = CARTESIAN_POINT('',(-2.65538893931,-0.900731241435,
    4.222710103089E-02));
#99 = CARTESIAN_POINT('',(-2.923094174749,-0.437052213325,0.194421698701
    ));
#100 = CARTESIAN_POINT('',(-3.051082767068,-0.215369488298,
    0.301082793418));
#101 = CARTESIAN_POINT('',(-3.175426480543,6.097094749645E-08,
    0.425426511028));
#102 = ORIENTED_EDGE('',*,*,#103,.F.);
#103 = EDGE_CURVE('',#65,#93,#104,.T.);
#104 = B_SPLINE_CURVE_WITH_KNOTS('',3,(#105,#106,#107,#108,#109,#110,
    #111,#112),.UNSPECIFIED.,.F.,.F.,(4,2,2,4),(0.,8.231584198193E-04,
    1.234610412878E-03,1.646062405937E-03),.UNSPECIFIED.);
#105 = CARTESIAN_POINT('',(-1.587713187469,-2.749999725631,
    0.425426299819));
#106 = CARTESIAN_POINT('',(-1.712200698084,-2.534381051461,
    0.300938809905));
#107 = CARTESIAN_POINT('',(-1.839505849433,-2.313882080814,
    0.195156488123));
#108 = CARTESIAN_POINT('',(-2.037328316871,-1.971243546719,
    8.205521842428E-02));
#109 = CARTESIAN_POINT('',(-2.104425407008,-1.855027987869,
    5.203078477668E-02));
#110 = CARTESIAN_POINT('',(-2.241471533212,-1.617657155354,
    1.091482382471E-02));
#111 = CARTESIAN_POINT('',(-2.312040853654,-1.495427517733,
    6.097095764278E-08));
#112 = CARTESIAN_POINT('',(-2.381569735181,-1.374999973014,
    6.097095761604E-08));
#113 = PLANE('',#114);
#114 = AXIS2_PLACEMENT_3D('',#115,#116,#117);
#115 = CARTESIAN_POINT('',(-1.587713187469,-2.749999725631,
    25.000000060971));
#116 = DIRECTION('',(-0.866025384584,-0.500000033257,1.11022309847E-16)
  );
#117 = DIRECTION('',(-0.500000033257,0.866025384584,-1.922962643749E-16)
  );
#118 = ADVANCED_FACE('',(#119),#176,.T.);
#119 = FACE_BOUND('',#120,.T.);
#120 = EDGE_LOOP('',(#121,#122,#135,#146,#154,#165));
#121 = ORIENTED_EDGE('',*,*,#84,.F.);
#122 = ORIENTED_EDGE('',*,*,#123,.T.);
#123 = EDGE_CURVE('',#74,#124,#126,.T.);
#124 = VERTEX_POINT('',#125);
#125 = CARTESIAN_POINT('',(-2.381569675599,1.375000198156,
    25.000000060971));
#126 = B_SPLINE_CURVE_WITH_KNOTS('',3,(#127,#128,#129,#130,#131,#132,
    #133,#134),.UNSPECIFIED.,.F.,.F.,(4,2,2,4),(0.,8.231586520687E-04,
    1.234610761244E-03,1.64606287042E-03),.UNSPECIFIED.);
#127 = CARTESIAN_POINT('',(-3.175426480543,6.097095285864E-08,
    24.574573610914));
#128 = CARTESIAN_POINT('',(-3.050938931208,0.215618844056,
    24.699061156109));
#129 = CARTESIAN_POINT('',(-2.923633739683,0.436117864735,
    24.804843529287));
#130 = CARTESIAN_POINT('',(-2.725811207087,0.778756481298,
    24.917944857679));
#131 = CARTESIAN_POINT('',(-2.658714094396,0.894972068907,
    24.947969307713));
#132 = CARTESIAN_POINT('',(-2.521667920733,1.132342962573,
    24.989085291689));
#133 = CARTESIAN_POINT('',(-2.451098574978,1.254572633196,
    25.000000183598));
#134 = CARTESIAN_POINT('',(-2.381569668819,1.375000209898,
    25.000000182913));
#135 = ORIENTED_EDGE('',*,*,#136,.T.);
#136 = EDGE_CURVE('',#124,#137,#139,.T.);
#137 = VERTEX_POINT('',#138);
#138 = CARTESIAN_POINT('',(-1.587713081864,2.749999908544,
    24.574573822123));
#139 = B_SPLINE_CURVE_WITH_KNOTS('',3,(#140,#141,#142,#143,#144,#145),
  .UNSPECIFIED.,.F.,.F.,(4,2,4),(1.64606287042E-03,2.463201057071E-03,
    3.280339243721E-03),.UNSPECIFIED.);
#140 = CARTESIAN_POINT('',(-2.381569668819,1.375000209898,
    25.000000182913));
#141 = CARTESIAN_POINT('',(-2.243486224764,1.614167708265,
    25.000000181551));
#142 = CARTESIAN_POINT('',(-2.107750524295,1.849268796179,
    24.957773045504));
#143 = CARTESIAN_POINT('',(-1.840045344432,2.312947686908,
    24.805578528847));
#144 = CARTESIAN_POINT('',(-1.712056773375,2.534630355447,
    24.698917484686));
#145 = CARTESIAN_POINT('',(-1.587713081864,2.749999908544,
    24.574573822123));
#146 = ORIENTED_EDGE('',*,*,#147,.T.);
#147 = EDGE_CURVE('',#137,#148,#150,.T.);
#148 = VERTEX_POINT('',#149);
#149 = CARTESIAN_POINT('',(-1.587713081864,2.749999908544,0.425426299819
    ));
#150 = LINE('',#151,#152);
#151 = CARTESIAN_POINT('',(-1.587713081864,2.749999908544,
    25.000000060971));
#152 = VECTOR('',#153,1.);
#153 = DIRECTION('',(0.,-2.22044604925E-16,-1.));
#154 = ORIENTED_EDGE('',*,*,#155,.F.);
#155 = EDGE_CURVE('',#156,#148,#158,.T.);
#156 = VERTEX_POINT('',#157);
#157 = CARTESIAN_POINT('',(-2.381569781204,1.375000259126,
    6.097095375801E-08));
#158 = B_SPLINE_CURVE_WITH_KNOTS('',3,(#159,#160,#161,#162,#163,#164),
  .UNSPECIFIED.,.F.,.F.,(4,2,4),(1.64606287042E-03,2.463201057071E-03,
    3.280339243721E-03),.UNSPECIFIED.);
#159 = CARTESIAN_POINT('',(-2.381569668819,1.375000209898,
    6.097095700541E-08));
#160 = CARTESIAN_POINT('',(-2.243486224764,1.614167708264,
    6.097095695231E-08));
#161 = CARTESIAN_POINT('',(-2.107750524295,1.849268796179,
    4.222707643799E-02));
#162 = CARTESIAN_POINT('',(-1.840045344432,2.312947686908,0.194421593095
    ));
#163 = CARTESIAN_POINT('',(-1.712056773375,2.534630355447,0.301082637255
    ));
#164 = CARTESIAN_POINT('',(-1.587713081864,2.749999908544,0.425426299819
    ));
#165 = ORIENTED_EDGE('',*,*,#166,.F.);
#166 = EDGE_CURVE('',#85,#156,#167,.T.);
#167 = B_SPLINE_CURVE_WITH_KNOTS('',3,(#168,#169,#170,#171,#172,#173,
    #174,#175),.UNSPECIFIED.,.F.,.F.,(4,2,2,4),(0.,8.231586520687E-04,
    1.234610761244E-03,1.64606287042E-03),.UNSPECIFIED.);
#168 = CARTESIAN_POINT('',(-3.175426480543,6.097094749645E-08,
    0.425426511028));
#169 = CARTESIAN_POINT('',(-3.050938931208,0.215618844056,0.300938965833
    ));
#170 = CARTESIAN_POINT('',(-2.923633739683,0.436117864735,0.195156592655
    ));
#171 = CARTESIAN_POINT('',(-2.725811207087,0.778756481298,
    8.205526426254E-02));
#172 = CARTESIAN_POINT('',(-2.658714094396,0.894972068907,
    5.203081422881E-02));
#173 = CARTESIAN_POINT('',(-2.521667920733,1.132342962573,
    1.091483025307E-02));
#174 = CARTESIAN_POINT('',(-2.451098574978,1.254572633196,
    6.097095703215E-08));
#175 = CARTESIAN_POINT('',(-2.381569668819,1.375000209898,
    6.097095700541E-08));
#176 = PLANE('',#177);
#177 = AXIS2_PLACEMENT_3D('',#178,#179,#180);
#178 = CARTESIAN_POINT('',(-3.175426480543,6.09709529531E-08,
    25.000000060971));
#179 = DIRECTION('',(-0.866025365383,0.500000066514,-1.110223172315E-16)
  );
#180 = DIRECTION('',(0.500000066514,0.866025365383,-1.922962601115E-16)
  );
#181 = ADVANCED_FACE('',(#182),#243,.T.);
#182 = FACE_BOUND('',#183,.T.);
#183 = EDGE_LOOP('',(#184,#185,#198,#211,#219,#232));
#184 = ORIENTED_EDGE('',*,*,#147,.F.);
#185 = ORIENTED_EDGE('',*,*,#186,.T.);
#186 = EDGE_CURVE('',#137,#187,#189,.T.);
#187 = VERTEX_POINT('',#188);
#188 = CARTESIAN_POINT('',(0.,2.749999969515,25.000000060971));
#189 = B_SPLINE_CURVE_WITH_KNOTS('',3,(#190,#191,#192,#193,#194,#195,
    #196,#197),.UNSPECIFIED.,.F.,.F.,(4,2,2,4),(3.024114684174E-03,
    3.84377399468E-03,4.253603649934E-03,4.663433305187E-03),
  .UNSPECIFIED.);
#190 = CARTESIAN_POINT('',(-1.587713081864,2.749999908544,
    24.574573822123));
#191 = CARTESIAN_POINT('',(-1.341301030307,2.749999918006,24.69777983561
    ));
#192 = CARTESIAN_POINT('',(-1.082309257342,2.749999927952,
    24.805569060942));
#193 = CARTESIAN_POINT('',(-0.685731690476,2.749999943181,
    24.918627159889));
#194 = CARTESIAN_POINT('',(-0.551665105191,2.74999994833,24.94845337555)
  );
#195 = CARTESIAN_POINT('',(-0.279017069739,2.7499999588,24.989170470507)
  );
#196 = CARTESIAN_POINT('',(-0.139107559384,2.749999964173,25.00000018391
    ));
#197 = CARTESIAN_POINT('',(0.,2.749999969515,25.000000182913));
#198 = ORIENTED_EDGE('',*,*,#199,.T.);
#199 = EDGE_CURVE('',#187,#200,#202,.T.);
#200 = VERTEX_POINT('',#201);
#201 = CARTESIAN_POINT('',(1.587713293074,2.750000030485,24.574573610913
    ));
#202 = B_SPLINE_CURVE_WITH_KNOTS('',3,(#203,#204,#205,#206,#207,#208,
    #209,#210),.UNSPECIFIED.,.F.,.F.,(4,2,2,4),(4.663433305187E-03,
    5.484356348067E-03,5.894817869506E-03,6.305279390946E-03),
  .UNSPECIFIED.);
#203 = CARTESIAN_POINT('',(0.,2.749999969515,25.000000182913));
#204 = CARTESIAN_POINT('',(0.278643806663,2.749999980215,25.000000180916
    ));
#205 = CARTESIAN_POINT('',(0.550356231226,2.749999990649,24.957119366425
    ));
#206 = CARTESIAN_POINT('',(0.949933059816,2.750000005994,24.843357646435
    ));
#207 = CARTESIAN_POINT('',(1.082372192819,2.75000001108,24.797002678598)
  );
#208 = CARTESIAN_POINT('',(1.339417711008,2.750000020951,24.693416375048
    ));
#209 = CARTESIAN_POINT('',(1.464747758175,2.750000025763,24.636056384497
    ));
#210 = CARTESIAN_POINT('',(1.587713293074,2.750000030485,24.574573610913
    ));
#211 = ORIENTED_EDGE('',*,*,#212,.T.);
#212 = EDGE_CURVE('',#200,#213,#215,.T.);
#213 = VERTEX_POINT('',#214);
#214 = CARTESIAN_POINT('',(1.587713293074,2.750000030485,0.425426511028)
  );
#215 = LINE('',#216,#217);
#216 = CARTESIAN_POINT('',(1.587713293074,2.750000030485,25.000000060971
    ));
#217 = VECTOR('',#218,1.);
#218 = DIRECTION('',(0.,-2.22044604925E-16,-1.));
#219 = ORIENTED_EDGE('',*,*,#220,.F.);
#220 = EDGE_CURVE('',#221,#213,#223,.T.);
#221 = VERTEX_POINT('',#222);
#222 = CARTESIAN_POINT('',(0.,2.750000091456,6.097095375801E-08));
#223 = B_SPLINE_CURVE_WITH_KNOTS('',3,(#224,#225,#226,#227,#228,#229,
    #230,#231),.UNSPECIFIED.,.F.,.F.,(4,2,2,4),(4.663433305187E-03,
    5.484356348067E-03,5.894817869506E-03,6.305279390946E-03),
  .UNSPECIFIED.);
#224 = CARTESIAN_POINT('',(0.,2.749999969515,6.09709567001E-08));
#225 = CARTESIAN_POINT('',(0.278643806663,2.749999980215,
    6.09709567001E-08));
#226 = CARTESIAN_POINT('',(0.550356231226,2.749999990649,
    4.288075551707E-02));
#227 = CARTESIAN_POINT('',(0.949933059816,2.750000005994,0.156642475507)
  );
#228 = CARTESIAN_POINT('',(1.082372192819,2.75000001108,0.202997443344)
  );
#229 = CARTESIAN_POINT('',(1.339417711008,2.75000002095,0.306583746894)
  );
#230 = CARTESIAN_POINT('',(1.464747758175,2.750000025763,0.363943737445)
  );
#231 = CARTESIAN_POINT('',(1.587713293074,2.750000030485,0.425426511028)
  );
#232 = ORIENTED_EDGE('',*,*,#233,.F.);
#233 = EDGE_CURVE('',#148,#221,#234,.T.);
#234 = B_SPLINE_CURVE_WITH_KNOTS('',3,(#235,#236,#237,#238,#239,#240,
    #241,#242),.UNSPECIFIED.,.F.,.F.,(4,2,2,4),(3.024114684174E-03,
    3.84377399468E-03,4.253603649934E-03,4.663433305187E-03),
  .UNSPECIFIED.);
#235 = CARTESIAN_POINT('',(-1.587713081864,2.749999908544,0.425426299819
    ));
#236 = CARTESIAN_POINT('',(-1.341301030307,2.749999918006,0.302220286332
    ));
#237 = CARTESIAN_POINT('',(-1.082309257342,2.749999927952,0.194431061));
#238 = CARTESIAN_POINT('',(-0.685731690476,2.749999943181,
    8.137296205298E-02));
#239 = CARTESIAN_POINT('',(-0.551665105191,2.74999994833,
    5.154674639174E-02));
#240 = CARTESIAN_POINT('',(-0.279017069739,2.7499999588,
    1.082965143477E-02));
#241 = CARTESIAN_POINT('',(-0.139107559384,2.749999964173,
    6.09709567001E-08));
#242 = CARTESIAN_POINT('',(0.,2.749999969515,6.09709567001E-08));
#243 = PLANE('',#244);
#244 = AXIS2_PLACEMENT_3D('',#245,#246,#247);
#245 = CARTESIAN_POINT('',(-1.587713081864,2.749999908544,
    25.000000060971));
#246 = DIRECTION('',(0.,1.,-2.22044604925E-16));
#247 = DIRECTION('',(1.,0.,0.));
#248 = ADVANCED_FACE('',(#249),#306,.T.);
#249 = FACE_BOUND('',#250,.T.);
#250 = EDGE_LOOP('',(#251,#252,#265,#276,#284,#295));
#251 = ORIENTED_EDGE('',*,*,#212,.F.);
#252 = ORIENTED_EDGE('',*,*,#253,.T.);
#253 = EDGE_CURVE('',#200,#254,#256,.T.);
#254 = VERTEX_POINT('',#255);
#255 = CARTESIAN_POINT('',(2.381569886808,1.37499983233,25.000000060971)
  );
#256 = B_SPLINE_CURVE_WITH_KNOTS('',3,(#257,#258,#259,#260,#261,#262,
    #263,#264),.UNSPECIFIED.,.F.,.F.,(4,2,2,4),(0.,8.231586520462E-04,
    1.234610761222E-03,1.646062870398E-03),.UNSPECIFIED.);
#257 = CARTESIAN_POINT('',(1.587713293074,2.750000030485,24.574573610913
    ));
#258 = CARTESIAN_POINT('',(1.712200809288,2.534381289249,24.699061156109
    ));
#259 = CARTESIAN_POINT('',(1.839505966944,2.313882249015,24.804843529287
    ));
#260 = CARTESIAN_POINT('',(2.037328446907,1.971243602066,24.917944857679
    ));
#261 = CARTESIAN_POINT('',(2.104425541747,1.855028004149,24.947969307713
    ));
#262 = CARTESIAN_POINT('',(2.241471678949,1.617657089433,24.989085291689
    ));
#263 = CARTESIAN_POINT('',(2.312041005927,1.495427407969,25.000000183598
    ));
#264 = CARTESIAN_POINT('',(2.381569893588,1.374999820587,25.000000182913
    ));
#265 = ORIENTED_EDGE('',*,*,#266,.T.);
#266 = EDGE_CURVE('',#254,#267,#269,.T.);
#267 = VERTEX_POINT('',#268);
#268 = CARTESIAN_POINT('',(3.175426269333,6.097095282552E-08,
    24.574573822123));
#269 = B_SPLINE_CURVE_WITH_KNOTS('',3,(#270,#271,#272,#273,#274,#275),
  .UNSPECIFIED.,.F.,.F.,(4,2,4),(1.646062870398E-03,2.463201057048E-03,
    3.280339243699E-03),.UNSPECIFIED.);
#270 = CARTESIAN_POINT('',(2.381569893588,1.374999820587,25.000000182913
    ));
#271 = CARTESIAN_POINT('',(2.519653300905,1.13583230101,25.000000181551)
  );
#272 = CARTESIAN_POINT('',(2.655388965262,0.900731192246,24.957773045504
    ));
#273 = CARTESIAN_POINT('',(2.9230940739,0.437052260395,24.805578528847)
  );
#274 = CARTESIAN_POINT('',(3.051082610906,0.215369572196,24.698917484687
    ));
#275 = CARTESIAN_POINT('',(3.175426269334,6.097095285864E-08,
    24.574573822123));
#276 = ORIENTED_EDGE('',*,*,#277,.T.);
#277 = EDGE_CURVE('',#267,#278,#280,.T.);
#278 = VERTEX_POINT('',#279);
#279 = CARTESIAN_POINT('',(3.175426269333,6.097094752956E-08,
    0.425426299819));
#280 = LINE('',#281,#282);
#281 = CARTESIAN_POINT('',(3.175426269333,6.09709529531E-08,
    25.000000060971));
#282 = VECTOR('',#283,1.);
#283 = DIRECTION('',(0.,-2.22044604925E-16,-1.));
#284 = ORIENTED_EDGE('',*,*,#285,.F.);
#285 = EDGE_CURVE('',#286,#278,#288,.T.);
#286 = VERTEX_POINT('',#287);
#287 = CARTESIAN_POINT('',(2.381569992413,1.374999893301,
    6.097095375801E-08));
#288 = B_SPLINE_CURVE_WITH_KNOTS('',3,(#289,#290,#291,#292,#293,#294),
  .UNSPECIFIED.,.F.,.F.,(4,2,4),(1.646062870398E-03,2.463201057048E-03,
    3.280339243699E-03),.UNSPECIFIED.);
#289 = CARTESIAN_POINT('',(2.381569893588,1.374999820587,
    6.097095700541E-08));
#290 = CARTESIAN_POINT('',(2.519653300905,1.13583230101,
    6.097095705852E-08));
#291 = CARTESIAN_POINT('',(2.655388965262,0.900731192246,
    4.2227076438E-02));
#292 = CARTESIAN_POINT('',(2.9230940739,0.437052260395,0.194421593095));
#293 = CARTESIAN_POINT('',(3.051082610906,0.215369572196,0.301082637255)
  );
#294 = CARTESIAN_POINT('',(3.175426269334,6.097094749645E-08,
    0.425426299819));
#295 = ORIENTED_EDGE('',*,*,#296,.F.);
#296 = EDGE_CURVE('',#213,#286,#297,.T.);
#297 = B_SPLINE_CURVE_WITH_KNOTS('',3,(#298,#299,#300,#301,#302,#303,
    #304,#305),.UNSPECIFIED.,.F.,.F.,(4,2,2,4),(0.,8.231586520462E-04,
    1.234610761222E-03,1.646062870398E-03),.UNSPECIFIED.);
#298 = CARTESIAN_POINT('',(1.587713293074,2.750000030485,0.425426511028)
  );
#299 = CARTESIAN_POINT('',(1.712200809288,2.534381289249,0.300938965833)
  );
#300 = CARTESIAN_POINT('',(1.839505966944,2.313882249015,0.195156592655)
  );
#301 = CARTESIAN_POINT('',(2.037328446907,1.971243602065,
    8.205526426251E-02));
#302 = CARTESIAN_POINT('',(2.104425541747,1.855028004149,
    5.203081422879E-02));
#303 = CARTESIAN_POINT('',(2.241471678949,1.617657089433,
    1.091483025308E-02));
#304 = CARTESIAN_POINT('',(2.312041005927,1.495427407969,
    6.097095697867E-08));
#305 = CARTESIAN_POINT('',(2.381569893588,1.374999820587,
    6.097095700541E-08));
#306 = PLANE('',#307);
#307 = AXIS2_PLACEMENT_3D('',#308,#309,#310);
#308 = CARTESIAN_POINT('',(1.587713293074,2.750000030485,25.000000060971
    ));
#309 = DIRECTION('',(0.866025442186,0.499999933486,-1.110222876935E-16)
  );
#310 = DIRECTION('',(0.499999933486,-0.866025442186,1.922962771653E-16)
  );
#311 = ADVANCED_FACE('',(#312),#369,.T.);
#312 = FACE_BOUND('',#313,.T.);
#313 = EDGE_LOOP('',(#314,#315,#328,#339,#347,#358));
#314 = ORIENTED_EDGE('',*,*,#277,.F.);
#315 = ORIENTED_EDGE('',*,*,#316,.T.);
#316 = EDGE_CURVE('',#267,#317,#319,.T.);
#317 = VERTEX_POINT('',#318);
#318 = CARTESIAN_POINT('',(2.381569834006,-1.374999801844,
    25.000000060971));
#319 = B_SPLINE_CURVE_WITH_KNOTS('',3,(#320,#321,#322,#323,#324,#325,
    #326,#327),.UNSPECIFIED.,.F.,.F.,(4,2,2,4),(0.,8.23158419808E-04,
    1.234610412867E-03,1.646062405925E-03),.UNSPECIFIED.);
#320 = CARTESIAN_POINT('',(3.175426269333,6.097095285864E-08,
    24.574573822123));
#321 = CARTESIAN_POINT('',(3.050938775279,-0.215618683731,
    24.699061312037));
#322 = CARTESIAN_POINT('',(2.923633640865,-0.436117664156,
    24.804843633819));
#323 = CARTESIAN_POINT('',(2.725811199742,-0.778756213444,
    24.917944903518));
#324 = CARTESIAN_POINT('',(2.658714118532,-0.894971777448,
    24.947969337165));
#325 = CARTESIAN_POINT('',(2.521668010559,-1.132342620488,
    24.989085298117));
#326 = CARTESIAN_POINT('',(2.451098699504,-1.254572263529,
    25.000000183598));
#327 = CARTESIAN_POINT('',(2.381569827226,-1.374999813587,
    25.000000182913));
#328 = ORIENTED_EDGE('',*,*,#329,.T.);
#329 = EDGE_CURVE('',#317,#330,#332,.T.);
#330 = VERTEX_POINT('',#331);
#331 = CARTESIAN_POINT('',(1.587713187469,-2.749999969515,
    24.574573610913));
#332 = B_SPLINE_CURVE_WITH_KNOTS('',3,(#333,#334,#335,#336,#337,#338),
  .UNSPECIFIED.,.F.,.F.,(4,2,4),(1.646062405925E-03,2.463200832873E-03,
    3.280339259821E-03),.UNSPECIFIED.);
#333 = CARTESIAN_POINT('',(2.381569827226,-1.374999813587,
    25.000000182913));
#334 = CARTESIAN_POINT('',(2.243486370883,-1.614167396869,
    25.000000181551));
#335 = CARTESIAN_POINT('',(2.107750659523,-1.849268566196,
    24.957773020911));
#336 = CARTESIAN_POINT('',(1.840045459696,-2.312947614868,
    24.805578423241));
#337 = CARTESIAN_POINT('',(1.712056884403,-2.534630349724,
    24.698917328524));
#338 = CARTESIAN_POINT('',(1.587713187469,-2.749999969515,
    24.574573610914));
#339 = ORIENTED_EDGE('',*,*,#340,.T.);
#340 = EDGE_CURVE('',#330,#341,#343,.T.);
#341 = VERTEX_POINT('',#342);
#342 = CARTESIAN_POINT('',(1.587713187469,-2.749999969515,0.425426511028
    ));
#343 = LINE('',#344,#345);
#344 = CARTESIAN_POINT('',(1.587713187469,-2.749999969515,
    25.000000060971));
#345 = VECTOR('',#346,1.);
#346 = DIRECTION('',(0.,-2.22044604925E-16,-1.));
#347 = ORIENTED_EDGE('',*,*,#348,.F.);
#348 = EDGE_CURVE('',#349,#341,#351,.T.);
#349 = VERTEX_POINT('',#350);
#350 = CARTESIAN_POINT('',(2.381569834006,-1.374999801844,
    6.097095375801E-08));
#351 = B_SPLINE_CURVE_WITH_KNOTS('',3,(#352,#353,#354,#355,#356,#357),
  .UNSPECIFIED.,.F.,.F.,(4,2,4),(1.646062405925E-03,2.463200832873E-03,
    3.280339259821E-03),.UNSPECIFIED.);
#352 = CARTESIAN_POINT('',(2.381569827226,-1.374999813587,
    6.097095761604E-08));
#353 = CARTESIAN_POINT('',(2.243486370883,-1.614167396869,
    6.097095766914E-08));
#354 = CARTESIAN_POINT('',(2.107750659523,-1.849268566196,
    4.222710103092E-02));
#355 = CARTESIAN_POINT('',(1.840045459696,-2.312947614868,0.194421698701
    ));
#356 = CARTESIAN_POINT('',(1.712056884403,-2.534630349724,0.301082793418
    ));
#357 = CARTESIAN_POINT('',(1.587713187469,-2.749999969515,0.425426511028
    ));
#358 = ORIENTED_EDGE('',*,*,#359,.F.);
#359 = EDGE_CURVE('',#278,#349,#360,.T.);
#360 = B_SPLINE_CURVE_WITH_KNOTS('',3,(#361,#362,#363,#364,#365,#366,
    #367,#368),.UNSPECIFIED.,.F.,.F.,(4,2,2,4),(0.,8.23158419808E-04,
    1.234610412867E-03,1.646062405925E-03),.UNSPECIFIED.);
#361 = CARTESIAN_POINT('',(3.175426269333,6.097094749645E-08,
    0.425426299819));
#362 = CARTESIAN_POINT('',(3.050938775279,-0.215618683731,0.300938809905
    ));
#363 = CARTESIAN_POINT('',(2.923633640865,-0.436117664156,0.195156488123
    ));
#364 = CARTESIAN_POINT('',(2.725811199742,-0.778756213444,
    8.205521842427E-02));
#365 = CARTESIAN_POINT('',(2.658714118532,-0.894971777448,
    5.203078477668E-02));
#366 = CARTESIAN_POINT('',(2.521668010559,-1.132342620488,
    1.091482382474E-02));
#367 = CARTESIAN_POINT('',(2.451098699504,-1.254572263529,
    6.09709575893E-08));
#368 = CARTESIAN_POINT('',(2.381569827226,-1.374999813587,
    6.097095761604E-08));
#369 = PLANE('',#370);
#370 = AXIS2_PLACEMENT_3D('',#371,#372,#373);
#371 = CARTESIAN_POINT('',(3.175426269333,6.09709529531E-08,
    25.000000060971));
#372 = DIRECTION('',(0.866025422985,-0.499999966743,1.11022295078E-16));
#373 = DIRECTION('',(-0.499999966743,-0.866025422985,1.922962729018E-16)
  );
#374 = ADVANCED_FACE('',(#375),#415,.T.);
#375 = FACE_BOUND('',#376,.T.);
#376 = EDGE_LOOP('',(#377,#378,#389,#390,#391,#404));
#377 = ORIENTED_EDGE('',*,*,#340,.F.);
#378 = ORIENTED_EDGE('',*,*,#379,.F.);
#379 = EDGE_CURVE('',#24,#330,#380,.T.);
#380 = B_SPLINE_CURVE_WITH_KNOTS('',3,(#381,#382,#383,#384,#385,#386,
    #387,#388),.UNSPECIFIED.,.F.,.F.,(4,2,2,4),(4.663433507501E-03,
    5.484356446667E-03,5.89481791625E-03,6.305279385834E-03),
  .UNSPECIFIED.);
#381 = CARTESIAN_POINT('',(0.,-2.749999847573,25.000000182913));
#382 = CARTESIAN_POINT('',(0.278643873613,-2.749999868973,
    25.000000159515));
#383 = CARTESIAN_POINT('',(0.550356261571,-2.749999889842,
    24.957119336335));
#384 = CARTESIAN_POINT('',(0.949933037683,-2.749999920531,
    24.843357618363));
#385 = CARTESIAN_POINT('',(1.082372152976,-2.749999930703,
    24.797002653842));
#386 = CARTESIAN_POINT('',(1.339417637066,-2.749999950445,
    24.693416360543));
#387 = CARTESIAN_POINT('',(1.464747668105,-2.74999996007,24.63605637673)
  );
#388 = CARTESIAN_POINT('',(1.587713187469,-2.749999969515,
    24.574573610913));
#389 = ORIENTED_EDGE('',*,*,#21,.F.);
#390 = ORIENTED_EDGE('',*,*,#64,.T.);
#391 = ORIENTED_EDGE('',*,*,#392,.T.);
#392 = EDGE_CURVE('',#65,#393,#395,.T.);
#393 = VERTEX_POINT('',#394);
#394 = CARTESIAN_POINT('',(0.,-2.749999969515,6.097095375801E-08));
#395 = B_SPLINE_CURVE_WITH_KNOTS('',3,(#396,#397,#398,#399,#400,#401,
    #402,#403),.UNSPECIFIED.,.F.,.F.,(4,2,2,4),(3.024114679068E-03,
    3.843774093285E-03,4.253603800393E-03,4.663433507501E-03),
  .UNSPECIFIED.);
#396 = CARTESIAN_POINT('',(-1.587713187469,-2.749999725631,
    0.425426299819));
#397 = CARTESIAN_POINT('',(-1.341301104741,-2.749999744556,
    0.302220270747));
#398 = CARTESIAN_POINT('',(-1.082309297941,-2.749999764448,
    0.194431033971));
#399 = CARTESIAN_POINT('',(-0.685731678045,-2.749999794906,
    8.137293265114E-02));
#400 = CARTESIAN_POINT('',(-0.551665074513,-2.749999805203,
    5.154671859963E-02));
#401 = CARTESIAN_POINT('',(-0.279017001141,-2.749999826143,
    1.082963285923E-02));
#402 = CARTESIAN_POINT('',(-0.139107469656,-2.749999836889,
    6.097095792135E-08));
#403 = CARTESIAN_POINT('',(0.,-2.749999847573,6.097095792135E-08));
#404 = ORIENTED_EDGE('',*,*,#405,.T.);
#405 = EDGE_CURVE('',#393,#341,#406,.T.);
#406 = B_SPLINE_CURVE_WITH_KNOTS('',3,(#407,#408,#409,#410,#411,#412,
    #413,#414),.UNSPECIFIED.,.F.,.F.,(4,2,2,4),(4.663433507501E-03,
    5.484356446667E-03,5.89481791625E-03,6.305279385833E-03),
  .UNSPECIFIED.);
#407 = CARTESIAN_POINT('',(0.,-2.749999847573,6.097095792135E-08));
#408 = CARTESIAN_POINT('',(0.278643873613,-2.749999868973,
    6.097095792135E-08));
#409 = CARTESIAN_POINT('',(0.550356261571,-2.749999889842,
    4.28807856072E-02));
#410 = CARTESIAN_POINT('',(0.949933037683,-2.749999920531,0.156642503579
    ));
#411 = CARTESIAN_POINT('',(1.082372152976,-2.749999930703,0.2029974681)
  );
#412 = CARTESIAN_POINT('',(1.339417637066,-2.749999950445,0.306583761399
    ));
#413 = CARTESIAN_POINT('',(1.464747668105,-2.74999996007,0.363943745212)
  );
#414 = CARTESIAN_POINT('',(1.587713187469,-2.749999969515,0.425426511028
    ));
#415 = PLANE('',#416);
#416 = AXIS2_PLACEMENT_3D('',#417,#418,#419);
#417 = CARTESIAN_POINT('',(1.587713187469,-2.749999969515,
    25.000000060971));
#418 = DIRECTION('',(0.,-1.,2.22044604925E-16));
#419 = DIRECTION('',(-1.,-0.,0.));
#420 = ADVANCED_FACE('',(#421,#432),#470,.T.);
#421 = FACE_BOUND('',#422,.T.);
#422 = EDGE_LOOP('',(#423));
#423 = ORIENTED_EDGE('',*,*,#424,.T.);
#424 = EDGE_CURVE('',#425,#425,#427,.T.);
#425 = VERTEX_POINT('',#426);
#426 = CARTESIAN_POINT('',(1.5295,6.097095273105E-08,25.000000060971));
#427 = CIRCLE('',#428,1.5295);
#428 = AXIS2_PLACEMENT_3D('',#429,#430,#431);
#429 = CARTESIAN_POINT('',(0.,6.09709529531E-08,25.000000060971));
#430 = DIRECTION('',(0.,-2.22044604925E-16,-1.));
#431 = DIRECTION('',(1.,0.,0.));
#432 = FACE_BOUND('',#433,.T.);
#433 = EDGE_LOOP('',(#434,#441,#442,#449,#456,#463));
#434 = ORIENTED_EDGE('',*,*,#435,.F.);
#435 = EDGE_CURVE('',#37,#124,#436,.T.);
#436 = CIRCLE('',#437,2.7500000305);
#437 = AXIS2_PLACEMENT_3D('',#438,#439,#440);
#438 = CARTESIAN_POINT('',(0.,6.09709529531E-08,25.000000060971));
#439 = DIRECTION('',(0.,-2.22044604925E-16,-1.));
#440 = DIRECTION('',(1.,0.,0.));
#441 = ORIENTED_EDGE('',*,*,#36,.F.);
#442 = ORIENTED_EDGE('',*,*,#443,.F.);
#443 = EDGE_CURVE('',#317,#24,#444,.T.);
#444 = CIRCLE('',#445,2.7500000305);
#445 = AXIS2_PLACEMENT_3D('',#446,#447,#448);
#446 = CARTESIAN_POINT('',(0.,6.09709529531E-08,25.000000060971));
#447 = DIRECTION('',(0.,-2.22044604925E-16,-1.));
#448 = DIRECTION('',(1.,0.,0.));
#449 = ORIENTED_EDGE('',*,*,#450,.F.);
#450 = EDGE_CURVE('',#254,#317,#451,.T.);
#451 = CIRCLE('',#452,2.7500000305);
#452 = AXIS2_PLACEMENT_3D('',#453,#454,#455);
#453 = CARTESIAN_POINT('',(0.,6.09709529531E-08,25.000000060971));
#454 = DIRECTION('',(0.,-2.22044604925E-16,-1.));
#455 = DIRECTION('',(1.,0.,0.));
#456 = ORIENTED_EDGE('',*,*,#457,.F.);
#457 = EDGE_CURVE('',#187,#254,#458,.T.);
#458 = CIRCLE('',#459,2.7500000305);
#459 = AXIS2_PLACEMENT_3D('',#460,#461,#462);
#460 = CARTESIAN_POINT('',(0.,6.09709529531E-08,25.000000060971));
#461 = DIRECTION('',(0.,-2.22044604925E-16,-1.));
#462 = DIRECTION('',(1.,0.,0.));
#463 = ORIENTED_EDGE('',*,*,#464,.F.);
#464 = EDGE_CURVE('',#124,#187,#465,.T.);
#465 = CIRCLE('',#466,2.7500000305);
#466 = AXIS2_PLACEMENT_3D('',#467,#468,#469);
#467 = CARTESIAN_POINT('',(0.,6.09709529531E-08,25.000000060971));
#468 = DIRECTION('',(0.,-2.22044604925E-16,-1.));
#469 = DIRECTION('',(1.,0.,0.));
#470 = PLANE('',#471);
#471 = AXIS2_PLACEMENT_3D('',#472,#473,#474);
#472 = CARTESIAN_POINT('',(0.,6.09709529531E-08,25.000000060971));
#473 = DIRECTION('',(0.,2.22044604925E-16,1.));
#474 = DIRECTION('',(-1.,-0.,0.));
#475 = ADVANCED_FACE('',(#476),#487,.T.);
#476 = FACE_BOUND('',#477,.T.);
#477 = EDGE_LOOP('',(#478,#479,#480));
#478 = ORIENTED_EDGE('',*,*,#92,.T.);
#479 = ORIENTED_EDGE('',*,*,#166,.T.);
#480 = ORIENTED_EDGE('',*,*,#481,.T.);
#481 = EDGE_CURVE('',#156,#93,#482,.T.);
#482 = CIRCLE('',#483,2.7500000305);
#483 = AXIS2_PLACEMENT_3D('',#484,#485,#486);
#484 = CARTESIAN_POINT('',(0.,6.097094740198E-08,6.097095731072E-08));
#485 = DIRECTION('',(0.,2.22044604925E-16,1.));
#486 = DIRECTION('',(-1.,-0.,0.));
#487 = CONICAL_SURFACE('',#488,3.7500000305,0.7853981634);
#488 = AXIS2_PLACEMENT_3D('',#489,#490,#491);
#489 = CARTESIAN_POINT('',(0.,6.097094762403E-08,1.000000060971));
#490 = DIRECTION('',(0.,2.22044604925E-16,1.));
#491 = DIRECTION('',(-1.,-0.,0.));
#492 = ADVANCED_FACE('',(#493),#519,.T.);
#493 = FACE_BOUND('',#494,.T.);
#494 = EDGE_LOOP('',(#495,#504,#511,#518));
#495 = ORIENTED_EDGE('',*,*,#496,.T.);
#496 = EDGE_CURVE('',#497,#497,#499,.T.);
#497 = VERTEX_POINT('',#498);
#498 = CARTESIAN_POINT('',(-1.2,6.097094584767E-08,-7.999999939029));
#499 = CIRCLE('',#500,1.2);
#500 = AXIS2_PLACEMENT_3D('',#501,#502,#503);
#501 = CARTESIAN_POINT('',(0.,6.097094562563E-08,-7.999999939029));
#502 = DIRECTION('',(0.,2.22044604925E-16,1.));
#503 = DIRECTION('',(-1.,-0.,0.));
#504 = ORIENTED_EDGE('',*,*,#505,.T.);
#505 = EDGE_CURVE('',#497,#506,#508,.T.);
#506 = VERTEX_POINT('',#507);
#507 = CARTESIAN_POINT('',(-1.5,6.097094578106E-08,-7.699999939029));
#508 = B_SPLINE_CURVE_WITH_KNOTS('',1,(#509,#510),.UNSPECIFIED.,.F.,.F.,
  (2,2),(-0.424264068712,0.),.PIECEWISE_BEZIER_KNOTS.);
#509 = CARTESIAN_POINT('',(-1.199999999999,6.097094562563E-08,
    -7.999999939028));
#510 = CARTESIAN_POINT('',(-1.5,6.097094569224E-08,-7.699999939029));
#511 = ORIENTED_EDGE('',*,*,#512,.F.);
#512 = EDGE_CURVE('',#506,#506,#513,.T.);
#513 = CIRCLE('',#514,1.5);
#514 = AXIS2_PLACEMENT_3D('',#515,#516,#517);
#515 = CARTESIAN_POINT('',(0.,6.097094569224E-08,-7.699999939029));
#516 = DIRECTION('',(0.,2.22044604925E-16,1.));
#517 = DIRECTION('',(-1.,-0.,0.));
#518 = ORIENTED_EDGE('',*,*,#505,.F.);
#519 = CONICAL_SURFACE('',#520,1.5,0.7853981634);
#520 = AXIS2_PLACEMENT_3D('',#521,#522,#523);
#521 = CARTESIAN_POINT('',(0.,6.097094569224E-08,-7.699999939029));
#522 = DIRECTION('',(0.,2.22044604925E-16,1.));
#523 = DIRECTION('',(-1.,-0.,0.));
#524 = ADVANCED_FACE('',(#525),#543,.T.);
#525 = FACE_BOUND('',#526,.T.);
#526 = EDGE_LOOP('',(#527,#528,#535,#542));
#527 = ORIENTED_EDGE('',*,*,#512,.T.);
#528 = ORIENTED_EDGE('',*,*,#529,.F.);
#529 = EDGE_CURVE('',#530,#506,#532,.T.);
#530 = VERTEX_POINT('',#531);
#531 = CARTESIAN_POINT('',(-1.5,6.097094788889E-08,-1.192820262057));
#532 = B_SPLINE_CURVE_WITH_KNOTS('',1,(#533,#534),.UNSPECIFIED.,.F.,.F.,
  (2,2),(1.192820323028,7.7),.PIECEWISE_BEZIER_KNOTS.);
#533 = CARTESIAN_POINT('',(-1.5,6.097094676712E-08,-1.192820262057));
#534 = CARTESIAN_POINT('',(-1.5,6.097094532224E-08,-7.699999939029));
#535 = ORIENTED_EDGE('',*,*,#536,.F.);
#536 = EDGE_CURVE('',#530,#530,#537,.T.);
#537 = CIRCLE('',#538,1.5);
#538 = AXIS2_PLACEMENT_3D('',#539,#540,#541);
#539 = CARTESIAN_POINT('',(0.,6.097094713712E-08,-1.192820262057));
#540 = DIRECTION('',(0.,2.22044604925E-16,1.));
#541 = DIRECTION('',(-1.,-0.,0.));
#542 = ORIENTED_EDGE('',*,*,#529,.T.);
#543 = CYLINDRICAL_SURFACE('',#544,1.5);
#544 = AXIS2_PLACEMENT_3D('',#545,#546,#547);
#545 = CARTESIAN_POINT('',(0.,6.097094740198E-08,6.097095731072E-08));
#546 = DIRECTION('',(0.,-2.22044604925E-16,-1.));
#547 = DIRECTION('',(-1.,-0.,0.));
#548 = ADVANCED_FACE('',(#549),#587,.F.);
#549 = FACE_BOUND('',#550,.F.);
#550 = EDGE_LOOP('',(#551,#562,#572,#579,#580));
#551 = ORIENTED_EDGE('',*,*,#552,.T.);
#552 = EDGE_CURVE('',#553,#555,#557,.T.);
#553 = VERTEX_POINT('',#554);
#554 = CARTESIAN_POINT('',(1.126794919243,6.097094774536E-08,
    -0.546410100543));
#555 = VERTEX_POINT('',#556);
#556 = CARTESIAN_POINT('',(-1.126794919232,6.097094774536E-08,
    -0.546410100524));
#557 = CIRCLE('',#558,1.1267949192);
#558 = AXIS2_PLACEMENT_3D('',#559,#560,#561);
#559 = CARTESIAN_POINT('',(0.,6.097094728066E-08,-0.546410100543));
#560 = DIRECTION('',(0.,-2.22044604925E-16,-1.));
#561 = DIRECTION('',(1.,0.,0.));
#562 = ORIENTED_EDGE('',*,*,#563,.F.);
#563 = EDGE_CURVE('',#564,#555,#566,.T.);
#564 = VERTEX_POINT('',#565);
#565 = CARTESIAN_POINT('',(-1.1,6.097094772315E-08,-0.446410100543));
#566 = B_SPLINE_CURVE_WITH_KNOTS('',4,(#567,#568,#569,#570,#571),
  .UNSPECIFIED.,.F.,.F.,(5,5),(3.14159265359,3.66519142908),
  .PIECEWISE_BEZIER_KNOTS.);
#567 = CARTESIAN_POINT('',(-1.1,6.097094757286E-08,-0.446410100543));
#568 = CARTESIAN_POINT('',(-1.1,6.097094756705E-08,-0.472590039317));
#569 = CARTESIAN_POINT('',(-1.10457046042,6.097094756123E-08,
    -0.498775287839));
#570 = CARTESIAN_POINT('',(-1.113704949848,6.097094755569E-08,
    -0.523737608474));
#571 = CARTESIAN_POINT('',(-1.126794919232,6.097094756066E-08,
    -0.546410100524));
#572 = ORIENTED_EDGE('',*,*,#573,.T.);
#573 = EDGE_CURVE('',#564,#564,#574,.T.);
#574 = CIRCLE('',#575,1.1);
#575 = AXIS2_PLACEMENT_3D('',#576,#577,#578);
#576 = CARTESIAN_POINT('',(0.,6.097094730286E-08,-0.446410100543));
#577 = DIRECTION('',(0.,2.22044604925E-16,1.));
#578 = DIRECTION('',(-1.,-0.,0.));
#579 = ORIENTED_EDGE('',*,*,#563,.T.);
#580 = ORIENTED_EDGE('',*,*,#581,.T.);
#581 = EDGE_CURVE('',#555,#553,#582,.T.);
#582 = CIRCLE('',#583,1.1267949192);
#583 = AXIS2_PLACEMENT_3D('',#584,#585,#586);
#584 = CARTESIAN_POINT('',(0.,6.097094728066E-08,-0.546410100543));
#585 = DIRECTION('',(0.,-2.22044604925E-16,-1.));
#586 = DIRECTION('',(1.,0.,0.));
#587 = TOROIDAL_SURFACE('',#588,1.3,0.2);
#588 = AXIS2_PLACEMENT_3D('',#589,#590,#591);
#589 = CARTESIAN_POINT('',(0.,6.097094730286E-08,-0.446410100543));
#590 = DIRECTION('',(0.,2.22044604925E-16,1.));
#591 = DIRECTION('',(-1.,-0.,0.));
#592 = ADVANCED_FACE('',(#593),#611,.T.);
#593 = FACE_BOUND('',#594,.T.);
#594 = EDGE_LOOP('',(#595,#596,#603,#610));
#595 = ORIENTED_EDGE('',*,*,#573,.T.);
#596 = ORIENTED_EDGE('',*,*,#597,.F.);
#597 = EDGE_CURVE('',#598,#564,#600,.T.);
#598 = VERTEX_POINT('',#599);
#599 = CARTESIAN_POINT('',(-1.1,6.097094766844E-08,-0.199999939029));
#600 = B_SPLINE_CURVE_WITH_KNOTS('',1,(#601,#602),.UNSPECIFIED.,.F.,.F.,
  (2,2),(0.2,0.446410161514),.PIECEWISE_BEZIER_KNOTS.);
#601 = CARTESIAN_POINT('',(-1.1,6.097094708757E-08,-0.199999939029));
#602 = CARTESIAN_POINT('',(-1.1,6.097094703286E-08,-0.446410100543));
#603 = ORIENTED_EDGE('',*,*,#604,.F.);
#604 = EDGE_CURVE('',#598,#598,#605,.T.);
#605 = CIRCLE('',#606,1.1);
#606 = AXIS2_PLACEMENT_3D('',#607,#608,#609);
#607 = CARTESIAN_POINT('',(0.,6.097094735757E-08,-0.199999939029));
#608 = DIRECTION('',(0.,2.22044604925E-16,1.));
#609 = DIRECTION('',(-1.,-0.,0.));
#610 = ORIENTED_EDGE('',*,*,#597,.T.);
#611 = CYLINDRICAL_SURFACE('',#612,1.1);
#612 = AXIS2_PLACEMENT_3D('',#613,#614,#615);
#613 = CARTESIAN_POINT('',(0.,6.097094740198E-08,6.097095731072E-08));
#614 = DIRECTION('',(0.,-2.22044604925E-16,-1.));
#615 = DIRECTION('',(-1.,-0.,0.));
#616 = ADVANCED_FACE('',(#617),#639,.F.);
#617 = FACE_BOUND('',#618,.F.);
#618 = EDGE_LOOP('',(#619,#628,#637,#638));
#619 = ORIENTED_EDGE('',*,*,#620,.T.);
#620 = EDGE_CURVE('',#621,#621,#623,.T.);
#621 = VERTEX_POINT('',#622);
#622 = CARTESIAN_POINT('',(-1.3,6.097094762403E-08,6.097095375801E-08));
#623 = CIRCLE('',#624,1.3);
#624 = AXIS2_PLACEMENT_3D('',#625,#626,#627);
#625 = CARTESIAN_POINT('',(0.,6.097094740198E-08,6.097095731072E-08));
#626 = DIRECTION('',(0.,2.22044604925E-16,1.));
#627 = DIRECTION('',(-1.,-0.,0.));
#628 = ORIENTED_EDGE('',*,*,#629,.T.);
#629 = EDGE_CURVE('',#621,#598,#630,.T.);
#630 = B_SPLINE_CURVE_WITH_KNOTS('',5,(#631,#632,#633,#634,#635,#636),
  .UNSPECIFIED.,.F.,.F.,(6,6),(1.570796326795,3.14159265359),
  .PIECEWISE_BEZIER_KNOTS.);
#631 = CARTESIAN_POINT('',(-1.3,6.097094740198E-08,6.097095730072E-08));
#632 = CARTESIAN_POINT('',(-1.237168146928,6.097094740198E-08,
    6.097095732072E-08));
#633 = CARTESIAN_POINT('',(-1.174277671327,6.097094739652E-08,
    -2.460293983819E-02));
#634 = CARTESIAN_POINT('',(-1.124603000809,6.097094738549E-08,
    -7.427761035646E-02));
#635 = CARTESIAN_POINT('',(-1.1,6.097094737153E-08,-0.137168085957));
#636 = CARTESIAN_POINT('',(-1.1,6.097094735757E-08,-0.199999939029));
#637 = ORIENTED_EDGE('',*,*,#604,.F.);
#638 = ORIENTED_EDGE('',*,*,#629,.F.);
#639 = TOROIDAL_SURFACE('',#640,1.3,0.2);
#640 = AXIS2_PLACEMENT_3D('',#641,#642,#643);
#641 = CARTESIAN_POINT('',(0.,6.097094735757E-08,-0.199999939029));
#642 = DIRECTION('',(0.,2.22044604925E-16,1.));
#643 = DIRECTION('',(-1.,-0.,0.));
#644 = ADVANCED_FACE('',(#645),#656,.T.);
#645 = FACE_BOUND('',#646,.T.);
#646 = EDGE_LOOP('',(#647,#648,#653,#654,#655));
#647 = ORIENTED_EDGE('',*,*,#552,.T.);
#648 = ORIENTED_EDGE('',*,*,#649,.T.);
#649 = EDGE_CURVE('',#555,#530,#650,.T.);
#650 = B_SPLINE_CURVE_WITH_KNOTS('',1,(#651,#652),.UNSPECIFIED.,.F.,.F.,
  (2,2),(-0.746410161535,0.),.PIECEWISE_BEZIER_KNOTS.);
#651 = CARTESIAN_POINT('',(-1.126794919231,6.097094714066E-08,
    -0.546410100525));
#652 = CARTESIAN_POINT('',(-1.5,6.097094695712E-08,-1.192820262057));
#653 = ORIENTED_EDGE('',*,*,#536,.T.);
#654 = ORIENTED_EDGE('',*,*,#649,.F.);
#655 = ORIENTED_EDGE('',*,*,#581,.T.);
#656 = CONICAL_SURFACE('',#657,1.5,0.5235987756);
#657 = AXIS2_PLACEMENT_3D('',#658,#659,#660);
#658 = CARTESIAN_POINT('',(0.,6.097094713712E-08,-1.192820262057));
#659 = DIRECTION('',(0.,-2.22044604925E-16,-1.));
#660 = DIRECTION('',(1.,0.,0.));
#661 = ADVANCED_FACE('',(#662),#665,.F.);
#662 = FACE_BOUND('',#663,.T.);
#663 = EDGE_LOOP('',(#664));
#664 = ORIENTED_EDGE('',*,*,#496,.F.);
#665 = PLANE('',#666);
#666 = AXIS2_PLACEMENT_3D('',#667,#668,#669);
#667 = CARTESIAN_POINT('',(0.,6.097094562563E-08,-7.999999939029));
#668 = DIRECTION('',(0.,2.22044604925E-16,1.));
#669 = DIRECTION('',(-1.,-0.,0.));
#670 = ADVANCED_FACE('',(#671,#674),#712,.F.);
#671 = FACE_BOUND('',#672,.T.);
#672 = EDGE_LOOP('',(#673));
#673 = ORIENTED_EDGE('',*,*,#620,.T.);
#674 = FACE_BOUND('',#675,.T.);
#675 = EDGE_LOOP('',(#676,#677,#684,#691,#698,#705));
#676 = ORIENTED_EDGE('',*,*,#481,.F.);
#677 = ORIENTED_EDGE('',*,*,#678,.F.);
#678 = EDGE_CURVE('',#221,#156,#679,.T.);
#679 = CIRCLE('',#680,2.7500000305);
#680 = AXIS2_PLACEMENT_3D('',#681,#682,#683);
#681 = CARTESIAN_POINT('',(0.,6.097094740198E-08,6.097095731072E-08));
#682 = DIRECTION('',(0.,2.22044604925E-16,1.));
#683 = DIRECTION('',(-1.,-0.,0.));
#684 = ORIENTED_EDGE('',*,*,#685,.F.);
#685 = EDGE_CURVE('',#286,#221,#686,.T.);
#686 = CIRCLE('',#687,2.7500000305);
#687 = AXIS2_PLACEMENT_3D('',#688,#689,#690);
#688 = CARTESIAN_POINT('',(0.,6.097094740198E-08,6.097095731072E-08));
#689 = DIRECTION('',(0.,2.22044604925E-16,1.));
#690 = DIRECTION('',(-1.,-0.,0.));
#691 = ORIENTED_EDGE('',*,*,#692,.F.);
#692 = EDGE_CURVE('',#349,#286,#693,.T.);
#693 = CIRCLE('',#694,2.7500000305);
#694 = AXIS2_PLACEMENT_3D('',#695,#696,#697);
#695 = CARTESIAN_POINT('',(0.,6.097094740198E-08,6.097095731072E-08));
#696 = DIRECTION('',(0.,2.22044604925E-16,1.));
#697 = DIRECTION('',(-1.,-0.,0.));
#698 = ORIENTED_EDGE('',*,*,#699,.F.);
#699 = EDGE_CURVE('',#393,#349,#700,.T.);
#700 = CIRCLE('',#701,2.7500000305);
#701 = AXIS2_PLACEMENT_3D('',#702,#703,#704);
#702 = CARTESIAN_POINT('',(0.,6.097094740198E-08,6.097095731072E-08));
#703 = DIRECTION('',(0.,2.22044604925E-16,1.));
#704 = DIRECTION('',(-1.,-0.,0.));
#705 = ORIENTED_EDGE('',*,*,#706,.T.);
#706 = EDGE_CURVE('',#393,#93,#707,.T.);
#707 = CIRCLE('',#708,2.7500000305);
#708 = AXIS2_PLACEMENT_3D('',#709,#710,#711);
#709 = CARTESIAN_POINT('',(0.,6.097094740198E-08,6.097095731072E-08));
#710 = DIRECTION('',(0.,-2.22044604925E-16,-1.));
#711 = DIRECTION('',(1.,0.,0.));
#712 = PLANE('',#713);
#713 = AXIS2_PLACEMENT_3D('',#714,#715,#716);
#714 = CARTESIAN_POINT('',(0.,6.097094740198E-08,6.097095731072E-08));
#715 = DIRECTION('',(0.,2.22044604925E-16,1.));
#716 = DIRECTION('',(-1.,-0.,0.));
#717 = ADVANCED_FACE('',(#718),#723,.T.);
#718 = FACE_BOUND('',#719,.T.);
#719 = EDGE_LOOP('',(#720,#721,#722));
#720 = ORIENTED_EDGE('',*,*,#392,.F.);
#721 = ORIENTED_EDGE('',*,*,#103,.T.);
#722 = ORIENTED_EDGE('',*,*,#706,.F.);
#723 = CONICAL_SURFACE('',#724,3.7500000305,0.7853981634);
#724 = AXIS2_PLACEMENT_3D('',#725,#726,#727);
#725 = CARTESIAN_POINT('',(0.,6.097094762403E-08,1.000000060971));
#726 = DIRECTION('',(0.,2.22044604925E-16,1.));
#727 = DIRECTION('',(-1.,-0.,0.));
#728 = ADVANCED_FACE('',(#729),#734,.T.);
#729 = FACE_BOUND('',#730,.T.);
#730 = EDGE_LOOP('',(#731,#732,#733));
#731 = ORIENTED_EDGE('',*,*,#405,.F.);
#732 = ORIENTED_EDGE('',*,*,#699,.T.);
#733 = ORIENTED_EDGE('',*,*,#348,.T.);
#734 = CONICAL_SURFACE('',#735,3.7500000305,0.7853981634);
#735 = AXIS2_PLACEMENT_3D('',#736,#737,#738);
#736 = CARTESIAN_POINT('',(0.,6.097094762403E-08,1.000000060971));
#737 = DIRECTION('',(0.,2.22044604925E-16,1.));
#738 = DIRECTION('',(-1.,-0.,0.));
#739 = ADVANCED_FACE('',(#740),#745,.T.);
#740 = FACE_BOUND('',#741,.T.);
#741 = EDGE_LOOP('',(#742,#743,#744));
#742 = ORIENTED_EDGE('',*,*,#285,.T.);
#743 = ORIENTED_EDGE('',*,*,#359,.T.);
#744 = ORIENTED_EDGE('',*,*,#692,.T.);
#745 = CONICAL_SURFACE('',#746,3.7500000305,0.7853981634);
#746 = AXIS2_PLACEMENT_3D('',#747,#748,#749);
#747 = CARTESIAN_POINT('',(0.,6.097094762403E-08,1.000000060971));
#748 = DIRECTION('',(0.,2.22044604925E-16,1.));
#749 = DIRECTION('',(-1.,-0.,0.));
#750 = ADVANCED_FACE('',(#751),#756,.T.);
#751 = FACE_BOUND('',#752,.T.);
#752 = EDGE_LOOP('',(#753,#754,#755));
#753 = ORIENTED_EDGE('',*,*,#220,.T.);
#754 = ORIENTED_EDGE('',*,*,#296,.T.);
#755 = ORIENTED_EDGE('',*,*,#685,.T.);
#756 = CONICAL_SURFACE('',#757,3.7500000305,0.7853981634);
#757 = AXIS2_PLACEMENT_3D('',#758,#759,#760);
#758 = CARTESIAN_POINT('',(0.,6.097094762403E-08,1.000000060971));
#759 = DIRECTION('',(0.,2.22044604925E-16,1.));
#760 = DIRECTION('',(-1.,-0.,0.));
#761 = ADVANCED_FACE('',(#762),#767,.T.);
#762 = FACE_BOUND('',#763,.T.);
#763 = EDGE_LOOP('',(#764,#765,#766));
#764 = ORIENTED_EDGE('',*,*,#155,.T.);
#765 = ORIENTED_EDGE('',*,*,#233,.T.);
#766 = ORIENTED_EDGE('',*,*,#678,.T.);
#767 = CONICAL_SURFACE('',#768,3.7500000305,0.7853981634);
#768 = AXIS2_PLACEMENT_3D('',#769,#770,#771);
#769 = CARTESIAN_POINT('',(0.,6.097094762403E-08,1.000000060971));
#770 = DIRECTION('',(0.,2.22044604925E-16,1.));
#771 = DIRECTION('',(-1.,-0.,0.));
#772 = ADVANCED_FACE('',(#773),#778,.T.);
#773 = FACE_BOUND('',#774,.T.);
#774 = EDGE_LOOP('',(#775,#776,#777));
#775 = ORIENTED_EDGE('',*,*,#443,.T.);
#776 = ORIENTED_EDGE('',*,*,#379,.T.);
#777 = ORIENTED_EDGE('',*,*,#329,.F.);
#778 = CONICAL_SURFACE('',#779,3.7500000305,0.7853981634);
#779 = AXIS2_PLACEMENT_3D('',#780,#781,#782);
#780 = CARTESIAN_POINT('',(0.,6.097095273105E-08,24.000000060971));
#781 = DIRECTION('',(0.,-2.22044604925E-16,-1.));
#782 = DIRECTION('',(1.,0.,0.));
#783 = ADVANCED_FACE('',(#784),#789,.T.);
#784 = FACE_BOUND('',#785,.T.);
#785 = EDGE_LOOP('',(#786,#787,#788));
#786 = ORIENTED_EDGE('',*,*,#73,.F.);
#787 = ORIENTED_EDGE('',*,*,#435,.T.);
#788 = ORIENTED_EDGE('',*,*,#123,.F.);
#789 = CONICAL_SURFACE('',#790,3.7500000305,0.7853981634);
#790 = AXIS2_PLACEMENT_3D('',#791,#792,#793);
#791 = CARTESIAN_POINT('',(0.,6.097095273105E-08,24.000000060971));
#792 = DIRECTION('',(0.,-2.22044604925E-16,-1.));
#793 = DIRECTION('',(1.,0.,0.));
#794 = ADVANCED_FACE('',(#795),#800,.T.);
#795 = FACE_BOUND('',#796,.T.);
#796 = EDGE_LOOP('',(#797,#798,#799));
#797 = ORIENTED_EDGE('',*,*,#136,.F.);
#798 = ORIENTED_EDGE('',*,*,#464,.T.);
#799 = ORIENTED_EDGE('',*,*,#186,.F.);
#800 = CONICAL_SURFACE('',#801,3.7500000305,0.7853981634);
#801 = AXIS2_PLACEMENT_3D('',#802,#803,#804);
#802 = CARTESIAN_POINT('',(0.,6.097095273105E-08,24.000000060971));
#803 = DIRECTION('',(0.,-2.22044604925E-16,-1.));
#804 = DIRECTION('',(1.,0.,0.));
#805 = ADVANCED_FACE('',(#806),#811,.T.);
#806 = FACE_BOUND('',#807,.T.);
#807 = EDGE_LOOP('',(#808,#809,#810));
#808 = ORIENTED_EDGE('',*,*,#457,.T.);
#809 = ORIENTED_EDGE('',*,*,#253,.F.);
#810 = ORIENTED_EDGE('',*,*,#199,.F.);
#811 = CONICAL_SURFACE('',#812,3.7500000305,0.7853981634);
#812 = AXIS2_PLACEMENT_3D('',#813,#814,#815);
#813 = CARTESIAN_POINT('',(0.,6.097095273105E-08,24.000000060971));
#814 = DIRECTION('',(0.,-2.22044604925E-16,-1.));
#815 = DIRECTION('',(1.,0.,0.));
#816 = ADVANCED_FACE('',(#817),#822,.T.);
#817 = FACE_BOUND('',#818,.T.);
#818 = EDGE_LOOP('',(#819,#820,#821));
#819 = ORIENTED_EDGE('',*,*,#450,.T.);
#820 = ORIENTED_EDGE('',*,*,#316,.F.);
#821 = ORIENTED_EDGE('',*,*,#266,.F.);
#822 = CONICAL_SURFACE('',#823,3.7500000305,0.7853981634);
#823 = AXIS2_PLACEMENT_3D('',#824,#825,#826);
#824 = CARTESIAN_POINT('',(0.,6.097095273105E-08,24.000000060971));
#825 = DIRECTION('',(0.,-2.22044604925E-16,-1.));
#826 = DIRECTION('',(1.,0.,0.));
#827 = ADVANCED_FACE('',(#828),#864,.F.);
#828 = FACE_BOUND('',#829,.F.);
#829 = EDGE_LOOP('',(#830,#841,#850,#855,#856,#857));
#830 = ORIENTED_EDGE('',*,*,#831,.T.);
#831 = EDGE_CURVE('',#832,#834,#836,.T.);
#832 = VERTEX_POINT('',#833);
#833 = CARTESIAN_POINT('',(-1.2295,6.097095279767E-08,24.700000060971));
#834 = VERTEX_POINT('',#835);
#835 = CARTESIAN_POINT('',(0.,-1.229499939029,24.700000060971));
#836 = CIRCLE('',#837,1.2295);
#837 = AXIS2_PLACEMENT_3D('',#838,#839,#840);
#838 = CARTESIAN_POINT('',(0.,6.097095288649E-08,24.700000060971));
#839 = DIRECTION('',(0.,2.22044604925E-16,1.));
#840 = DIRECTION('',(-1.,-0.,0.));
#841 = ORIENTED_EDGE('',*,*,#842,.T.);
#842 = EDGE_CURVE('',#834,#843,#845,.T.);
#843 = VERTEX_POINT('',#844);
#844 = CARTESIAN_POINT('',(1.229499999999,6.097095279767E-08,
    24.700000060972));
#845 = CIRCLE('',#846,1.2295);
#846 = AXIS2_PLACEMENT_3D('',#847,#848,#849);
#847 = CARTESIAN_POINT('',(0.,6.097095288649E-08,24.700000060971));
#848 = DIRECTION('',(0.,2.22044604925E-16,1.));
#849 = DIRECTION('',(-1.,-0.,0.));
#850 = ORIENTED_EDGE('',*,*,#851,.T.);
#851 = EDGE_CURVE('',#843,#425,#852,.T.);
#852 = B_SPLINE_CURVE_WITH_KNOTS('',1,(#853,#854),.UNSPECIFIED.,.F.,.F.,
  (2,2),(-0.424264068712,0.),.PIECEWISE_BEZIER_KNOTS.);
#853 = CARTESIAN_POINT('',(1.229499999999,6.097095288649E-08,
    24.700000060972));
#854 = CARTESIAN_POINT('',(1.5295,6.09709529531E-08,25.000000060971));
#855 = ORIENTED_EDGE('',*,*,#424,.T.);
#856 = ORIENTED_EDGE('',*,*,#851,.F.);
#857 = ORIENTED_EDGE('',*,*,#858,.T.);
#858 = EDGE_CURVE('',#843,#832,#859,.T.);
#859 = CIRCLE('',#860,1.2295);
#860 = AXIS2_PLACEMENT_3D('',#861,#862,#863);
#861 = CARTESIAN_POINT('',(0.,6.097095288649E-08,24.700000060971));
#862 = DIRECTION('',(0.,2.22044604925E-16,1.));
#863 = DIRECTION('',(-1.,-0.,0.));
#864 = CONICAL_SURFACE('',#865,1.5295,0.7853981634);
#865 = AXIS2_PLACEMENT_3D('',#866,#867,#868);
#866 = CARTESIAN_POINT('',(0.,6.09709529531E-08,25.000000060971));
#867 = DIRECTION('',(0.,2.22044604925E-16,1.));
#868 = DIRECTION('',(1.,0.,0.));
#869 = ADVANCED_FACE('',(#870),#899,.F.);
#870 = FACE_BOUND('',#871,.F.);
#871 = EDGE_LOOP('',(#872,#873,#874,#875,#882,#891,#898));
#872 = ORIENTED_EDGE('',*,*,#831,.F.);
#873 = ORIENTED_EDGE('',*,*,#858,.F.);
#874 = ORIENTED_EDGE('',*,*,#842,.F.);
#875 = ORIENTED_EDGE('',*,*,#876,.F.);
#876 = EDGE_CURVE('',#877,#834,#879,.T.);
#877 = VERTEX_POINT('',#878);
#878 = CARTESIAN_POINT('',(0.,-1.229499939029,13.000000060971));
#879 = B_SPLINE_CURVE_WITH_KNOTS('',1,(#880,#881),.UNSPECIFIED.,.F.,.F.,
  (2,2),(-12.,-0.3),.PIECEWISE_BEZIER_KNOTS.);
#880 = CARTESIAN_POINT('',(-3.E-16,-1.229499939029,13.000000060971));
#881 = CARTESIAN_POINT('',(-3.E-16,-1.229499939029,24.700000060971));
#882 = ORIENTED_EDGE('',*,*,#883,.F.);
#883 = EDGE_CURVE('',#884,#877,#886,.T.);
#884 = VERTEX_POINT('',#885);
#885 = CARTESIAN_POINT('',(0.,1.229500060971,13.000000060971));
#886 = CIRCLE('',#887,1.2295);
#887 = AXIS2_PLACEMENT_3D('',#888,#889,#890);
#888 = CARTESIAN_POINT('',(0.,6.097095028856E-08,13.000000060971));
#889 = DIRECTION('',(0.,-2.22044604925E-16,-1.));
#890 = DIRECTION('',(0.,1.,-2.22044604925E-16));
#891 = ORIENTED_EDGE('',*,*,#892,.F.);
#892 = EDGE_CURVE('',#877,#884,#893,.T.);
#893 = CIRCLE('',#894,1.2295);
#894 = AXIS2_PLACEMENT_3D('',#895,#896,#897);
#895 = CARTESIAN_POINT('',(0.,6.097095028856E-08,13.000000060971));
#896 = DIRECTION('',(0.,-2.22044604925E-16,-1.));
#897 = DIRECTION('',(0.,1.,-2.22044604925E-16));
#898 = ORIENTED_EDGE('',*,*,#876,.T.);
#899 = CYLINDRICAL_SURFACE('',#900,1.2295);
#900 = AXIS2_PLACEMENT_3D('',#901,#902,#903);
#901 = CARTESIAN_POINT('',(0.,6.09709529531E-08,25.000000060971));
#902 = DIRECTION('',(0.,2.22044604925E-16,1.));
#903 = DIRECTION('',(0.,-1.,2.22044604925E-16));
#904 = ADVANCED_FACE('',(#905),#917,.F.);
#905 = FACE_BOUND('',#906,.F.);
#906 = EDGE_LOOP('',(#907,#908,#909,#916));
#907 = ORIENTED_EDGE('',*,*,#883,.T.);
#908 = ORIENTED_EDGE('',*,*,#892,.T.);
#909 = ORIENTED_EDGE('',*,*,#910,.F.);
#910 = EDGE_CURVE('',#911,#884,#913,.T.);
#911 = VERTEX_POINT('',#912);
#912 = CARTESIAN_POINT('',(0.,6.097095023056E-08,12.261241929877));
#913 = B_SPLINE_CURVE_WITH_KNOTS('',1,(#914,#915),.UNSPECIFIED.,.F.,.F.,
  (2,2),(-1.434375761856,0.),.PIECEWISE_BEZIER_KNOTS.);
#914 = CARTESIAN_POINT('',(0.,6.097095012453E-08,12.261241929916));
#915 = CARTESIAN_POINT('',(3.E-16,1.229500060971,13.000000060971));
#916 = ORIENTED_EDGE('',*,*,#910,.T.);
#917 = CONICAL_SURFACE('',#918,1.2295,1.0297442587);
#918 = AXIS2_PLACEMENT_3D('',#919,#920,#921);
#919 = CARTESIAN_POINT('',(0.,6.097095028856E-08,13.000000060971));
#920 = DIRECTION('',(0.,2.22044604925E-16,1.));
#921 = DIRECTION('',(0.,1.,-2.22044604925E-16));
#922 = ( GEOMETRIC_REPRESENTATION_CONTEXT(3) 
GLOBAL_UNCERTAINTY_ASSIGNED_CONTEXT((#926)) GLOBAL_UNIT_ASSIGNED_CONTEXT
((#923,#924,#925)) REPRESENTATION_CONTEXT('Context #1',
  '3D Context with UNIT and UNCERTAINTY') );
#923 = ( LENGTH_UNIT() NAMED_UNIT(*) SI_UNIT(.MILLI.,.METRE.) );
#924 = ( NAMED_UNIT(*) PLANE_ANGLE_UNIT() SI_UNIT($,.RADIAN.) );
#925 = ( NAMED_UNIT(*) SI_UNIT($,.STERADIAN.) SOLID_ANGLE_UNIT() );
#926 = UNCERTAINTY_MEASURE_WITH_UNIT(LENGTH_MEASURE(5.E-05),#923,
  'distance_accuracy_value','confusion accuracy');
#927 = PRODUCT_RELATED_PRODUCT_CATEGORY('part',$,(#7));
#928 = MECHANICAL_DESIGN_GEOMETRIC_PRESENTATION_REPRESENTATION('',(#929)
  ,#922);
#929 = STYLED_ITEM('color',(#930),#15);
#930 = PRESENTATION_STYLE_ASSIGNMENT((#931,#937));
#931 = SURFACE_STYLE_USAGE(.BOTH.,#932);
#932 = SURFACE_SIDE_STYLE('',(#933));
#933 = SURFACE_STYLE_FILL_AREA(#934);
#934 = FILL_AREA_STYLE('',(#935));
#935 = FILL_AREA_STYLE_COLOUR('',#936);
#936 = COLOUR_RGB('',0.298000007868,0.298000007868,0.298000007868);
#937 = CURVE_STYLE('',#938,POSITIVE_LENGTH_MEASURE(0.1),#939);
#938 = DRAUGHTING_PRE_DEFINED_CURVE_FONT('continuous');
#939 = COLOUR_RGB('',9.803921729326E-02,9.803921729326E-02,
  9.803921729326E-02);
ENDSEC;
END-ISO-10303-21;
