#VRML V2.0 utf8
#kicad StepUp wrl exported

Shape {
    appearance Appearance {material DEF PIN-01 Material {
        ambientIntensity 0.271
        diffuseColor 0.824 0.820 0.781
        specularColor 0.328 0.258 0.172
        emissiveColor 0.0 0.0 0.0
        shininess 0.70
        transparency 0.0
        }
    }
}
Shape {
    appearance Appearance {material DEF MET-01 Material {
        ambientIntensity 0.249999
        diffuseColor 0.298 0.298 0.298
        specularColor 0.398 0.398 0.398
        emissiveColor 0.0 0.0 0.0
        shininess 0.056122
        transparency 0.0
        }
    }
}
Shape {
    appearance Appearance {material DEF PIN-02 Material {
        ambientIntensity 0.379
        diffuseColor 0.859 0.738 0.496
        specularColor 0.137 0.145 0.184
        emissiveColor 0.0 0.0 0.0
        shininess 0.40
        transparency 0.0
        }
    }
}
Shape {
    appearance Appearance {material DEF IC-BODY-EPOXY-04 Material {
        ambientIntensity 0.293
        diffuseColor 0.148 0.145 0.145
        specularColor 0.180 0.168 0.160
        emissiveColor 0.0 0.0 0.0
        shininess 0.35
        transparency 0.0
        }
    }
}
Shape {
    appearance Appearance {material DEF RES-SMD-01 Material {
        diffuseColor 0.082 0.086 0.094
        emissiveColor 0.000 0.000 0.000
        specularColor 0.066 0.063 0.063
        ambientIntensity 0.638
        transparency 0.0
        shininess 0.3
        }
    }
}
Shape {
    appearance Appearance {material DEF IC-BODY-EPOXY-01 Material {
        ambientIntensity 0.117
        diffuseColor 0.250 0.262 0.281
        specularColor 0.316 0.281 0.176
        emissiveColor 0.0 0.0 0.0
        shininess 0.25
        transparency 0.0
        }
    }
}
Shape {
    appearance Appearance {material DEF CAP-CERAMIC-05 Material {
        ambientIntensity 0.179
        diffuseColor 0.273 0.273 0.273
        specularColor 0.203 0.188 0.176
        emissiveColor 0.0 0.0 0.0
        shininess 0.15
        transparency 0.0
        }
    }
}
Shape {
    appearance Appearance {material DEF CAP-CERAMIC-06 Material {
        ambientIntensity 0.453
        diffuseColor 0.379 0.270 0.215
        specularColor 0.223 0.223 0.223
        emissiveColor 0.0 0.0 0.0
        shininess 0.15
        transparency 0.0
        }
    }
}
Shape {
    appearance Appearance {material DEF RES-THT-01 Material {
        ambientIntensity 0.149
        diffuseColor 0.883 0.711 0.492
        specularColor 0.043 0.121 0.281
        emissiveColor 0.0 0.0 0.0
        shininess 0.40
        transparency 0.0
        }
    }
}
Shape {
    appearance Appearance {material DEF PLASTIC-BLUE-01 Material {
        ambientIntensity 0.565
        diffuseColor 0.137 0.402 0.727
        specularColor 0.359 0.379 0.270
        emissiveColor 0.0 0.0 0.0
        shininess 0.25
        transparency 0.0
        }
    }
}
Shape {
    appearance Appearance {material DEF PLASTIC-GREEN-01 Material {
        ambientIntensity 0.315
        diffuseColor 0.340 0.680 0.445
        specularColor 0.176 0.105 0.195
        emissiveColor 0.0 0.0 0.0
        shininess 0.25
        transparency 0.0
        }
    }
}
Shape {
    appearance Appearance {material DEF PLASTIC-ORANGE-01 Material {
        ambientIntensity 0.284
        diffuseColor 0.809 0.426 0.148
        specularColor 0.039 0.102 0.145
        emissiveColor 0.0 0.0 0.0
        shininess 0.25
        transparency 0.0
        }
    }
}
Shape {
    appearance Appearance {material DEF RED-BODY Material {
        ambientIntensity 0.683
        diffuseColor 0.700 0.100 0.050
        emissiveColor 0.000 0.000 0.000
        specularColor 0.300 0.400 0.150
        shininess 0.25
        transparency 0.0
        }
    }
}
Shape {
    appearance Appearance {material DEF CAP-CERAMIC-02 Material {
        ambientIntensity 0.683
        diffuseColor 0.578 0.336 0.352
        specularColor 0.105 0.273 0.270
        emissiveColor 0.0 0.0 0.0
        shininess 0.25
        transparency 0.0
        }
    }
}
Shape {
    appearance Appearance {material DEF PLASTIC-YELLOW-01 Material {
        ambientIntensity 0.522
        diffuseColor 0.832 0.680 0.066
        specularColor 0.160 0.203 0.320
        emissiveColor 0.0 0.0 0.0
        shininess 0.25
        transparency 0.0
        }
    }
}
Shape {
    appearance Appearance {material DEF PLASTIC-WHITE-01 Material {
        ambientIntensity 0.494
        diffuseColor 0.895 0.891 0.813
        specularColor 0.047 0.055 0.109
        emissiveColor 0.0 0.0 0.0
        shininess 0.25
        transparency 0.0
        }
    }
}
Shape {
    appearance Appearance {material DEF IC-LABEL-01 Material {
        ambientIntensity 0.082
        diffuseColor 0.691 0.664 0.598
        specularColor 0.000 0.000 0.000
        emissiveColor 0.0 0.0 0.0
        shininess 0.01
        transparency 0.0
        }
    }
}
Shape {
    appearance Appearance {material DEF LED-RED Material {
        ambientIntensity 0.789
        diffuseColor 0.700 0.100 0.050
        emissiveColor 0.000 0.000 0.000
        specularColor 0.300 0.400 0.150
        shininess 0.125
        transparency 0.10
        }
    }
}
Shape {
    appearance Appearance {material DEF LED-GREEN Material {
        ambientIntensity 0.789
        diffuseColor 0.400 0.700 0.150
        emissiveColor 0.000 0.000 0.000
        specularColor 0.600 0.300 0.100
        shininess 0.05
        transparency 0.10
        }
    }
}
Shape {
    appearance Appearance {material DEF LED-BLUE Material {
        ambientIntensity 0.789
        diffuseColor 0.100 0.250 0.700
        emissiveColor 0.000 0.000 0.000
        specularColor 0.500 0.600 0.300
        shininess 0.125
        transparency 0.10
        }
    }
}
Shape {
    appearance Appearance {material DEF LED-YELLOW Material {
        ambientIntensity 0.522
        diffuseColor 0.98 0.840 0.066
        specularColor 0.160 0.203 0.320
        emissiveColor 0.0 0.0 0.0
        shininess 0.125
        transparency 0.10
        }
    }
}
Shape {
    appearance Appearance {material DEF LED-WHITE Material {
        ambientIntensity 0.494
        diffuseColor 0.895 0.891 0.813
        specularColor 0.047 0.055 0.109
        emissiveColor 0.0 0.0 0.0
        shininess 0.125
        transparency 0.10
        }
    }
}
Shape {
    appearance Appearance {material DEF LED-GREY Material {
        ambientIntensity 0.494
        diffuseColor 0.27 0.25 0.27
        specularColor 0.5 0.5 0.6
        emissiveColor 0.0 0.0 0.0
        shininess 0.35
        transparency 0.10
        }
    }
}
Shape {
    appearance Appearance {material DEF LED-BLACK Material {
        ambientIntensity 0.494
        diffuseColor 0.1 0.05 0.1
        specularColor 0.6 0.5 0.6
        emissiveColor 0.0 0.0 0.0
        shininess 0.5
        transparency 0.0
        }
    }
}
Shape {
    appearance Appearance {material DEF GLASS-19 Material {
        ambientIntensity 2.018212
        diffuseColor 0.400769 0.441922 0.459091
        specularColor 0.573887 0.649271 0.810811
        emissiveColor 0.000000 0.000000 0.000000
        shininess 0.127273
        transparency 0.37
        }
    }
}
Shape {
    appearance Appearance {material DEF GLASS-29 Material {
        ambientIntensity 0.234375
        diffuseColor 0.566681 0.580872 0.580874
        specularColor 0.617761 0.429816 0.400140
        emissiveColor 0.000000 0.000000 0.000000
        shininess 0.072727
        transparency 0.38
        }
    }
}
Shape {
    appearance Appearance {material DEF GLASS-13 Material {
        ambientIntensity 0.250000
        diffuseColor 0.000000 0.631244 0.748016
        specularColor 0.915152 0.915152 0.915152
        emissiveColor 0.000000 0.000000 0.000000
        shininess 0.642424
        transparency 0.39
        }
    }
}
Shape {
    appearance Appearance {material DEF GLASS-GREEN Material {
        ambientIntensity 0.250000
        diffuseColor 0.000000 0.75 0.44
        specularColor 0.915152 0.915152 0.915152
        emissiveColor 0.000000 0.000000 0.000000
        shininess 0.642424
        transparency 0.39
        }
    }
}
Shape {
    appearance Appearance {material DEF GLASS-ORANGE Material {
        ambientIntensity 0.250000
        diffuseColor 0.75 0.44 0.000000
        specularColor 0.915152 0.915152 0.915152
        emissiveColor 0.000000 0.000000 0.000000
        shininess 0.642424
        transparency 0.39
        }
    }
}
Shape {
    appearance Appearance {material DEF BOARD-GREEN-02 Material {
        ambientIntensity 1
        diffuseColor 0.07 0.3 0.12
        specularColor 0.07 0.3 0.12
        emissiveColor 0.0 0.0 0.0
        shininess 0.40
        transparency 0.0
        }
    }
}
Shape {
    appearance Appearance {material DEF BOARD-BLUE-01 Material {
        ambientIntensity 1
        diffuseColor 0.07 0.12 0.3
        specularColor 0.07 0.12 0.3
        emissiveColor 0.0 0.0 0.0
        shininess 0.40
        transparency 0.0
        }
    }
}
Shape {
    appearance Appearance {material DEF BOARD-BLACK-03 Material {
        ambientIntensity 1
        diffuseColor 0.16 0.16 0.16
        specularColor 0.16 0.16 0.16
        emissiveColor 0.0 0.0 0.0
        shininess 0.40
        transparency 0.0
        }
    }
}
Shape {
    appearance Appearance {material DEF MET-ALUMINUM Material {
        ambientIntensity 0.256000
        diffuseColor 0.372322 0.371574 0.373173
        specularColor 0.556122 0.554201 0.556122
        emissiveColor 0.0 0.0 0.0
        shininess 0.127551
        transparency 0.0
        }
    }
}
Shape {
    appearance Appearance {material DEF MET-BRONZE Material {
        ambientIntensity 0.022727
        diffuseColor 0.714 0.4284 0.18144
        specularColor 0.393548 0.271906 0.166721
        emissiveColor 0.000000 0.000000 0.000000
        shininess 0.2
        transparency 0.0
        }
    }
}
Shape {
    appearance Appearance {material DEF MET-SILVER Material {
        ambientIntensity 0.022727
        diffuseColor 0.50754 0.50754 0.50754
        specularColor 0.508273 0.508273 0.508273
        emissiveColor 0.000000 0.000000 0.000000
        shininess 0.4
        transparency 0.0
        }
    }
}
Shape {
    appearance Appearance {material DEF MET-COPPER Material {
        ambientIntensity 0.022727
        diffuseColor 0.7038 0.27048 0.0828
        specularColor 0.780612 0.37 0.000000
        emissiveColor 0.000000 0.000000 0.000000
        shininess 0.2
        transparency 0.0
        }
    }
}
Shape { geometry IndexedFaceSet 
{ creaseAngle 0.50 coordIndex [0,1,2,-1,0,3,1,-1]
coord Coordinate { point [1.21063 0.43307 1.00969e-14,1.21063 -0.43307 0.19685,1.21063 0.43307 0.19685,1.21063 -0.43307 1.02717e-14]
}}
appearance Appearance{material USE PIN-01 }}
Shape { geometry IndexedFaceSet 
{ creaseAngle 0.50 coordIndex [0,1,2,-1,0,3,1,-1,3,4,1,-1,5,6,7,-1,8,9,6,-1,6,9,7,-1,3,9,8,-1,3,8,4,-1]
coord Coordinate { point [1.56496 -0.66929 0.19685,1.30905 -0.43307 0.19685,1.56496 -0.43307 0.19685,1.01378 -0.66929 0.19685,1.21063 -0.43307 0.19685,1.56496 0.43307 0.19685,1.30905 0.43307 0.19685,1.56496 0.66929 0.19685,1.21063 0.43307 0.19685,1.01378 0.66929 0.19685]
}}
appearance Appearance{material USE PLASTIC-BLUE-01 }}
Shape { geometry IndexedFaceSet 
{ creaseAngle 0.50 coordIndex [0,1,2,-1,0,2,3,-1]
coord Coordinate { point [1.54527 -0.43307 1.02717e-14,1.21063 -0.43307 1.02717e-14,1.21063 0.43307 1.00969e-14,1.54527 0.43307 1.00969e-14]
}}
appearance Appearance{material USE PIN-01 }}
Shape { geometry IndexedFaceSet 
{ creaseAngle 0.50 coordIndex [0,1,2,-1,3,0,2,-1,4,5,0,-1,4,0,3,-1]
coord Coordinate { point [1.30905 0.43307 0.098425,1.54527 0.43307 0.098425,1.54527 0.43307 1.00969e-14,1.21063 0.43307 1.00969e-14,1.21063 0.43307 0.19685,1.30905 0.43307 0.19685]
}}
appearance Appearance{material USE PIN-01 }}
Shape { geometry IndexedFaceSet 
{ creaseAngle 0.50 coordIndex [0,1,2,-1,3,1,0,-1,4,0,2,-1,5,0,4,-1]
coord Coordinate { point [1.30905 -0.43307 0.098425,1.21063 -0.43307 0.19685,1.21063 -0.43307 1.02717e-14,1.30905 -0.43307 0.19685,1.54527 -0.43307 1.02717e-14,1.54527 -0.43307 0.098425]
}}
appearance Appearance{material USE PIN-01 }}
Shape { geometry IndexedFaceSet 
{ creaseAngle 0.50 coordIndex [0,1,2,-1,3,1,0,-1]
coord Coordinate { point [1.56496 -0.66929 7.21206e-15,1.01378 -0.66929 0.19685,1.56496 -0.66929 0.19685,1.01378 -0.66929 7.21206e-15]
}}
appearance Appearance{material USE PLASTIC-BLUE-01 }}
Shape { geometry IndexedFaceSet 
{ creaseAngle 0.50 coordIndex [0,1,2,-1,2,1,3,-1]
coord Coordinate { point [1.01378 0.66929 0.19685,1.01378 0.66929 1.07088e-14,1.56496 0.66929 0.19685,1.56496 0.66929 1.07088e-14]
}}
appearance Appearance{material USE PLASTIC-BLUE-01 }}
Shape { geometry IndexedFaceSet 
{ creaseAngle 0.50 coordIndex [0,1,2,-1,1,3,4,-1,5,3,1,-1,0,5,1,-1]
coord Coordinate { point [1.56496 0.43307 0.19685,1.30905 0.43307 1.5748,1.30905 0.43307 0.19685,1.21063 0.43307 2.59842,1.21063 0.43307 1.5748,1.56496 0.43307 2.59842]
}}
appearance Appearance{material USE PLASTIC-BLUE-01 }}
Shape { geometry IndexedFaceSet 
{ creaseAngle 0.50 coordIndex [0,1,2,-1,0,3,1,-1,1,4,5,-1,3,4,1,-1]
coord Coordinate { point [1.56496 0.98425 1.15393e-14,1.56496 0.66929 0.19685,1.56496 0.66929 1.07088e-14,1.56496 0.98425 2.59842,1.56496 0.43307 2.59842,1.56496 0.43307 0.19685]
}}
appearance Appearance{material USE PLASTIC-BLUE-01 }}
Shape { geometry IndexedFaceSet 
{ creaseAngle 0.50 coordIndex [0,1,2,-1,3,4,0,-1,4,5,0,-1,0,5,1,-1]
coord Coordinate { point [1.56496 -0.66929 0.19685,1.56496 -0.98425 6.38158e-15,1.56496 -0.66929 7.21206e-15,1.56496 -0.43307 0.19685,1.56496 -0.43307 2.59842,1.56496 -0.98425 2.59842]
}}
appearance Appearance{material USE PLASTIC-BLUE-01 }}
Shape { geometry IndexedFaceSet 
{ creaseAngle 0.50 coordIndex [0,1,2,-1,3,4,1,-1,4,5,1,-1,5,2,1,-1]
coord Coordinate { point [1.30905 -0.43307 0.19685,1.30905 -0.43307 1.5748,1.56496 -0.43307 0.19685,1.21063 -0.43307 1.5748,1.21063 -0.43307 2.59842,1.56496 -0.43307 2.59842]
}}
appearance Appearance{material USE PLASTIC-BLUE-01 }}
Shape { geometry IndexedFaceSet 
{ creaseAngle 0.50 coordIndex [0,1,2,-1,2,1,3,-1]
coord Coordinate { point [1.01378 0.66929 0.19685,1.01378 -0.66929 0.19685,1.01378 0.66929 1.07088e-14,1.01378 -0.66929 7.21206e-15]
}}
appearance Appearance{material USE PLASTIC-BLUE-01 }}
Shape { geometry IndexedFaceSet 
{ creaseAngle 0.50 coordIndex [0,1,2,-1,2,1,3,-1]
coord Coordinate { point [1.54527 -0.43307 1.02717e-14,1.54527 0.43307 1.00969e-14,1.54527 -0.43307 0.098425,1.54527 0.43307 0.098425]
}}
appearance Appearance{material USE PIN-01 }}
Shape { geometry IndexedFaceSet 
{ creaseAngle 0.50 coordIndex [0,1,2,-1,0,2,3,-1]
coord Coordinate { point [1.30905 -0.43307 0.098425,1.54527 -0.43307 0.098425,1.54527 0.43307 0.098425,1.30905 0.43307 0.098425]
}}
appearance Appearance{material USE PIN-01 }}
Shape { geometry IndexedFaceSet 
{ creaseAngle 0.50 coordIndex [0,1,2,-1,2,1,3,-1,4,5,0,-1,0,5,1,-1]
coord Coordinate { point [1.30905 -0.43307 0.19685,1.30905 0.43307 0.19685,1.30905 -0.43307 1.5748,1.30905 0.43307 1.5748,1.30905 -0.43307 0.098425,1.30905 0.43307 0.098425]
}}
appearance Appearance{material USE PIN-01 }}
Shape { geometry IndexedFaceSet 
{ creaseAngle 0.50 coordIndex [0,1,2,-1,0,3,1,-1,4,5,6,-1,6,5,3,-1,3,5,1,-1,7,8,9,-1,9,8,10,-1,11,12,13,-1,5,12,1,-1,8,14,10,-1,8,15,14,-1,15,16,14,-1,10,17,5,-1,5,17,12,-1,14,17,10,-1,18,19,17,-1,12,19,13,-1,17,19,12,-1]
coord Coordinate { point [1.56496 -0.98425 6.38158e-15,1.01378 -0.66929 7.21206e-15,1.56496 -0.66929 7.21206e-15,0.492125 -0.98425 6.68755e-15,0.295275 -1.77165 7.3869e-15,0.295275 -0.98425 7.29948e-15,0.492125 -1.77165 6.81868e-15,-0.492125 -1.77165 1.02717e-14,-0.492125 -0.98425 1.01843e-14,-0.295275 -1.77165 9.61609e-15,-0.295275 -0.98425 9.52867e-15,1.56496 0.66929 1.07088e-14,1.01378 0.66929 1.07088e-14,1.56496 0.98425 1.15393e-14,-1.01378 -0.66929 7.21206e-15,-1.56496 -0.98425 6.38158e-15,-1.56496 -0.66929 7.21206e-15,-1.01378 0.66929 1.07088e-14,-1.56496 0.66929 1.07088e-14,-1.56496 0.98425 1.15393e-14]
}}
appearance Appearance{material USE PLASTIC-BLUE-01 }}
Shape { geometry IndexedFaceSet 
{ creaseAngle 0.50 coordIndex [0,1,2,-1,1,3,2,-1,2,4,0,-1,4,5,0,-1,6,7,1,-1,1,7,3,-1]
coord Coordinate { point [1.21063 0.334645 1.85039,1.21063 0.019685 1.85039,1.21063 0.43307 1.5748,1.21063 -0.43307 1.5748,1.21063 0.43307 2.59842,1.21063 0.334645 2.59842,1.21063 0.019685 2.59842,1.21063 -0.43307 2.59842]
}}
appearance Appearance{material USE PLASTIC-BLUE-01 }}
Shape { geometry IndexedFaceSet 
{ creaseAngle 0.50 coordIndex [0,1,2,-1,3,0,2,-1]
coord Coordinate { point [1.30905 -0.43307 1.5748,1.30905 0.43307 1.5748,1.21063 0.43307 1.5748,1.21063 -0.43307 1.5748]
}}
appearance Appearance{material USE PIN-01 }}
Shape { geometry IndexedFaceSet 
{ creaseAngle 0.50 coordIndex [0,1,2,-1,1,3,2,-1,4,5,1,-1,1,5,3,-1,4,6,5,-1,5,7,3,-1]
coord Coordinate { point [0.127952 0.66929 2.59842,0.90551 0.66929 2.59842,0.127952 0.98425 2.59842,1.56496 0.98425 2.59842,0.90551 0.334645 2.59842,1.21063 0.43307 2.59842,1.21063 0.334645 2.59842,1.56496 0.43307 2.59842]
}}
appearance Appearance{material USE PLASTIC-BLUE-01 }}
Shape { geometry IndexedFaceSet 
{ creaseAngle 0.50 coordIndex [0,1,2,-1,3,4,2,-1,2,4,0,-1,1,5,2,-1,6,7,3,-1,3,7,4,-1]
coord Coordinate { point [-1.56496 0.98425 1.15393e-14,-1.56496 0.98425 2.59842,-0.127953 0.98425 0.688975,0.127952 0.98425 0.688975,1.56496 0.98425 1.15393e-14,-0.127953 0.98425 2.59842,0.127952 0.98425 2.59842,1.56496 0.98425 2.59842]
}}
appearance Appearance{material USE PLASTIC-BLUE-01 }}
Shape { geometry IndexedFaceSet 
{ creaseAngle 0.50 coordIndex [0,1,2,-1,3,4,5,-1,3,6,4,-1,1,7,3,-1,0,7,1,-1,3,7,6,-1,8,9,10,-1,6,11,8,-1,7,11,6,-1,8,11,9,-1]
coord Coordinate { point [1.56496 -0.98425 6.38158e-15,0.492125 -0.98425 0.19685,0.492125 -0.98425 6.68755e-15,0.295275 -0.98425 0.19685,-0.295275 -0.98425 9.52867e-15,0.295275 -0.98425 7.29948e-15,-0.295275 -0.98425 0.19685,1.56496 -0.98425 2.59842,-0.492125 -0.98425 0.19685,-1.56496 -0.98425 6.38158e-15,-0.492125 -0.98425 1.01843e-14,-1.56496 -0.98425 2.59842]
}}
appearance Appearance{material USE PLASTIC-BLUE-01 }}
Shape { geometry IndexedFaceSet 
{ creaseAngle 0.50 coordIndex [0,1,2,-1,3,4,1,-1,4,5,1,-1,1,5,2,-1,6,7,8,-1,8,7,9,-1,7,10,11,-1,6,10,7,-1,4,10,5,-1,5,10,6,-1]
coord Coordinate { point [-1.21063 0.019685 2.59842,-1.21063 -0.43307 2.59842,-0.90551 0.019685 2.59842,-1.56496 -0.43307 2.59842,-1.56496 -0.98425 2.59842,-0.90551 -0.70866 2.59842,0.90551 -0.70866 2.59842,1.21063 -0.43307 2.59842,0.90551 0.019685 2.59842,1.21063 0.019685 2.59842,1.56496 -0.98425 2.59842,1.56496 -0.43307 2.59842]
}}
appearance Appearance{material USE PLASTIC-BLUE-01 }}
Shape { geometry IndexedFaceSet 
{ creaseAngle 0.50 coordIndex [0,1,2,-1,2,1,3,-1]
coord Coordinate { point [-1.56496 0.66929 0.19685,-1.56496 0.66929 1.07088e-14,-1.01378 0.66929 0.19685,-1.01378 0.66929 1.07088e-14]
}}
appearance Appearance{material USE PLASTIC-BLUE-01 }}
Shape { geometry IndexedFaceSet 
{ creaseAngle 0.50 coordIndex [0,1,2,-1,0,2,3,-1]
coord Coordinate { point [-0.492125 -1.77165 0.19685,-0.492125 -0.98425 0.19685,-0.492125 -0.98425 1.01843e-14,-0.492125 -1.77165 1.02717e-14]
}}
appearance Appearance{material USE PIN-01 }}
Shape { geometry IndexedFaceSet 
{ creaseAngle 0.50 coordIndex [0,1,2,-1,3,1,0,-1,4,0,5,-1,4,3,0,-1]
coord Coordinate { point [-1.56496 0.66929 0.19685,-1.56496 0.98425 1.15393e-14,-1.56496 0.66929 1.07088e-14,-1.56496 0.98425 2.59842,-1.56496 0.43307 2.59842,-1.56496 0.43307 0.19685]
}}
appearance Appearance{material USE PLASTIC-BLUE-01 }}
Shape { geometry IndexedFaceSet 
{ creaseAngle 0.50 coordIndex [0,1,2,-1,2,1,3,-1]
coord Coordinate { point [-1.01378 -0.66929 0.19685,-1.01378 0.66929 0.19685,-1.01378 -0.66929 7.21206e-15,-1.01378 0.66929 1.07088e-14]
}}
appearance Appearance{material USE PLASTIC-BLUE-01 }}
Shape { geometry IndexedFaceSet 
{ creaseAngle 0.50 coordIndex [0,1,2,-1,0,2,3,-1]
coord Coordinate { point [-0.295275 -0.98425 0.19685,-0.295275 -1.77165 0.19685,-0.295275 -1.77165 9.61609e-15,-0.295275 -0.98425 9.52867e-15]
}}
appearance Appearance{material USE PIN-01 }}
Shape { geometry IndexedFaceSet 
{ creaseAngle 0.50 coordIndex [0,1,2,-1,3,1,0,-1]
coord Coordinate { point [0.492125 -1.77165 0.19685,0.295275 -1.77165 7.3869e-15,0.492125 -1.77165 6.81868e-15,0.295275 -1.77165 0.19685]
}}
appearance Appearance{material USE PIN-01 }}
Shape { geometry IndexedFaceSet 
{ creaseAngle 0.50 coordIndex [0,1,2,-1,3,1,0,-1]
coord Coordinate { point [-1.01378 -0.66929 7.21206e-15,-1.56496 -0.66929 0.19685,-1.01378 -0.66929 0.19685,-1.56496 -0.66929 7.21206e-15]
}}
appearance Appearance{material USE PLASTIC-BLUE-01 }}
Shape { geometry IndexedFaceSet 
{ creaseAngle 0.50 coordIndex [0,1,2,-1,3,1,0,-1]
coord Coordinate { point [-0.295275 -1.77165 0.19685,-0.492125 -1.77165 1.02717e-14,-0.295275 -1.77165 9.61609e-15,-0.492125 -1.77165 0.19685]
}}
appearance Appearance{material USE PIN-01 }}
Shape { geometry IndexedFaceSet 
{ creaseAngle 0.50 coordIndex [0,1,2,-1,0,2,3,-1]
coord Coordinate { point [0.492125 -0.98425 0.19685,0.492125 -1.77165 0.19685,0.492125 -1.77165 6.81868e-15,0.492125 -0.98425 6.68755e-15]
}}
appearance Appearance{material USE PIN-01 }}
Shape { geometry IndexedFaceSet 
{ creaseAngle 0.50 coordIndex [0,1,2,-1,0,2,3,-1]
coord Coordinate { point [0.295275 -1.77165 0.19685,0.295275 -0.98425 0.19685,0.295275 -0.98425 7.29948e-15,0.295275 -1.77165 7.3869e-15]
}}
appearance Appearance{material USE PIN-01 }}
Shape { geometry IndexedFaceSet 
{ creaseAngle 0.50 coordIndex [0,1,2,-1,3,4,1,-1,5,3,1,-1,5,1,0,-1]
coord Coordinate { point [-1.56496 -0.98425 6.38158e-15,-1.56496 -0.66929 0.19685,-1.56496 -0.66929 7.21206e-15,-1.56496 -0.43307 2.59842,-1.56496 -0.43307 0.19685,-1.56496 -0.98425 2.59842]
}}
appearance Appearance{material USE PLASTIC-BLUE-01 }}
Shape { geometry IndexedFaceSet 
{ creaseAngle 0.50 coordIndex [0,1,2,-1,1,3,2,-1]
coord Coordinate { point [1.21063 0.334645 1.85039,1.21063 0.334645 2.59842,0.90551 0.334645 1.85039,0.90551 0.334645 2.59842]
}}
appearance Appearance{material USE PLASTIC-BLUE-01 }}
Shape { geometry IndexedFaceSet 
{ creaseAngle 0.50 coordIndex [0,1,2,-1,2,1,3,-1]
coord Coordinate { point [0.90551 0.019685 1.85039,1.21063 0.019685 1.85039,0.90551 0.334645 1.85039,1.21063 0.334645 1.85039]
}}
appearance Appearance{material USE PLASTIC-BLUE-01 }}
Shape { geometry IndexedFaceSet 
{ creaseAngle 0.50 coordIndex [0,1,2,-1,2,1,3,-1]
coord Coordinate { point [0.90551 0.019685 2.59842,1.21063 0.019685 2.59842,0.90551 0.019685 1.85039,1.21063 0.019685 1.85039]
}}
appearance Appearance{material USE PLASTIC-BLUE-01 }}
Shape { geometry IndexedFaceSet 
{ creaseAngle 0.50 coordIndex [0,1,2,-1,3,4,1,-1,5,3,1,-1,5,1,0,-1,6,4,3,-1,7,6,3,-1,8,9,5,-1,8,5,0,-1]
coord Coordinate { point [0.90551 -0.70866 0.688975,0.90551 0.019685 0.925195,0.90551 -0.216535 0.688975,0.90551 0.334645 1.85039,0.90551 0.66929 0.925195,0.90551 0.019685 1.85039,0.90551 0.66929 2.59842,0.90551 0.334645 2.59842,0.90551 -0.70866 2.59842,0.90551 0.019685 2.59842]
}}
appearance Appearance{material USE PLASTIC-BLUE-01 }}
Shape { geometry IndexedFaceSet 
{ creaseAngle 0.50 coordIndex [0,1,2,-1,3,1,0,-1]
coord Coordinate { point [0.90551 0.66929 2.59842,0.127952 0.66929 0.925195,0.90551 0.66929 0.925195,0.127952 0.66929 2.59842]
}}
appearance Appearance{material USE PLASTIC-BLUE-01 }}
Shape { geometry IndexedFaceSet 
{ creaseAngle 0.50 coordIndex [0,1,2,-1,3,4,0,-1,0,4,1,-1]
coord Coordinate { point [0.127952 0.66929 0.925195,0.127952 0.98425 0.688975,0.127952 0.66929 0.688975,0.127952 0.66929 2.59842,0.127952 0.98425 2.59842]
}}
appearance Appearance{material USE PLASTIC-BLUE-01 }}
Shape { geometry IndexedFaceSet 
{ creaseAngle 0.50 coordIndex [0,1,2,-1,3,0,2,-1]
coord Coordinate { point [0.127952 0.66929 0.688975,0.127952 0.98425 0.688975,-0.127953 0.98425 0.688975,-0.127953 0.66929 0.688975]
}}
appearance Appearance{material USE PLASTIC-BLUE-01 }}
Shape { geometry IndexedFaceSet 
{ creaseAngle 0.50 coordIndex [0,1,2,-1,1,3,2,-1,4,5,1,-1,1,5,3,-1,3,6,2,-1,3,7,6,-1]
coord Coordinate { point [-1.56496 0.43307 2.59842,-1.21063 0.43307 2.59842,-1.56496 0.98425 2.59842,-0.90551 0.66929 2.59842,-1.21063 0.334645 2.59842,-0.90551 0.334645 2.59842,-0.127953 0.98425 2.59842,-0.127953 0.66929 2.59842]
}}
appearance Appearance{material USE PLASTIC-BLUE-01 }}
Shape { geometry IndexedFaceSet 
{ creaseAngle 0.50 coordIndex [0,1,2,-1,0,3,1,-1,3,4,1,-1]
coord Coordinate { point [-0.127953 0.98425 0.688975,-0.127953 0.66929 0.925195,-0.127953 0.66929 0.688975,-0.127953 0.98425 2.59842,-0.127953 0.66929 2.59842]
}}
appearance Appearance{material USE PLASTIC-BLUE-01 }}
Shape { geometry IndexedFaceSet 
{ creaseAngle 0.50 coordIndex [0,1,2,-1,2,1,3,-1]
coord Coordinate { point [-0.492125 -0.98425 0.19685,-0.492125 -1.77165 0.19685,-0.295275 -0.98425 0.19685,-0.295275 -1.77165 0.19685]
}}
appearance Appearance{material USE PIN-01 }}
Shape { geometry IndexedFaceSet 
{ creaseAngle 0.50 coordIndex [0,1,2,-1,2,1,3,-1]
coord Coordinate { point [0.295275 -0.98425 0.19685,0.295275 -1.77165 0.19685,0.492125 -0.98425 0.19685,0.492125 -1.77165 0.19685]
}}
appearance Appearance{material USE PIN-01 }}
Shape { geometry IndexedFaceSet 
{ creaseAngle 0.50 coordIndex [0,1,2,-1,3,4,0,-1,4,5,0,-1,0,5,1,-1,3,6,4,-1,6,7,4,-1,8,9,5,-1,5,9,1,-1]
coord Coordinate { point [-0.90551 0.019685 0.925195,-0.90551 -0.70866 0.688975,-0.90551 -0.216535 0.688975,-0.90551 0.66929 0.925195,-0.90551 0.334645 1.85039,-0.90551 0.019685 1.85039,-0.90551 0.66929 2.59842,-0.90551 0.334645 2.59842,-0.90551 0.019685 2.59842,-0.90551 -0.70866 2.59842]
}}
appearance Appearance{material USE PLASTIC-BLUE-01 }}
Shape { geometry IndexedFaceSet 
{ creaseAngle 0.50 coordIndex [0,1,2,-1,2,1,3,-1]
coord Coordinate { point [-0.90551 -0.70866 0.688975,-0.90551 -0.70866 2.59842,0.90551 -0.70866 0.688975,0.90551 -0.70866 2.59842]
}}
appearance Appearance{material USE PLASTIC-BLUE-01 }}
Shape { geometry IndexedFaceSet 
{ creaseAngle 0.50 coordIndex [0,1,2,-1,2,3,0,-1,0,4,1,-1,3,5,0,-1,6,7,4,-1,4,7,1,-1]
coord Coordinate { point [-1.21063 0.019685 1.85039,-1.21063 0.43307 1.5748,-1.21063 -0.43307 1.5748,-1.21063 -0.43307 2.59842,-1.21063 0.334645 1.85039,-1.21063 0.019685 2.59842,-1.21063 0.334645 2.59842,-1.21063 0.43307 2.59842]
}}
appearance Appearance{material USE PLASTIC-BLUE-01 }}
Shape { geometry IndexedFaceSet 
{ creaseAngle 0.50 coordIndex [0,1,2,-1,1,3,4,-1,5,3,1,-1,0,5,1,-1]
coord Coordinate { point [-1.56496 -0.43307 0.19685,-1.30905 -0.43307 1.5748,-1.30905 -0.43307 0.19685,-1.21063 -0.43307 2.59842,-1.21063 -0.43307 1.5748,-1.56496 -0.43307 2.59842]
}}
appearance Appearance{material USE PLASTIC-BLUE-01 }}
Shape { geometry IndexedFaceSet 
{ creaseAngle 0.50 coordIndex [0,1,2,-1,2,1,3,-1]
coord Coordinate { point [-1.21063 0.019685 2.59842,-0.90551 0.019685 2.59842,-1.21063 0.019685 1.85039,-0.90551 0.019685 1.85039]
}}
appearance Appearance{material USE PLASTIC-BLUE-01 }}
Shape { geometry IndexedFaceSet 
{ creaseAngle 0.50 coordIndex [0,1,2,-1,3,1,0,-1,4,3,0,-1,5,2,1,-1,6,5,1,-1,7,5,6,-1,8,9,7,-1,8,7,6,-1]
coord Coordinate { point [-1.30905 0.43307 0.19685,-1.01378 0.66929 0.19685,-1.21063 0.43307 0.19685,-1.56496 0.66929 0.19685,-1.56496 0.43307 0.19685,-1.21063 -0.43307 0.19685,-1.01378 -0.66929 0.19685,-1.30905 -0.43307 0.19685,-1.56496 -0.66929 0.19685,-1.56496 -0.43307 0.19685]
}}
appearance Appearance{material USE PLASTIC-BLUE-01 }}
Shape { geometry IndexedFaceSet 
{ creaseAngle 0.50 coordIndex [0,1,2,-1,3,4,1,-1,4,5,1,-1,5,2,1,-1]
coord Coordinate { point [-1.30905 0.43307 0.19685,-1.30905 0.43307 1.5748,-1.56496 0.43307 0.19685,-1.21063 0.43307 1.5748,-1.21063 0.43307 2.59842,-1.56496 0.43307 2.59842]
}}
appearance Appearance{material USE PLASTIC-BLUE-01 }}
Shape { geometry IndexedFaceSet 
{ creaseAngle 0.50 coordIndex [0,1,2,-1,3,1,0,-1]
coord Coordinate { point [-0.90551 -0.216535 0.688975,0.90551 -0.70866 0.688975,0.90551 -0.216535 0.688975,-0.90551 -0.70866 0.688975]
}}
appearance Appearance{material USE PLASTIC-BLUE-01 }}
Shape { geometry IndexedFaceSet 
{ creaseAngle 0.50 coordIndex [0,1,2,-1,2,1,3,-1]
coord Coordinate { point [-0.90551 0.019685 0.925195,-0.90551 -0.216535 0.688975,0.90551 0.019685 0.925195,0.90551 -0.216535 0.688975]
}}
appearance Appearance{material USE PLASTIC-BLUE-01 }}
Shape { geometry IndexedFaceSet 
{ creaseAngle 0.50 coordIndex [0,1,2,-1,1,3,2,-1,1,4,3,-1,0,5,1,-1,4,6,3,-1,4,7,6,-1,7,8,6,-1,9,10,4,-1,4,10,7,-1,8,11,6,-1,12,13,8,-1,8,13,11,-1,0,13,12,-1,0,12,10,-1,0,10,9,-1,0,9,5,-1]
coord Coordinate { point [-0.90551 0.019685 0.925195,-0.492125 0.334645 0.925195,-0.90551 0.66929 0.925195,-0.127953 0.66929 0.925195,-0.295275 0.334645 0.925195,-0.492125 0.137795 0.925195,0.127952 0.66929 0.925195,0.295275 0.334645 0.925195,0.492125 0.334645 0.925195,-0.295275 0.137795 0.925195,0.295275 0.137795 0.925195,0.90551 0.66929 0.925195,0.492125 0.137795 0.925195,0.90551 0.019685 0.925195]
}}
appearance Appearance{material USE PLASTIC-BLUE-01 }}
Shape { geometry IndexedFaceSet 
{ creaseAngle 0.50 coordIndex [0,1,2,-1,2,1,3,-1]
coord Coordinate { point [-0.127953 0.66929 0.925195,0.127952 0.66929 0.925195,-0.127953 0.66929 0.688975,0.127952 0.66929 0.688975]
}}
appearance Appearance{material USE PLASTIC-BLUE-01 }}
Shape { geometry IndexedFaceSet 
{ creaseAngle 0.50 coordIndex [0,1,2,-1,2,1,3,-1]
coord Coordinate { point [-0.90551 0.66929 2.59842,-0.90551 0.66929 0.925195,-0.127953 0.66929 2.59842,-0.127953 0.66929 0.925195]
}}
appearance Appearance{material USE PLASTIC-BLUE-01 }}
Shape { geometry IndexedFaceSet 
{ creaseAngle 0.50 coordIndex [0,1,2,-1,2,1,3,-1]
coord Coordinate { point [-0.90551 0.334645 2.59842,-1.21063 0.334645 2.59842,-0.90551 0.334645 1.85039,-1.21063 0.334645 1.85039]
}}
appearance Appearance{material USE PLASTIC-BLUE-01 }}
Shape { geometry IndexedFaceSet 
{ creaseAngle 0.50 coordIndex [0,1,2,-1,2,1,3,-1]
coord Coordinate { point [-1.21063 0.019685 1.85039,-0.90551 0.019685 1.85039,-1.21063 0.334645 1.85039,-0.90551 0.334645 1.85039]
}}
appearance Appearance{material USE PLASTIC-BLUE-01 }}
Shape { geometry IndexedFaceSet 
{ creaseAngle 0.50 coordIndex [0,1,2,-1,2,1,3,-1]
coord Coordinate { point [-1.30905 -0.43307 1.5748,-1.21063 -0.43307 1.5748,-1.30905 0.43307 1.5748,-1.21063 0.43307 1.5748]
}}
appearance Appearance{material USE PIN-01 }}
Shape { geometry IndexedFaceSet 
{ creaseAngle 0.50 coordIndex [0,1,2,-1,2,1,3,-1,4,5,0,-1,0,5,1,-1]
coord Coordinate { point [-1.30905 -0.43307 0.19685,-1.30905 0.43307 0.19685,-1.30905 -0.43307 0.098425,-1.30905 0.43307 0.098425,-1.30905 -0.43307 1.5748,-1.30905 0.43307 1.5748]
}}
appearance Appearance{material USE PIN-01 }}
Shape { geometry IndexedFaceSet 
{ creaseAngle 0.50 coordIndex [0,1,2,-1,3,1,0,-1]
coord Coordinate { point [-1.21063 0.43307 1.00969e-14,-1.21063 -0.43307 0.19685,-1.21063 -0.43307 1.02717e-14,-1.21063 0.43307 0.19685]
}}
appearance Appearance{material USE PIN-01 }}
Shape { geometry IndexedFaceSet 
{ creaseAngle 0.50 coordIndex [0,1,2,-1,1,3,2,-1,4,5,1,-1,1,5,3,-1]
coord Coordinate { point [-1.54527 0.43307 0.098425,-1.30905 0.43307 0.098425,-1.54527 0.43307 1.00969e-14,-1.21063 0.43307 1.00969e-14,-1.30905 0.43307 0.19685,-1.21063 0.43307 0.19685]
}}
appearance Appearance{material USE PIN-01 }}
Shape { geometry IndexedFaceSet 
{ creaseAngle 0.50 coordIndex [0,1,2,-1,0,3,1,-1,1,4,2,-1,1,5,4,-1]
coord Coordinate { point [-1.21063 -0.43307 0.19685,-1.30905 -0.43307 0.098425,-1.21063 -0.43307 1.02717e-14,-1.30905 -0.43307 0.19685,-1.54527 -0.43307 1.02717e-14,-1.54527 -0.43307 0.098425]
}}
appearance Appearance{material USE PIN-01 }}
Shape { geometry IndexedFaceSet 
{ creaseAngle 0.50 coordIndex [0,1,2,-1,0,3,1,-1]
coord Coordinate { point [0.492125 0.334645 2.22441,0.492125 0.137795 0.925195,0.492125 0.334645 0.925195,0.492125 0.137795 2.22441]
}}
appearance Appearance{material USE PIN-01 }}
Shape { geometry IndexedFaceSet 
{ creaseAngle 0.50 coordIndex [0,1,2,-1,0,3,1,-1]
coord Coordinate { point [-0.295275 0.334645 2.22441,-0.295275 0.137795 0.925195,-0.295275 0.334645 0.925195,-0.295275 0.137795 2.22441]
}}
appearance Appearance{material USE PIN-01 }}
Shape { geometry IndexedFaceSet 
{ creaseAngle 0.50 coordIndex [0,1,2,-1,0,3,1,-1]
coord Coordinate { point [0.295275 0.137795 2.22441,0.295275 0.334645 0.925195,0.295275 0.137795 0.925195,0.295275 0.334645 2.22441]
}}
appearance Appearance{material USE PIN-01 }}
Shape { geometry IndexedFaceSet 
{ creaseAngle 0.50 coordIndex [0,1,2,-1,0,2,3,-1]
coord Coordinate { point [-0.492125 0.137795 2.22441,-0.492125 0.137795 0.925195,-0.295275 0.137795 0.925195,-0.295275 0.137795 2.22441]
}}
appearance Appearance{material USE PIN-01 }}
Shape { geometry IndexedFaceSet 
{ creaseAngle 0.50 coordIndex [0,1,2,-1,0,3,1,-1]
coord Coordinate { point [0.295275 0.334645 2.22441,0.492125 0.334645 0.925195,0.295275 0.334645 0.925195,0.492125 0.334645 2.22441]
}}
appearance Appearance{material USE PIN-01 }}
Shape { geometry IndexedFaceSet 
{ creaseAngle 0.50 coordIndex [0,1,2,-1,0,3,1,-1]
coord Coordinate { point [-0.492125 0.334645 2.22441,-0.295275 0.334645 0.925195,-0.492125 0.334645 0.925195,-0.295275 0.334645 2.22441]
}}
appearance Appearance{material USE PIN-01 }}
Shape { geometry IndexedFaceSet 
{ creaseAngle 0.50 coordIndex [0,1,2,-1,0,3,1,-1]
coord Coordinate { point [-0.492125 0.137795 2.22441,-0.492125 0.334645 0.925195,-0.492125 0.137795 0.925195,-0.492125 0.334645 2.22441]
}}
appearance Appearance{material USE PIN-01 }}
Shape { geometry IndexedFaceSet 
{ creaseAngle 0.50 coordIndex [0,1,2,-1,0,2,3,-1]
coord Coordinate { point [0.295275 0.137795 2.22441,0.295275 0.137795 0.925195,0.492125 0.137795 0.925195,0.492125 0.137795 2.22441]
}}
appearance Appearance{material USE PIN-01 }}
Shape { geometry IndexedFaceSet 
{ creaseAngle 0.50 coordIndex [0,1,2,-1,1,3,2,-1]
coord Coordinate { point [-1.54527 0.43307 0.098425,-1.54527 -0.43307 0.098425,-1.30905 0.43307 0.098425,-1.30905 -0.43307 0.098425]
}}
appearance Appearance{material USE PIN-01 }}
Shape { geometry IndexedFaceSet 
{ creaseAngle 0.50 coordIndex [0,1,2,-1,3,1,0,-1]
coord Coordinate { point [-1.21063 0.43307 1.00969e-14,-1.54527 -0.43307 1.02717e-14,-1.54527 0.43307 1.00969e-14,-1.21063 -0.43307 1.02717e-14]
}}
appearance Appearance{material USE PIN-01 }}
Shape { geometry IndexedFaceSet 
{ creaseAngle 0.50 coordIndex [0,1,2,-1,2,1,3,-1]
coord Coordinate { point [-1.54527 -0.43307 0.098425,-1.54527 0.43307 0.098425,-1.54527 -0.43307 1.02717e-14,-1.54527 0.43307 1.00969e-14]
}}
appearance Appearance{material USE PIN-01 }}
Shape { geometry IndexedFaceSet 
{ creaseAngle 0.50 coordIndex [0,1,2,-1,0,2,3,-1]
coord Coordinate { point [0.295275 0.137795 2.22441,0.492125 0.137795 2.22441,0.492125 0.334645 2.22441,0.295275 0.334645 2.22441]
}}
appearance Appearance{material USE PIN-01 }}
Shape { geometry IndexedFaceSet 
{ creaseAngle 0.50 coordIndex [0,1,2,-1,0,2,3,-1]
coord Coordinate { point [-0.492125 0.137795 2.22441,-0.295275 0.137795 2.22441,-0.295275 0.334645 2.22441,-0.492125 0.334645 2.22441]
}}
appearance Appearance{material USE PIN-01 }}
