(footprint "Bourns-PEC11R-N"
	(version 20240108)
	(generator "pcbnew")
	(generator_version "8.0")
	(layer "F.Cu")
	(descr "12mm Incremental Encoder, without Switch")
	(property "Reference" "PEC11R-N"
		(at 0 0 0)
		(layer "F.Fab")
		(hide yes)
		(uuid "245b5bb0-5f90-482f-b947-fe7a9cc5ac28")
		(effects
			(font
				(size 1.2 1.2)
				(thickness 0.12)
			)
		)
	)
	(property "Value" "PEC11R-N"
		(at 0 0 0)
		(layer "F.Fab")
		(uuid "c75f8ddf-6338-48f6-a0ce-c6024510ab8e")
		(effects
			(font
				(size 1.2 1.2)
				(thickness 0.12)
			)
		)
	)
	(property "Footprint" ""
		(at 0 0 0)
		(layer "F.Fab")
		(hide yes)
		(uuid "e86aa410-e29c-477a-816a-e3a9feae585b")
		(effects
			(font
				(size 1.27 1.27)
				(thickness 0.15)
			)
		)
	)
	(property "Datasheet" ""
		(at 0 0 0)
		(layer "F.Fab")
		(hide yes)
		(uuid "3fa45a70-c816-48ab-8bb6-f8c0fc5e2cd4")
		(effects
			(font
				(size 1.27 1.27)
				(thickness 0.15)
			)
		)
	)
	(property "Description" ""
		(at 0 0 0)
		(layer "F.Fab")
		(hide yes)
		(uuid "c8a0c945-2f9f-4273-a70f-85f2484573ed")
		(effects
			(font
				(size 1.27 1.27)
				(thickness 0.15)
			)
		)
	)
	(attr through_hole)
	(fp_line
		(start -6.25 -2.55)
		(end -6.25 -6.7)
		(stroke
			(width 0.12)
			(type solid)
		)
		(layer "F.SilkS")
		(uuid "0e1e4e62-6173-4dae-95e9-ddceb31f36ca")
	)
	(fp_line
		(start -6.25 2.55)
		(end -6.25 6.7)
		(stroke
			(width 0.12)
			(type solid)
		)
		(layer "F.SilkS")
		(uuid "1aa38837-7370-4356-9c96-8053dd459c00")
	)
	(fp_line
		(start -6.25 6.7)
		(end -2.8 6.7)
		(stroke
			(width 0.12)
			(type solid)
		)
		(layer "F.SilkS")
		(uuid "a5d8e981-047e-4a54-9a76-3332cd616f03")
	)
	(fp_line
		(start -2.2 6.7)
		(end -0.3 6.7)
		(stroke
			(width 0.12)
			(type solid)
		)
		(layer "F.SilkS")
		(uuid "fccbd8e4-f402-403b-8b38-eedaf0270d61")
	)
	(fp_line
		(start 0.3 6.7)
		(end 2.2 6.7)
		(stroke
			(width 0.12)
			(type solid)
		)
		(layer "F.SilkS")
		(uuid "6fbf2ba8-b5e7-408c-8f5c-af697fcb7681")
	)
	(fp_line
		(start 6.25 -6.7)
		(end -6.25 -6.7)
		(stroke
			(width 0.12)
			(type solid)
		)
		(layer "F.SilkS")
		(uuid "f8ad6bb1-0daa-4635-86ff-02a58e18c23f")
	)
	(fp_line
		(start 6.25 -6.7)
		(end 6.25 -2.55)
		(stroke
			(width 0.12)
			(type solid)
		)
		(layer "F.SilkS")
		(uuid "36bb5a2b-9879-4213-8025-10c892108049")
	)
	(fp_line
		(start 6.25 2.55)
		(end 6.25 6.7)
		(stroke
			(width 0.12)
			(type solid)
		)
		(layer "F.SilkS")
		(uuid "28be7aa3-4514-4b69-b3e3-5f0185fc4e67")
	)
	(fp_line
		(start 6.25 6.7)
		(end 2.8 6.7)
		(stroke
			(width 0.12)
			(type solid)
		)
		(layer "F.SilkS")
		(uuid "e27761d5-7266-4f06-b22f-502c29532b3d")
	)
	(fp_circle
		(center 0 0)
		(end 3.75 0)
		(stroke
			(width 0.1)
			(type solid)
		)
		(fill none)
		(layer "Dwgs.User")
		(uuid "53fa9226-cac3-42dd-963a-cb511571bec0")
	)
	(fp_line
		(start -8.25 -2.45)
		(end -8.25 2.45)
		(stroke
			(width 0.01)
			(type default)
		)
		(layer "F.CrtYd")
		(uuid "51b3a342-c56e-4ffd-aa49-d2534d3bc1db")
	)
	(fp_line
		(start -8.25 2.45)
		(end -7.1 2.45)
		(stroke
			(width 0.01)
			(type default)
		)
		(layer "F.CrtYd")
		(uuid "8af86b29-1f04-4327-83b3-43650c0a064e")
	)
	(fp_line
		(start -7.1 2.45)
		(end -7.1 7.2)
		(stroke
			(width 0.01)
			(type default)
		)
		(layer "F.CrtYd")
		(uuid "93d73239-ddf1-4a26-8f93-4e3bc1b44314")
	)
	(fp_line
		(start -7.1 7.2)
		(end -3.45 7.2)
		(stroke
			(width 0.01)
			(type default)
		)
		(layer "F.CrtYd")
		(uuid "1e9dd244-13bd-47eb-89ff-fa2360b6fabb")
	)
	(fp_line
		(start -6.75 -7.2)
		(end -6.75 -2.45)
		(stroke
			(width 0.01)
			(type default)
		)
		(layer "F.CrtYd")
		(uuid "bb1b28da-9de6-404d-9250-aea9dbe8d846")
	)
	(fp_line
		(start -6.75 -2.45)
		(end -8.25 -2.45)
		(stroke
			(width 0.01)
			(type default)
		)
		(layer "F.CrtYd")
		(uuid "7a7e3930-c023-49de-a353-4059f98bc8ac")
	)
	(fp_line
		(start -3.45 7.2)
		(end -3.45 8.45)
		(stroke
			(width 0.01)
			(type default)
		)
		(layer "F.CrtYd")
		(uuid "b3b50bf2-3813-4ec7-951d-d3a56b4eb71a")
	)
	(fp_line
		(start -3.45 8.45)
		(end 3.45 8.45)
		(stroke
			(width 0.01)
			(type default)
		)
		(layer "F.CrtYd")
		(uuid "70311150-454c-4c55-a2f7-90662c793545")
	)
	(fp_line
		(start 3.45 7.2)
		(end 6.75 7.2)
		(stroke
			(width 0.01)
			(type default)
		)
		(layer "F.CrtYd")
		(uuid "68eac809-fb45-4146-a3b1-275642f4ea3b")
	)
	(fp_line
		(start 3.45 8.45)
		(end 3.45 7.2)
		(stroke
			(width 0.01)
			(type default)
		)
		(layer "F.CrtYd")
		(uuid "26031361-2156-40ff-8257-6baea62f5295")
	)
	(fp_line
		(start 6.75 -7.2)
		(end -6.75 -7.2)
		(stroke
			(width 0.01)
			(type default)
		)
		(layer "F.CrtYd")
		(uuid "00af700a-61a7-43a7-ada3-1e9d2cf894ab")
	)
	(fp_line
		(start 6.75 -2.45)
		(end 6.75 -7.2)
		(stroke
			(width 0.01)
			(type default)
		)
		(layer "F.CrtYd")
		(uuid "df134d6a-9944-44ca-a084-3f7a441419c0")
	)
	(fp_line
		(start 6.75 2.45)
		(end 8.25 2.45)
		(stroke
			(width 0.01)
			(type default)
		)
		(layer "F.CrtYd")
		(uuid "bb491dfc-6964-44bc-841e-6a9fd3887b76")
	)
	(fp_line
		(start 6.75 7.2)
		(end 6.75 2.45)
		(stroke
			(width 0.01)
			(type default)
		)
		(layer "F.CrtYd")
		(uuid "b0844ea7-987d-4a41-acd7-deab4638907b")
	)
	(fp_line
		(start 8.25 -2.45)
		(end 6.75 -2.45)
		(stroke
			(width 0.01)
			(type default)
		)
		(layer "F.CrtYd")
		(uuid "174fb99c-2e1e-4409-8f82-877635850d72")
	)
	(fp_line
		(start 8.25 2.45)
		(end 8.25 -2.45)
		(stroke
			(width 0.01)
			(type default)
		)
		(layer "F.CrtYd")
		(uuid "c12c73b9-de93-40a3-94d5-ccb5db3464ae")
	)
	(fp_rect
		(start -6.25 -6.7)
		(end 6.25 6.7)
		(stroke
			(width 0.1)
			(type solid)
		)
		(fill none)
		(layer "F.Fab")
		(uuid "9a640d83-586d-4d2b-bf56-54e523bedd99")
	)
	(fp_text user "${REFERENCE}"
		(at 0 -7.35 0)
		(layer "F.SilkS")
		(uuid "40819587-d425-45ed-9a13-d13f1564555b")
		(effects
			(font
				(size 0.8 0.8)
				(thickness 0.15)
				(bold yes)
			)
		)
	)
	(pad "A" thru_hole circle
		(at -2.5 7.5)
		(size 1.4 1.4)
		(drill 1)
		(layers "*.Cu" "*.Mask")
		(remove_unused_layers no)
		(uuid "e593974a-e49b-41f8-ae63-5c5dbe709db8")
	)
	(pad "B" thru_hole circle
		(at 2.5 7.5)
		(size 1.4 1.4)
		(drill 1)
		(layers "*.Cu" "*.Mask")
		(remove_unused_layers no)
		(uuid "64a270e6-7747-4987-971e-8fba539596f5")
	)
	(pad "C" thru_hole circle
		(at 0 7.5)
		(size 1.4 1.4)
		(drill 1)
		(layers "*.Cu" "*.Mask")
		(remove_unused_layers no)
		(uuid "e27c6e3f-bd66-4668-b8dc-d0241e5c2cb9")
	)
	(pad "G" thru_hole oval
		(at -6.6 0)
		(size 2.9 4.5)
		(drill oval 1.9 3.5)
		(layers "*.Cu" "*.Mask")
		(remove_unused_layers no)
		(uuid "77b05a51-f927-4674-9559-14452e0ea24a")
	)
	(pad "G" thru_hole oval
		(at 6.6 0)
		(size 2.9 4.5)
		(drill oval 1.9 3.5)
		(layers "*.Cu" "*.Mask")
		(remove_unused_layers no)
		(uuid "11e63a03-6fa9-4ec4-a7d5-29e8e0c5472d")
	)
)
