(footprint "Eswitch-TL1105"
	(version 20240108)
	(generator "pcbnew")
	(generator_version "8.0")
	(layer "F.Cu")
	(descr "6×6mm Tactile Pushbutton")
	(property "Reference" "TL1105"
		(at 0 0 0)
		(layer "F.Fab")
		(uuid "3f6f40c0-1d3b-4ec5-aaef-bb80c4fad0ef")
		(effects
			(font
				(size 1.2 1.2)
				(thickness 0.12)
			)
		)
	)
	(property "Value" "TL1105"
		(at 0 0 0)
		(layer "F.Fab")
		(hide yes)
		(uuid "22f485bc-a2fb-4d97-872c-6395f5488166")
		(effects
			(font
				(size 1.2 1.2)
				(thickness 0.12)
			)
		)
	)
	(property "Footprint" ""
		(at 0 0 0)
		(layer "F.Fab")
		(hide yes)
		(uuid "05b97851-23b9-46b3-ba8d-542c58921d27")
		(effects
			(font
				(size 1.27 1.27)
				(thickness 0.15)
			)
		)
	)
	(property "Datasheet" ""
		(at 0 0 0)
		(layer "F.Fab")
		(hide yes)
		(uuid "a811d117-7382-468b-8c7e-bb01d83b5dcf")
		(effects
			(font
				(size 1.27 1.27)
				(thickness 0.15)
			)
		)
	)
	(property "Description" ""
		(at 0 0 0)
		(layer "F.Fab")
		(hide yes)
		(uuid "6e40c2f3-c9b3-4558-a682-0073500ef50b")
		(effects
			(font
				(size 1.27 1.27)
				(thickness 0.15)
			)
		)
	)
	(attr through_hole)
	(fp_line
		(start -3 1.25)
		(end -3 -1.25)
		(stroke
			(width 0.12)
			(type solid)
		)
		(layer "F.SilkS")
		(uuid "c42e3a23-0810-4643-baa4-09fe2ec9f35d")
	)
	(fp_line
		(start -2.25 -3)
		(end 2.25 -3)
		(stroke
			(width 0.12)
			(type solid)
		)
		(layer "F.SilkS")
		(uuid "7daf4e26-ab87-4420-81cd-3f9d8b4d59f6")
	)
	(fp_line
		(start 2.5 3)
		(end -2.5 3)
		(stroke
			(width 0.12)
			(type solid)
		)
		(layer "F.SilkS")
		(uuid "96f47a0c-f65a-4b8b-b1bd-06e69905eb7a")
	)
	(fp_line
		(start 3 -1.2)
		(end 3 1.2)
		(stroke
			(width 0.12)
			(type solid)
		)
		(layer "F.SilkS")
		(uuid "4328f673-115f-4a3b-8393-c467bf9968cb")
	)
	(fp_circle
		(center 0 0)
		(end 1.75 0)
		(stroke
			(width 0.1)
			(type solid)
		)
		(fill none)
		(layer "Dwgs.User")
		(uuid "a68be751-8411-49bc-8581-252902e3c5f6")
	)
	(fp_rect
		(start -4.2 -3.5)
		(end 4.2 3.5)
		(stroke
			(width 0.01)
			(type solid)
		)
		(fill none)
		(layer "F.CrtYd")
		(uuid "c04fdede-440b-4fa2-92bd-c1e475f8842e")
	)
	(fp_line
		(start -3 2.5)
		(end -3 -2.5)
		(stroke
			(width 0.1)
			(type solid)
		)
		(layer "F.Fab")
		(uuid "ccedfda6-73bd-4e17-b1dd-b95567deeea1")
	)
	(fp_line
		(start -2.5 -3)
		(end 2.5 -3)
		(stroke
			(width 0.1)
			(type solid)
		)
		(layer "F.Fab")
		(uuid "a2858068-d546-4698-9eec-ff1e68e9c55b")
	)
	(fp_line
		(start 2.5 3)
		(end -2.5 3)
		(stroke
			(width 0.1)
			(type solid)
		)
		(layer "F.Fab")
		(uuid "7f0cf05b-58fb-47ef-97de-21eee60e0a88")
	)
	(fp_line
		(start 3 -2.5)
		(end 3 2.5)
		(stroke
			(width 0.1)
			(type solid)
		)
		(layer "F.Fab")
		(uuid "a71caa13-4c0a-44a4-b799-33554167a5f7")
	)
	(fp_arc
		(start -3 -2.5)
		(mid -2.853553 -2.853553)
		(end -2.5 -3)
		(stroke
			(width 0.1)
			(type solid)
		)
		(layer "F.Fab")
		(uuid "d062d1bd-0e8d-441c-81c6-0cbbb9c08f56")
	)
	(fp_arc
		(start -2.5 3)
		(mid -2.853553 2.853553)
		(end -3 2.5)
		(stroke
			(width 0.1)
			(type solid)
		)
		(layer "F.Fab")
		(uuid "06a09f2e-f5dc-4a23-8ac3-5ae7817f7ee3")
	)
	(fp_arc
		(start 2.5 -3)
		(mid 2.853553 -2.853553)
		(end 3 -2.5)
		(stroke
			(width 0.1)
			(type solid)
		)
		(layer "F.Fab")
		(uuid "4a04cd08-599c-4771-a975-c00ebd46eeee")
	)
	(fp_arc
		(start 3 2.5)
		(mid 2.853553 2.853553)
		(end 2.5 3)
		(stroke
			(width 0.1)
			(type solid)
		)
		(layer "F.Fab")
		(uuid "70c1deb6-c9ba-49cf-9904-a7e63ccd890b")
	)
	(fp_circle
		(center 0 0)
		(end 1.75 0)
		(stroke
			(width 0.1)
			(type solid)
		)
		(fill none)
		(layer "F.Fab")
		(uuid "4ea2a22c-32da-4102-a69f-a1d1a44d80a7")
	)
	(fp_text user "${REFERENCE}"
		(at 0 -3.65 0)
		(layer "F.SilkS")
		(uuid "ff45e803-5a07-4fd8-a820-7182fc83ad64")
		(effects
			(font
				(size 0.8 0.8)
				(thickness 0.15)
				(bold yes)
			)
		)
	)
	(pad "13A" thru_hole circle
		(at -3.25 -2.25)
		(size 1.5 1.5)
		(drill 1)
		(layers "*.Cu" "*.Mask")
		(remove_unused_layers no)
		(uuid "d12feacb-e647-4011-87ea-7ff4261a1aea")
	)
	(pad "13B" thru_hole circle
		(at 3.25 -2.25)
		(size 1.5 1.5)
		(drill 1)
		(layers "*.Cu" "*.Mask")
		(remove_unused_layers no)
		(uuid "dd23ff9e-c59c-44e6-81f7-28ffa11f2cb7")
	)
	(pad "14A" thru_hole circle
		(at -3.25 2.25)
		(size 1.5 1.5)
		(drill 1)
		(layers "*.Cu" "*.Mask")
		(remove_unused_layers no)
		(uuid "1f502989-44f0-481c-8ee3-ddf30e13a3bb")
	)
	(pad "14B" thru_hole circle
		(at 3.25 2.25)
		(size 1.5 1.5)
		(drill 1)
		(layers "*.Cu" "*.Mask")
		(remove_unused_layers no)
		(uuid "ae363ba5-d85d-4452-8762-b501999b8de3")
	)
	(model "${KISYS3DMOD}/Eswitch/TL1105L.wrl"
		(offset
			(xyz 0 0 0)
		)
		(scale
			(xyz 1 1 1)
		)
		(rotate
			(xyz 0 0 0)
		)
	)
)
