(module "Mentor-2271-1009" (layer "F.Cu") (tedit 5FB23050)
  (descr "15×15mm Pushbutton Cap with Full Illumination")
  (attr through_hole)
  (fp_text reference "2271-1009" (at 0 0) (layer "F.Fab")
    (effects (font (size 1.2 1.2) (thickness 0.12)))
    (tstamp d30ba7f8-9ec7-4a3c-81b2-ce47ec161cbf)
  )
  (fp_text value "2271-1009" (at 0 0) (layer "F.Fab") hide
    (effects (font (size 1.2 1.2) (thickness 0.12)))
    (tstamp 75c48377-f56d-4246-ad28-be1666e6a2aa)
  )
  (fp_line (start 8 -8) (end 8 8) (layer "Dwgs.User") (width 0.12) (tstamp 24c0e7f6-4bf5-4160-9e0c-cf70b11ca200))
  (fp_line (start 8 8) (end -8 8) (layer "Dwgs.User") (width 0.12) (tstamp 255176bb-f39c-45e1-8ab7-3a8a889d5c6a))
  (fp_line (start -8 -8) (end 8 -8) (layer "Dwgs.User") (width 0.12) (tstamp f3798062-8b15-4625-994b-23892f7eedb0))
  (fp_line (start -8 8) (end -8 -8) (layer "Dwgs.User") (width 0.12) (tstamp f4a5cf8e-88d4-464f-937f-babcf5ca3d97))
  (fp_line (start -7.5 6.5) (end -7.5 -6.5) (layer "F.Fab") (width 0.12) (tstamp 298eae0c-45fc-4064-95f3-9021e925ba9e))
  (fp_line (start -5.15 3.95) (end -2.75 3.95) (layer "F.Fab") (width 0.12) (tstamp 2a8ab695-838e-489c-9eb7-a9382810e038))
  (fp_line (start -6.5 -7.5) (end 6.5 -7.5) (layer "F.Fab") (width 0.12) (tstamp 9f107d7e-bf7e-4bd1-9649-32b0e2180bb8))
  (fp_line (start 6.5 7.5) (end -6.5 7.5) (layer "F.Fab") (width 0.12) (tstamp b7fe62a5-fb4f-4582-92a5-d005e6f2052e))
  (fp_line (start 3.95 -5.15) (end 3.95 -2.75) (layer "F.Fab") (width 0.12) (tstamp bbb42364-d3a4-460f-afe8-53e8017aa6ae))
  (fp_line (start 5.15 -3.95) (end 2.75 -3.95) (layer "F.Fab") (width 0.12) (tstamp cf722432-8100-450a-bfc8-8fcebee34c04))
  (fp_line (start 7.5 -6.5) (end 7.5 6.5) (layer "F.Fab") (width 0.12) (tstamp de6915ca-b0ad-4938-a0c8-f466702b251f))
  (fp_line (start -3.95 2.75) (end -3.95 5.15) (layer "F.Fab") (width 0.12) (tstamp f7788b60-29b2-4d5e-9ca8-0f9c49fb49e3))
  (fp_arc (start 6.5 6.5) (end 6.5 7.5) (angle -90) (layer "F.Fab") (width 0.12) (tstamp 52bc4b80-109e-4769-8502-1fed3ca11039))
  (fp_arc (start 6.5 -6.5) (end 7.5 -6.5) (angle -90) (layer "F.Fab") (width 0.12) (tstamp 5e6a18f4-d7e4-48da-9bd1-356aa241b72e))
  (fp_arc (start -6.5 -6.5) (end -6.5 -7.5) (angle -90) (layer "F.Fab") (width 0.12) (tstamp b580f09f-fee3-421c-ad21-86c38fa6c3e0))
  (fp_arc (start -6.5 6.5) (end -7.5 6.5) (angle -90) (layer "F.Fab") (width 0.12) (tstamp bf5eb333-8f9c-4d62-8ee9-8f6640d2e53b))
  (model "${KISYS3DMOD}/Mentor/Mentor-2271-1013.wrl"
    (offset (xyz 0 0 0))
    (scale (xyz 1 1 1))
    (rotate (xyz 0 0 0))
  )
)
