(footprint "Omron-B3F-107x"
	(version 20240108)
	(generator "pcbnew")
	(generator_version "8.0")
	(layer "F.Cu")
	(descr "6×6mm Tactile Switch")
	(property "Reference" "B3F-107x"
		(at 0 0 0)
		(layer "F.Fab")
		(uuid "5aab364e-fed1-44e8-88ad-dd9cc6de930f")
		(effects
			(font
				(size 0.7 0.7)
				(thickness 0.07)
			)
		)
	)
	(property "Value" "B3F-107x"
		(at 0 0 0)
		(layer "F.Fab")
		(hide yes)
		(uuid "cb8f5f25-fdc4-4874-99d3-8da6a9c37144")
		(effects
			(font
				(size 0.7 0.7)
				(thickness 0.07)
			)
		)
	)
	(property "Footprint" ""
		(at 0 0 0)
		(layer "F.Fab")
		(hide yes)
		(uuid "c46ad5b2-279f-4bf3-91fa-127eb17f9039")
		(effects
			(font
				(size 1.27 1.27)
				(thickness 0.15)
			)
		)
	)
	(property "Datasheet" ""
		(at 0 0 0)
		(layer "F.Fab")
		(hide yes)
		(uuid "70aa7223-9605-4b9b-a10c-fe6b7cb05be3")
		(effects
			(font
				(size 1.27 1.27)
				(thickness 0.15)
			)
		)
	)
	(property "Description" ""
		(at 0 0 0)
		(layer "F.Fab")
		(hide yes)
		(uuid "bd9d2f81-2d17-4ac8-b569-139ebe5accdc")
		(effects
			(font
				(size 1.27 1.27)
				(thickness 0.15)
			)
		)
	)
	(attr through_hole)
	(fp_line
		(start -3.1 -3.4)
		(end 3.1 -3.4)
		(stroke
			(width 0.12)
			(type solid)
		)
		(layer "F.SilkS")
		(uuid "90d4d1f7-f6ea-4cde-bc6d-ca2b0ddb3496")
	)
	(fp_line
		(start -3.1 1.2)
		(end -3.1 -1.2)
		(stroke
			(width 0.12)
			(type solid)
		)
		(layer "F.SilkS")
		(uuid "d575fd22-acc0-42c8-9bb0-cf51ff200414")
	)
	(fp_line
		(start 3.1 -1.2)
		(end 3.1 1.2)
		(stroke
			(width 0.12)
			(type solid)
		)
		(layer "F.SilkS")
		(uuid "3258075b-7262-4fe4-bedc-93d0a7f68f1e")
	)
	(fp_line
		(start 3.1 3.4)
		(end -3.1 3.4)
		(stroke
			(width 0.12)
			(type solid)
		)
		(layer "F.SilkS")
		(uuid "05077e5d-71ef-4c59-b23f-2e1bf7834d68")
	)
	(fp_circle
		(center 0 0)
		(end 1.75 0)
		(stroke
			(width 0.1)
			(type solid)
		)
		(fill none)
		(layer "Dwgs.User")
		(uuid "07c23a63-7d34-4087-844f-08b2210cd424")
	)
	(fp_rect
		(start -4.2 -3.9)
		(end 4.2 3.9)
		(stroke
			(width 0.01)
			(type solid)
		)
		(fill none)
		(layer "F.CrtYd")
		(uuid "2e5c2c74-b173-4d3f-9792-40cd026b7266")
	)
	(fp_rect
		(start -3.1 -3.4)
		(end 3.1 3.4)
		(stroke
			(width 0.1)
			(type solid)
		)
		(fill none)
		(layer "F.Fab")
		(uuid "958bf9f3-f046-4a0f-a2ab-23546bbad920")
	)
	(fp_text user "${REFERENCE}"
		(at 0 -4.05 0)
		(layer "F.SilkS")
		(uuid "2e4ebcd4-eb44-466e-a943-2c54081344ec")
		(effects
			(font
				(size 0.8 0.8)
				(thickness 0.15)
				(bold yes)
			)
		)
	)
	(pad "13A" thru_hole circle
		(at -3.25 -2.25)
		(size 1.5 1.5)
		(drill 1)
		(layers "*.Cu" "*.Mask")
		(remove_unused_layers no)
		(uuid "aa42d77b-9465-4fd7-b071-21b1cd4b6255")
	)
	(pad "13B" thru_hole circle
		(at 3.25 -2.25)
		(size 1.5 1.5)
		(drill 1)
		(layers "*.Cu" "*.Mask")
		(remove_unused_layers no)
		(uuid "56dea078-f768-4436-8cbf-bb3239cec410")
	)
	(pad "14A" thru_hole circle
		(at -3.25 2.25)
		(size 1.5 1.5)
		(drill 1)
		(layers "*.Cu" "*.Mask")
		(remove_unused_layers no)
		(uuid "ea23007b-b1dc-4aa5-9985-ff433f049922")
	)
	(pad "14B" thru_hole circle
		(at 3.25 2.25)
		(size 1.5 1.5)
		(drill 1)
		(layers "*.Cu" "*.Mask")
		(remove_unused_layers no)
		(uuid "c609dcb0-4a9c-4006-a793-bc04c83a1a15")
	)
	(model "${KISYS3DMOD}/Omron/B3F-107x.wrl"
		(offset
			(xyz 0 0 0)
		)
		(scale
			(xyz 1 1 1)
		)
		(rotate
			(xyz 0 0 0)
		)
	)
)
