ISO-10303-21;
HEADER;
FILE_DESCRIPTION(('FreeCAD Model'),'2;1');
FILE_NAME('Open CASCADE Shape Model','2022-02-15T12:29:51',(''),(''),
  'Open CASCADE STEP processor 7.5','FreeCAD','Unknown');
FILE_SCHEMA(('AUTOMOTIVE_DESIGN { 1 0 10303 214 1 1 1 1 }'));
ENDSEC;
DATA;
#1 = APPLICATION_PROTOCOL_DEFINITION('international standard',
  'automotive_design',2000,#2);
#2 = APPLICATION_CONTEXT(
  'core data for automotive mechanical design processes');
#3 = SHAPE_DEFINITION_REPRESENTATION(#4,#10);
#4 = PRODUCT_DEFINITION_SHAPE('','',#5);
#5 = PRODUCT_DEFINITION('design','',#6,#9);
#6 = PRODUCT_DEFINITION_FORMATION('','',#7);
#7 = PRODUCT('V-DFN3020-13A','V-DFN3020-13A','',(#8));
#8 = PRODUCT_CONTEXT('',#2,'mechanical');
#9 = PRODUCT_DEFINITION_CONTEXT('part definition',#2,'design');
#10 = SHAPE_REPRESENTATION('',(#11,#15,#19,#23,#27,#31,#35,#39,#43,#47,
    #51,#55),#59);
#11 = AXIS2_PLACEMENT_3D('',#12,#13,#14);
#12 = CARTESIAN_POINT('',(0.,0.,0.));
#13 = DIRECTION('',(0.,0.,1.));
#14 = DIRECTION('',(1.,0.,-0.));
#15 = AXIS2_PLACEMENT_3D('',#16,#17,#18);
#16 = CARTESIAN_POINT('',(0.,0.,0.));
#17 = DIRECTION('',(0.,0.,1.));
#18 = DIRECTION('',(1.,0.,0.));
#19 = AXIS2_PLACEMENT_3D('',#20,#21,#22);
#20 = CARTESIAN_POINT('',(0.,0.,0.));
#21 = DIRECTION('',(0.,0.,1.));
#22 = DIRECTION('',(1.,0.,0.));
#23 = AXIS2_PLACEMENT_3D('',#24,#25,#26);
#24 = CARTESIAN_POINT('',(0.,0.,0.));
#25 = DIRECTION('',(0.,0.,1.));
#26 = DIRECTION('',(1.,0.,0.));
#27 = AXIS2_PLACEMENT_3D('',#28,#29,#30);
#28 = CARTESIAN_POINT('',(0.,0.,0.));
#29 = DIRECTION('',(0.,0.,1.));
#30 = DIRECTION('',(1.,0.,0.));
#31 = AXIS2_PLACEMENT_3D('',#32,#33,#34);
#32 = CARTESIAN_POINT('',(0.,0.,0.));
#33 = DIRECTION('',(0.,0.,1.));
#34 = DIRECTION('',(1.,0.,0.));
#35 = AXIS2_PLACEMENT_3D('',#36,#37,#38);
#36 = CARTESIAN_POINT('',(0.45,0.,0.));
#37 = DIRECTION('',(0.,0.,1.));
#38 = DIRECTION('',(1.,0.,0.));
#39 = AXIS2_PLACEMENT_3D('',#40,#41,#42);
#40 = CARTESIAN_POINT('',(0.9,0.,0.));
#41 = DIRECTION('',(0.,0.,1.));
#42 = DIRECTION('',(1.,0.,0.));
#43 = AXIS2_PLACEMENT_3D('',#44,#45,#46);
#44 = CARTESIAN_POINT('',(0.,0.,0.));
#45 = DIRECTION('',(0.,0.,1.));
#46 = DIRECTION('',(1.,0.,0.));
#47 = AXIS2_PLACEMENT_3D('',#48,#49,#50);
#48 = CARTESIAN_POINT('',(0.,0.,0.));
#49 = DIRECTION('',(0.,0.,1.));
#50 = DIRECTION('',(1.,0.,0.));
#51 = AXIS2_PLACEMENT_3D('',#52,#53,#54);
#52 = CARTESIAN_POINT('',(0.45,0.,0.));
#53 = DIRECTION('',(0.,0.,1.));
#54 = DIRECTION('',(1.,0.,0.));
#55 = AXIS2_PLACEMENT_3D('',#56,#57,#58);
#56 = CARTESIAN_POINT('',(0.9,0.,0.));
#57 = DIRECTION('',(0.,0.,1.));
#58 = DIRECTION('',(1.,0.,0.));
#59 = ( GEOMETRIC_REPRESENTATION_CONTEXT(3) 
GLOBAL_UNCERTAINTY_ASSIGNED_CONTEXT((#63)) GLOBAL_UNIT_ASSIGNED_CONTEXT(
(#60,#61,#62)) REPRESENTATION_CONTEXT('Context #1',
  '3D Context with UNIT and UNCERTAINTY') );
#60 = ( LENGTH_UNIT() NAMED_UNIT(*) SI_UNIT(.MILLI.,.METRE.) );
#61 = ( NAMED_UNIT(*) PLANE_ANGLE_UNIT() SI_UNIT($,.RADIAN.) );
#62 = ( NAMED_UNIT(*) SI_UNIT($,.STERADIAN.) SOLID_ANGLE_UNIT() );
#63 = UNCERTAINTY_MEASURE_WITH_UNIT(LENGTH_MEASURE(1.E-07),#60,
  'distance_accuracy_value','confusion accuracy');
#64 = PRODUCT_RELATED_PRODUCT_CATEGORY('part',$,(#7));
#65 = ADVANCED_BREP_SHAPE_REPRESENTATION('',(#11,#66),#183);
#66 = MANIFOLD_SOLID_BREP('',#67);
#67 = CLOSED_SHELL('',(#68,#108,#139,#161,#172));
#68 = ADVANCED_FACE('',(#69),#103,.F.);
#69 = FACE_BOUND('',#70,.F.);
#70 = EDGE_LOOP('',(#71,#81,#89,#97));
#71 = ORIENTED_EDGE('',*,*,#72,.T.);
#72 = EDGE_CURVE('',#73,#75,#77,.T.);
#73 = VERTEX_POINT('',#74);
#74 = CARTESIAN_POINT('',(-0.945457086684,-0.945457086684,0.8));
#75 = VERTEX_POINT('',#76);
#76 = CARTESIAN_POINT('',(-0.945457086684,-0.945457086684,0.7));
#77 = LINE('',#78,#79);
#78 = CARTESIAN_POINT('',(-0.945457086684,-0.945457086684,0.8));
#79 = VECTOR('',#80,1.);
#80 = DIRECTION('',(0.,0.,-1.));
#81 = ORIENTED_EDGE('',*,*,#82,.T.);
#82 = EDGE_CURVE('',#75,#83,#85,.T.);
#83 = VERTEX_POINT('',#84);
#84 = CARTESIAN_POINT('',(-1.445457086684,-0.945457086684,0.7));
#85 = LINE('',#86,#87);
#86 = CARTESIAN_POINT('',(-0.945457086684,-0.945457086684,0.7));
#87 = VECTOR('',#88,1.);
#88 = DIRECTION('',(-1.,0.,0.));
#89 = ORIENTED_EDGE('',*,*,#90,.F.);
#90 = EDGE_CURVE('',#91,#83,#93,.T.);
#91 = VERTEX_POINT('',#92);
#92 = CARTESIAN_POINT('',(-1.445457086684,-0.945457086684,0.8));
#93 = LINE('',#94,#95);
#94 = CARTESIAN_POINT('',(-1.445457086684,-0.945457086684,0.8));
#95 = VECTOR('',#96,1.);
#96 = DIRECTION('',(0.,0.,-1.));
#97 = ORIENTED_EDGE('',*,*,#98,.F.);
#98 = EDGE_CURVE('',#73,#91,#99,.T.);
#99 = LINE('',#100,#101);
#100 = CARTESIAN_POINT('',(-0.945457086684,-0.945457086684,0.8));
#101 = VECTOR('',#102,1.);
#102 = DIRECTION('',(-1.,0.,0.));
#103 = PLANE('',#104);
#104 = AXIS2_PLACEMENT_3D('',#105,#106,#107);
#105 = CARTESIAN_POINT('',(-0.945457086684,-0.945457086684,0.8));
#106 = DIRECTION('',(0.,1.,0.));
#107 = DIRECTION('',(-1.,0.,0.));
#108 = ADVANCED_FACE('',(#109),#134,.F.);
#109 = FACE_BOUND('',#110,.F.);
#110 = EDGE_LOOP('',(#111,#112,#120,#128));
#111 = ORIENTED_EDGE('',*,*,#90,.T.);
#112 = ORIENTED_EDGE('',*,*,#113,.T.);
#113 = EDGE_CURVE('',#83,#114,#116,.T.);
#114 = VERTEX_POINT('',#115);
#115 = CARTESIAN_POINT('',(-1.445457086684,-0.445457086684,0.7));
#116 = LINE('',#117,#118);
#117 = CARTESIAN_POINT('',(-1.445457086684,-0.945457086684,0.7));
#118 = VECTOR('',#119,1.);
#119 = DIRECTION('',(0.,1.,0.));
#120 = ORIENTED_EDGE('',*,*,#121,.F.);
#121 = EDGE_CURVE('',#122,#114,#124,.T.);
#122 = VERTEX_POINT('',#123);
#123 = CARTESIAN_POINT('',(-1.445457086684,-0.445457086684,0.8));
#124 = LINE('',#125,#126);
#125 = CARTESIAN_POINT('',(-1.445457086684,-0.445457086684,0.8));
#126 = VECTOR('',#127,1.);
#127 = DIRECTION('',(0.,0.,-1.));
#128 = ORIENTED_EDGE('',*,*,#129,.F.);
#129 = EDGE_CURVE('',#91,#122,#130,.T.);
#130 = LINE('',#131,#132);
#131 = CARTESIAN_POINT('',(-1.445457086684,-0.945457086684,0.8));
#132 = VECTOR('',#133,1.);
#133 = DIRECTION('',(0.,1.,0.));
#134 = PLANE('',#135);
#135 = AXIS2_PLACEMENT_3D('',#136,#137,#138);
#136 = CARTESIAN_POINT('',(-1.445457086684,-0.945457086684,0.8));
#137 = DIRECTION('',(1.,0.,0.));
#138 = DIRECTION('',(0.,1.,0.));
#139 = ADVANCED_FACE('',(#140),#156,.F.);
#140 = FACE_BOUND('',#141,.F.);
#141 = EDGE_LOOP('',(#142,#143,#149,#150));
#142 = ORIENTED_EDGE('',*,*,#121,.T.);
#143 = ORIENTED_EDGE('',*,*,#144,.T.);
#144 = EDGE_CURVE('',#114,#75,#145,.T.);
#145 = LINE('',#146,#147);
#146 = CARTESIAN_POINT('',(-1.445457086684,-0.445457086684,0.7));
#147 = VECTOR('',#148,1.);
#148 = DIRECTION('',(0.707106781187,-0.707106781187,0.));
#149 = ORIENTED_EDGE('',*,*,#72,.F.);
#150 = ORIENTED_EDGE('',*,*,#151,.F.);
#151 = EDGE_CURVE('',#122,#73,#152,.T.);
#152 = LINE('',#153,#154);
#153 = CARTESIAN_POINT('',(-1.445457086684,-0.445457086684,0.8));
#154 = VECTOR('',#155,1.);
#155 = DIRECTION('',(0.707106781187,-0.707106781187,0.));
#156 = PLANE('',#157);
#157 = AXIS2_PLACEMENT_3D('',#158,#159,#160);
#158 = CARTESIAN_POINT('',(-1.445457086684,-0.445457086684,0.8));
#159 = DIRECTION('',(-0.707106781187,-0.707106781187,-0.));
#160 = DIRECTION('',(0.707106781187,-0.707106781187,0.));
#161 = ADVANCED_FACE('',(#162),#167,.F.);
#162 = FACE_BOUND('',#163,.F.);
#163 = EDGE_LOOP('',(#164,#165,#166));
#164 = ORIENTED_EDGE('',*,*,#98,.T.);
#165 = ORIENTED_EDGE('',*,*,#129,.T.);
#166 = ORIENTED_EDGE('',*,*,#151,.T.);
#167 = PLANE('',#168);
#168 = AXIS2_PLACEMENT_3D('',#169,#170,#171);
#169 = CARTESIAN_POINT('',(-1.268680391387,-0.768680391387,0.8));
#170 = DIRECTION('',(-0.,-0.,-1.));
#171 = DIRECTION('',(-1.,0.,0.));
#172 = ADVANCED_FACE('',(#173),#178,.T.);
#173 = FACE_BOUND('',#174,.T.);
#174 = EDGE_LOOP('',(#175,#176,#177));
#175 = ORIENTED_EDGE('',*,*,#82,.T.);
#176 = ORIENTED_EDGE('',*,*,#113,.T.);
#177 = ORIENTED_EDGE('',*,*,#144,.T.);
#178 = PLANE('',#179);
#179 = AXIS2_PLACEMENT_3D('',#180,#181,#182);
#180 = CARTESIAN_POINT('',(-1.268680391387,-0.768680391387,0.7));
#181 = DIRECTION('',(-0.,-0.,-1.));
#182 = DIRECTION('',(-1.,0.,0.));
#183 = ( GEOMETRIC_REPRESENTATION_CONTEXT(3) 
GLOBAL_UNCERTAINTY_ASSIGNED_CONTEXT((#187)) GLOBAL_UNIT_ASSIGNED_CONTEXT
((#184,#185,#186)) REPRESENTATION_CONTEXT('Context #1',
  '3D Context with UNIT and UNCERTAINTY') );
#184 = ( LENGTH_UNIT() NAMED_UNIT(*) SI_UNIT(.MILLI.,.METRE.) );
#185 = ( NAMED_UNIT(*) PLANE_ANGLE_UNIT() SI_UNIT($,.RADIAN.) );
#186 = ( NAMED_UNIT(*) SI_UNIT($,.STERADIAN.) SOLID_ANGLE_UNIT() );
#187 = UNCERTAINTY_MEASURE_WITH_UNIT(LENGTH_MEASURE(1.E-07),#184,
  'distance_accuracy_value','confusion accuracy');
#188 = SHAPE_DEFINITION_REPRESENTATION(#189,#65);
#189 = PRODUCT_DEFINITION_SHAPE('','',#190);
#190 = PRODUCT_DEFINITION('design','',#191,#194);
#191 = PRODUCT_DEFINITION_FORMATION('','',#192);
#192 = PRODUCT('Marking001','Marking001','',(#193));
#193 = PRODUCT_CONTEXT('',#2,'mechanical');
#194 = PRODUCT_DEFINITION_CONTEXT('part definition',#2,'design');
#195 = CONTEXT_DEPENDENT_SHAPE_REPRESENTATION(#196,#198);
#196 = ( REPRESENTATION_RELATIONSHIP('','',#65,#10) 
REPRESENTATION_RELATIONSHIP_WITH_TRANSFORMATION(#197) 
SHAPE_REPRESENTATION_RELATIONSHIP() );
#197 = ITEM_DEFINED_TRANSFORMATION('','',#11,#15);
#198 = PRODUCT_DEFINITION_SHAPE('Placement','Placement of an item',#199
  );
#199 = NEXT_ASSEMBLY_USAGE_OCCURRENCE('1','Marking001','',#5,#190,$);
#200 = PRODUCT_RELATED_PRODUCT_CATEGORY('part',$,(#192));
#201 = ADVANCED_BREP_SHAPE_REPRESENTATION('',(#11,#202),#352);
#202 = MANIFOLD_SOLID_BREP('',#203);
#203 = CLOSED_SHELL('',(#204,#244,#275,#306,#328,#340));
#204 = ADVANCED_FACE('',(#205),#239,.T.);
#205 = FACE_BOUND('',#206,.T.);
#206 = EDGE_LOOP('',(#207,#217,#225,#233));
#207 = ORIENTED_EDGE('',*,*,#208,.T.);
#208 = EDGE_CURVE('',#209,#211,#213,.T.);
#209 = VERTEX_POINT('',#210);
#210 = CARTESIAN_POINT('',(-1.525,0.15,0.));
#211 = VERTEX_POINT('',#212);
#212 = CARTESIAN_POINT('',(-1.525,0.15,0.2));
#213 = LINE('',#214,#215);
#214 = CARTESIAN_POINT('',(-1.525,0.15,0.));
#215 = VECTOR('',#216,1.);
#216 = DIRECTION('',(0.,0.,1.));
#217 = ORIENTED_EDGE('',*,*,#218,.T.);
#218 = EDGE_CURVE('',#211,#219,#221,.T.);
#219 = VERTEX_POINT('',#220);
#220 = CARTESIAN_POINT('',(0.,0.15,0.2));
#221 = LINE('',#222,#223);
#222 = CARTESIAN_POINT('',(-1.525,0.15,0.2));
#223 = VECTOR('',#224,1.);
#224 = DIRECTION('',(1.,0.,0.));
#225 = ORIENTED_EDGE('',*,*,#226,.F.);
#226 = EDGE_CURVE('',#227,#219,#229,.T.);
#227 = VERTEX_POINT('',#228);
#228 = CARTESIAN_POINT('',(0.,0.15,0.));
#229 = LINE('',#230,#231);
#230 = CARTESIAN_POINT('',(0.,0.15,0.));
#231 = VECTOR('',#232,1.);
#232 = DIRECTION('',(0.,0.,1.));
#233 = ORIENTED_EDGE('',*,*,#234,.F.);
#234 = EDGE_CURVE('',#209,#227,#235,.T.);
#235 = LINE('',#236,#237);
#236 = CARTESIAN_POINT('',(-1.525,0.15,0.));
#237 = VECTOR('',#238,1.);
#238 = DIRECTION('',(1.,0.,0.));
#239 = PLANE('',#240);
#240 = AXIS2_PLACEMENT_3D('',#241,#242,#243);
#241 = CARTESIAN_POINT('',(-1.525,0.15,0.));
#242 = DIRECTION('',(0.,1.,0.));
#243 = DIRECTION('',(1.,0.,0.));
#244 = ADVANCED_FACE('',(#245),#270,.T.);
#245 = FACE_BOUND('',#246,.T.);
#246 = EDGE_LOOP('',(#247,#248,#256,#264));
#247 = ORIENTED_EDGE('',*,*,#226,.T.);
#248 = ORIENTED_EDGE('',*,*,#249,.T.);
#249 = EDGE_CURVE('',#219,#250,#252,.T.);
#250 = VERTEX_POINT('',#251);
#251 = CARTESIAN_POINT('',(0.,-0.15,0.2));
#252 = LINE('',#253,#254);
#253 = CARTESIAN_POINT('',(0.,0.15,0.2));
#254 = VECTOR('',#255,1.);
#255 = DIRECTION('',(0.,-1.,0.));
#256 = ORIENTED_EDGE('',*,*,#257,.F.);
#257 = EDGE_CURVE('',#258,#250,#260,.T.);
#258 = VERTEX_POINT('',#259);
#259 = CARTESIAN_POINT('',(0.,-0.15,0.));
#260 = LINE('',#261,#262);
#261 = CARTESIAN_POINT('',(0.,-0.15,0.));
#262 = VECTOR('',#263,1.);
#263 = DIRECTION('',(0.,0.,1.));
#264 = ORIENTED_EDGE('',*,*,#265,.F.);
#265 = EDGE_CURVE('',#227,#258,#266,.T.);
#266 = LINE('',#267,#268);
#267 = CARTESIAN_POINT('',(0.,0.15,0.));
#268 = VECTOR('',#269,1.);
#269 = DIRECTION('',(0.,-1.,0.));
#270 = PLANE('',#271);
#271 = AXIS2_PLACEMENT_3D('',#272,#273,#274);
#272 = CARTESIAN_POINT('',(0.,0.15,0.));
#273 = DIRECTION('',(1.,0.,0.));
#274 = DIRECTION('',(0.,-1.,0.));
#275 = ADVANCED_FACE('',(#276),#301,.T.);
#276 = FACE_BOUND('',#277,.T.);
#277 = EDGE_LOOP('',(#278,#279,#287,#295));
#278 = ORIENTED_EDGE('',*,*,#257,.T.);
#279 = ORIENTED_EDGE('',*,*,#280,.T.);
#280 = EDGE_CURVE('',#250,#281,#283,.T.);
#281 = VERTEX_POINT('',#282);
#282 = CARTESIAN_POINT('',(-1.525,-0.15,0.2));
#283 = LINE('',#284,#285);
#284 = CARTESIAN_POINT('',(0.,-0.15,0.2));
#285 = VECTOR('',#286,1.);
#286 = DIRECTION('',(-1.,0.,0.));
#287 = ORIENTED_EDGE('',*,*,#288,.F.);
#288 = EDGE_CURVE('',#289,#281,#291,.T.);
#289 = VERTEX_POINT('',#290);
#290 = CARTESIAN_POINT('',(-1.525,-0.15,0.));
#291 = LINE('',#292,#293);
#292 = CARTESIAN_POINT('',(-1.525,-0.15,0.));
#293 = VECTOR('',#294,1.);
#294 = DIRECTION('',(0.,0.,1.));
#295 = ORIENTED_EDGE('',*,*,#296,.F.);
#296 = EDGE_CURVE('',#258,#289,#297,.T.);
#297 = LINE('',#298,#299);
#298 = CARTESIAN_POINT('',(0.,-0.15,0.));
#299 = VECTOR('',#300,1.);
#300 = DIRECTION('',(-1.,0.,0.));
#301 = PLANE('',#302);
#302 = AXIS2_PLACEMENT_3D('',#303,#304,#305);
#303 = CARTESIAN_POINT('',(0.,-0.15,0.));
#304 = DIRECTION('',(0.,-1.,0.));
#305 = DIRECTION('',(-1.,0.,0.));
#306 = ADVANCED_FACE('',(#307),#323,.T.);
#307 = FACE_BOUND('',#308,.T.);
#308 = EDGE_LOOP('',(#309,#310,#316,#317));
#309 = ORIENTED_EDGE('',*,*,#288,.T.);
#310 = ORIENTED_EDGE('',*,*,#311,.T.);
#311 = EDGE_CURVE('',#281,#211,#312,.T.);
#312 = LINE('',#313,#314);
#313 = CARTESIAN_POINT('',(-1.525,-0.15,0.2));
#314 = VECTOR('',#315,1.);
#315 = DIRECTION('',(0.,1.,0.));
#316 = ORIENTED_EDGE('',*,*,#208,.F.);
#317 = ORIENTED_EDGE('',*,*,#318,.F.);
#318 = EDGE_CURVE('',#289,#209,#319,.T.);
#319 = LINE('',#320,#321);
#320 = CARTESIAN_POINT('',(-1.525,-0.15,0.));
#321 = VECTOR('',#322,1.);
#322 = DIRECTION('',(0.,1.,0.));
#323 = PLANE('',#324);
#324 = AXIS2_PLACEMENT_3D('',#325,#326,#327);
#325 = CARTESIAN_POINT('',(-1.525,-0.15,0.));
#326 = DIRECTION('',(-1.,0.,0.));
#327 = DIRECTION('',(0.,1.,0.));
#328 = ADVANCED_FACE('',(#329),#335,.T.);
#329 = FACE_BOUND('',#330,.T.);
#330 = EDGE_LOOP('',(#331,#332,#333,#334));
#331 = ORIENTED_EDGE('',*,*,#234,.T.);
#332 = ORIENTED_EDGE('',*,*,#265,.T.);
#333 = ORIENTED_EDGE('',*,*,#296,.T.);
#334 = ORIENTED_EDGE('',*,*,#318,.T.);
#335 = PLANE('',#336);
#336 = AXIS2_PLACEMENT_3D('',#337,#338,#339);
#337 = CARTESIAN_POINT('',(-0.7625,0.,0.));
#338 = DIRECTION('',(-0.,-0.,-1.));
#339 = DIRECTION('',(-1.,0.,0.));
#340 = ADVANCED_FACE('',(#341),#347,.F.);
#341 = FACE_BOUND('',#342,.F.);
#342 = EDGE_LOOP('',(#343,#344,#345,#346));
#343 = ORIENTED_EDGE('',*,*,#218,.T.);
#344 = ORIENTED_EDGE('',*,*,#249,.T.);
#345 = ORIENTED_EDGE('',*,*,#280,.T.);
#346 = ORIENTED_EDGE('',*,*,#311,.T.);
#347 = PLANE('',#348);
#348 = AXIS2_PLACEMENT_3D('',#349,#350,#351);
#349 = CARTESIAN_POINT('',(-0.7625,0.,0.2));
#350 = DIRECTION('',(-0.,-0.,-1.));
#351 = DIRECTION('',(-1.,0.,0.));
#352 = ( GEOMETRIC_REPRESENTATION_CONTEXT(3) 
GLOBAL_UNCERTAINTY_ASSIGNED_CONTEXT((#356)) GLOBAL_UNIT_ASSIGNED_CONTEXT
((#353,#354,#355)) REPRESENTATION_CONTEXT('Context #1',
  '3D Context with UNIT and UNCERTAINTY') );
#353 = ( LENGTH_UNIT() NAMED_UNIT(*) SI_UNIT(.MILLI.,.METRE.) );
#354 = ( NAMED_UNIT(*) PLANE_ANGLE_UNIT() SI_UNIT($,.RADIAN.) );
#355 = ( NAMED_UNIT(*) SI_UNIT($,.STERADIAN.) SOLID_ANGLE_UNIT() );
#356 = UNCERTAINTY_MEASURE_WITH_UNIT(LENGTH_MEASURE(1.E-07),#353,
  'distance_accuracy_value','confusion accuracy');
#357 = SHAPE_DEFINITION_REPRESENTATION(#358,#201);
#358 = PRODUCT_DEFINITION_SHAPE('','',#359);
#359 = PRODUCT_DEFINITION('design','',#360,#363);
#360 = PRODUCT_DEFINITION_FORMATION('','',#361);
#361 = PRODUCT('Body001001','Body001001','',(#362));
#362 = PRODUCT_CONTEXT('',#2,'mechanical');
#363 = PRODUCT_DEFINITION_CONTEXT('part definition',#2,'design');
#364 = CONTEXT_DEPENDENT_SHAPE_REPRESENTATION(#365,#367);
#365 = ( REPRESENTATION_RELATIONSHIP('','',#201,#10) 
REPRESENTATION_RELATIONSHIP_WITH_TRANSFORMATION(#366) 
SHAPE_REPRESENTATION_RELATIONSHIP() );
#366 = ITEM_DEFINED_TRANSFORMATION('','',#11,#19);
#367 = PRODUCT_DEFINITION_SHAPE('Placement','Placement of an item',#368
  );
#368 = NEXT_ASSEMBLY_USAGE_OCCURRENCE('2','Body001001','',#5,#359,$);
#369 = PRODUCT_RELATED_PRODUCT_CATEGORY('part',$,(#361));
#370 = ADVANCED_BREP_SHAPE_REPRESENTATION('',(#11,#371),#626);
#371 = MANIFOLD_SOLID_BREP('',#372);
#372 = CLOSED_SHELL('',(#373,#413,#452,#483,#500,#525,#543,#574,#598,
    #615));
#373 = ADVANCED_FACE('',(#374),#408,.T.);
#374 = FACE_BOUND('',#375,.T.);
#375 = EDGE_LOOP('',(#376,#386,#394,#402));
#376 = ORIENTED_EDGE('',*,*,#377,.T.);
#377 = EDGE_CURVE('',#378,#380,#382,.T.);
#378 = VERTEX_POINT('',#379);
#379 = CARTESIAN_POINT('',(-1.5,1.,2.E-02));
#380 = VERTEX_POINT('',#381);
#381 = CARTESIAN_POINT('',(-1.445457086684,0.945457086684,0.8));
#382 = LINE('',#383,#384);
#383 = CARTESIAN_POINT('',(-1.495157597336,0.995157597336,
    8.924958438259E-02));
#384 = VECTOR('',#385,1.);
#385 = DIRECTION('',(6.958737431666E-02,-6.958737431666E-02,
    0.995145815784));
#386 = ORIENTED_EDGE('',*,*,#387,.T.);
#387 = EDGE_CURVE('',#380,#388,#390,.T.);
#388 = VERTEX_POINT('',#389);
#389 = CARTESIAN_POINT('',(1.445457086684,0.945457086684,0.8));
#390 = LINE('',#391,#392);
#391 = CARTESIAN_POINT('',(-0.75,0.945457086684,0.8));
#392 = VECTOR('',#393,1.);
#393 = DIRECTION('',(1.,0.,0.));
#394 = ORIENTED_EDGE('',*,*,#395,.F.);
#395 = EDGE_CURVE('',#396,#388,#398,.T.);
#396 = VERTEX_POINT('',#397);
#397 = CARTESIAN_POINT('',(1.5,1.,2.E-02));
#398 = LINE('',#399,#400);
#399 = CARTESIAN_POINT('',(1.492736396004,0.992736396004,0.123874376574)
  );
#400 = VECTOR('',#401,1.);
#401 = DIRECTION('',(-6.958737431666E-02,-6.958737431666E-02,
    0.995145815784));
#402 = ORIENTED_EDGE('',*,*,#403,.F.);
#403 = EDGE_CURVE('',#378,#396,#404,.T.);
#404 = LINE('',#405,#406);
#405 = CARTESIAN_POINT('',(-0.75,1.,2.E-02));
#406 = VECTOR('',#407,1.);
#407 = DIRECTION('',(1.,0.,0.));
#408 = PLANE('',#409);
#409 = AXIS2_PLACEMENT_3D('',#410,#411,#412);
#410 = CARTESIAN_POINT('',(-1.5,1.,2.E-02));
#411 = DIRECTION('',(0.,0.99756405026,6.975647374413E-02));
#412 = DIRECTION('',(1.,0.,0.));
#413 = ADVANCED_FACE('',(#414),#447,.T.);
#414 = FACE_BOUND('',#415,.T.);
#415 = EDGE_LOOP('',(#416,#426,#434,#440,#441));
#416 = ORIENTED_EDGE('',*,*,#417,.T.);
#417 = EDGE_CURVE('',#418,#420,#422,.T.);
#418 = VERTEX_POINT('',#419);
#419 = CARTESIAN_POINT('',(-1.5,-1.,2.E-02));
#420 = VERTEX_POINT('',#421);
#421 = CARTESIAN_POINT('',(-1.445457086684,-0.945457086684,0.8));
#422 = LINE('',#423,#424);
#423 = CARTESIAN_POINT('',(-1.492736396004,-0.992736396004,
    0.123874376574));
#424 = VECTOR('',#425,1.);
#425 = DIRECTION('',(6.958737431666E-02,6.958737431666E-02,
    0.995145815784));
#426 = ORIENTED_EDGE('',*,*,#427,.T.);
#427 = EDGE_CURVE('',#420,#428,#430,.T.);
#428 = VERTEX_POINT('',#429);
#429 = CARTESIAN_POINT('',(-1.445457086684,-0.445457086684,0.8));
#430 = LINE('',#431,#432);
#431 = CARTESIAN_POINT('',(-1.445457086684,-0.5,0.8));
#432 = VECTOR('',#433,1.);
#433 = DIRECTION('',(0.,1.,0.));
#434 = ORIENTED_EDGE('',*,*,#435,.T.);
#435 = EDGE_CURVE('',#428,#380,#436,.T.);
#436 = LINE('',#437,#438);
#437 = CARTESIAN_POINT('',(-1.445457086684,-0.5,0.8));
#438 = VECTOR('',#439,1.);
#439 = DIRECTION('',(0.,1.,0.));
#440 = ORIENTED_EDGE('',*,*,#377,.F.);
#441 = ORIENTED_EDGE('',*,*,#442,.F.);
#442 = EDGE_CURVE('',#418,#378,#443,.T.);
#443 = LINE('',#444,#445);
#444 = CARTESIAN_POINT('',(-1.5,-0.5,2.E-02));
#445 = VECTOR('',#446,1.);
#446 = DIRECTION('',(0.,1.,0.));
#447 = PLANE('',#448);
#448 = AXIS2_PLACEMENT_3D('',#449,#450,#451);
#449 = CARTESIAN_POINT('',(-1.5,-1.,2.E-02));
#450 = DIRECTION('',(-0.99756405026,0.,6.975647374413E-02));
#451 = DIRECTION('',(0.,1.,0.));
#452 = ADVANCED_FACE('',(#453),#478,.T.);
#453 = FACE_BOUND('',#454,.T.);
#454 = EDGE_LOOP('',(#455,#456,#464,#472));
#455 = ORIENTED_EDGE('',*,*,#395,.T.);
#456 = ORIENTED_EDGE('',*,*,#457,.T.);
#457 = EDGE_CURVE('',#388,#458,#460,.T.);
#458 = VERTEX_POINT('',#459);
#459 = CARTESIAN_POINT('',(1.445457086684,-0.945457086684,0.8));
#460 = LINE('',#461,#462);
#461 = CARTESIAN_POINT('',(1.445457086684,0.5,0.8));
#462 = VECTOR('',#463,1.);
#463 = DIRECTION('',(-0.,-1.,-0.));
#464 = ORIENTED_EDGE('',*,*,#465,.F.);
#465 = EDGE_CURVE('',#466,#458,#468,.T.);
#466 = VERTEX_POINT('',#467);
#467 = CARTESIAN_POINT('',(1.5,-1.,2.E-02));
#468 = LINE('',#469,#470);
#469 = CARTESIAN_POINT('',(1.495157597336,-0.995157597336,
    8.924958438259E-02));
#470 = VECTOR('',#471,1.);
#471 = DIRECTION('',(-6.958737431666E-02,6.958737431666E-02,
    0.995145815784));
#472 = ORIENTED_EDGE('',*,*,#473,.F.);
#473 = EDGE_CURVE('',#396,#466,#474,.T.);
#474 = LINE('',#475,#476);
#475 = CARTESIAN_POINT('',(1.5,0.5,2.E-02));
#476 = VECTOR('',#477,1.);
#477 = DIRECTION('',(-0.,-1.,-0.));
#478 = PLANE('',#479);
#479 = AXIS2_PLACEMENT_3D('',#480,#481,#482);
#480 = CARTESIAN_POINT('',(1.5,1.,2.E-02));
#481 = DIRECTION('',(0.99756405026,0.,6.975647374413E-02));
#482 = DIRECTION('',(0.,-1.,0.));
#483 = ADVANCED_FACE('',(#484),#495,.T.);
#484 = FACE_BOUND('',#485,.T.);
#485 = EDGE_LOOP('',(#486,#487,#488,#494));
#486 = ORIENTED_EDGE('',*,*,#403,.T.);
#487 = ORIENTED_EDGE('',*,*,#473,.T.);
#488 = ORIENTED_EDGE('',*,*,#489,.T.);
#489 = EDGE_CURVE('',#466,#418,#490,.T.);
#490 = LINE('',#491,#492);
#491 = CARTESIAN_POINT('',(0.75,-1.,2.E-02));
#492 = VECTOR('',#493,1.);
#493 = DIRECTION('',(-1.,0.,0.));
#494 = ORIENTED_EDGE('',*,*,#442,.T.);
#495 = PLANE('',#496);
#496 = AXIS2_PLACEMENT_3D('',#497,#498,#499);
#497 = CARTESIAN_POINT('',(0.,0.,2.E-02));
#498 = DIRECTION('',(-0.,-0.,-1.));
#499 = DIRECTION('',(-1.,0.,0.));
#500 = ADVANCED_FACE('',(#501),#520,.F.);
#501 = FACE_BOUND('',#502,.F.);
#502 = EDGE_LOOP('',(#503,#504,#505,#506,#514));
#503 = ORIENTED_EDGE('',*,*,#435,.T.);
#504 = ORIENTED_EDGE('',*,*,#387,.T.);
#505 = ORIENTED_EDGE('',*,*,#457,.T.);
#506 = ORIENTED_EDGE('',*,*,#507,.T.);
#507 = EDGE_CURVE('',#458,#508,#510,.T.);
#508 = VERTEX_POINT('',#509);
#509 = CARTESIAN_POINT('',(-0.945457086684,-0.945457086684,0.8));
#510 = LINE('',#511,#512);
#511 = CARTESIAN_POINT('',(0.75,-0.945457086684,0.8));
#512 = VECTOR('',#513,1.);
#513 = DIRECTION('',(-1.,0.,0.));
#514 = ORIENTED_EDGE('',*,*,#515,.F.);
#515 = EDGE_CURVE('',#428,#508,#516,.T.);
#516 = LINE('',#517,#518);
#517 = CARTESIAN_POINT('',(-1.445457086684,-0.445457086684,0.8));
#518 = VECTOR('',#519,1.);
#519 = DIRECTION('',(0.707106781187,-0.707106781187,0.));
#520 = PLANE('',#521);
#521 = AXIS2_PLACEMENT_3D('',#522,#523,#524);
#522 = CARTESIAN_POINT('',(0.,0.,0.8));
#523 = DIRECTION('',(-0.,-0.,-1.));
#524 = DIRECTION('',(-1.,0.,0.));
#525 = ADVANCED_FACE('',(#526),#538,.T.);
#526 = FACE_BOUND('',#527,.T.);
#527 = EDGE_LOOP('',(#528,#529,#530,#536,#537));
#528 = ORIENTED_EDGE('',*,*,#465,.T.);
#529 = ORIENTED_EDGE('',*,*,#507,.T.);
#530 = ORIENTED_EDGE('',*,*,#531,.T.);
#531 = EDGE_CURVE('',#508,#420,#532,.T.);
#532 = LINE('',#533,#534);
#533 = CARTESIAN_POINT('',(0.75,-0.945457086684,0.8));
#534 = VECTOR('',#535,1.);
#535 = DIRECTION('',(-1.,0.,0.));
#536 = ORIENTED_EDGE('',*,*,#417,.F.);
#537 = ORIENTED_EDGE('',*,*,#489,.F.);
#538 = PLANE('',#539);
#539 = AXIS2_PLACEMENT_3D('',#540,#541,#542);
#540 = CARTESIAN_POINT('',(1.5,-1.,2.E-02));
#541 = DIRECTION('',(0.,-0.99756405026,6.975647374413E-02));
#542 = DIRECTION('',(-1.,0.,0.));
#543 = ADVANCED_FACE('',(#544),#569,.T.);
#544 = FACE_BOUND('',#545,.T.);
#545 = EDGE_LOOP('',(#546,#554,#562,#568));
#546 = ORIENTED_EDGE('',*,*,#547,.T.);
#547 = EDGE_CURVE('',#420,#548,#550,.T.);
#548 = VERTEX_POINT('',#549);
#549 = CARTESIAN_POINT('',(-1.445457086684,-0.945457086684,0.7));
#550 = LINE('',#551,#552);
#551 = CARTESIAN_POINT('',(-1.445457086684,-0.945457086684,0.8));
#552 = VECTOR('',#553,1.);
#553 = DIRECTION('',(-0.,-0.,-1.));
#554 = ORIENTED_EDGE('',*,*,#555,.T.);
#555 = EDGE_CURVE('',#548,#556,#558,.T.);
#556 = VERTEX_POINT('',#557);
#557 = CARTESIAN_POINT('',(-1.445457086684,-0.445457086684,0.7));
#558 = LINE('',#559,#560);
#559 = CARTESIAN_POINT('',(-1.445457086684,-0.945457086684,0.7));
#560 = VECTOR('',#561,1.);
#561 = DIRECTION('',(0.,1.,0.));
#562 = ORIENTED_EDGE('',*,*,#563,.F.);
#563 = EDGE_CURVE('',#428,#556,#564,.T.);
#564 = LINE('',#565,#566);
#565 = CARTESIAN_POINT('',(-1.445457086684,-0.445457086684,0.8));
#566 = VECTOR('',#567,1.);
#567 = DIRECTION('',(-0.,-0.,-1.));
#568 = ORIENTED_EDGE('',*,*,#427,.F.);
#569 = PLANE('',#570);
#570 = AXIS2_PLACEMENT_3D('',#571,#572,#573);
#571 = CARTESIAN_POINT('',(-1.445457086684,-0.945457086684,0.8));
#572 = DIRECTION('',(1.,0.,0.));
#573 = DIRECTION('',(-0.,1.,0.));
#574 = ADVANCED_FACE('',(#575),#593,.T.);
#575 = FACE_BOUND('',#576,.T.);
#576 = EDGE_LOOP('',(#577,#578,#586,#592));
#577 = ORIENTED_EDGE('',*,*,#563,.T.);
#578 = ORIENTED_EDGE('',*,*,#579,.T.);
#579 = EDGE_CURVE('',#556,#580,#582,.T.);
#580 = VERTEX_POINT('',#581);
#581 = CARTESIAN_POINT('',(-0.945457086684,-0.945457086684,0.7));
#582 = LINE('',#583,#584);
#583 = CARTESIAN_POINT('',(-1.445457086684,-0.445457086684,0.7));
#584 = VECTOR('',#585,1.);
#585 = DIRECTION('',(0.707106781187,-0.707106781187,0.));
#586 = ORIENTED_EDGE('',*,*,#587,.F.);
#587 = EDGE_CURVE('',#508,#580,#588,.T.);
#588 = LINE('',#589,#590);
#589 = CARTESIAN_POINT('',(-0.945457086684,-0.945457086684,0.8));
#590 = VECTOR('',#591,1.);
#591 = DIRECTION('',(-0.,-0.,-1.));
#592 = ORIENTED_EDGE('',*,*,#515,.F.);
#593 = PLANE('',#594);
#594 = AXIS2_PLACEMENT_3D('',#595,#596,#597);
#595 = CARTESIAN_POINT('',(-1.445457086684,-0.445457086684,0.8));
#596 = DIRECTION('',(-0.707106781187,-0.707106781187,0.));
#597 = DIRECTION('',(0.707106781187,-0.707106781187,0.));
#598 = ADVANCED_FACE('',(#599),#610,.T.);
#599 = FACE_BOUND('',#600,.T.);
#600 = EDGE_LOOP('',(#601,#602,#608,#609));
#601 = ORIENTED_EDGE('',*,*,#587,.T.);
#602 = ORIENTED_EDGE('',*,*,#603,.T.);
#603 = EDGE_CURVE('',#580,#548,#604,.T.);
#604 = LINE('',#605,#606);
#605 = CARTESIAN_POINT('',(-0.945457086684,-0.945457086684,0.7));
#606 = VECTOR('',#607,1.);
#607 = DIRECTION('',(-1.,0.,0.));
#608 = ORIENTED_EDGE('',*,*,#547,.F.);
#609 = ORIENTED_EDGE('',*,*,#531,.F.);
#610 = PLANE('',#611);
#611 = AXIS2_PLACEMENT_3D('',#612,#613,#614);
#612 = CARTESIAN_POINT('',(-0.945457086684,-0.945457086684,0.8));
#613 = DIRECTION('',(0.,1.,0.));
#614 = DIRECTION('',(-1.,0.,0.));
#615 = ADVANCED_FACE('',(#616),#621,.F.);
#616 = FACE_BOUND('',#617,.F.);
#617 = EDGE_LOOP('',(#618,#619,#620));
#618 = ORIENTED_EDGE('',*,*,#555,.T.);
#619 = ORIENTED_EDGE('',*,*,#579,.T.);
#620 = ORIENTED_EDGE('',*,*,#603,.T.);
#621 = PLANE('',#622);
#622 = AXIS2_PLACEMENT_3D('',#623,#624,#625);
#623 = CARTESIAN_POINT('',(-1.268680391387,-0.768680391387,0.7));
#624 = DIRECTION('',(-0.,-0.,-1.));
#625 = DIRECTION('',(-1.,0.,0.));
#626 = ( GEOMETRIC_REPRESENTATION_CONTEXT(3) 
GLOBAL_UNCERTAINTY_ASSIGNED_CONTEXT((#630)) GLOBAL_UNIT_ASSIGNED_CONTEXT
((#627,#628,#629)) REPRESENTATION_CONTEXT('Context #1',
  '3D Context with UNIT and UNCERTAINTY') );
#627 = ( LENGTH_UNIT() NAMED_UNIT(*) SI_UNIT(.MILLI.,.METRE.) );
#628 = ( NAMED_UNIT(*) PLANE_ANGLE_UNIT() SI_UNIT($,.RADIAN.) );
#629 = ( NAMED_UNIT(*) SI_UNIT($,.STERADIAN.) SOLID_ANGLE_UNIT() );
#630 = UNCERTAINTY_MEASURE_WITH_UNIT(LENGTH_MEASURE(1.E-07),#627,
  'distance_accuracy_value','confusion accuracy');
#631 = SHAPE_DEFINITION_REPRESENTATION(#632,#370);
#632 = PRODUCT_DEFINITION_SHAPE('','',#633);
#633 = PRODUCT_DEFINITION('design','',#634,#637);
#634 = PRODUCT_DEFINITION_FORMATION('','',#635);
#635 = PRODUCT('Body004001','Body004001','',(#636));
#636 = PRODUCT_CONTEXT('',#2,'mechanical');
#637 = PRODUCT_DEFINITION_CONTEXT('part definition',#2,'design');
#638 = CONTEXT_DEPENDENT_SHAPE_REPRESENTATION(#639,#641);
#639 = ( REPRESENTATION_RELATIONSHIP('','',#370,#10) 
REPRESENTATION_RELATIONSHIP_WITH_TRANSFORMATION(#640) 
SHAPE_REPRESENTATION_RELATIONSHIP() );
#640 = ITEM_DEFINED_TRANSFORMATION('','',#11,#23);
#641 = PRODUCT_DEFINITION_SHAPE('Placement','Placement of an item',#642
  );
#642 = NEXT_ASSEMBLY_USAGE_OCCURRENCE('3','Body004001','',#5,#633,$);
#643 = PRODUCT_RELATED_PRODUCT_CATEGORY('part',$,(#635));
#644 = ADVANCED_BREP_SHAPE_REPRESENTATION('',(#11,#645),#1059);
#645 = MANIFOLD_SOLID_BREP('',#646);
#646 = CLOSED_SHELL('',(#647,#687,#718,#749,#780,#811,#842,#873,#904,
    #935,#966,#997,#1019,#1039));
#647 = ADVANCED_FACE('',(#648),#682,.T.);
#648 = FACE_BOUND('',#649,.T.);
#649 = EDGE_LOOP('',(#650,#660,#668,#676));
#650 = ORIENTED_EDGE('',*,*,#651,.T.);
#651 = EDGE_CURVE('',#652,#654,#656,.T.);
#652 = VERTEX_POINT('',#653);
#653 = CARTESIAN_POINT('',(-1.25E-02,1.025,0.));
#654 = VERTEX_POINT('',#655);
#655 = CARTESIAN_POINT('',(-1.25E-02,1.025,0.2));
#656 = LINE('',#657,#658);
#657 = CARTESIAN_POINT('',(-1.25E-02,1.025,0.));
#658 = VECTOR('',#659,1.);
#659 = DIRECTION('',(0.,0.,1.));
#660 = ORIENTED_EDGE('',*,*,#661,.T.);
#661 = EDGE_CURVE('',#654,#662,#664,.T.);
#662 = VERTEX_POINT('',#663);
#663 = CARTESIAN_POINT('',(-1.25E-02,0.425,0.2));
#664 = LINE('',#665,#666);
#665 = CARTESIAN_POINT('',(-1.25E-02,1.025,0.2));
#666 = VECTOR('',#667,1.);
#667 = DIRECTION('',(0.,-1.,0.));
#668 = ORIENTED_EDGE('',*,*,#669,.F.);
#669 = EDGE_CURVE('',#670,#662,#672,.T.);
#670 = VERTEX_POINT('',#671);
#671 = CARTESIAN_POINT('',(-1.25E-02,0.425,0.));
#672 = LINE('',#673,#674);
#673 = CARTESIAN_POINT('',(-1.25E-02,0.425,0.));
#674 = VECTOR('',#675,1.);
#675 = DIRECTION('',(0.,0.,1.));
#676 = ORIENTED_EDGE('',*,*,#677,.F.);
#677 = EDGE_CURVE('',#652,#670,#678,.T.);
#678 = LINE('',#679,#680);
#679 = CARTESIAN_POINT('',(-1.25E-02,1.025,0.));
#680 = VECTOR('',#681,1.);
#681 = DIRECTION('',(0.,-1.,0.));
#682 = PLANE('',#683);
#683 = AXIS2_PLACEMENT_3D('',#684,#685,#686);
#684 = CARTESIAN_POINT('',(-1.25E-02,1.025,0.));
#685 = DIRECTION('',(1.,0.,0.));
#686 = DIRECTION('',(0.,-1.,0.));
#687 = ADVANCED_FACE('',(#688),#713,.T.);
#688 = FACE_BOUND('',#689,.T.);
#689 = EDGE_LOOP('',(#690,#691,#699,#707));
#690 = ORIENTED_EDGE('',*,*,#669,.T.);
#691 = ORIENTED_EDGE('',*,*,#692,.T.);
#692 = EDGE_CURVE('',#662,#693,#695,.T.);
#693 = VERTEX_POINT('',#694);
#694 = CARTESIAN_POINT('',(-1.3625,0.425,0.2));
#695 = LINE('',#696,#697);
#696 = CARTESIAN_POINT('',(-1.25E-02,0.425,0.2));
#697 = VECTOR('',#698,1.);
#698 = DIRECTION('',(-1.,0.,0.));
#699 = ORIENTED_EDGE('',*,*,#700,.F.);
#700 = EDGE_CURVE('',#701,#693,#703,.T.);
#701 = VERTEX_POINT('',#702);
#702 = CARTESIAN_POINT('',(-1.3625,0.425,0.));
#703 = LINE('',#704,#705);
#704 = CARTESIAN_POINT('',(-1.3625,0.425,0.));
#705 = VECTOR('',#706,1.);
#706 = DIRECTION('',(0.,0.,1.));
#707 = ORIENTED_EDGE('',*,*,#708,.F.);
#708 = EDGE_CURVE('',#670,#701,#709,.T.);
#709 = LINE('',#710,#711);
#710 = CARTESIAN_POINT('',(-1.25E-02,0.425,0.));
#711 = VECTOR('',#712,1.);
#712 = DIRECTION('',(-1.,0.,0.));
#713 = PLANE('',#714);
#714 = AXIS2_PLACEMENT_3D('',#715,#716,#717);
#715 = CARTESIAN_POINT('',(-1.25E-02,0.425,0.));
#716 = DIRECTION('',(0.,-1.,0.));
#717 = DIRECTION('',(-1.,0.,0.));
#718 = ADVANCED_FACE('',(#719),#744,.T.);
#719 = FACE_BOUND('',#720,.T.);
#720 = EDGE_LOOP('',(#721,#722,#730,#738));
#721 = ORIENTED_EDGE('',*,*,#700,.T.);
#722 = ORIENTED_EDGE('',*,*,#723,.T.);
#723 = EDGE_CURVE('',#693,#724,#726,.T.);
#724 = VERTEX_POINT('',#725);
#725 = CARTESIAN_POINT('',(-1.3625,1.025,0.2));
#726 = LINE('',#727,#728);
#727 = CARTESIAN_POINT('',(-1.3625,0.425,0.2));
#728 = VECTOR('',#729,1.);
#729 = DIRECTION('',(0.,1.,0.));
#730 = ORIENTED_EDGE('',*,*,#731,.F.);
#731 = EDGE_CURVE('',#732,#724,#734,.T.);
#732 = VERTEX_POINT('',#733);
#733 = CARTESIAN_POINT('',(-1.3625,1.025,0.));
#734 = LINE('',#735,#736);
#735 = CARTESIAN_POINT('',(-1.3625,1.025,0.));
#736 = VECTOR('',#737,1.);
#737 = DIRECTION('',(0.,0.,1.));
#738 = ORIENTED_EDGE('',*,*,#739,.F.);
#739 = EDGE_CURVE('',#701,#732,#740,.T.);
#740 = LINE('',#741,#742);
#741 = CARTESIAN_POINT('',(-1.3625,0.425,0.));
#742 = VECTOR('',#743,1.);
#743 = DIRECTION('',(0.,1.,0.));
#744 = PLANE('',#745);
#745 = AXIS2_PLACEMENT_3D('',#746,#747,#748);
#746 = CARTESIAN_POINT('',(-1.3625,0.425,0.));
#747 = DIRECTION('',(-1.,0.,0.));
#748 = DIRECTION('',(0.,1.,0.));
#749 = ADVANCED_FACE('',(#750),#775,.T.);
#750 = FACE_BOUND('',#751,.T.);
#751 = EDGE_LOOP('',(#752,#753,#761,#769));
#752 = ORIENTED_EDGE('',*,*,#731,.T.);
#753 = ORIENTED_EDGE('',*,*,#754,.T.);
#754 = EDGE_CURVE('',#724,#755,#757,.T.);
#755 = VERTEX_POINT('',#756);
#756 = CARTESIAN_POINT('',(-1.1625,1.025,0.2));
#757 = LINE('',#758,#759);
#758 = CARTESIAN_POINT('',(-1.3625,1.025,0.2));
#759 = VECTOR('',#760,1.);
#760 = DIRECTION('',(1.,0.,0.));
#761 = ORIENTED_EDGE('',*,*,#762,.F.);
#762 = EDGE_CURVE('',#763,#755,#765,.T.);
#763 = VERTEX_POINT('',#764);
#764 = CARTESIAN_POINT('',(-1.1625,1.025,0.));
#765 = LINE('',#766,#767);
#766 = CARTESIAN_POINT('',(-1.1625,1.025,0.));
#767 = VECTOR('',#768,1.);
#768 = DIRECTION('',(0.,0.,1.));
#769 = ORIENTED_EDGE('',*,*,#770,.F.);
#770 = EDGE_CURVE('',#732,#763,#771,.T.);
#771 = LINE('',#772,#773);
#772 = CARTESIAN_POINT('',(-1.3625,1.025,0.));
#773 = VECTOR('',#774,1.);
#774 = DIRECTION('',(1.,0.,0.));
#775 = PLANE('',#776);
#776 = AXIS2_PLACEMENT_3D('',#777,#778,#779);
#777 = CARTESIAN_POINT('',(-1.3625,1.025,0.));
#778 = DIRECTION('',(0.,1.,0.));
#779 = DIRECTION('',(1.,0.,0.));
#780 = ADVANCED_FACE('',(#781),#806,.T.);
#781 = FACE_BOUND('',#782,.T.);
#782 = EDGE_LOOP('',(#783,#784,#792,#800));
#783 = ORIENTED_EDGE('',*,*,#762,.T.);
#784 = ORIENTED_EDGE('',*,*,#785,.T.);
#785 = EDGE_CURVE('',#755,#786,#788,.T.);
#786 = VERTEX_POINT('',#787);
#787 = CARTESIAN_POINT('',(-1.1625,0.925,0.2));
#788 = LINE('',#789,#790);
#789 = CARTESIAN_POINT('',(-1.1625,1.025,0.2));
#790 = VECTOR('',#791,1.);
#791 = DIRECTION('',(0.,-1.,0.));
#792 = ORIENTED_EDGE('',*,*,#793,.F.);
#793 = EDGE_CURVE('',#794,#786,#796,.T.);
#794 = VERTEX_POINT('',#795);
#795 = CARTESIAN_POINT('',(-1.1625,0.925,0.));
#796 = LINE('',#797,#798);
#797 = CARTESIAN_POINT('',(-1.1625,0.925,0.));
#798 = VECTOR('',#799,1.);
#799 = DIRECTION('',(0.,0.,1.));
#800 = ORIENTED_EDGE('',*,*,#801,.F.);
#801 = EDGE_CURVE('',#763,#794,#802,.T.);
#802 = LINE('',#803,#804);
#803 = CARTESIAN_POINT('',(-1.1625,1.025,0.));
#804 = VECTOR('',#805,1.);
#805 = DIRECTION('',(0.,-1.,0.));
#806 = PLANE('',#807);
#807 = AXIS2_PLACEMENT_3D('',#808,#809,#810);
#808 = CARTESIAN_POINT('',(-1.1625,1.025,0.));
#809 = DIRECTION('',(1.,0.,0.));
#810 = DIRECTION('',(0.,-1.,0.));
#811 = ADVANCED_FACE('',(#812),#837,.T.);
#812 = FACE_BOUND('',#813,.T.);
#813 = EDGE_LOOP('',(#814,#815,#823,#831));
#814 = ORIENTED_EDGE('',*,*,#793,.T.);
#815 = ORIENTED_EDGE('',*,*,#816,.T.);
#816 = EDGE_CURVE('',#786,#817,#819,.T.);
#817 = VERTEX_POINT('',#818);
#818 = CARTESIAN_POINT('',(-0.7875,0.925,0.2));
#819 = LINE('',#820,#821);
#820 = CARTESIAN_POINT('',(-1.1625,0.925,0.2));
#821 = VECTOR('',#822,1.);
#822 = DIRECTION('',(1.,0.,0.));
#823 = ORIENTED_EDGE('',*,*,#824,.F.);
#824 = EDGE_CURVE('',#825,#817,#827,.T.);
#825 = VERTEX_POINT('',#826);
#826 = CARTESIAN_POINT('',(-0.7875,0.925,0.));
#827 = LINE('',#828,#829);
#828 = CARTESIAN_POINT('',(-0.7875,0.925,0.));
#829 = VECTOR('',#830,1.);
#830 = DIRECTION('',(0.,0.,1.));
#831 = ORIENTED_EDGE('',*,*,#832,.F.);
#832 = EDGE_CURVE('',#794,#825,#833,.T.);
#833 = LINE('',#834,#835);
#834 = CARTESIAN_POINT('',(-1.1625,0.925,0.));
#835 = VECTOR('',#836,1.);
#836 = DIRECTION('',(1.,0.,0.));
#837 = PLANE('',#838);
#838 = AXIS2_PLACEMENT_3D('',#839,#840,#841);
#839 = CARTESIAN_POINT('',(-1.1625,0.925,0.));
#840 = DIRECTION('',(0.,1.,0.));
#841 = DIRECTION('',(1.,0.,0.));
#842 = ADVANCED_FACE('',(#843),#868,.T.);
#843 = FACE_BOUND('',#844,.T.);
#844 = EDGE_LOOP('',(#845,#846,#854,#862));
#845 = ORIENTED_EDGE('',*,*,#824,.T.);
#846 = ORIENTED_EDGE('',*,*,#847,.T.);
#847 = EDGE_CURVE('',#817,#848,#850,.T.);
#848 = VERTEX_POINT('',#849);
#849 = CARTESIAN_POINT('',(-0.7875,1.025,0.2));
#850 = LINE('',#851,#852);
#851 = CARTESIAN_POINT('',(-0.7875,0.925,0.2));
#852 = VECTOR('',#853,1.);
#853 = DIRECTION('',(0.,1.,0.));
#854 = ORIENTED_EDGE('',*,*,#855,.F.);
#855 = EDGE_CURVE('',#856,#848,#858,.T.);
#856 = VERTEX_POINT('',#857);
#857 = CARTESIAN_POINT('',(-0.7875,1.025,0.));
#858 = LINE('',#859,#860);
#859 = CARTESIAN_POINT('',(-0.7875,1.025,0.));
#860 = VECTOR('',#861,1.);
#861 = DIRECTION('',(0.,0.,1.));
#862 = ORIENTED_EDGE('',*,*,#863,.F.);
#863 = EDGE_CURVE('',#825,#856,#864,.T.);
#864 = LINE('',#865,#866);
#865 = CARTESIAN_POINT('',(-0.7875,0.925,0.));
#866 = VECTOR('',#867,1.);
#867 = DIRECTION('',(0.,1.,0.));
#868 = PLANE('',#869);
#869 = AXIS2_PLACEMENT_3D('',#870,#871,#872);
#870 = CARTESIAN_POINT('',(-0.7875,0.925,0.));
#871 = DIRECTION('',(-1.,0.,0.));
#872 = DIRECTION('',(0.,1.,0.));
#873 = ADVANCED_FACE('',(#874),#899,.T.);
#874 = FACE_BOUND('',#875,.T.);
#875 = EDGE_LOOP('',(#876,#877,#885,#893));
#876 = ORIENTED_EDGE('',*,*,#855,.T.);
#877 = ORIENTED_EDGE('',*,*,#878,.T.);
#878 = EDGE_CURVE('',#848,#879,#881,.T.);
#879 = VERTEX_POINT('',#880);
#880 = CARTESIAN_POINT('',(-0.5875,1.025,0.2));
#881 = LINE('',#882,#883);
#882 = CARTESIAN_POINT('',(-0.7875,1.025,0.2));
#883 = VECTOR('',#884,1.);
#884 = DIRECTION('',(1.,0.,0.));
#885 = ORIENTED_EDGE('',*,*,#886,.F.);
#886 = EDGE_CURVE('',#887,#879,#889,.T.);
#887 = VERTEX_POINT('',#888);
#888 = CARTESIAN_POINT('',(-0.5875,1.025,0.));
#889 = LINE('',#890,#891);
#890 = CARTESIAN_POINT('',(-0.5875,1.025,0.));
#891 = VECTOR('',#892,1.);
#892 = DIRECTION('',(0.,0.,1.));
#893 = ORIENTED_EDGE('',*,*,#894,.F.);
#894 = EDGE_CURVE('',#856,#887,#895,.T.);
#895 = LINE('',#896,#897);
#896 = CARTESIAN_POINT('',(-0.7875,1.025,0.));
#897 = VECTOR('',#898,1.);
#898 = DIRECTION('',(1.,0.,0.));
#899 = PLANE('',#900);
#900 = AXIS2_PLACEMENT_3D('',#901,#902,#903);
#901 = CARTESIAN_POINT('',(-0.7875,1.025,0.));
#902 = DIRECTION('',(0.,1.,0.));
#903 = DIRECTION('',(1.,0.,0.));
#904 = ADVANCED_FACE('',(#905),#930,.T.);
#905 = FACE_BOUND('',#906,.T.);
#906 = EDGE_LOOP('',(#907,#908,#916,#924));
#907 = ORIENTED_EDGE('',*,*,#886,.T.);
#908 = ORIENTED_EDGE('',*,*,#909,.T.);
#909 = EDGE_CURVE('',#879,#910,#912,.T.);
#910 = VERTEX_POINT('',#911);
#911 = CARTESIAN_POINT('',(-0.5875,0.925,0.2));
#912 = LINE('',#913,#914);
#913 = CARTESIAN_POINT('',(-0.5875,1.025,0.2));
#914 = VECTOR('',#915,1.);
#915 = DIRECTION('',(0.,-1.,0.));
#916 = ORIENTED_EDGE('',*,*,#917,.F.);
#917 = EDGE_CURVE('',#918,#910,#920,.T.);
#918 = VERTEX_POINT('',#919);
#919 = CARTESIAN_POINT('',(-0.5875,0.925,0.));
#920 = LINE('',#921,#922);
#921 = CARTESIAN_POINT('',(-0.5875,0.925,0.));
#922 = VECTOR('',#923,1.);
#923 = DIRECTION('',(0.,0.,1.));
#924 = ORIENTED_EDGE('',*,*,#925,.F.);
#925 = EDGE_CURVE('',#887,#918,#926,.T.);
#926 = LINE('',#927,#928);
#927 = CARTESIAN_POINT('',(-0.5875,1.025,0.));
#928 = VECTOR('',#929,1.);
#929 = DIRECTION('',(0.,-1.,0.));
#930 = PLANE('',#931);
#931 = AXIS2_PLACEMENT_3D('',#932,#933,#934);
#932 = CARTESIAN_POINT('',(-0.5875,1.025,0.));
#933 = DIRECTION('',(1.,0.,0.));
#934 = DIRECTION('',(0.,-1.,0.));
#935 = ADVANCED_FACE('',(#936),#961,.T.);
#936 = FACE_BOUND('',#937,.T.);
#937 = EDGE_LOOP('',(#938,#939,#947,#955));
#938 = ORIENTED_EDGE('',*,*,#917,.T.);
#939 = ORIENTED_EDGE('',*,*,#940,.T.);
#940 = EDGE_CURVE('',#910,#941,#943,.T.);
#941 = VERTEX_POINT('',#942);
#942 = CARTESIAN_POINT('',(-0.2125,0.925,0.2));
#943 = LINE('',#944,#945);
#944 = CARTESIAN_POINT('',(-0.5875,0.925,0.2));
#945 = VECTOR('',#946,1.);
#946 = DIRECTION('',(1.,0.,0.));
#947 = ORIENTED_EDGE('',*,*,#948,.F.);
#948 = EDGE_CURVE('',#949,#941,#951,.T.);
#949 = VERTEX_POINT('',#950);
#950 = CARTESIAN_POINT('',(-0.2125,0.925,0.));
#951 = LINE('',#952,#953);
#952 = CARTESIAN_POINT('',(-0.2125,0.925,0.));
#953 = VECTOR('',#954,1.);
#954 = DIRECTION('',(0.,0.,1.));
#955 = ORIENTED_EDGE('',*,*,#956,.F.);
#956 = EDGE_CURVE('',#918,#949,#957,.T.);
#957 = LINE('',#958,#959);
#958 = CARTESIAN_POINT('',(-0.5875,0.925,0.));
#959 = VECTOR('',#960,1.);
#960 = DIRECTION('',(1.,0.,0.));
#961 = PLANE('',#962);
#962 = AXIS2_PLACEMENT_3D('',#963,#964,#965);
#963 = CARTESIAN_POINT('',(-0.5875,0.925,0.));
#964 = DIRECTION('',(0.,1.,0.));
#965 = DIRECTION('',(1.,0.,0.));
#966 = ADVANCED_FACE('',(#967),#992,.T.);
#967 = FACE_BOUND('',#968,.T.);
#968 = EDGE_LOOP('',(#969,#970,#978,#986));
#969 = ORIENTED_EDGE('',*,*,#948,.T.);
#970 = ORIENTED_EDGE('',*,*,#971,.T.);
#971 = EDGE_CURVE('',#941,#972,#974,.T.);
#972 = VERTEX_POINT('',#973);
#973 = CARTESIAN_POINT('',(-0.2125,1.025,0.2));
#974 = LINE('',#975,#976);
#975 = CARTESIAN_POINT('',(-0.2125,0.925,0.2));
#976 = VECTOR('',#977,1.);
#977 = DIRECTION('',(0.,1.,0.));
#978 = ORIENTED_EDGE('',*,*,#979,.F.);
#979 = EDGE_CURVE('',#980,#972,#982,.T.);
#980 = VERTEX_POINT('',#981);
#981 = CARTESIAN_POINT('',(-0.2125,1.025,0.));
#982 = LINE('',#983,#984);
#983 = CARTESIAN_POINT('',(-0.2125,1.025,0.));
#984 = VECTOR('',#985,1.);
#985 = DIRECTION('',(0.,0.,1.));
#986 = ORIENTED_EDGE('',*,*,#987,.F.);
#987 = EDGE_CURVE('',#949,#980,#988,.T.);
#988 = LINE('',#989,#990);
#989 = CARTESIAN_POINT('',(-0.2125,0.925,0.));
#990 = VECTOR('',#991,1.);
#991 = DIRECTION('',(0.,1.,0.));
#992 = PLANE('',#993);
#993 = AXIS2_PLACEMENT_3D('',#994,#995,#996);
#994 = CARTESIAN_POINT('',(-0.2125,0.925,0.));
#995 = DIRECTION('',(-1.,0.,0.));
#996 = DIRECTION('',(0.,1.,0.));
#997 = ADVANCED_FACE('',(#998),#1014,.T.);
#998 = FACE_BOUND('',#999,.T.);
#999 = EDGE_LOOP('',(#1000,#1001,#1007,#1008));
#1000 = ORIENTED_EDGE('',*,*,#979,.T.);
#1001 = ORIENTED_EDGE('',*,*,#1002,.T.);
#1002 = EDGE_CURVE('',#972,#654,#1003,.T.);
#1003 = LINE('',#1004,#1005);
#1004 = CARTESIAN_POINT('',(-0.2125,1.025,0.2));
#1005 = VECTOR('',#1006,1.);
#1006 = DIRECTION('',(1.,0.,0.));
#1007 = ORIENTED_EDGE('',*,*,#651,.F.);
#1008 = ORIENTED_EDGE('',*,*,#1009,.F.);
#1009 = EDGE_CURVE('',#980,#652,#1010,.T.);
#1010 = LINE('',#1011,#1012);
#1011 = CARTESIAN_POINT('',(-0.2125,1.025,0.));
#1012 = VECTOR('',#1013,1.);
#1013 = DIRECTION('',(1.,0.,0.));
#1014 = PLANE('',#1015);
#1015 = AXIS2_PLACEMENT_3D('',#1016,#1017,#1018);
#1016 = CARTESIAN_POINT('',(-0.2125,1.025,0.));
#1017 = DIRECTION('',(0.,1.,0.));
#1018 = DIRECTION('',(1.,0.,0.));
#1019 = ADVANCED_FACE('',(#1020),#1034,.T.);
#1020 = FACE_BOUND('',#1021,.T.);
#1021 = EDGE_LOOP('',(#1022,#1023,#1024,#1025,#1026,#1027,#1028,#1029,
    #1030,#1031,#1032,#1033));
#1022 = ORIENTED_EDGE('',*,*,#677,.T.);
#1023 = ORIENTED_EDGE('',*,*,#708,.T.);
#1024 = ORIENTED_EDGE('',*,*,#739,.T.);
#1025 = ORIENTED_EDGE('',*,*,#770,.T.);
#1026 = ORIENTED_EDGE('',*,*,#801,.T.);
#1027 = ORIENTED_EDGE('',*,*,#832,.T.);
#1028 = ORIENTED_EDGE('',*,*,#863,.T.);
#1029 = ORIENTED_EDGE('',*,*,#894,.T.);
#1030 = ORIENTED_EDGE('',*,*,#925,.T.);
#1031 = ORIENTED_EDGE('',*,*,#956,.T.);
#1032 = ORIENTED_EDGE('',*,*,#987,.T.);
#1033 = ORIENTED_EDGE('',*,*,#1009,.T.);
#1034 = PLANE('',#1035);
#1035 = AXIS2_PLACEMENT_3D('',#1036,#1037,#1038);
#1036 = CARTESIAN_POINT('',(-0.6875,0.730813953488,0.));
#1037 = DIRECTION('',(-0.,-0.,-1.));
#1038 = DIRECTION('',(-1.,0.,0.));
#1039 = ADVANCED_FACE('',(#1040),#1054,.F.);
#1040 = FACE_BOUND('',#1041,.F.);
#1041 = EDGE_LOOP('',(#1042,#1043,#1044,#1045,#1046,#1047,#1048,#1049,
    #1050,#1051,#1052,#1053));
#1042 = ORIENTED_EDGE('',*,*,#661,.T.);
#1043 = ORIENTED_EDGE('',*,*,#692,.T.);
#1044 = ORIENTED_EDGE('',*,*,#723,.T.);
#1045 = ORIENTED_EDGE('',*,*,#754,.T.);
#1046 = ORIENTED_EDGE('',*,*,#785,.T.);
#1047 = ORIENTED_EDGE('',*,*,#816,.T.);
#1048 = ORIENTED_EDGE('',*,*,#847,.T.);
#1049 = ORIENTED_EDGE('',*,*,#878,.T.);
#1050 = ORIENTED_EDGE('',*,*,#909,.T.);
#1051 = ORIENTED_EDGE('',*,*,#940,.T.);
#1052 = ORIENTED_EDGE('',*,*,#971,.T.);
#1053 = ORIENTED_EDGE('',*,*,#1002,.T.);
#1054 = PLANE('',#1055);
#1055 = AXIS2_PLACEMENT_3D('',#1056,#1057,#1058);
#1056 = CARTESIAN_POINT('',(-0.6875,0.730813953488,0.2));
#1057 = DIRECTION('',(-0.,-0.,-1.));
#1058 = DIRECTION('',(-1.,0.,0.));
#1059 = ( GEOMETRIC_REPRESENTATION_CONTEXT(3) 
GLOBAL_UNCERTAINTY_ASSIGNED_CONTEXT((#1063)) 
GLOBAL_UNIT_ASSIGNED_CONTEXT((#1060,#1061,#1062)) REPRESENTATION_CONTEXT
('Context #1','3D Context with UNIT and UNCERTAINTY') );
#1060 = ( LENGTH_UNIT() NAMED_UNIT(*) SI_UNIT(.MILLI.,.METRE.) );
#1061 = ( NAMED_UNIT(*) PLANE_ANGLE_UNIT() SI_UNIT($,.RADIAN.) );
#1062 = ( NAMED_UNIT(*) SI_UNIT($,.STERADIAN.) SOLID_ANGLE_UNIT() );
#1063 = UNCERTAINTY_MEASURE_WITH_UNIT(LENGTH_MEASURE(1.E-07),#1060,
  'distance_accuracy_value','confusion accuracy');
#1064 = SHAPE_DEFINITION_REPRESENTATION(#1065,#644);
#1065 = PRODUCT_DEFINITION_SHAPE('','',#1066);
#1066 = PRODUCT_DEFINITION('design','',#1067,#1070);
#1067 = PRODUCT_DEFINITION_FORMATION('','',#1068);
#1068 = PRODUCT('Solid','Solid','',(#1069));
#1069 = PRODUCT_CONTEXT('',#2,'mechanical');
#1070 = PRODUCT_DEFINITION_CONTEXT('part definition',#2,'design');
#1071 = CONTEXT_DEPENDENT_SHAPE_REPRESENTATION(#1072,#1074);
#1072 = ( REPRESENTATION_RELATIONSHIP('','',#644,#10) 
REPRESENTATION_RELATIONSHIP_WITH_TRANSFORMATION(#1073) 
SHAPE_REPRESENTATION_RELATIONSHIP() );
#1073 = ITEM_DEFINED_TRANSFORMATION('','',#11,#27);
#1074 = PRODUCT_DEFINITION_SHAPE('Placement','Placement of an item',
  #1075);
#1075 = NEXT_ASSEMBLY_USAGE_OCCURRENCE('4','Solid','',#5,#1066,$);
#1076 = PRODUCT_RELATED_PRODUCT_CATEGORY('part',$,(#1068));
#1077 = ADVANCED_BREP_SHAPE_REPRESENTATION('',(#11,#1078),#1228);
#1078 = MANIFOLD_SOLID_BREP('',#1079);
#1079 = CLOSED_SHELL('',(#1080,#1120,#1151,#1182,#1204,#1216));
#1080 = ADVANCED_FACE('',(#1081),#1115,.F.);
#1081 = FACE_BOUND('',#1082,.F.);
#1082 = EDGE_LOOP('',(#1083,#1093,#1101,#1109));
#1083 = ORIENTED_EDGE('',*,*,#1084,.T.);
#1084 = EDGE_CURVE('',#1085,#1087,#1089,.T.);
#1085 = VERTEX_POINT('',#1086);
#1086 = CARTESIAN_POINT('',(0.4625,1.025,0.));
#1087 = VERTEX_POINT('',#1088);
#1088 = CARTESIAN_POINT('',(0.4625,1.025,0.2));
#1089 = LINE('',#1090,#1091);
#1090 = CARTESIAN_POINT('',(0.4625,1.025,0.));
#1091 = VECTOR('',#1092,1.);
#1092 = DIRECTION('',(0.,0.,1.));
#1093 = ORIENTED_EDGE('',*,*,#1094,.T.);
#1094 = EDGE_CURVE('',#1087,#1095,#1097,.T.);
#1095 = VERTEX_POINT('',#1096);
#1096 = CARTESIAN_POINT('',(0.2625,1.025,0.2));
#1097 = LINE('',#1098,#1099);
#1098 = CARTESIAN_POINT('',(0.4625,1.025,0.2));
#1099 = VECTOR('',#1100,1.);
#1100 = DIRECTION('',(-1.,0.,0.));
#1101 = ORIENTED_EDGE('',*,*,#1102,.F.);
#1102 = EDGE_CURVE('',#1103,#1095,#1105,.T.);
#1103 = VERTEX_POINT('',#1104);
#1104 = CARTESIAN_POINT('',(0.2625,1.025,0.));
#1105 = LINE('',#1106,#1107);
#1106 = CARTESIAN_POINT('',(0.2625,1.025,0.));
#1107 = VECTOR('',#1108,1.);
#1108 = DIRECTION('',(0.,0.,1.));
#1109 = ORIENTED_EDGE('',*,*,#1110,.F.);
#1110 = EDGE_CURVE('',#1085,#1103,#1111,.T.);
#1111 = LINE('',#1112,#1113);
#1112 = CARTESIAN_POINT('',(0.4625,1.025,0.));
#1113 = VECTOR('',#1114,1.);
#1114 = DIRECTION('',(-1.,0.,0.));
#1115 = PLANE('',#1116);
#1116 = AXIS2_PLACEMENT_3D('',#1117,#1118,#1119);
#1117 = CARTESIAN_POINT('',(0.4625,1.025,0.));
#1118 = DIRECTION('',(0.,-1.,0.));
#1119 = DIRECTION('',(-1.,0.,0.));
#1120 = ADVANCED_FACE('',(#1121),#1146,.F.);
#1121 = FACE_BOUND('',#1122,.F.);
#1122 = EDGE_LOOP('',(#1123,#1124,#1132,#1140));
#1123 = ORIENTED_EDGE('',*,*,#1102,.T.);
#1124 = ORIENTED_EDGE('',*,*,#1125,.T.);
#1125 = EDGE_CURVE('',#1095,#1126,#1128,.T.);
#1126 = VERTEX_POINT('',#1127);
#1127 = CARTESIAN_POINT('',(0.2625,0.625,0.2));
#1128 = LINE('',#1129,#1130);
#1129 = CARTESIAN_POINT('',(0.2625,1.025,0.2));
#1130 = VECTOR('',#1131,1.);
#1131 = DIRECTION('',(0.,-1.,0.));
#1132 = ORIENTED_EDGE('',*,*,#1133,.F.);
#1133 = EDGE_CURVE('',#1134,#1126,#1136,.T.);
#1134 = VERTEX_POINT('',#1135);
#1135 = CARTESIAN_POINT('',(0.2625,0.625,0.));
#1136 = LINE('',#1137,#1138);
#1137 = CARTESIAN_POINT('',(0.2625,0.625,0.));
#1138 = VECTOR('',#1139,1.);
#1139 = DIRECTION('',(0.,0.,1.));
#1140 = ORIENTED_EDGE('',*,*,#1141,.F.);
#1141 = EDGE_CURVE('',#1103,#1134,#1142,.T.);
#1142 = LINE('',#1143,#1144);
#1143 = CARTESIAN_POINT('',(0.2625,1.025,0.));
#1144 = VECTOR('',#1145,1.);
#1145 = DIRECTION('',(0.,-1.,0.));
#1146 = PLANE('',#1147);
#1147 = AXIS2_PLACEMENT_3D('',#1148,#1149,#1150);
#1148 = CARTESIAN_POINT('',(0.2625,1.025,0.));
#1149 = DIRECTION('',(1.,0.,0.));
#1150 = DIRECTION('',(0.,-1.,0.));
#1151 = ADVANCED_FACE('',(#1152),#1177,.F.);
#1152 = FACE_BOUND('',#1153,.F.);
#1153 = EDGE_LOOP('',(#1154,#1155,#1163,#1171));
#1154 = ORIENTED_EDGE('',*,*,#1133,.T.);
#1155 = ORIENTED_EDGE('',*,*,#1156,.T.);
#1156 = EDGE_CURVE('',#1126,#1157,#1159,.T.);
#1157 = VERTEX_POINT('',#1158);
#1158 = CARTESIAN_POINT('',(0.4625,0.625,0.2));
#1159 = LINE('',#1160,#1161);
#1160 = CARTESIAN_POINT('',(0.2625,0.625,0.2));
#1161 = VECTOR('',#1162,1.);
#1162 = DIRECTION('',(1.,0.,0.));
#1163 = ORIENTED_EDGE('',*,*,#1164,.F.);
#1164 = EDGE_CURVE('',#1165,#1157,#1167,.T.);
#1165 = VERTEX_POINT('',#1166);
#1166 = CARTESIAN_POINT('',(0.4625,0.625,0.));
#1167 = LINE('',#1168,#1169);
#1168 = CARTESIAN_POINT('',(0.4625,0.625,0.));
#1169 = VECTOR('',#1170,1.);
#1170 = DIRECTION('',(0.,0.,1.));
#1171 = ORIENTED_EDGE('',*,*,#1172,.F.);
#1172 = EDGE_CURVE('',#1134,#1165,#1173,.T.);
#1173 = LINE('',#1174,#1175);
#1174 = CARTESIAN_POINT('',(0.2625,0.625,0.));
#1175 = VECTOR('',#1176,1.);
#1176 = DIRECTION('',(1.,0.,0.));
#1177 = PLANE('',#1178);
#1178 = AXIS2_PLACEMENT_3D('',#1179,#1180,#1181);
#1179 = CARTESIAN_POINT('',(0.2625,0.625,0.));
#1180 = DIRECTION('',(0.,1.,0.));
#1181 = DIRECTION('',(1.,0.,0.));
#1182 = ADVANCED_FACE('',(#1183),#1199,.F.);
#1183 = FACE_BOUND('',#1184,.F.);
#1184 = EDGE_LOOP('',(#1185,#1186,#1192,#1193));
#1185 = ORIENTED_EDGE('',*,*,#1164,.T.);
#1186 = ORIENTED_EDGE('',*,*,#1187,.T.);
#1187 = EDGE_CURVE('',#1157,#1087,#1188,.T.);
#1188 = LINE('',#1189,#1190);
#1189 = CARTESIAN_POINT('',(0.4625,0.625,0.2));
#1190 = VECTOR('',#1191,1.);
#1191 = DIRECTION('',(0.,1.,0.));
#1192 = ORIENTED_EDGE('',*,*,#1084,.F.);
#1193 = ORIENTED_EDGE('',*,*,#1194,.F.);
#1194 = EDGE_CURVE('',#1165,#1085,#1195,.T.);
#1195 = LINE('',#1196,#1197);
#1196 = CARTESIAN_POINT('',(0.4625,0.625,0.));
#1197 = VECTOR('',#1198,1.);
#1198 = DIRECTION('',(0.,1.,0.));
#1199 = PLANE('',#1200);
#1200 = AXIS2_PLACEMENT_3D('',#1201,#1202,#1203);
#1201 = CARTESIAN_POINT('',(0.4625,0.625,0.));
#1202 = DIRECTION('',(-1.,0.,0.));
#1203 = DIRECTION('',(0.,1.,0.));
#1204 = ADVANCED_FACE('',(#1205),#1211,.F.);
#1205 = FACE_BOUND('',#1206,.F.);
#1206 = EDGE_LOOP('',(#1207,#1208,#1209,#1210));
#1207 = ORIENTED_EDGE('',*,*,#1110,.T.);
#1208 = ORIENTED_EDGE('',*,*,#1141,.T.);
#1209 = ORIENTED_EDGE('',*,*,#1172,.T.);
#1210 = ORIENTED_EDGE('',*,*,#1194,.T.);
#1211 = PLANE('',#1212);
#1212 = AXIS2_PLACEMENT_3D('',#1213,#1214,#1215);
#1213 = CARTESIAN_POINT('',(0.3625,0.825,0.));
#1214 = DIRECTION('',(0.,0.,1.));
#1215 = DIRECTION('',(1.,0.,0.));
#1216 = ADVANCED_FACE('',(#1217),#1223,.T.);
#1217 = FACE_BOUND('',#1218,.T.);
#1218 = EDGE_LOOP('',(#1219,#1220,#1221,#1222));
#1219 = ORIENTED_EDGE('',*,*,#1094,.T.);
#1220 = ORIENTED_EDGE('',*,*,#1125,.T.);
#1221 = ORIENTED_EDGE('',*,*,#1156,.T.);
#1222 = ORIENTED_EDGE('',*,*,#1187,.T.);
#1223 = PLANE('',#1224);
#1224 = AXIS2_PLACEMENT_3D('',#1225,#1226,#1227);
#1225 = CARTESIAN_POINT('',(0.3625,0.825,0.2));
#1226 = DIRECTION('',(0.,0.,1.));
#1227 = DIRECTION('',(1.,0.,0.));
#1228 = ( GEOMETRIC_REPRESENTATION_CONTEXT(3) 
GLOBAL_UNCERTAINTY_ASSIGNED_CONTEXT((#1232)) 
GLOBAL_UNIT_ASSIGNED_CONTEXT((#1229,#1230,#1231)) REPRESENTATION_CONTEXT
('Context #1','3D Context with UNIT and UNCERTAINTY') );
#1229 = ( LENGTH_UNIT() NAMED_UNIT(*) SI_UNIT(.MILLI.,.METRE.) );
#1230 = ( NAMED_UNIT(*) PLANE_ANGLE_UNIT() SI_UNIT($,.RADIAN.) );
#1231 = ( NAMED_UNIT(*) SI_UNIT($,.STERADIAN.) SOLID_ANGLE_UNIT() );
#1232 = UNCERTAINTY_MEASURE_WITH_UNIT(LENGTH_MEASURE(1.E-07),#1229,
  'distance_accuracy_value','confusion accuracy');
#1233 = SHAPE_DEFINITION_REPRESENTATION(#1234,#1077);
#1234 = PRODUCT_DEFINITION_SHAPE('','',#1235);
#1235 = PRODUCT_DEFINITION('design','',#1236,#1239);
#1236 = PRODUCT_DEFINITION_FORMATION('','',#1237);
#1237 = PRODUCT('Solid001','Solid001','',(#1238));
#1238 = PRODUCT_CONTEXT('',#2,'mechanical');
#1239 = PRODUCT_DEFINITION_CONTEXT('part definition',#2,'design');
#1240 = CONTEXT_DEPENDENT_SHAPE_REPRESENTATION(#1241,#1243);
#1241 = ( REPRESENTATION_RELATIONSHIP('','',#1077,#10) 
REPRESENTATION_RELATIONSHIP_WITH_TRANSFORMATION(#1242) 
SHAPE_REPRESENTATION_RELATIONSHIP() );
#1242 = ITEM_DEFINED_TRANSFORMATION('','',#11,#31);
#1243 = PRODUCT_DEFINITION_SHAPE('Placement','Placement of an item',
  #1244);
#1244 = NEXT_ASSEMBLY_USAGE_OCCURRENCE('5','Solid001','',#5,#1235,$);
#1245 = PRODUCT_RELATED_PRODUCT_CATEGORY('part',$,(#1237));
#1246 = CONTEXT_DEPENDENT_SHAPE_REPRESENTATION(#1247,#1249);
#1247 = ( REPRESENTATION_RELATIONSHIP('','',#1077,#10) 
REPRESENTATION_RELATIONSHIP_WITH_TRANSFORMATION(#1248) 
SHAPE_REPRESENTATION_RELATIONSHIP() );
#1248 = ITEM_DEFINED_TRANSFORMATION('','',#11,#35);
#1249 = PRODUCT_DEFINITION_SHAPE('Placement','Placement of an item',
  #1250);
#1250 = NEXT_ASSEMBLY_USAGE_OCCURRENCE('6','Solid002','',#5,#1235,$);
#1251 = CONTEXT_DEPENDENT_SHAPE_REPRESENTATION(#1252,#1254);
#1252 = ( REPRESENTATION_RELATIONSHIP('','',#1077,#10) 
REPRESENTATION_RELATIONSHIP_WITH_TRANSFORMATION(#1253) 
SHAPE_REPRESENTATION_RELATIONSHIP() );
#1253 = ITEM_DEFINED_TRANSFORMATION('','',#11,#39);
#1254 = PRODUCT_DEFINITION_SHAPE('Placement','Placement of an item',
  #1255);
#1255 = NEXT_ASSEMBLY_USAGE_OCCURRENCE('7','Solid003','',#5,#1235,$);
#1256 = ADVANCED_BREP_SHAPE_REPRESENTATION('',(#11,#1257),#1671);
#1257 = MANIFOLD_SOLID_BREP('',#1258);
#1258 = CLOSED_SHELL('',(#1259,#1299,#1330,#1361,#1392,#1423,#1454,#1485
    ,#1516,#1547,#1578,#1609,#1631,#1651));
#1259 = ADVANCED_FACE('',(#1260),#1294,.T.);
#1260 = FACE_BOUND('',#1261,.F.);
#1261 = EDGE_LOOP('',(#1262,#1272,#1280,#1288));
#1262 = ORIENTED_EDGE('',*,*,#1263,.T.);
#1263 = EDGE_CURVE('',#1264,#1266,#1268,.T.);
#1264 = VERTEX_POINT('',#1265);
#1265 = CARTESIAN_POINT('',(-1.25E-02,-1.025,0.));
#1266 = VERTEX_POINT('',#1267);
#1267 = CARTESIAN_POINT('',(-1.25E-02,-1.025,0.2));
#1268 = LINE('',#1269,#1270);
#1269 = CARTESIAN_POINT('',(-1.25E-02,-1.025,0.));
#1270 = VECTOR('',#1271,1.);
#1271 = DIRECTION('',(-0.,-0.,1.));
#1272 = ORIENTED_EDGE('',*,*,#1273,.T.);
#1273 = EDGE_CURVE('',#1266,#1274,#1276,.T.);
#1274 = VERTEX_POINT('',#1275);
#1275 = CARTESIAN_POINT('',(-1.25E-02,-0.425,0.2));
#1276 = LINE('',#1277,#1278);
#1277 = CARTESIAN_POINT('',(-1.25E-02,-1.025,0.2));
#1278 = VECTOR('',#1279,1.);
#1279 = DIRECTION('',(0.,1.,0.));
#1280 = ORIENTED_EDGE('',*,*,#1281,.F.);
#1281 = EDGE_CURVE('',#1282,#1274,#1284,.T.);
#1282 = VERTEX_POINT('',#1283);
#1283 = CARTESIAN_POINT('',(-1.25E-02,-0.425,0.));
#1284 = LINE('',#1285,#1286);
#1285 = CARTESIAN_POINT('',(-1.25E-02,-0.425,0.));
#1286 = VECTOR('',#1287,1.);
#1287 = DIRECTION('',(-0.,-0.,1.));
#1288 = ORIENTED_EDGE('',*,*,#1289,.F.);
#1289 = EDGE_CURVE('',#1264,#1282,#1290,.T.);
#1290 = LINE('',#1291,#1292);
#1291 = CARTESIAN_POINT('',(-1.25E-02,-1.025,0.));
#1292 = VECTOR('',#1293,1.);
#1293 = DIRECTION('',(0.,1.,0.));
#1294 = PLANE('',#1295);
#1295 = AXIS2_PLACEMENT_3D('',#1296,#1297,#1298);
#1296 = CARTESIAN_POINT('',(-1.25E-02,-1.025,0.));
#1297 = DIRECTION('',(1.,-0.,-0.));
#1298 = DIRECTION('',(-0.,-1.,-0.));
#1299 = ADVANCED_FACE('',(#1300),#1325,.T.);
#1300 = FACE_BOUND('',#1301,.F.);
#1301 = EDGE_LOOP('',(#1302,#1303,#1311,#1319));
#1302 = ORIENTED_EDGE('',*,*,#1281,.T.);
#1303 = ORIENTED_EDGE('',*,*,#1304,.T.);
#1304 = EDGE_CURVE('',#1274,#1305,#1307,.T.);
#1305 = VERTEX_POINT('',#1306);
#1306 = CARTESIAN_POINT('',(-1.3625,-0.425,0.2));
#1307 = LINE('',#1308,#1309);
#1308 = CARTESIAN_POINT('',(-1.25E-02,-0.425,0.2));
#1309 = VECTOR('',#1310,1.);
#1310 = DIRECTION('',(-1.,-0.,-0.));
#1311 = ORIENTED_EDGE('',*,*,#1312,.F.);
#1312 = EDGE_CURVE('',#1313,#1305,#1315,.T.);
#1313 = VERTEX_POINT('',#1314);
#1314 = CARTESIAN_POINT('',(-1.3625,-0.425,0.));
#1315 = LINE('',#1316,#1317);
#1316 = CARTESIAN_POINT('',(-1.3625,-0.425,0.));
#1317 = VECTOR('',#1318,1.);
#1318 = DIRECTION('',(-0.,-0.,1.));
#1319 = ORIENTED_EDGE('',*,*,#1320,.F.);
#1320 = EDGE_CURVE('',#1282,#1313,#1321,.T.);
#1321 = LINE('',#1322,#1323);
#1322 = CARTESIAN_POINT('',(-1.25E-02,-0.425,0.));
#1323 = VECTOR('',#1324,1.);
#1324 = DIRECTION('',(-1.,-0.,-0.));
#1325 = PLANE('',#1326);
#1326 = AXIS2_PLACEMENT_3D('',#1327,#1328,#1329);
#1327 = CARTESIAN_POINT('',(-1.25E-02,-0.425,0.));
#1328 = DIRECTION('',(-0.,1.,-0.));
#1329 = DIRECTION('',(1.,0.,0.));
#1330 = ADVANCED_FACE('',(#1331),#1356,.T.);
#1331 = FACE_BOUND('',#1332,.F.);
#1332 = EDGE_LOOP('',(#1333,#1334,#1342,#1350));
#1333 = ORIENTED_EDGE('',*,*,#1312,.T.);
#1334 = ORIENTED_EDGE('',*,*,#1335,.T.);
#1335 = EDGE_CURVE('',#1305,#1336,#1338,.T.);
#1336 = VERTEX_POINT('',#1337);
#1337 = CARTESIAN_POINT('',(-1.3625,-1.025,0.2));
#1338 = LINE('',#1339,#1340);
#1339 = CARTESIAN_POINT('',(-1.3625,-0.425,0.2));
#1340 = VECTOR('',#1341,1.);
#1341 = DIRECTION('',(-0.,-1.,-0.));
#1342 = ORIENTED_EDGE('',*,*,#1343,.F.);
#1343 = EDGE_CURVE('',#1344,#1336,#1346,.T.);
#1344 = VERTEX_POINT('',#1345);
#1345 = CARTESIAN_POINT('',(-1.3625,-1.025,0.));
#1346 = LINE('',#1347,#1348);
#1347 = CARTESIAN_POINT('',(-1.3625,-1.025,0.));
#1348 = VECTOR('',#1349,1.);
#1349 = DIRECTION('',(-0.,-0.,1.));
#1350 = ORIENTED_EDGE('',*,*,#1351,.F.);
#1351 = EDGE_CURVE('',#1313,#1344,#1352,.T.);
#1352 = LINE('',#1353,#1354);
#1353 = CARTESIAN_POINT('',(-1.3625,-0.425,0.));
#1354 = VECTOR('',#1355,1.);
#1355 = DIRECTION('',(-0.,-1.,-0.));
#1356 = PLANE('',#1357);
#1357 = AXIS2_PLACEMENT_3D('',#1358,#1359,#1360);
#1358 = CARTESIAN_POINT('',(-1.3625,-0.425,0.));
#1359 = DIRECTION('',(-1.,-0.,-0.));
#1360 = DIRECTION('',(-0.,1.,-0.));
#1361 = ADVANCED_FACE('',(#1362),#1387,.T.);
#1362 = FACE_BOUND('',#1363,.F.);
#1363 = EDGE_LOOP('',(#1364,#1365,#1373,#1381));
#1364 = ORIENTED_EDGE('',*,*,#1343,.T.);
#1365 = ORIENTED_EDGE('',*,*,#1366,.T.);
#1366 = EDGE_CURVE('',#1336,#1367,#1369,.T.);
#1367 = VERTEX_POINT('',#1368);
#1368 = CARTESIAN_POINT('',(-1.1625,-1.025,0.2));
#1369 = LINE('',#1370,#1371);
#1370 = CARTESIAN_POINT('',(-1.3625,-1.025,0.2));
#1371 = VECTOR('',#1372,1.);
#1372 = DIRECTION('',(1.,0.,0.));
#1373 = ORIENTED_EDGE('',*,*,#1374,.F.);
#1374 = EDGE_CURVE('',#1375,#1367,#1377,.T.);
#1375 = VERTEX_POINT('',#1376);
#1376 = CARTESIAN_POINT('',(-1.1625,-1.025,0.));
#1377 = LINE('',#1378,#1379);
#1378 = CARTESIAN_POINT('',(-1.1625,-1.025,0.));
#1379 = VECTOR('',#1380,1.);
#1380 = DIRECTION('',(-0.,-0.,1.));
#1381 = ORIENTED_EDGE('',*,*,#1382,.F.);
#1382 = EDGE_CURVE('',#1344,#1375,#1383,.T.);
#1383 = LINE('',#1384,#1385);
#1384 = CARTESIAN_POINT('',(-1.3625,-1.025,0.));
#1385 = VECTOR('',#1386,1.);
#1386 = DIRECTION('',(1.,0.,0.));
#1387 = PLANE('',#1388);
#1388 = AXIS2_PLACEMENT_3D('',#1389,#1390,#1391);
#1389 = CARTESIAN_POINT('',(-1.3625,-1.025,0.));
#1390 = DIRECTION('',(-0.,-1.,-0.));
#1391 = DIRECTION('',(-1.,0.,-0.));
#1392 = ADVANCED_FACE('',(#1393),#1418,.T.);
#1393 = FACE_BOUND('',#1394,.F.);
#1394 = EDGE_LOOP('',(#1395,#1396,#1404,#1412));
#1395 = ORIENTED_EDGE('',*,*,#1374,.T.);
#1396 = ORIENTED_EDGE('',*,*,#1397,.T.);
#1397 = EDGE_CURVE('',#1367,#1398,#1400,.T.);
#1398 = VERTEX_POINT('',#1399);
#1399 = CARTESIAN_POINT('',(-1.1625,-0.925,0.2));
#1400 = LINE('',#1401,#1402);
#1401 = CARTESIAN_POINT('',(-1.1625,-1.025,0.2));
#1402 = VECTOR('',#1403,1.);
#1403 = DIRECTION('',(0.,1.,0.));
#1404 = ORIENTED_EDGE('',*,*,#1405,.F.);
#1405 = EDGE_CURVE('',#1406,#1398,#1408,.T.);
#1406 = VERTEX_POINT('',#1407);
#1407 = CARTESIAN_POINT('',(-1.1625,-0.925,0.));
#1408 = LINE('',#1409,#1410);
#1409 = CARTESIAN_POINT('',(-1.1625,-0.925,0.));
#1410 = VECTOR('',#1411,1.);
#1411 = DIRECTION('',(-0.,-0.,1.));
#1412 = ORIENTED_EDGE('',*,*,#1413,.F.);
#1413 = EDGE_CURVE('',#1375,#1406,#1414,.T.);
#1414 = LINE('',#1415,#1416);
#1415 = CARTESIAN_POINT('',(-1.1625,-1.025,0.));
#1416 = VECTOR('',#1417,1.);
#1417 = DIRECTION('',(0.,1.,0.));
#1418 = PLANE('',#1419);
#1419 = AXIS2_PLACEMENT_3D('',#1420,#1421,#1422);
#1420 = CARTESIAN_POINT('',(-1.1625,-1.025,0.));
#1421 = DIRECTION('',(1.,-0.,-0.));
#1422 = DIRECTION('',(-0.,-1.,-0.));
#1423 = ADVANCED_FACE('',(#1424),#1449,.T.);
#1424 = FACE_BOUND('',#1425,.F.);
#1425 = EDGE_LOOP('',(#1426,#1427,#1435,#1443));
#1426 = ORIENTED_EDGE('',*,*,#1405,.T.);
#1427 = ORIENTED_EDGE('',*,*,#1428,.T.);
#1428 = EDGE_CURVE('',#1398,#1429,#1431,.T.);
#1429 = VERTEX_POINT('',#1430);
#1430 = CARTESIAN_POINT('',(-0.7875,-0.925,0.2));
#1431 = LINE('',#1432,#1433);
#1432 = CARTESIAN_POINT('',(-1.1625,-0.925,0.2));
#1433 = VECTOR('',#1434,1.);
#1434 = DIRECTION('',(1.,0.,0.));
#1435 = ORIENTED_EDGE('',*,*,#1436,.F.);
#1436 = EDGE_CURVE('',#1437,#1429,#1439,.T.);
#1437 = VERTEX_POINT('',#1438);
#1438 = CARTESIAN_POINT('',(-0.7875,-0.925,0.));
#1439 = LINE('',#1440,#1441);
#1440 = CARTESIAN_POINT('',(-0.7875,-0.925,0.));
#1441 = VECTOR('',#1442,1.);
#1442 = DIRECTION('',(-0.,-0.,1.));
#1443 = ORIENTED_EDGE('',*,*,#1444,.F.);
#1444 = EDGE_CURVE('',#1406,#1437,#1445,.T.);
#1445 = LINE('',#1446,#1447);
#1446 = CARTESIAN_POINT('',(-1.1625,-0.925,0.));
#1447 = VECTOR('',#1448,1.);
#1448 = DIRECTION('',(1.,0.,0.));
#1449 = PLANE('',#1450);
#1450 = AXIS2_PLACEMENT_3D('',#1451,#1452,#1453);
#1451 = CARTESIAN_POINT('',(-1.1625,-0.925,0.));
#1452 = DIRECTION('',(-0.,-1.,-0.));
#1453 = DIRECTION('',(-1.,0.,-0.));
#1454 = ADVANCED_FACE('',(#1455),#1480,.T.);
#1455 = FACE_BOUND('',#1456,.F.);
#1456 = EDGE_LOOP('',(#1457,#1458,#1466,#1474));
#1457 = ORIENTED_EDGE('',*,*,#1436,.T.);
#1458 = ORIENTED_EDGE('',*,*,#1459,.T.);
#1459 = EDGE_CURVE('',#1429,#1460,#1462,.T.);
#1460 = VERTEX_POINT('',#1461);
#1461 = CARTESIAN_POINT('',(-0.7875,-1.025,0.2));
#1462 = LINE('',#1463,#1464);
#1463 = CARTESIAN_POINT('',(-0.7875,-0.925,0.2));
#1464 = VECTOR('',#1465,1.);
#1465 = DIRECTION('',(-0.,-1.,-0.));
#1466 = ORIENTED_EDGE('',*,*,#1467,.F.);
#1467 = EDGE_CURVE('',#1468,#1460,#1470,.T.);
#1468 = VERTEX_POINT('',#1469);
#1469 = CARTESIAN_POINT('',(-0.7875,-1.025,0.));
#1470 = LINE('',#1471,#1472);
#1471 = CARTESIAN_POINT('',(-0.7875,-1.025,0.));
#1472 = VECTOR('',#1473,1.);
#1473 = DIRECTION('',(-0.,-0.,1.));
#1474 = ORIENTED_EDGE('',*,*,#1475,.F.);
#1475 = EDGE_CURVE('',#1437,#1468,#1476,.T.);
#1476 = LINE('',#1477,#1478);
#1477 = CARTESIAN_POINT('',(-0.7875,-0.925,0.));
#1478 = VECTOR('',#1479,1.);
#1479 = DIRECTION('',(-0.,-1.,-0.));
#1480 = PLANE('',#1481);
#1481 = AXIS2_PLACEMENT_3D('',#1482,#1483,#1484);
#1482 = CARTESIAN_POINT('',(-0.7875,-0.925,0.));
#1483 = DIRECTION('',(-1.,-0.,-0.));
#1484 = DIRECTION('',(-0.,1.,-0.));
#1485 = ADVANCED_FACE('',(#1486),#1511,.T.);
#1486 = FACE_BOUND('',#1487,.F.);
#1487 = EDGE_LOOP('',(#1488,#1489,#1497,#1505));
#1488 = ORIENTED_EDGE('',*,*,#1467,.T.);
#1489 = ORIENTED_EDGE('',*,*,#1490,.T.);
#1490 = EDGE_CURVE('',#1460,#1491,#1493,.T.);
#1491 = VERTEX_POINT('',#1492);
#1492 = CARTESIAN_POINT('',(-0.5875,-1.025,0.2));
#1493 = LINE('',#1494,#1495);
#1494 = CARTESIAN_POINT('',(-0.7875,-1.025,0.2));
#1495 = VECTOR('',#1496,1.);
#1496 = DIRECTION('',(1.,0.,0.));
#1497 = ORIENTED_EDGE('',*,*,#1498,.F.);
#1498 = EDGE_CURVE('',#1499,#1491,#1501,.T.);
#1499 = VERTEX_POINT('',#1500);
#1500 = CARTESIAN_POINT('',(-0.5875,-1.025,0.));
#1501 = LINE('',#1502,#1503);
#1502 = CARTESIAN_POINT('',(-0.5875,-1.025,0.));
#1503 = VECTOR('',#1504,1.);
#1504 = DIRECTION('',(-0.,-0.,1.));
#1505 = ORIENTED_EDGE('',*,*,#1506,.F.);
#1506 = EDGE_CURVE('',#1468,#1499,#1507,.T.);
#1507 = LINE('',#1508,#1509);
#1508 = CARTESIAN_POINT('',(-0.7875,-1.025,0.));
#1509 = VECTOR('',#1510,1.);
#1510 = DIRECTION('',(1.,0.,0.));
#1511 = PLANE('',#1512);
#1512 = AXIS2_PLACEMENT_3D('',#1513,#1514,#1515);
#1513 = CARTESIAN_POINT('',(-0.7875,-1.025,0.));
#1514 = DIRECTION('',(-0.,-1.,-0.));
#1515 = DIRECTION('',(-1.,0.,-0.));
#1516 = ADVANCED_FACE('',(#1517),#1542,.T.);
#1517 = FACE_BOUND('',#1518,.F.);
#1518 = EDGE_LOOP('',(#1519,#1520,#1528,#1536));
#1519 = ORIENTED_EDGE('',*,*,#1498,.T.);
#1520 = ORIENTED_EDGE('',*,*,#1521,.T.);
#1521 = EDGE_CURVE('',#1491,#1522,#1524,.T.);
#1522 = VERTEX_POINT('',#1523);
#1523 = CARTESIAN_POINT('',(-0.5875,-0.925,0.2));
#1524 = LINE('',#1525,#1526);
#1525 = CARTESIAN_POINT('',(-0.5875,-1.025,0.2));
#1526 = VECTOR('',#1527,1.);
#1527 = DIRECTION('',(0.,1.,0.));
#1528 = ORIENTED_EDGE('',*,*,#1529,.F.);
#1529 = EDGE_CURVE('',#1530,#1522,#1532,.T.);
#1530 = VERTEX_POINT('',#1531);
#1531 = CARTESIAN_POINT('',(-0.5875,-0.925,0.));
#1532 = LINE('',#1533,#1534);
#1533 = CARTESIAN_POINT('',(-0.5875,-0.925,0.));
#1534 = VECTOR('',#1535,1.);
#1535 = DIRECTION('',(-0.,-0.,1.));
#1536 = ORIENTED_EDGE('',*,*,#1537,.F.);
#1537 = EDGE_CURVE('',#1499,#1530,#1538,.T.);
#1538 = LINE('',#1539,#1540);
#1539 = CARTESIAN_POINT('',(-0.5875,-1.025,0.));
#1540 = VECTOR('',#1541,1.);
#1541 = DIRECTION('',(0.,1.,0.));
#1542 = PLANE('',#1543);
#1543 = AXIS2_PLACEMENT_3D('',#1544,#1545,#1546);
#1544 = CARTESIAN_POINT('',(-0.5875,-1.025,0.));
#1545 = DIRECTION('',(1.,-0.,-0.));
#1546 = DIRECTION('',(-0.,-1.,-0.));
#1547 = ADVANCED_FACE('',(#1548),#1573,.T.);
#1548 = FACE_BOUND('',#1549,.F.);
#1549 = EDGE_LOOP('',(#1550,#1551,#1559,#1567));
#1550 = ORIENTED_EDGE('',*,*,#1529,.T.);
#1551 = ORIENTED_EDGE('',*,*,#1552,.T.);
#1552 = EDGE_CURVE('',#1522,#1553,#1555,.T.);
#1553 = VERTEX_POINT('',#1554);
#1554 = CARTESIAN_POINT('',(-0.2125,-0.925,0.2));
#1555 = LINE('',#1556,#1557);
#1556 = CARTESIAN_POINT('',(-0.5875,-0.925,0.2));
#1557 = VECTOR('',#1558,1.);
#1558 = DIRECTION('',(1.,0.,0.));
#1559 = ORIENTED_EDGE('',*,*,#1560,.F.);
#1560 = EDGE_CURVE('',#1561,#1553,#1563,.T.);
#1561 = VERTEX_POINT('',#1562);
#1562 = CARTESIAN_POINT('',(-0.2125,-0.925,0.));
#1563 = LINE('',#1564,#1565);
#1564 = CARTESIAN_POINT('',(-0.2125,-0.925,0.));
#1565 = VECTOR('',#1566,1.);
#1566 = DIRECTION('',(-0.,-0.,1.));
#1567 = ORIENTED_EDGE('',*,*,#1568,.F.);
#1568 = EDGE_CURVE('',#1530,#1561,#1569,.T.);
#1569 = LINE('',#1570,#1571);
#1570 = CARTESIAN_POINT('',(-0.5875,-0.925,0.));
#1571 = VECTOR('',#1572,1.);
#1572 = DIRECTION('',(1.,0.,0.));
#1573 = PLANE('',#1574);
#1574 = AXIS2_PLACEMENT_3D('',#1575,#1576,#1577);
#1575 = CARTESIAN_POINT('',(-0.5875,-0.925,0.));
#1576 = DIRECTION('',(-0.,-1.,-0.));
#1577 = DIRECTION('',(-1.,0.,-0.));
#1578 = ADVANCED_FACE('',(#1579),#1604,.T.);
#1579 = FACE_BOUND('',#1580,.F.);
#1580 = EDGE_LOOP('',(#1581,#1582,#1590,#1598));
#1581 = ORIENTED_EDGE('',*,*,#1560,.T.);
#1582 = ORIENTED_EDGE('',*,*,#1583,.T.);
#1583 = EDGE_CURVE('',#1553,#1584,#1586,.T.);
#1584 = VERTEX_POINT('',#1585);
#1585 = CARTESIAN_POINT('',(-0.2125,-1.025,0.2));
#1586 = LINE('',#1587,#1588);
#1587 = CARTESIAN_POINT('',(-0.2125,-0.925,0.2));
#1588 = VECTOR('',#1589,1.);
#1589 = DIRECTION('',(-0.,-1.,-0.));
#1590 = ORIENTED_EDGE('',*,*,#1591,.F.);
#1591 = EDGE_CURVE('',#1592,#1584,#1594,.T.);
#1592 = VERTEX_POINT('',#1593);
#1593 = CARTESIAN_POINT('',(-0.2125,-1.025,0.));
#1594 = LINE('',#1595,#1596);
#1595 = CARTESIAN_POINT('',(-0.2125,-1.025,0.));
#1596 = VECTOR('',#1597,1.);
#1597 = DIRECTION('',(-0.,-0.,1.));
#1598 = ORIENTED_EDGE('',*,*,#1599,.F.);
#1599 = EDGE_CURVE('',#1561,#1592,#1600,.T.);
#1600 = LINE('',#1601,#1602);
#1601 = CARTESIAN_POINT('',(-0.2125,-0.925,0.));
#1602 = VECTOR('',#1603,1.);
#1603 = DIRECTION('',(-0.,-1.,-0.));
#1604 = PLANE('',#1605);
#1605 = AXIS2_PLACEMENT_3D('',#1606,#1607,#1608);
#1606 = CARTESIAN_POINT('',(-0.2125,-0.925,0.));
#1607 = DIRECTION('',(-1.,-0.,-0.));
#1608 = DIRECTION('',(-0.,1.,-0.));
#1609 = ADVANCED_FACE('',(#1610),#1626,.T.);
#1610 = FACE_BOUND('',#1611,.F.);
#1611 = EDGE_LOOP('',(#1612,#1613,#1619,#1620));
#1612 = ORIENTED_EDGE('',*,*,#1591,.T.);
#1613 = ORIENTED_EDGE('',*,*,#1614,.T.);
#1614 = EDGE_CURVE('',#1584,#1266,#1615,.T.);
#1615 = LINE('',#1616,#1617);
#1616 = CARTESIAN_POINT('',(-0.2125,-1.025,0.2));
#1617 = VECTOR('',#1618,1.);
#1618 = DIRECTION('',(1.,0.,0.));
#1619 = ORIENTED_EDGE('',*,*,#1263,.F.);
#1620 = ORIENTED_EDGE('',*,*,#1621,.F.);
#1621 = EDGE_CURVE('',#1592,#1264,#1622,.T.);
#1622 = LINE('',#1623,#1624);
#1623 = CARTESIAN_POINT('',(-0.2125,-1.025,0.));
#1624 = VECTOR('',#1625,1.);
#1625 = DIRECTION('',(1.,0.,0.));
#1626 = PLANE('',#1627);
#1627 = AXIS2_PLACEMENT_3D('',#1628,#1629,#1630);
#1628 = CARTESIAN_POINT('',(-0.2125,-1.025,0.));
#1629 = DIRECTION('',(-0.,-1.,-0.));
#1630 = DIRECTION('',(-1.,0.,-0.));
#1631 = ADVANCED_FACE('',(#1632),#1646,.T.);
#1632 = FACE_BOUND('',#1633,.F.);
#1633 = EDGE_LOOP('',(#1634,#1635,#1636,#1637,#1638,#1639,#1640,#1641,
    #1642,#1643,#1644,#1645));
#1634 = ORIENTED_EDGE('',*,*,#1289,.T.);
#1635 = ORIENTED_EDGE('',*,*,#1320,.T.);
#1636 = ORIENTED_EDGE('',*,*,#1351,.T.);
#1637 = ORIENTED_EDGE('',*,*,#1382,.T.);
#1638 = ORIENTED_EDGE('',*,*,#1413,.T.);
#1639 = ORIENTED_EDGE('',*,*,#1444,.T.);
#1640 = ORIENTED_EDGE('',*,*,#1475,.T.);
#1641 = ORIENTED_EDGE('',*,*,#1506,.T.);
#1642 = ORIENTED_EDGE('',*,*,#1537,.T.);
#1643 = ORIENTED_EDGE('',*,*,#1568,.T.);
#1644 = ORIENTED_EDGE('',*,*,#1599,.T.);
#1645 = ORIENTED_EDGE('',*,*,#1621,.T.);
#1646 = PLANE('',#1647);
#1647 = AXIS2_PLACEMENT_3D('',#1648,#1649,#1650);
#1648 = CARTESIAN_POINT('',(-0.6875,-0.730813953488,0.));
#1649 = DIRECTION('',(0.,0.,-1.));
#1650 = DIRECTION('',(1.,0.,0.));
#1651 = ADVANCED_FACE('',(#1652),#1666,.F.);
#1652 = FACE_BOUND('',#1653,.T.);
#1653 = EDGE_LOOP('',(#1654,#1655,#1656,#1657,#1658,#1659,#1660,#1661,
    #1662,#1663,#1664,#1665));
#1654 = ORIENTED_EDGE('',*,*,#1273,.T.);
#1655 = ORIENTED_EDGE('',*,*,#1304,.T.);
#1656 = ORIENTED_EDGE('',*,*,#1335,.T.);
#1657 = ORIENTED_EDGE('',*,*,#1366,.T.);
#1658 = ORIENTED_EDGE('',*,*,#1397,.T.);
#1659 = ORIENTED_EDGE('',*,*,#1428,.T.);
#1660 = ORIENTED_EDGE('',*,*,#1459,.T.);
#1661 = ORIENTED_EDGE('',*,*,#1490,.T.);
#1662 = ORIENTED_EDGE('',*,*,#1521,.T.);
#1663 = ORIENTED_EDGE('',*,*,#1552,.T.);
#1664 = ORIENTED_EDGE('',*,*,#1583,.T.);
#1665 = ORIENTED_EDGE('',*,*,#1614,.T.);
#1666 = PLANE('',#1667);
#1667 = AXIS2_PLACEMENT_3D('',#1668,#1669,#1670);
#1668 = CARTESIAN_POINT('',(-0.6875,-0.730813953488,0.2));
#1669 = DIRECTION('',(0.,0.,-1.));
#1670 = DIRECTION('',(1.,0.,0.));
#1671 = ( GEOMETRIC_REPRESENTATION_CONTEXT(3) 
GLOBAL_UNCERTAINTY_ASSIGNED_CONTEXT((#1675)) 
GLOBAL_UNIT_ASSIGNED_CONTEXT((#1672,#1673,#1674)) REPRESENTATION_CONTEXT
('Context #1','3D Context with UNIT and UNCERTAINTY') );
#1672 = ( LENGTH_UNIT() NAMED_UNIT(*) SI_UNIT(.MILLI.,.METRE.) );
#1673 = ( NAMED_UNIT(*) PLANE_ANGLE_UNIT() SI_UNIT($,.RADIAN.) );
#1674 = ( NAMED_UNIT(*) SI_UNIT($,.STERADIAN.) SOLID_ANGLE_UNIT() );
#1675 = UNCERTAINTY_MEASURE_WITH_UNIT(LENGTH_MEASURE(1.E-07),#1672,
  'distance_accuracy_value','confusion accuracy');
#1676 = SHAPE_DEFINITION_REPRESENTATION(#1677,#1256);
#1677 = PRODUCT_DEFINITION_SHAPE('','',#1678);
#1678 = PRODUCT_DEFINITION('design','',#1679,#1682);
#1679 = PRODUCT_DEFINITION_FORMATION('','',#1680);
#1680 = PRODUCT('Solid004','Solid004','',(#1681));
#1681 = PRODUCT_CONTEXT('',#2,'mechanical');
#1682 = PRODUCT_DEFINITION_CONTEXT('part definition',#2,'design');
#1683 = CONTEXT_DEPENDENT_SHAPE_REPRESENTATION(#1684,#1686);
#1684 = ( REPRESENTATION_RELATIONSHIP('','',#1256,#10) 
REPRESENTATION_RELATIONSHIP_WITH_TRANSFORMATION(#1685) 
SHAPE_REPRESENTATION_RELATIONSHIP() );
#1685 = ITEM_DEFINED_TRANSFORMATION('','',#11,#43);
#1686 = PRODUCT_DEFINITION_SHAPE('Placement','Placement of an item',
  #1687);
#1687 = NEXT_ASSEMBLY_USAGE_OCCURRENCE('8','Solid004','',#5,#1678,$);
#1688 = PRODUCT_RELATED_PRODUCT_CATEGORY('part',$,(#1680));
#1689 = ADVANCED_BREP_SHAPE_REPRESENTATION('',(#11,#1690),#1840);
#1690 = MANIFOLD_SOLID_BREP('',#1691);
#1691 = CLOSED_SHELL('',(#1692,#1732,#1763,#1794,#1816,#1828));
#1692 = ADVANCED_FACE('',(#1693),#1727,.F.);
#1693 = FACE_BOUND('',#1694,.T.);
#1694 = EDGE_LOOP('',(#1695,#1705,#1713,#1721));
#1695 = ORIENTED_EDGE('',*,*,#1696,.T.);
#1696 = EDGE_CURVE('',#1697,#1699,#1701,.T.);
#1697 = VERTEX_POINT('',#1698);
#1698 = CARTESIAN_POINT('',(0.4625,-1.025,0.));
#1699 = VERTEX_POINT('',#1700);
#1700 = CARTESIAN_POINT('',(0.4625,-1.025,0.2));
#1701 = LINE('',#1702,#1703);
#1702 = CARTESIAN_POINT('',(0.4625,-1.025,0.));
#1703 = VECTOR('',#1704,1.);
#1704 = DIRECTION('',(-0.,-0.,1.));
#1705 = ORIENTED_EDGE('',*,*,#1706,.T.);
#1706 = EDGE_CURVE('',#1699,#1707,#1709,.T.);
#1707 = VERTEX_POINT('',#1708);
#1708 = CARTESIAN_POINT('',(0.2625,-1.025,0.2));
#1709 = LINE('',#1710,#1711);
#1710 = CARTESIAN_POINT('',(0.4625,-1.025,0.2));
#1711 = VECTOR('',#1712,1.);
#1712 = DIRECTION('',(-1.,-0.,-0.));
#1713 = ORIENTED_EDGE('',*,*,#1714,.F.);
#1714 = EDGE_CURVE('',#1715,#1707,#1717,.T.);
#1715 = VERTEX_POINT('',#1716);
#1716 = CARTESIAN_POINT('',(0.2625,-1.025,0.));
#1717 = LINE('',#1718,#1719);
#1718 = CARTESIAN_POINT('',(0.2625,-1.025,0.));
#1719 = VECTOR('',#1720,1.);
#1720 = DIRECTION('',(-0.,-0.,1.));
#1721 = ORIENTED_EDGE('',*,*,#1722,.F.);
#1722 = EDGE_CURVE('',#1697,#1715,#1723,.T.);
#1723 = LINE('',#1724,#1725);
#1724 = CARTESIAN_POINT('',(0.4625,-1.025,0.));
#1725 = VECTOR('',#1726,1.);
#1726 = DIRECTION('',(-1.,-0.,-0.));
#1727 = PLANE('',#1728);
#1728 = AXIS2_PLACEMENT_3D('',#1729,#1730,#1731);
#1729 = CARTESIAN_POINT('',(0.4625,-1.025,0.));
#1730 = DIRECTION('',(-0.,1.,-0.));
#1731 = DIRECTION('',(1.,0.,0.));
#1732 = ADVANCED_FACE('',(#1733),#1758,.F.);
#1733 = FACE_BOUND('',#1734,.T.);
#1734 = EDGE_LOOP('',(#1735,#1736,#1744,#1752));
#1735 = ORIENTED_EDGE('',*,*,#1714,.T.);
#1736 = ORIENTED_EDGE('',*,*,#1737,.T.);
#1737 = EDGE_CURVE('',#1707,#1738,#1740,.T.);
#1738 = VERTEX_POINT('',#1739);
#1739 = CARTESIAN_POINT('',(0.2625,-0.625,0.2));
#1740 = LINE('',#1741,#1742);
#1741 = CARTESIAN_POINT('',(0.2625,-1.025,0.2));
#1742 = VECTOR('',#1743,1.);
#1743 = DIRECTION('',(0.,1.,0.));
#1744 = ORIENTED_EDGE('',*,*,#1745,.F.);
#1745 = EDGE_CURVE('',#1746,#1738,#1748,.T.);
#1746 = VERTEX_POINT('',#1747);
#1747 = CARTESIAN_POINT('',(0.2625,-0.625,0.));
#1748 = LINE('',#1749,#1750);
#1749 = CARTESIAN_POINT('',(0.2625,-0.625,0.));
#1750 = VECTOR('',#1751,1.);
#1751 = DIRECTION('',(-0.,-0.,1.));
#1752 = ORIENTED_EDGE('',*,*,#1753,.F.);
#1753 = EDGE_CURVE('',#1715,#1746,#1754,.T.);
#1754 = LINE('',#1755,#1756);
#1755 = CARTESIAN_POINT('',(0.2625,-1.025,0.));
#1756 = VECTOR('',#1757,1.);
#1757 = DIRECTION('',(0.,1.,0.));
#1758 = PLANE('',#1759);
#1759 = AXIS2_PLACEMENT_3D('',#1760,#1761,#1762);
#1760 = CARTESIAN_POINT('',(0.2625,-1.025,0.));
#1761 = DIRECTION('',(1.,-0.,-0.));
#1762 = DIRECTION('',(-0.,-1.,-0.));
#1763 = ADVANCED_FACE('',(#1764),#1789,.F.);
#1764 = FACE_BOUND('',#1765,.T.);
#1765 = EDGE_LOOP('',(#1766,#1767,#1775,#1783));
#1766 = ORIENTED_EDGE('',*,*,#1745,.T.);
#1767 = ORIENTED_EDGE('',*,*,#1768,.T.);
#1768 = EDGE_CURVE('',#1738,#1769,#1771,.T.);
#1769 = VERTEX_POINT('',#1770);
#1770 = CARTESIAN_POINT('',(0.4625,-0.625,0.2));
#1771 = LINE('',#1772,#1773);
#1772 = CARTESIAN_POINT('',(0.2625,-0.625,0.2));
#1773 = VECTOR('',#1774,1.);
#1774 = DIRECTION('',(1.,0.,0.));
#1775 = ORIENTED_EDGE('',*,*,#1776,.F.);
#1776 = EDGE_CURVE('',#1777,#1769,#1779,.T.);
#1777 = VERTEX_POINT('',#1778);
#1778 = CARTESIAN_POINT('',(0.4625,-0.625,0.));
#1779 = LINE('',#1780,#1781);
#1780 = CARTESIAN_POINT('',(0.4625,-0.625,0.));
#1781 = VECTOR('',#1782,1.);
#1782 = DIRECTION('',(-0.,-0.,1.));
#1783 = ORIENTED_EDGE('',*,*,#1784,.F.);
#1784 = EDGE_CURVE('',#1746,#1777,#1785,.T.);
#1785 = LINE('',#1786,#1787);
#1786 = CARTESIAN_POINT('',(0.2625,-0.625,0.));
#1787 = VECTOR('',#1788,1.);
#1788 = DIRECTION('',(1.,0.,0.));
#1789 = PLANE('',#1790);
#1790 = AXIS2_PLACEMENT_3D('',#1791,#1792,#1793);
#1791 = CARTESIAN_POINT('',(0.2625,-0.625,0.));
#1792 = DIRECTION('',(-0.,-1.,-0.));
#1793 = DIRECTION('',(-1.,0.,-0.));
#1794 = ADVANCED_FACE('',(#1795),#1811,.F.);
#1795 = FACE_BOUND('',#1796,.T.);
#1796 = EDGE_LOOP('',(#1797,#1798,#1804,#1805));
#1797 = ORIENTED_EDGE('',*,*,#1776,.T.);
#1798 = ORIENTED_EDGE('',*,*,#1799,.T.);
#1799 = EDGE_CURVE('',#1769,#1699,#1800,.T.);
#1800 = LINE('',#1801,#1802);
#1801 = CARTESIAN_POINT('',(0.4625,-0.625,0.2));
#1802 = VECTOR('',#1803,1.);
#1803 = DIRECTION('',(-0.,-1.,-0.));
#1804 = ORIENTED_EDGE('',*,*,#1696,.F.);
#1805 = ORIENTED_EDGE('',*,*,#1806,.F.);
#1806 = EDGE_CURVE('',#1777,#1697,#1807,.T.);
#1807 = LINE('',#1808,#1809);
#1808 = CARTESIAN_POINT('',(0.4625,-0.625,0.));
#1809 = VECTOR('',#1810,1.);
#1810 = DIRECTION('',(-0.,-1.,-0.));
#1811 = PLANE('',#1812);
#1812 = AXIS2_PLACEMENT_3D('',#1813,#1814,#1815);
#1813 = CARTESIAN_POINT('',(0.4625,-0.625,0.));
#1814 = DIRECTION('',(-1.,-0.,-0.));
#1815 = DIRECTION('',(-0.,1.,-0.));
#1816 = ADVANCED_FACE('',(#1817),#1823,.F.);
#1817 = FACE_BOUND('',#1818,.T.);
#1818 = EDGE_LOOP('',(#1819,#1820,#1821,#1822));
#1819 = ORIENTED_EDGE('',*,*,#1722,.T.);
#1820 = ORIENTED_EDGE('',*,*,#1753,.T.);
#1821 = ORIENTED_EDGE('',*,*,#1784,.T.);
#1822 = ORIENTED_EDGE('',*,*,#1806,.T.);
#1823 = PLANE('',#1824);
#1824 = AXIS2_PLACEMENT_3D('',#1825,#1826,#1827);
#1825 = CARTESIAN_POINT('',(0.3625,-0.825,0.));
#1826 = DIRECTION('',(0.,0.,1.));
#1827 = DIRECTION('',(-1.,-0.,-0.));
#1828 = ADVANCED_FACE('',(#1829),#1835,.T.);
#1829 = FACE_BOUND('',#1830,.F.);
#1830 = EDGE_LOOP('',(#1831,#1832,#1833,#1834));
#1831 = ORIENTED_EDGE('',*,*,#1706,.T.);
#1832 = ORIENTED_EDGE('',*,*,#1737,.T.);
#1833 = ORIENTED_EDGE('',*,*,#1768,.T.);
#1834 = ORIENTED_EDGE('',*,*,#1799,.T.);
#1835 = PLANE('',#1836);
#1836 = AXIS2_PLACEMENT_3D('',#1837,#1838,#1839);
#1837 = CARTESIAN_POINT('',(0.3625,-0.825,0.2));
#1838 = DIRECTION('',(0.,0.,1.));
#1839 = DIRECTION('',(-1.,-0.,-0.));
#1840 = ( GEOMETRIC_REPRESENTATION_CONTEXT(3) 
GLOBAL_UNCERTAINTY_ASSIGNED_CONTEXT((#1844)) 
GLOBAL_UNIT_ASSIGNED_CONTEXT((#1841,#1842,#1843)) REPRESENTATION_CONTEXT
('Context #1','3D Context with UNIT and UNCERTAINTY') );
#1841 = ( LENGTH_UNIT() NAMED_UNIT(*) SI_UNIT(.MILLI.,.METRE.) );
#1842 = ( NAMED_UNIT(*) PLANE_ANGLE_UNIT() SI_UNIT($,.RADIAN.) );
#1843 = ( NAMED_UNIT(*) SI_UNIT($,.STERADIAN.) SOLID_ANGLE_UNIT() );
#1844 = UNCERTAINTY_MEASURE_WITH_UNIT(LENGTH_MEASURE(1.E-07),#1841,
  'distance_accuracy_value','confusion accuracy');
#1845 = SHAPE_DEFINITION_REPRESENTATION(#1846,#1689);
#1846 = PRODUCT_DEFINITION_SHAPE('','',#1847);
#1847 = PRODUCT_DEFINITION('design','',#1848,#1851);
#1848 = PRODUCT_DEFINITION_FORMATION('','',#1849);
#1849 = PRODUCT('Solid005','Solid005','',(#1850));
#1850 = PRODUCT_CONTEXT('',#2,'mechanical');
#1851 = PRODUCT_DEFINITION_CONTEXT('part definition',#2,'design');
#1852 = CONTEXT_DEPENDENT_SHAPE_REPRESENTATION(#1853,#1855);
#1853 = ( REPRESENTATION_RELATIONSHIP('','',#1689,#10) 
REPRESENTATION_RELATIONSHIP_WITH_TRANSFORMATION(#1854) 
SHAPE_REPRESENTATION_RELATIONSHIP() );
#1854 = ITEM_DEFINED_TRANSFORMATION('','',#11,#47);
#1855 = PRODUCT_DEFINITION_SHAPE('Placement','Placement of an item',
  #1856);
#1856 = NEXT_ASSEMBLY_USAGE_OCCURRENCE('9','Solid005','',#5,#1847,$);
#1857 = PRODUCT_RELATED_PRODUCT_CATEGORY('part',$,(#1849));
#1858 = ADVANCED_BREP_SHAPE_REPRESENTATION('',(#11,#1859),#2009);
#1859 = MANIFOLD_SOLID_BREP('',#1860);
#1860 = CLOSED_SHELL('',(#1861,#1901,#1932,#1963,#1985,#1997));
#1861 = ADVANCED_FACE('',(#1862),#1896,.F.);
#1862 = FACE_BOUND('',#1863,.T.);
#1863 = EDGE_LOOP('',(#1864,#1874,#1882,#1890));
#1864 = ORIENTED_EDGE('',*,*,#1865,.T.);
#1865 = EDGE_CURVE('',#1866,#1868,#1870,.T.);
#1866 = VERTEX_POINT('',#1867);
#1867 = CARTESIAN_POINT('',(0.4625,-1.025,0.));
#1868 = VERTEX_POINT('',#1869);
#1869 = CARTESIAN_POINT('',(0.4625,-1.025,0.2));
#1870 = LINE('',#1871,#1872);
#1871 = CARTESIAN_POINT('',(0.4625,-1.025,0.));
#1872 = VECTOR('',#1873,1.);
#1873 = DIRECTION('',(-0.,-0.,1.));
#1874 = ORIENTED_EDGE('',*,*,#1875,.T.);
#1875 = EDGE_CURVE('',#1868,#1876,#1878,.T.);
#1876 = VERTEX_POINT('',#1877);
#1877 = CARTESIAN_POINT('',(0.2625,-1.025,0.2));
#1878 = LINE('',#1879,#1880);
#1879 = CARTESIAN_POINT('',(0.4625,-1.025,0.2));
#1880 = VECTOR('',#1881,1.);
#1881 = DIRECTION('',(-1.,-0.,-0.));
#1882 = ORIENTED_EDGE('',*,*,#1883,.F.);
#1883 = EDGE_CURVE('',#1884,#1876,#1886,.T.);
#1884 = VERTEX_POINT('',#1885);
#1885 = CARTESIAN_POINT('',(0.2625,-1.025,0.));
#1886 = LINE('',#1887,#1888);
#1887 = CARTESIAN_POINT('',(0.2625,-1.025,0.));
#1888 = VECTOR('',#1889,1.);
#1889 = DIRECTION('',(-0.,-0.,1.));
#1890 = ORIENTED_EDGE('',*,*,#1891,.F.);
#1891 = EDGE_CURVE('',#1866,#1884,#1892,.T.);
#1892 = LINE('',#1893,#1894);
#1893 = CARTESIAN_POINT('',(0.4625,-1.025,0.));
#1894 = VECTOR('',#1895,1.);
#1895 = DIRECTION('',(-1.,-0.,-0.));
#1896 = PLANE('',#1897);
#1897 = AXIS2_PLACEMENT_3D('',#1898,#1899,#1900);
#1898 = CARTESIAN_POINT('',(0.4625,-1.025,0.));
#1899 = DIRECTION('',(-0.,1.,-0.));
#1900 = DIRECTION('',(1.,0.,0.));
#1901 = ADVANCED_FACE('',(#1902),#1927,.F.);
#1902 = FACE_BOUND('',#1903,.T.);
#1903 = EDGE_LOOP('',(#1904,#1905,#1913,#1921));
#1904 = ORIENTED_EDGE('',*,*,#1883,.T.);
#1905 = ORIENTED_EDGE('',*,*,#1906,.T.);
#1906 = EDGE_CURVE('',#1876,#1907,#1909,.T.);
#1907 = VERTEX_POINT('',#1908);
#1908 = CARTESIAN_POINT('',(0.2625,-0.625,0.2));
#1909 = LINE('',#1910,#1911);
#1910 = CARTESIAN_POINT('',(0.2625,-1.025,0.2));
#1911 = VECTOR('',#1912,1.);
#1912 = DIRECTION('',(0.,1.,0.));
#1913 = ORIENTED_EDGE('',*,*,#1914,.F.);
#1914 = EDGE_CURVE('',#1915,#1907,#1917,.T.);
#1915 = VERTEX_POINT('',#1916);
#1916 = CARTESIAN_POINT('',(0.2625,-0.625,0.));
#1917 = LINE('',#1918,#1919);
#1918 = CARTESIAN_POINT('',(0.2625,-0.625,0.));
#1919 = VECTOR('',#1920,1.);
#1920 = DIRECTION('',(-0.,-0.,1.));
#1921 = ORIENTED_EDGE('',*,*,#1922,.F.);
#1922 = EDGE_CURVE('',#1884,#1915,#1923,.T.);
#1923 = LINE('',#1924,#1925);
#1924 = CARTESIAN_POINT('',(0.2625,-1.025,0.));
#1925 = VECTOR('',#1926,1.);
#1926 = DIRECTION('',(0.,1.,0.));
#1927 = PLANE('',#1928);
#1928 = AXIS2_PLACEMENT_3D('',#1929,#1930,#1931);
#1929 = CARTESIAN_POINT('',(0.2625,-1.025,0.));
#1930 = DIRECTION('',(1.,-0.,-0.));
#1931 = DIRECTION('',(-0.,-1.,-0.));
#1932 = ADVANCED_FACE('',(#1933),#1958,.F.);
#1933 = FACE_BOUND('',#1934,.T.);
#1934 = EDGE_LOOP('',(#1935,#1936,#1944,#1952));
#1935 = ORIENTED_EDGE('',*,*,#1914,.T.);
#1936 = ORIENTED_EDGE('',*,*,#1937,.T.);
#1937 = EDGE_CURVE('',#1907,#1938,#1940,.T.);
#1938 = VERTEX_POINT('',#1939);
#1939 = CARTESIAN_POINT('',(0.4625,-0.625,0.2));
#1940 = LINE('',#1941,#1942);
#1941 = CARTESIAN_POINT('',(0.2625,-0.625,0.2));
#1942 = VECTOR('',#1943,1.);
#1943 = DIRECTION('',(1.,0.,0.));
#1944 = ORIENTED_EDGE('',*,*,#1945,.F.);
#1945 = EDGE_CURVE('',#1946,#1938,#1948,.T.);
#1946 = VERTEX_POINT('',#1947);
#1947 = CARTESIAN_POINT('',(0.4625,-0.625,0.));
#1948 = LINE('',#1949,#1950);
#1949 = CARTESIAN_POINT('',(0.4625,-0.625,0.));
#1950 = VECTOR('',#1951,1.);
#1951 = DIRECTION('',(-0.,-0.,1.));
#1952 = ORIENTED_EDGE('',*,*,#1953,.F.);
#1953 = EDGE_CURVE('',#1915,#1946,#1954,.T.);
#1954 = LINE('',#1955,#1956);
#1955 = CARTESIAN_POINT('',(0.2625,-0.625,0.));
#1956 = VECTOR('',#1957,1.);
#1957 = DIRECTION('',(1.,0.,0.));
#1958 = PLANE('',#1959);
#1959 = AXIS2_PLACEMENT_3D('',#1960,#1961,#1962);
#1960 = CARTESIAN_POINT('',(0.2625,-0.625,0.));
#1961 = DIRECTION('',(-0.,-1.,-0.));
#1962 = DIRECTION('',(-1.,0.,-0.));
#1963 = ADVANCED_FACE('',(#1964),#1980,.F.);
#1964 = FACE_BOUND('',#1965,.T.);
#1965 = EDGE_LOOP('',(#1966,#1967,#1973,#1974));
#1966 = ORIENTED_EDGE('',*,*,#1945,.T.);
#1967 = ORIENTED_EDGE('',*,*,#1968,.T.);
#1968 = EDGE_CURVE('',#1938,#1868,#1969,.T.);
#1969 = LINE('',#1970,#1971);
#1970 = CARTESIAN_POINT('',(0.4625,-0.625,0.2));
#1971 = VECTOR('',#1972,1.);
#1972 = DIRECTION('',(-0.,-1.,-0.));
#1973 = ORIENTED_EDGE('',*,*,#1865,.F.);
#1974 = ORIENTED_EDGE('',*,*,#1975,.F.);
#1975 = EDGE_CURVE('',#1946,#1866,#1976,.T.);
#1976 = LINE('',#1977,#1978);
#1977 = CARTESIAN_POINT('',(0.4625,-0.625,0.));
#1978 = VECTOR('',#1979,1.);
#1979 = DIRECTION('',(-0.,-1.,-0.));
#1980 = PLANE('',#1981);
#1981 = AXIS2_PLACEMENT_3D('',#1982,#1983,#1984);
#1982 = CARTESIAN_POINT('',(0.4625,-0.625,0.));
#1983 = DIRECTION('',(-1.,-0.,-0.));
#1984 = DIRECTION('',(-0.,1.,-0.));
#1985 = ADVANCED_FACE('',(#1986),#1992,.F.);
#1986 = FACE_BOUND('',#1987,.T.);
#1987 = EDGE_LOOP('',(#1988,#1989,#1990,#1991));
#1988 = ORIENTED_EDGE('',*,*,#1891,.T.);
#1989 = ORIENTED_EDGE('',*,*,#1922,.T.);
#1990 = ORIENTED_EDGE('',*,*,#1953,.T.);
#1991 = ORIENTED_EDGE('',*,*,#1975,.T.);
#1992 = PLANE('',#1993);
#1993 = AXIS2_PLACEMENT_3D('',#1994,#1995,#1996);
#1994 = CARTESIAN_POINT('',(0.3625,-0.825,0.));
#1995 = DIRECTION('',(0.,0.,1.));
#1996 = DIRECTION('',(-1.,-0.,-0.));
#1997 = ADVANCED_FACE('',(#1998),#2004,.T.);
#1998 = FACE_BOUND('',#1999,.F.);
#1999 = EDGE_LOOP('',(#2000,#2001,#2002,#2003));
#2000 = ORIENTED_EDGE('',*,*,#1875,.T.);
#2001 = ORIENTED_EDGE('',*,*,#1906,.T.);
#2002 = ORIENTED_EDGE('',*,*,#1937,.T.);
#2003 = ORIENTED_EDGE('',*,*,#1968,.T.);
#2004 = PLANE('',#2005);
#2005 = AXIS2_PLACEMENT_3D('',#2006,#2007,#2008);
#2006 = CARTESIAN_POINT('',(0.3625,-0.825,0.2));
#2007 = DIRECTION('',(0.,0.,1.));
#2008 = DIRECTION('',(-1.,-0.,-0.));
#2009 = ( GEOMETRIC_REPRESENTATION_CONTEXT(3) 
GLOBAL_UNCERTAINTY_ASSIGNED_CONTEXT((#2013)) 
GLOBAL_UNIT_ASSIGNED_CONTEXT((#2010,#2011,#2012)) REPRESENTATION_CONTEXT
('Context #1','3D Context with UNIT and UNCERTAINTY') );
#2010 = ( LENGTH_UNIT() NAMED_UNIT(*) SI_UNIT(.MILLI.,.METRE.) );
#2011 = ( NAMED_UNIT(*) PLANE_ANGLE_UNIT() SI_UNIT($,.RADIAN.) );
#2012 = ( NAMED_UNIT(*) SI_UNIT($,.STERADIAN.) SOLID_ANGLE_UNIT() );
#2013 = UNCERTAINTY_MEASURE_WITH_UNIT(LENGTH_MEASURE(1.E-07),#2010,
  'distance_accuracy_value','confusion accuracy');
#2014 = SHAPE_DEFINITION_REPRESENTATION(#2015,#1858);
#2015 = PRODUCT_DEFINITION_SHAPE('','',#2016);
#2016 = PRODUCT_DEFINITION('design','',#2017,#2020);
#2017 = PRODUCT_DEFINITION_FORMATION('','',#2018);
#2018 = PRODUCT('Solid006','Solid006','',(#2019));
#2019 = PRODUCT_CONTEXT('',#2,'mechanical');
#2020 = PRODUCT_DEFINITION_CONTEXT('part definition',#2,'design');
#2021 = CONTEXT_DEPENDENT_SHAPE_REPRESENTATION(#2022,#2024);
#2022 = ( REPRESENTATION_RELATIONSHIP('','',#1858,#10) 
REPRESENTATION_RELATIONSHIP_WITH_TRANSFORMATION(#2023) 
SHAPE_REPRESENTATION_RELATIONSHIP() );
#2023 = ITEM_DEFINED_TRANSFORMATION('','',#11,#51);
#2024 = PRODUCT_DEFINITION_SHAPE('Placement','Placement of an item',
  #2025);
#2025 = NEXT_ASSEMBLY_USAGE_OCCURRENCE('10','Solid006','',#5,#2016,$);
#2026 = PRODUCT_RELATED_PRODUCT_CATEGORY('part',$,(#2018));
#2027 = ADVANCED_BREP_SHAPE_REPRESENTATION('',(#11,#2028),#2178);
#2028 = MANIFOLD_SOLID_BREP('',#2029);
#2029 = CLOSED_SHELL('',(#2030,#2070,#2101,#2132,#2154,#2166));
#2030 = ADVANCED_FACE('',(#2031),#2065,.F.);
#2031 = FACE_BOUND('',#2032,.T.);
#2032 = EDGE_LOOP('',(#2033,#2043,#2051,#2059));
#2033 = ORIENTED_EDGE('',*,*,#2034,.T.);
#2034 = EDGE_CURVE('',#2035,#2037,#2039,.T.);
#2035 = VERTEX_POINT('',#2036);
#2036 = CARTESIAN_POINT('',(0.4625,-1.025,0.));
#2037 = VERTEX_POINT('',#2038);
#2038 = CARTESIAN_POINT('',(0.4625,-1.025,0.2));
#2039 = LINE('',#2040,#2041);
#2040 = CARTESIAN_POINT('',(0.4625,-1.025,0.));
#2041 = VECTOR('',#2042,1.);
#2042 = DIRECTION('',(-0.,-0.,1.));
#2043 = ORIENTED_EDGE('',*,*,#2044,.T.);
#2044 = EDGE_CURVE('',#2037,#2045,#2047,.T.);
#2045 = VERTEX_POINT('',#2046);
#2046 = CARTESIAN_POINT('',(0.2625,-1.025,0.2));
#2047 = LINE('',#2048,#2049);
#2048 = CARTESIAN_POINT('',(0.4625,-1.025,0.2));
#2049 = VECTOR('',#2050,1.);
#2050 = DIRECTION('',(-1.,-0.,-0.));
#2051 = ORIENTED_EDGE('',*,*,#2052,.F.);
#2052 = EDGE_CURVE('',#2053,#2045,#2055,.T.);
#2053 = VERTEX_POINT('',#2054);
#2054 = CARTESIAN_POINT('',(0.2625,-1.025,0.));
#2055 = LINE('',#2056,#2057);
#2056 = CARTESIAN_POINT('',(0.2625,-1.025,0.));
#2057 = VECTOR('',#2058,1.);
#2058 = DIRECTION('',(-0.,-0.,1.));
#2059 = ORIENTED_EDGE('',*,*,#2060,.F.);
#2060 = EDGE_CURVE('',#2035,#2053,#2061,.T.);
#2061 = LINE('',#2062,#2063);
#2062 = CARTESIAN_POINT('',(0.4625,-1.025,0.));
#2063 = VECTOR('',#2064,1.);
#2064 = DIRECTION('',(-1.,-0.,-0.));
#2065 = PLANE('',#2066);
#2066 = AXIS2_PLACEMENT_3D('',#2067,#2068,#2069);
#2067 = CARTESIAN_POINT('',(0.4625,-1.025,0.));
#2068 = DIRECTION('',(-0.,1.,-0.));
#2069 = DIRECTION('',(1.,0.,0.));
#2070 = ADVANCED_FACE('',(#2071),#2096,.F.);
#2071 = FACE_BOUND('',#2072,.T.);
#2072 = EDGE_LOOP('',(#2073,#2074,#2082,#2090));
#2073 = ORIENTED_EDGE('',*,*,#2052,.T.);
#2074 = ORIENTED_EDGE('',*,*,#2075,.T.);
#2075 = EDGE_CURVE('',#2045,#2076,#2078,.T.);
#2076 = VERTEX_POINT('',#2077);
#2077 = CARTESIAN_POINT('',(0.2625,-0.625,0.2));
#2078 = LINE('',#2079,#2080);
#2079 = CARTESIAN_POINT('',(0.2625,-1.025,0.2));
#2080 = VECTOR('',#2081,1.);
#2081 = DIRECTION('',(0.,1.,0.));
#2082 = ORIENTED_EDGE('',*,*,#2083,.F.);
#2083 = EDGE_CURVE('',#2084,#2076,#2086,.T.);
#2084 = VERTEX_POINT('',#2085);
#2085 = CARTESIAN_POINT('',(0.2625,-0.625,0.));
#2086 = LINE('',#2087,#2088);
#2087 = CARTESIAN_POINT('',(0.2625,-0.625,0.));
#2088 = VECTOR('',#2089,1.);
#2089 = DIRECTION('',(-0.,-0.,1.));
#2090 = ORIENTED_EDGE('',*,*,#2091,.F.);
#2091 = EDGE_CURVE('',#2053,#2084,#2092,.T.);
#2092 = LINE('',#2093,#2094);
#2093 = CARTESIAN_POINT('',(0.2625,-1.025,0.));
#2094 = VECTOR('',#2095,1.);
#2095 = DIRECTION('',(0.,1.,0.));
#2096 = PLANE('',#2097);
#2097 = AXIS2_PLACEMENT_3D('',#2098,#2099,#2100);
#2098 = CARTESIAN_POINT('',(0.2625,-1.025,0.));
#2099 = DIRECTION('',(1.,-0.,-0.));
#2100 = DIRECTION('',(-0.,-1.,-0.));
#2101 = ADVANCED_FACE('',(#2102),#2127,.F.);
#2102 = FACE_BOUND('',#2103,.T.);
#2103 = EDGE_LOOP('',(#2104,#2105,#2113,#2121));
#2104 = ORIENTED_EDGE('',*,*,#2083,.T.);
#2105 = ORIENTED_EDGE('',*,*,#2106,.T.);
#2106 = EDGE_CURVE('',#2076,#2107,#2109,.T.);
#2107 = VERTEX_POINT('',#2108);
#2108 = CARTESIAN_POINT('',(0.4625,-0.625,0.2));
#2109 = LINE('',#2110,#2111);
#2110 = CARTESIAN_POINT('',(0.2625,-0.625,0.2));
#2111 = VECTOR('',#2112,1.);
#2112 = DIRECTION('',(1.,0.,0.));
#2113 = ORIENTED_EDGE('',*,*,#2114,.F.);
#2114 = EDGE_CURVE('',#2115,#2107,#2117,.T.);
#2115 = VERTEX_POINT('',#2116);
#2116 = CARTESIAN_POINT('',(0.4625,-0.625,0.));
#2117 = LINE('',#2118,#2119);
#2118 = CARTESIAN_POINT('',(0.4625,-0.625,0.));
#2119 = VECTOR('',#2120,1.);
#2120 = DIRECTION('',(-0.,-0.,1.));
#2121 = ORIENTED_EDGE('',*,*,#2122,.F.);
#2122 = EDGE_CURVE('',#2084,#2115,#2123,.T.);
#2123 = LINE('',#2124,#2125);
#2124 = CARTESIAN_POINT('',(0.2625,-0.625,0.));
#2125 = VECTOR('',#2126,1.);
#2126 = DIRECTION('',(1.,0.,0.));
#2127 = PLANE('',#2128);
#2128 = AXIS2_PLACEMENT_3D('',#2129,#2130,#2131);
#2129 = CARTESIAN_POINT('',(0.2625,-0.625,0.));
#2130 = DIRECTION('',(-0.,-1.,-0.));
#2131 = DIRECTION('',(-1.,0.,-0.));
#2132 = ADVANCED_FACE('',(#2133),#2149,.F.);
#2133 = FACE_BOUND('',#2134,.T.);
#2134 = EDGE_LOOP('',(#2135,#2136,#2142,#2143));
#2135 = ORIENTED_EDGE('',*,*,#2114,.T.);
#2136 = ORIENTED_EDGE('',*,*,#2137,.T.);
#2137 = EDGE_CURVE('',#2107,#2037,#2138,.T.);
#2138 = LINE('',#2139,#2140);
#2139 = CARTESIAN_POINT('',(0.4625,-0.625,0.2));
#2140 = VECTOR('',#2141,1.);
#2141 = DIRECTION('',(-0.,-1.,-0.));
#2142 = ORIENTED_EDGE('',*,*,#2034,.F.);
#2143 = ORIENTED_EDGE('',*,*,#2144,.F.);
#2144 = EDGE_CURVE('',#2115,#2035,#2145,.T.);
#2145 = LINE('',#2146,#2147);
#2146 = CARTESIAN_POINT('',(0.4625,-0.625,0.));
#2147 = VECTOR('',#2148,1.);
#2148 = DIRECTION('',(-0.,-1.,-0.));
#2149 = PLANE('',#2150);
#2150 = AXIS2_PLACEMENT_3D('',#2151,#2152,#2153);
#2151 = CARTESIAN_POINT('',(0.4625,-0.625,0.));
#2152 = DIRECTION('',(-1.,-0.,-0.));
#2153 = DIRECTION('',(-0.,1.,-0.));
#2154 = ADVANCED_FACE('',(#2155),#2161,.F.);
#2155 = FACE_BOUND('',#2156,.T.);
#2156 = EDGE_LOOP('',(#2157,#2158,#2159,#2160));
#2157 = ORIENTED_EDGE('',*,*,#2060,.T.);
#2158 = ORIENTED_EDGE('',*,*,#2091,.T.);
#2159 = ORIENTED_EDGE('',*,*,#2122,.T.);
#2160 = ORIENTED_EDGE('',*,*,#2144,.T.);
#2161 = PLANE('',#2162);
#2162 = AXIS2_PLACEMENT_3D('',#2163,#2164,#2165);
#2163 = CARTESIAN_POINT('',(0.3625,-0.825,0.));
#2164 = DIRECTION('',(0.,0.,1.));
#2165 = DIRECTION('',(-1.,-0.,-0.));
#2166 = ADVANCED_FACE('',(#2167),#2173,.T.);
#2167 = FACE_BOUND('',#2168,.F.);
#2168 = EDGE_LOOP('',(#2169,#2170,#2171,#2172));
#2169 = ORIENTED_EDGE('',*,*,#2044,.T.);
#2170 = ORIENTED_EDGE('',*,*,#2075,.T.);
#2171 = ORIENTED_EDGE('',*,*,#2106,.T.);
#2172 = ORIENTED_EDGE('',*,*,#2137,.T.);
#2173 = PLANE('',#2174);
#2174 = AXIS2_PLACEMENT_3D('',#2175,#2176,#2177);
#2175 = CARTESIAN_POINT('',(0.3625,-0.825,0.2));
#2176 = DIRECTION('',(0.,0.,1.));
#2177 = DIRECTION('',(-1.,-0.,-0.));
#2178 = ( GEOMETRIC_REPRESENTATION_CONTEXT(3) 
GLOBAL_UNCERTAINTY_ASSIGNED_CONTEXT((#2182)) 
GLOBAL_UNIT_ASSIGNED_CONTEXT((#2179,#2180,#2181)) REPRESENTATION_CONTEXT
('Context #1','3D Context with UNIT and UNCERTAINTY') );
#2179 = ( LENGTH_UNIT() NAMED_UNIT(*) SI_UNIT(.MILLI.,.METRE.) );
#2180 = ( NAMED_UNIT(*) PLANE_ANGLE_UNIT() SI_UNIT($,.RADIAN.) );
#2181 = ( NAMED_UNIT(*) SI_UNIT($,.STERADIAN.) SOLID_ANGLE_UNIT() );
#2182 = UNCERTAINTY_MEASURE_WITH_UNIT(LENGTH_MEASURE(1.E-07),#2179,
  'distance_accuracy_value','confusion accuracy');
#2183 = SHAPE_DEFINITION_REPRESENTATION(#2184,#2027);
#2184 = PRODUCT_DEFINITION_SHAPE('','',#2185);
#2185 = PRODUCT_DEFINITION('design','',#2186,#2189);
#2186 = PRODUCT_DEFINITION_FORMATION('','',#2187);
#2187 = PRODUCT('Solid007','Solid007','',(#2188));
#2188 = PRODUCT_CONTEXT('',#2,'mechanical');
#2189 = PRODUCT_DEFINITION_CONTEXT('part definition',#2,'design');
#2190 = CONTEXT_DEPENDENT_SHAPE_REPRESENTATION(#2191,#2193);
#2191 = ( REPRESENTATION_RELATIONSHIP('','',#2027,#10) 
REPRESENTATION_RELATIONSHIP_WITH_TRANSFORMATION(#2192) 
SHAPE_REPRESENTATION_RELATIONSHIP() );
#2192 = ITEM_DEFINED_TRANSFORMATION('','',#11,#55);
#2193 = PRODUCT_DEFINITION_SHAPE('Placement','Placement of an item',
  #2194);
#2194 = NEXT_ASSEMBLY_USAGE_OCCURRENCE('11','Solid007','',#5,#2185,$);
#2195 = PRODUCT_RELATED_PRODUCT_CATEGORY('part',$,(#2187));
#2196 = SHAPE_DEFINITION_REPRESENTATION(#1249,#2197);
#2197 = SHAPE_REPRESENTATION('',(#35),#1228);
#2198 = SHAPE_DEFINITION_REPRESENTATION(#1254,#2199);
#2199 = SHAPE_REPRESENTATION('',(#39),#1228);
#2200 = MECHANICAL_DESIGN_GEOMETRIC_PRESENTATION_REPRESENTATION('',(
    #2201),#1059);
#2201 = STYLED_ITEM('color',(#2202),#645);
#2202 = PRESENTATION_STYLE_ASSIGNMENT((#2203,#2209));
#2203 = SURFACE_STYLE_USAGE(.BOTH.,#2204);
#2204 = SURFACE_SIDE_STYLE('',(#2205));
#2205 = SURFACE_STYLE_FILL_AREA(#2206);
#2206 = FILL_AREA_STYLE('',(#2207));
#2207 = FILL_AREA_STYLE_COLOUR('',#2208);
#2208 = COLOUR_RGB('',0.823999987314,0.819999987296,0.781000009244);
#2209 = CURVE_STYLE('',#2210,POSITIVE_LENGTH_MEASURE(0.1),#2211);
#2210 = DRAUGHTING_PRE_DEFINED_CURVE_FONT('continuous');
#2211 = COLOUR_RGB('',9.803921802644E-02,9.803921802644E-02,
  9.803921802644E-02);
#2212 = MECHANICAL_DESIGN_GEOMETRIC_PRESENTATION_REPRESENTATION('',(
    #2213),#1840);
#2213 = STYLED_ITEM('color',(#2214),#1690);
#2214 = PRESENTATION_STYLE_ASSIGNMENT((#2215,#2220));
#2215 = SURFACE_STYLE_USAGE(.BOTH.,#2216);
#2216 = SURFACE_SIDE_STYLE('',(#2217));
#2217 = SURFACE_STYLE_FILL_AREA(#2218);
#2218 = FILL_AREA_STYLE('',(#2219));
#2219 = FILL_AREA_STYLE_COLOUR('',#2208);
#2220 = CURVE_STYLE('',#2221,POSITIVE_LENGTH_MEASURE(0.1),#2211);
#2221 = DRAUGHTING_PRE_DEFINED_CURVE_FONT('continuous');
#2222 = MECHANICAL_DESIGN_GEOMETRIC_PRESENTATION_REPRESENTATION('',(
    #2223),#626);
#2223 = STYLED_ITEM('color',(#2224),#371);
#2224 = PRESENTATION_STYLE_ASSIGNMENT((#2225,#2231));
#2225 = SURFACE_STYLE_USAGE(.BOTH.,#2226);
#2226 = SURFACE_SIDE_STYLE('',(#2227));
#2227 = SURFACE_STYLE_FILL_AREA(#2228);
#2228 = FILL_AREA_STYLE('',(#2229));
#2229 = FILL_AREA_STYLE_COLOUR('',#2230);
#2230 = COLOUR_RGB('',0.147999998088,0.144999993226,0.144999993226);
#2231 = CURVE_STYLE('',#2232,POSITIVE_LENGTH_MEASURE(0.1),#2211);
#2232 = DRAUGHTING_PRE_DEFINED_CURVE_FONT('continuous');
#2233 = MECHANICAL_DESIGN_GEOMETRIC_PRESENTATION_REPRESENTATION('',(
    #2234),#352);
#2234 = STYLED_ITEM('color',(#2235),#202);
#2235 = PRESENTATION_STYLE_ASSIGNMENT((#2236,#2241));
#2236 = SURFACE_STYLE_USAGE(.BOTH.,#2237);
#2237 = SURFACE_SIDE_STYLE('',(#2238));
#2238 = SURFACE_STYLE_FILL_AREA(#2239);
#2239 = FILL_AREA_STYLE('',(#2240));
#2240 = FILL_AREA_STYLE_COLOUR('',#2208);
#2241 = CURVE_STYLE('',#2242,POSITIVE_LENGTH_MEASURE(0.1),#2243);
#2242 = DRAUGHTING_PRE_DEFINED_CURVE_FONT('continuous');
#2243 = DRAUGHTING_PRE_DEFINED_COLOUR('black');
#2244 = MECHANICAL_DESIGN_GEOMETRIC_PRESENTATION_REPRESENTATION('',(
    #2245),#1671);
#2245 = STYLED_ITEM('color',(#2246),#1257);
#2246 = PRESENTATION_STYLE_ASSIGNMENT((#2247,#2252));
#2247 = SURFACE_STYLE_USAGE(.BOTH.,#2248);
#2248 = SURFACE_SIDE_STYLE('',(#2249));
#2249 = SURFACE_STYLE_FILL_AREA(#2250);
#2250 = FILL_AREA_STYLE('',(#2251));
#2251 = FILL_AREA_STYLE_COLOUR('',#2208);
#2252 = CURVE_STYLE('',#2253,POSITIVE_LENGTH_MEASURE(0.1),#2211);
#2253 = DRAUGHTING_PRE_DEFINED_CURVE_FONT('continuous');
#2254 = MECHANICAL_DESIGN_GEOMETRIC_PRESENTATION_REPRESENTATION('',(
    #2255),#2009);
#2255 = STYLED_ITEM('color',(#2256),#1859);
#2256 = PRESENTATION_STYLE_ASSIGNMENT((#2257,#2262));
#2257 = SURFACE_STYLE_USAGE(.BOTH.,#2258);
#2258 = SURFACE_SIDE_STYLE('',(#2259));
#2259 = SURFACE_STYLE_FILL_AREA(#2260);
#2260 = FILL_AREA_STYLE('',(#2261));
#2261 = FILL_AREA_STYLE_COLOUR('',#2208);
#2262 = CURVE_STYLE('',#2263,POSITIVE_LENGTH_MEASURE(0.1),#2211);
#2263 = DRAUGHTING_PRE_DEFINED_CURVE_FONT('continuous');
#2264 = MECHANICAL_DESIGN_GEOMETRIC_PRESENTATION_REPRESENTATION('',(
    #2265),#2178);
#2265 = STYLED_ITEM('color',(#2266),#2028);
#2266 = PRESENTATION_STYLE_ASSIGNMENT((#2267,#2272));
#2267 = SURFACE_STYLE_USAGE(.BOTH.,#2268);
#2268 = SURFACE_SIDE_STYLE('',(#2269));
#2269 = SURFACE_STYLE_FILL_AREA(#2270);
#2270 = FILL_AREA_STYLE('',(#2271));
#2271 = FILL_AREA_STYLE_COLOUR('',#2208);
#2272 = CURVE_STYLE('',#2273,POSITIVE_LENGTH_MEASURE(0.1),#2211);
#2273 = DRAUGHTING_PRE_DEFINED_CURVE_FONT('continuous');
#2274 = MECHANICAL_DESIGN_GEOMETRIC_PRESENTATION_REPRESENTATION('',(
    #2275),#183);
#2275 = STYLED_ITEM('color',(#2276),#66);
#2276 = PRESENTATION_STYLE_ASSIGNMENT((#2277,#2283));
#2277 = SURFACE_STYLE_USAGE(.BOTH.,#2278);
#2278 = SURFACE_SIDE_STYLE('',(#2279));
#2279 = SURFACE_STYLE_FILL_AREA(#2280);
#2280 = FILL_AREA_STYLE('',(#2281));
#2281 = FILL_AREA_STYLE_COLOUR('',#2282);
#2282 = COLOUR_RGB('',0.690999977303,0.663999984767,0.597999987832);
#2283 = CURVE_STYLE('',#2284,POSITIVE_LENGTH_MEASURE(0.1),#2211);
#2284 = DRAUGHTING_PRE_DEFINED_CURVE_FONT('continuous');
#2285 = MECHANICAL_DESIGN_GEOMETRIC_PRESENTATION_REPRESENTATION('',(
    #2286,#2295,#2306),#1228);
#2286 = STYLED_ITEM('color',(#2287),#1078);
#2287 = PRESENTATION_STYLE_ASSIGNMENT((#2288,#2293));
#2288 = SURFACE_STYLE_USAGE(.BOTH.,#2289);
#2289 = SURFACE_SIDE_STYLE('',(#2290));
#2290 = SURFACE_STYLE_FILL_AREA(#2291);
#2291 = FILL_AREA_STYLE('',(#2292));
#2292 = FILL_AREA_STYLE_COLOUR('',#2208);
#2293 = CURVE_STYLE('',#2294,POSITIVE_LENGTH_MEASURE(0.1),#2211);
#2294 = DRAUGHTING_PRE_DEFINED_CURVE_FONT('continuous');
#2295 = OVER_RIDING_STYLED_ITEM('overriding color',(#2296),#1078,#2286);
#2296 = PRESENTATION_STYLE_BY_CONTEXT((#2297,#2303),#2197);
#2297 = SURFACE_STYLE_USAGE(.BOTH.,#2298);
#2298 = SURFACE_SIDE_STYLE('',(#2299));
#2299 = SURFACE_STYLE_FILL_AREA(#2300);
#2300 = FILL_AREA_STYLE('',(#2301));
#2301 = FILL_AREA_STYLE_COLOUR('',#2302);
#2302 = COLOUR_RGB('',0.823999987314,0.819999987296,0.781000009244);
#2303 = CURVE_STYLE('',#2304,POSITIVE_LENGTH_MEASURE(0.1),#2305);
#2304 = DRAUGHTING_PRE_DEFINED_CURVE_FONT('continuous');
#2305 = COLOUR_RGB('',9.803921802644E-02,9.803921802644E-02,
  9.803921802644E-02);
#2306 = OVER_RIDING_STYLED_ITEM('overriding color',(#2307),#1078,#2286);
#2307 = PRESENTATION_STYLE_BY_CONTEXT((#2308,#2313),#2199);
#2308 = SURFACE_STYLE_USAGE(.BOTH.,#2309);
#2309 = SURFACE_SIDE_STYLE('',(#2310));
#2310 = SURFACE_STYLE_FILL_AREA(#2311);
#2311 = FILL_AREA_STYLE('',(#2312));
#2312 = FILL_AREA_STYLE_COLOUR('',#2302);
#2313 = CURVE_STYLE('',#2314,POSITIVE_LENGTH_MEASURE(0.1),#2305);
#2314 = DRAUGHTING_PRE_DEFINED_CURVE_FONT('continuous');
ENDSEC;
END-ISO-10303-21;
